traces_bank_current_trigger/benchmark_traces/matrix_mult_50MHz_3x3/mat_mult_6.csv

#Digilent WaveForms Oscilloscope Acquisition
#Device Name: Discovery2
#Serial Number: SN:210321B3D813
#Date Time: 2023-07-20 17:25:11.985
#Sample rate: 5e+07Hz
#Samples: 8192
#Trigger: Source: Channel 2 Type: Edge Condition: Rising Level: 2 V Hyst.: Auto HoldOff: 0 s
#Channel 1: Range: 10 mV/div Offset: 0 V Attenuation: 1 X Sample Mode: Average
#Channel 2: Range: 5 V/div Offset: 0 V Attenuation: 1 X Sample Mode: Average

Time (s),Channel 1 (V),Channel 2 (V)
-1.909933598937577e-06,0.005783362787813752,0.02479346609537227
-1.889933598937574e-06,0.006451351655170888,-0.004972111060695325
-1.86993359893757e-06,0.006451351655170888,0.01363137466183846
-1.849933598937581e-06,0.006451351655170888,-0.004972111060686867
-1.829933598937578e-06,0.006785346088849456,0.00991067751733847
-1.809933598937574e-06,0.006451351655170888,0.03595555752889761
-1.789933598937571e-06,0.007119340522528024,-0.004972111060695325
-1.769933598937582e-06,0.007119340522528024,-0.004972111060695325
-1.749933598937578e-06,0.007119340522528024,0.006189980372830022
-1.729933598937575e-06,0.008455318257242295,0.01363137466184692
-1.709933598937572e-06,0.008121323823563727,0.02107276895086382
-1.689933598937569e-06,0.007787329389885311,0.0247934660953655
-1.669933598937579e-06,0.008121323823563727,0.00991067751733847
-1.649933598937576e-06,0.008455318257242295,-0.01241350534971222
-1.629933598937573e-06,0.008455318257242295,0.006189980372830022
-1.609933598937569e-06,0.007119340522528176,0.01735207180636214
-1.58993359893758e-06,0.00745333495620644,0.0322348603843824
-1.569933598937577e-06,0.006451351655170888,-0.004972111060695325
-1.549933598937573e-06,0.005115373920456617,-0.004972111060695325
-1.52993359893757e-06,0.005783362787813904,0.01363137466185538
-1.509933598937581e-06,0.006117357221492169,0.0322348603843807
-1.489933598937577e-06,0.007119340522528024,0.01363137466184692
-1.469933598937574e-06,0.006451351655170888,0.006189980372830022
-1.449933598937571e-06,0.006785346088849456,0.00991067751733847
-1.429933598937581e-06,0.006785346088849456,0.02107276895085874
-1.409933598937578e-06,0.006785346088849456,0.02107276895086382
-1.389933598937575e-06,0.00778732938988516,0.02479346609537227
-1.369933598937572e-06,0.006451351655170888,0.01735207180635537
-1.349933598937569e-06,0.00611735722149308,-0.001251413916178416
-1.329933598937579e-06,0.00778732938988516,0.01735207180635537
-1.309933598937576e-06,0.006785346088849456,0.02479346609537227
-1.289933598937573e-06,0.007453334956206592,0.02107276895086382
-1.269933598937569e-06,0.005449368354135488,0.01735207180635199
-1.24993359893758e-06,0.006117357221492017,0.009910677517341853
-1.229933598937577e-06,0.00611735722149232,0.01363137466184692
-1.209933598937573e-06,0.00611735722149232,0.02479346609537227
-1.18993359893757e-06,0.007787329389884704,0.01735207180635029
-1.16993359893758e-06,0.006785346088849911,0.006189980372835097
-1.149933598937577e-06,0.00778732938988516,0.00991067751733847
-1.129933598937574e-06,0.006451351655170888,0.01363137466184692
-1.109933598937571e-06,0.007119340522528024,0.02107276895086382
-1.089933598937581e-06,0.00745333495620644,0.0136313746618503
-1.069933598937578e-06,0.006451351655170888,0.006189980372830022
-1.049933598937575e-06,0.006785346088849456,0.002469283228321573
-1.029933598937572e-06,0.00778732938988516,0.006189980372830022
-1.009933598937568e-06,0.008455318257242902,0.02479346609536888
-9.899335989375788e-07,0.009791295991956567,0.01735207180635537
-9.699335989375756e-07,0.009123307124599432,-0.01241350534971222
-9.499335989375724e-07,0.009123307124599432,-0.01241350534971222
-9.299335989375692e-07,0.007787329389885463,0.01363137466184692
-9.099335989375796e-07,0.008455318257242295,0.01363137466184692
-8.899335989375764e-07,0.008789312690920863,0.00991067751733847
-8.699335989375732e-07,0.008121323823563727,-0.004972111060695325
-8.4993359893757e-07,0.008121323823563727,-0.008692808205193622
-8.299335989375803e-07,0.008121323823563727,0.01363137466183677
-8.099335989375771e-07,0.00611735722149232,0.00991067751733847
-7.899335989375739e-07,0.007119340522528024,0.002469283228321573
-7.699335989375708e-07,0.00611735722149232,0.006189980372830022
-7.499335989375811e-07,0.006451351655170736,0.01363137466184354
-7.299335989375779e-07,0.007119340522528024,0.00991067751733847
-7.099335989375747e-07,0.007119340522528024,0.01735207180635537
-6.899335989375715e-07,0.006785346088849456,0.002469283228321573
-6.699335989375683e-07,0.00645135165517104,-0.001251413916186876
-6.499335989375787e-07,0.006785346088849456,-0.001251413916186876
-6.299335989375755e-07,0.00611735722149232,0.002469283228321573
-6.099335989375723e-07,0.00611735722149232,0.01735207180635537
-5.899335989375691e-07,0.006117357221492624,0.006189980372828329
-5.699335989375794e-07,0.006785346088849456,0.002469283228321573
-5.499335989375762e-07,0.006785346088849456,-0.01241350534971222
-5.299335989375731e-07,0.006785346088849456,0.01363137466184692
-5.099335989375699e-07,0.005783362787814056,0.02107276895086043
-4.899335989375802e-07,0.006451351655170585,0.0136313746618503
-4.69933598937577e-07,0.00611735722149232,0.00991067751733847
-4.499335989375738e-07,0.005449368354135184,0.002469283228321573
-4.299335989375706e-07,0.005449368354135184,0.006189980372830022
-4.09933598937581e-07,0.005115373920456768,0.002469283228323264
-3.899335989375778e-07,0.00611735722149232,0.006189980372830022
-3.699335989375746e-07,0.00611735722149232,0.01363137466184692
-3.499335989375714e-07,0.005783362787813752,0.00991067751733847
-3.299335989375817e-07,0.006117357221492169,0.0247934660953655
-3.099335989375785e-07,0.005115373920456617,0.01363137466184692
-2.899335989375753e-07,0.006451351655170888,0.01363137466184692
-2.699335989375722e-07,0.00611735722149232,0.002469283228321573
-2.49933598937569e-07,0.007119340522528176,-0.0012514139161818
-2.299335989375793e-07,0.007453334956206592,0.00991067751733847
-2.099335989375761e-07,0.005783362787813752,0.00991067751733847
-1.899335989375729e-07,0.00611735722149232,0.006189980372830022
-1.699335989375697e-07,0.005783362787814056,-0.008692808205207158
-1.499335989375801e-07,0.006451351655170585,-0.01613420249421729
-1.299335989375769e-07,0.007453334956206592,0.00991067751733847
-1.099335989375737e-07,0.006785346088849456,0.002469283228321573
-8.993359893757049e-08,0.007119340522527265,0.006189980372821561
-6.993359893758084e-08,0.005449368354135944,-0.01241350534970376
-4.993359893757765e-08,0.006785346088849456,-0.004972111060695325
-2.993359893757445e-08,0.005783362787813752,0.002469283228321573
-9.933598937571252e-09,-0.002232503620471877,0.6052222206386904
1.006640106241839e-08,0.006451351655166939,3.406907170452278
3.006640106242159e-08,0.01212925702770654,3.354817410430434
5.006640106242478e-08,0.007119340522528024,3.347376016141417
7.006640106242798e-08,0.003445401752063777,3.358538107574943
9.006640106243118e-08,0.001107440716315625,3.3436553189969
1.100664010624208e-07,0.005115373920456617,3.325051833274367
1.30066401062424e-07,0.005783362787813752,3.306448347551824
1.500664010624272e-07,0.00778732938988516,3.325051833274367
1.700664010624304e-07,0.005783362787812537,3.339934621852412
1.900664010624201e-07,0.003111407318386424,3.365979501863948
2.100664010624233e-07,0.002443418451028074,3.347376016141417
2.300664010624264e-07,0.005115373920456617,3.332493227563384
2.500664010624296e-07,0.00611735722149232,3.328772530418888
2.700664010624193e-07,0.00611735722149232,3.358538107574929
2.900664010624225e-07,0.003445401752063777,3.369700199008468
3.100664010624257e-07,0.003111407318385209,3.351096713285926
3.300664010624289e-07,0.003445401752063777,3.351096713285926
3.500664010624185e-07,0.004781379486777442,3.336213924707899
3.700664010624217e-07,0.00611735722149232,3.351096713285926
3.900664010624249e-07,0.006785346088849456,3.362258804719451
4.100664010624281e-07,0.006785346088849456,3.362258804719451
4.300664010624313e-07,0.006785346088849608,3.351096713285924
4.50066401062421e-07,0.007119340522528024,3.347376016141417
4.700664010624242e-07,0.008121323823563727,3.369700199008468
4.900664010624273e-07,0.007119340522528024,3.36597950186396
5.100664010624305e-07,0.008121323823563575,3.362258804719449
5.300664010624202e-07,0.007787329389885311,3.358538107574944
5.500664010624234e-07,0.007453334956206592,3.354817410430434
5.700664010624266e-07,0.008455318257242295,3.358538107574943
5.900664010624298e-07,0.007787329389885463,3.388303684731004
6.100664010624194e-07,0.008455318257241991,3.373420896152983
6.300664010624226e-07,0.00778732938988516,3.373420896152977
6.500664010624258e-07,0.006785346088849456,3.362258804719451
6.70066401062429e-07,0.009123307124599432,3.36597950186396
6.900664010624187e-07,0.008789312690921015,3.380862290441986
7.100664010624219e-07,0.009457301558278,3.369700199008468
7.300664010624251e-07,0.008455318257242295,3.377141593297485
7.500664010624282e-07,0.007119340522528024,3.373420896152977
7.700664010624314e-07,0.00812132382356388,3.388303684731004
7.900664010624211e-07,0.008455318257242295,3.373420896152977
8.100664010624243e-07,0.009123307124599432,3.377141593297485
8.300664010624275e-07,0.008121323823563727,3.36597950186396
8.500664010624307e-07,0.006785346088849608,3.362258804719455
8.700664010624203e-07,0.007119340522527873,3.369700199008464
8.900664010624235e-07,0.006785346088849456,3.373420896152977
9.100664010624267e-07,0.007119340522528024,3.369700199008468
9.300664010624299e-07,0.007119340522527873,3.358538107574946
9.500664010624196e-07,0.006785346088849608,3.365979501863956
9.700664010624228e-07,0.007119340522528024,3.380862290441993
9.900664010624259e-07,0.00611735722149232,3.380862290441993
1.010066401062429e-06,0.007453334956206592,3.380862290441993
1.030066401062419e-06,0.006451351655171344,3.369700199008473
1.050066401062422e-06,0.006785346088849456,3.36597950186396
1.070066401062425e-06,0.006451351655170888,3.369700199008468
1.090066401062428e-06,0.006785346088849456,3.380862290441993
1.110066401062432e-06,0.00745333495620644,3.365979501863964
1.130066401062421e-06,0.007119340522528024,3.377141593297485
1.150066401062424e-06,0.006451351655170888,3.358538107574943
1.170066401062428e-06,0.006451351655170888,3.373420896152977
1.190066401062431e-06,0.006785346088849456,3.37342089615298
1.21006640106242e-06,0.006785346088849456,3.380862290441993
1.230066401062424e-06,0.005783362787813752,3.373420896152977
1.250066401062427e-06,0.006451351655170888,3.36597950186396
1.27006640106243e-06,0.006451351655170736,3.380862290441993
1.29006640106242e-06,0.006117357221492472,3.380862290441993
1.310066401062423e-06,0.00778732938988516,3.369700199008468
1.330066401062426e-06,0.006785346088849456,3.369700199008468
1.350066401062429e-06,0.00611735722149232,3.380862290441993
1.370066401062419e-06,0.006785346088849152,3.388303684731007
1.390066401062422e-06,0.007119340522528024,3.38830368473101
1.410066401062425e-06,0.008121323823563727,3.380862290441993
1.430066401062429e-06,0.007119340522528024,3.384582987586502
1.450066401062432e-06,0.006785346088849759,3.37342089615298
1.470066401062421e-06,0.007453334956206592,3.380862290441993
1.490066401062425e-06,0.006785346088849456,3.38830368473101
1.510066401062428e-06,0.007119340522528024,3.392024381875518
1.530066401062431e-06,0.007787329389885008,3.384582987586498
1.550066401062421e-06,0.007453334956206592,3.377141593297485
1.570066401062424e-06,0.00611735722149232,3.38830368473101
1.590066401062427e-06,0.006451351655170888,3.384582987586502
1.61006640106243e-06,0.00778732938988516,3.384582987586504
1.63006640106242e-06,0.00778732938988516,3.388303684731008
1.650066401062423e-06,0.00778732938988516,3.369700199008468
1.670066401062426e-06,0.01012529042563514,3.380862290441993
1.690066401062429e-06,0.009123307124599432,3.384582987586502
1.710066401062419e-06,0.009791295991956264,3.377141593297488
1.730066401062422e-06,0.009791295991956567,3.373420896152977
1.750066401062425e-06,0.008455318257242295,3.369700199008468
1.770066401062429e-06,0.008455318257242295,3.384582987586502
1.790066401062418e-06,0.007453334956207047,3.373420896152981
1.810066401062421e-06,0.009791295991956567,3.36597950186396
1.830066401062425e-06,0.008789312690920863,3.373420896152977
1.850066401062428e-06,0.009457301558278,3.369700199008468
1.870066401062431e-06,0.009457301558278,3.380862290441995
1.890066401062421e-06,0.009457301558278,3.384582987586502
1.910066401062424e-06,0.008789312690920863,3.380862290441993
1.930066401062427e-06,0.008789312690920863,3.380862290441993
1.95006640106243e-06,0.007453334956206744,3.380862290441997
1.97006640106242e-06,0.007787329389885008,3.388303684731007
1.990066401062423e-06,0.006785346088849456,3.38830368473101
2.010066401062426e-06,0.008455318257242295,3.392024381875518
2.03006640106243e-06,0.007453334956205832,3.38830368473101
2.050066401062419e-06,0.005783362787814512,3.38830368473101
2.070066401062422e-06,0.006451351655170888,3.384582987586502
2.090066401062426e-06,0.006785346088849456,3.373420896152977
2.110066401062429e-06,0.008121323823563727,3.373420896152977
2.130066401062418e-06,0.00711934052252848,3.38086229044199
2.150066401062422e-06,0.007119340522528024,3.380862290441993
2.170066401062425e-06,0.007453334956206592,3.369700199008468
2.190066401062428e-06,0.006785346088849456,3.384582987586502
2.210066401062431e-06,0.008121323823563271,3.380862290441985
2.230066401062421e-06,0.007119340522528024,3.362258804719451
2.250066401062424e-06,0.00611735722149232,3.384582987586502
2.270066401062427e-06,0.005449368354135184,3.369700199008468
2.29006640106243e-06,0.00645135165517104,3.373420896152981
2.31006640106242e-06,0.006785346088849304,3.384582987586497
2.330066401062423e-06,0.006785346088849456,3.369700199008468
2.350066401062426e-06,0.006785346088849456,3.373420896152977
2.37006640106243e-06,0.007787329389884553,3.362258804719461
2.390066401062419e-06,0.006451351655171496,3.384582987586492
2.410066401062423e-06,0.006451351655170888,3.369700199008468
2.430066401062426e-06,0.005115373920456617,3.373420896152977
2.450066401062429e-06,0.00611735722149232,3.369700199008468
2.470066401062419e-06,0.006785346088849152,3.388303684731002
2.490066401062422e-06,0.005783362787813752,3.395745079020027
2.510066401062425e-06,0.007119340522528024,3.392024381875518
2.530066401062428e-06,0.006451351655170888,3.373420896152977
2.550066401062431e-06,0.0057833627878136,3.37342089615298
2.570066401062421e-06,0.005449368354135184,3.380862290441993
2.590066401062424e-06,0.005115373920456617,3.38830368473101
2.610066401062427e-06,0.006451351655170888,3.38830368473101
2.630066401062431e-06,0.005783362787814359,3.377141593297487
2.65006640106242e-06,0.007119340522527417,3.380862290441991
2.670066401062423e-06,0.007453334956206592,3.38830368473101
2.690066401062427e-06,0.008455318257242295,3.384582987586502
2.71006640106243e-06,0.007787329389884553,3.384582987586502
2.730066401062419e-06,0.006451351655171496,3.384582987586502
2.750066401062423e-06,0.005783362787813752,3.380862290441993
2.770066401062426e-06,0.007119340522528024,3.392024381875518
2.790066401062429e-06,0.006451351655170888,3.392024381875518
2.810066401062419e-06,0.007119340522527721,3.388303684731012
2.830066401062422e-06,0.005783362787813752,3.380862290441993
2.850066401062425e-06,0.005115373920456617,3.384582987586502
2.870066401062428e-06,0.005783362787813752,3.38830368473101
2.890066401062431e-06,0.005115373920457376,3.399465776164524
2.910066401062421e-06,0.006785346088849456,3.373420896152977
2.930066401062424e-06,0.005449368354135184,3.373420896152977
2.950066401062428e-06,0.005115373920456617,3.377141593297485
2.970066401062431e-06,0.005115373920457072,3.380862290441997
2.99006640106242e-06,0.006117357221491865,3.388303684731007
3.010066401062424e-06,0.006785346088849456,3.384582987586502
3.030066401062427e-06,0.005115373920456617,3.362258804719451
3.05006640106243e-06,0.006117357221492472,3.358538107574947
3.07006640106242e-06,0.006451351655170736,3.369700199008463
3.090066401062423e-06,0.006451351655170888,3.384582987586502
3.110066401062426e-06,0.008121323823563727,3.369700199008468
3.130066401062429e-06,0.007119340522528024,3.373420896152977
3.150066401062419e-06,0.007787329389884856,3.377141593297483
3.170066401062422e-06,0.005783362787813752,3.384582987586502
3.190066401062425e-06,0.005115373920456617,3.38830368473101
3.210066401062428e-06,0.005449368354135184,3.384582987586502
3.230066401062432e-06,0.004781379486778049,3.369700199008471
3.250066401062421e-06,0.004781379486778049,3.377141593297485
3.270066401062424e-06,0.00611735722149232,3.380862290441993
3.290066401062428e-06,0.006451351655170888,3.395745079020027
3.310066401062431e-06,0.006117357221492624,3.37714159329748
3.33006640106242e-06,0.006785346088849456,3.36597950186396
3.350066401062424e-06,0.005115373920456617,3.377141593297485
3.370066401062427e-06,0.00611735722149232,3.380862290441993
3.39006640106243e-06,0.005115373920457376,3.388303684731004
3.41006640106242e-06,0.006785346088848697,3.373420896152983
3.430066401062423e-06,0.005115373920456617,3.380862290441993
3.450066401062426e-06,0.005783362787813752,3.377141593297485
3.470066401062429e-06,0.00611735722149232,3.380862290441993
3.490066401062419e-06,0.007453334956205985,3.388303684731007
3.510066401062422e-06,0.007453334956206592,3.377141593297485
3.530066401062425e-06,0.007453334956206592,3.373420896152977
3.550066401062429e-06,0.006451351655170888,3.373420896152977
3.570066401062418e-06,0.007119340522527721,3.39202438187551
3.590066401062421e-06,0.007453334956206592,3.395745079020027
3.610066401062425e-06,0.007453334956206592,3.377141593297485
3.630066401062428e-06,0.00611735722149232,3.380862290441993
3.650066401062431e-06,0.006451351655171344,3.384582987586505
3.670066401062421e-06,0.007453334956206592,3.392024381875518
3.690066401062424e-06,0.007119340522528024,3.399465776164535
3.710066401062427e-06,0.007453334956206592,3.406907170453553
3.73006640106243e-06,0.007453334956206137,3.406907170453549
3.75006640106242e-06,0.006451351655171344,3.399465776164539
3.770066401062423e-06,0.00778732938988516,3.395745079020027
3.790066401062426e-06,0.00778732938988516,3.410627867598061
3.810066401062429e-06,0.006451351655170888,3.406907170453553
3.830066401062419e-06,0.007119340522527721,3.399465776164539
3.850066401062422e-06,0.006785346088849456,3.392024381875518
3.870066401062425e-06,0.008121323823563727,3.395745079020027
3.890066401062429e-06,0.006785346088849456,3.399465776164535
3.910066401062418e-06,0.00812132382356312,3.406907170453549
3.930066401062422e-06,0.007453334956206592,3.38830368473101
3.950066401062425e-06,0.008121323823563727,3.38830368473101
3.970066401062428e-06,0.008121323823563727,3.406907170453553
3.990066401062431e-06,0.00645135165517104,3.399465776164535
4.010066401062421e-06,0.006785346088849456,3.399465776164535
4.030066401062424e-06,0.005115373920456617,3.38830368473101
4.050066401062427e-06,0.006451351655170888,3.380862290441993
4.07006640106243e-06,0.006117357221492776,3.399465776164532
4.09006640106242e-06,0.007119340522527569,3.392024381875522
4.110066401062423e-06,0.007453334956206592,3.399465776164535
4.130066401062426e-06,0.006451351655170888,3.373420896152977
4.15006640106243e-06,0.007119340522527265,3.369700199008476
4.170066401062419e-06,0.005449368354135944,3.388303684731002
4.190066401062422e-06,0.00611735722149232,3.384582987586502
4.210066401062426e-06,0.00611735722149232,3.373420896152977
4.230066401062429e-06,0.005115373920456617,3.377141593297485
4.250066401062418e-06,0.004781379486778201,3.380862290441991
4.270066401062422e-06,0.005115373920456617,3.38830368473101
4.290066401062425e-06,0.00611735722149232,3.380862290441993
4.310066401062428e-06,0.007119340522528024,3.38830368473101
4.330066401062431e-06,0.006785346088849304,3.380862290441993
4.350066401062421e-06,0.006451351655170888,3.380862290441993
4.370066401062424e-06,0.005783362787813752,3.36597950186396
4.390066401062427e-06,0.005783362787813752,3.38830368473101
4.41006640106243e-06,0.00745333495620568,3.384582987586502
