traces_bank_current_trigger/benchmark_traces/matrix_mult_50MHz_3x3/mat_mult_7.csv

#Digilent WaveForms Oscilloscope Acquisition
#Device Name: Discovery2
#Serial Number: SN:210321B3D813
#Date Time: 2023-07-20 17:30:18.641
#Sample rate: 5e+07Hz
#Samples: 8192
#Trigger: Source: Channel 2 Type: Edge Condition: Rising Level: 2 V Hyst.: Auto HoldOff: 0 s
#Channel 1: Range: 10 mV/div Offset: 0 V Attenuation: 1 X Sample Mode: Average
#Channel 2: Range: 5 V/div Offset: 0 V Attenuation: 1 X Sample Mode: Average

Time (s),Channel 1 (V),Channel 2 (V)
-1.911779859484772e-06,0.007119340522528024,0.01363137466184692
-1.891779859484769e-06,0.006785346088849456,0.02851416323988071
-1.871779859484766e-06,0.006785346088849152,0.01735207180635029
-1.851779859484776e-06,0.006117357221492624,0.006189980372835097
-1.831779859484773e-06,0.005783362787813752,0.006189980372830022
-1.81177985948477e-06,0.007119340522528024,0.002469283228321573
-1.791779859484767e-06,0.006785346088849456,0.02479346609537227
-1.771779859484777e-06,0.00645135165517104,0.01735207180635875
-1.751779859484774e-06,0.006451351655170888,-0.008692808205203774
-1.73177985948477e-06,0.006785346088849456,-0.004972111060695325
-1.711779859484767e-06,0.008789312690920863,-0.01241350534971222
-1.691779859484764e-06,0.009123307124599585,0.01363137466183677
-1.671779859484774e-06,0.009457301558278,-0.008692808205203774
-1.651779859484771e-06,0.009123307124599432,-0.004972111060695325
-1.631779859484768e-06,0.00778732938988516,-0.008692808205203774
-1.611779859484765e-06,0.008455318257241384,-0.004972111060688557
-1.591779859484775e-06,0.0064513516551718,0.009910677517331703
-1.571779859484772e-06,0.007453334956206592,0.006189980372830022
-1.551779859484769e-06,0.007453334956206592,-0.004972111060695325
-1.531779859484766e-06,0.006785346088849456,-0.004972111060690249
-1.511779859484776e-06,0.006785346088849456,0.006189980372824946
-1.491779859484773e-06,0.007453334956206592,0.01363137466184692
-1.47177985948477e-06,0.007453334956206592,0.01735207180635537
-1.451779859484766e-06,0.006785346088849456,0.002469283228321573
-1.431779859484777e-06,0.00645135165517104,0.009910677517335088
-1.411779859484774e-06,0.005449368354135184,0.02107276895086382
-1.39177985948477e-06,0.00611735722149232,0.03223486038438916
-1.371779859484767e-06,0.005783362787813752,0.02479346609537227
-1.351779859484764e-06,0.005783362787813448,0.02107276895086043
-1.331779859484774e-06,0.005115373920456617,0.01363137466184692
-1.311779859484771e-06,0.005449368354135184,0.02851416323988071
-1.291779859484768e-06,0.00611735722149232,0.03595555752889761
-1.271779859484765e-06,0.005783362787813448,0.02851416323987902
-1.251779859484775e-06,0.00511537392045692,0.02479346609537396
-1.231779859484772e-06,0.00611735722149232,0.01363137466184692
-1.211779859484769e-06,0.005783362787813752,0.02107276895086382
-1.191779859484765e-06,0.006117357221492624,0.02851416323988071
-1.171779859484776e-06,0.006785346088849152,0.02851416323988071
-1.151779859484773e-06,0.007453334956206592,0.02851416323988071
-1.131779859484769e-06,0.00611735722149232,0.02107276895086382
-1.111779859484766e-06,0.006785346088849456,0.02107276895086382
-1.091779859484777e-06,0.00812132382356312,0.05083834610691787
-1.071779859484773e-06,0.007453334956206592,0.03595555752889761
-1.05177985948477e-06,0.007453334956206592,0.02107276895086382
-1.031779859484767e-06,0.008121323823563727,0.02107276895086382
-1.011779859484764e-06,0.007787329389885767,0.035955557528901
-9.917798594847742e-07,0.009123307124599432,0.04339695181791451
-9.71779859484771e-07,0.008789312690920863,0.03967625467340606
-9.517798594847678e-07,0.008789312690920863,0.02851416323988071
-9.317798594847646e-07,0.008121323823563575,0.02107276895087566
-9.117798594847749e-07,0.00778732938988516,0.04711764896242296
-8.917798594847718e-07,0.009457301558278,0.03967625467340606
-8.717798594847686e-07,0.009123307124599432,0.03595555752889761
-8.517798594847654e-07,0.007787329389885615,0.02479346609537227
-8.317798594847757e-07,0.008789312690920406,0.02479346609537227
-8.117798594847725e-07,0.008455318257242295,0.03223486038438916
-7.917798594847693e-07,0.008455318257242295,0.03223486038438916
-7.717798594847661e-07,0.008121323823563727,0.02851416323988071
-7.517798594847765e-07,0.008455318257242142,0.01363137466185369
-7.317798594847733e-07,0.008789312690920863,0.03223486038438916
-7.117798594847701e-07,0.007453334956206592,0.03223486038438916
-6.917798594847669e-07,0.008121323823563727,0.03595555752889761
-6.717798594847637e-07,0.00711934052252848,0.04339695181789759
-6.517798594847741e-07,0.008121323823563727,0.006189980372830022
-6.317798594847709e-07,0.008121323823563727,0.006189980372830022
-6.117798594847677e-07,0.007119340522528024,0.02851416323988071
-5.917798594847645e-07,0.008121323823563575,0.03223486038438578
-5.717798594847748e-07,0.00778732938988516,0.02479346609537227
-5.517798594847716e-07,0.008121323823563727,0.002469283228321573
-5.317798594847684e-07,0.00778732938988516,0.006189980372830022
-5.117798594847652e-07,0.008121323823563575,0.006189980372838482
-4.917798594847756e-07,0.007787329389885311,0.02479346609536381
-4.717798594847724e-07,0.006785346088849456,0.01735207180635537
-4.517798594847692e-07,0.007119340522528024,-0.004972111060695325
-4.31779859484766e-07,0.00611735722149232,0.006189980372830022
-4.117798594847763e-07,0.006451351655170736,0.02479346609536381
-3.917798594847732e-07,0.006451351655170888,0.02479346609537227
-3.7177985948477e-07,0.007119340522528024,0.01735207180635537
-3.517798594847668e-07,0.006451351655170888,-0.004972111060695325
-3.317798594847771e-07,0.007119340522527721,-0.004972111060695325
-3.117798594847739e-07,0.00611735722149232,0.01735207180635537
-2.917798594847707e-07,0.007119340522528024,0.01363137466184692
-2.717798594847675e-07,0.007119340522528024,0.002469283228321573
-2.517798594847643e-07,0.007453334956206592,0.002469283228318189
-2.317798594847747e-07,0.007453334956206592,-0.004972111060695325
-2.117798594847715e-07,0.008121323823563727,0.002469283228321573
-1.917798594847683e-07,0.007119340522528024,0.01363137466184692
-1.717798594847651e-07,0.008455318257241839,0.00991067751733001
-1.517798594847754e-07,0.007453334956207047,-0.008692808205195315
-1.317798594847723e-07,0.006451351655170888,-0.01613420249422067
-1.117798594847691e-07,0.007453334956206592,-0.001251413916186876
-9.177985948476586e-08,0.007453334956206744,0.01735207180635199
-7.177985948477622e-08,0.007787329389885008,0.009910677517341853
-5.177985948477302e-08,0.008121323823563727,-0.01613420249422067
-3.177985948476982e-08,0.005783362787813752,-0.01613420249422067
-1.177985948476663e-08,0.004113390619420913,0.1252522889971004
8.220140515223019e-09,0.002109424017350417,3.302727650405871
2.822014051522622e-08,0.01379922919609938,3.310169044696333
4.822014051522941e-08,0.008455318257242295,3.332493227563384
6.822014051523261e-08,0.004113390619420913,3.3399346218524
8.822014051523581e-08,0.0007734462826370567,3.339934621852387
1.082201405152254e-07,0.004781379486778049,3.310169044696333
1.282201405152286e-07,0.007119340522528024,3.310169044696333
1.482201405152318e-07,0.009123307124599432,3.31761043898535
1.68220140515235e-07,0.00578336278781284,3.325051833274375
1.882201405152247e-07,0.003779396185743256,3.3436553189969
2.082201405152279e-07,0.004447385053099481,3.3399346218524
2.282201405152311e-07,0.005115373920456617,3.332493227563384
2.482201405152343e-07,0.007119340522527569,3.328772530418877
2.682201405152239e-07,0.006117357221492776,3.332493227563382
2.882201405152271e-07,0.004447385053099481,3.351096713285926
3.082201405152303e-07,0.003445401752063777,3.3399346218524
3.282201405152335e-07,0.005115373920456617,3.358538107574943
3.482201405152232e-07,0.005449368354135033,3.332493227563396
3.682201405152263e-07,0.005449368354135184,3.336213924707892
3.882201405152295e-07,0.005783362787813752,3.354817410430434
4.082201405152327e-07,0.004447385053099481,3.377141593297485
4.282201405152359e-07,0.005783362787813752,3.373420896152963
4.482201405152256e-07,0.005783362787813752,3.343655318996909
4.682201405152288e-07,0.007119340522528024,3.354817410430434
4.88220140515232e-07,0.007119340522528024,3.369700199008468
5.082201405152352e-07,0.005783362787813752,3.37342089615298
5.282201405152248e-07,0.005783362787813752,3.38086229044199
5.48220140515228e-07,0.006785346088849456,3.354817410430434
5.682201405152312e-07,0.007453334956206592,3.362258804719451
5.882201405152344e-07,0.007453334956206137,3.358538107574947
6.082201405152241e-07,0.006451351655171344,3.369700199008463
6.282201405152272e-07,0.00611735722149232,3.373420896152977
6.482201405152304e-07,0.006785346088849456,3.358538107574943
6.682201405152336e-07,0.007453334956206592,3.347376016141417
6.882201405152233e-07,0.006451351655171344,3.377141593297472
7.082201405152265e-07,0.00778732938988516,3.373420896152977
7.282201405152297e-07,0.006451351655170888,3.377141593297485
7.482201405152329e-07,0.006785346088849456,3.369700199008468
7.682201405152361e-07,0.006117357221492017,3.365979501863961
7.882201405152257e-07,0.005449368354135184,3.369700199008468
8.082201405152289e-07,0.008121323823563727,3.380862290441993
8.282201405152321e-07,0.005783362787813752,3.380862290441993
8.482201405152353e-07,0.006451351655170888,3.373420896152978
8.682201405152249e-07,0.006451351655170888,3.377141593297483
8.882201405152281e-07,0.006785346088849456,3.392024381875518
9.082201405152313e-07,0.006451351655170888,3.38830368473101
9.282201405152345e-07,0.006117357221492624,3.392024381875514
9.482201405152242e-07,0.006785346088849152,3.380862290441998
9.682201405152274e-07,0.005449368354135184,3.373420896152977
9.882201405152306e-07,0.004447385053099481,3.380862290441993
1.008220140515234e-06,0.006451351655170888,3.392024381875518
1.028220140515223e-06,0.005115373920457224,3.403186473309039
1.048220140515227e-06,0.005115373920456617,3.377141593297485
1.06822014051523e-06,0.00611735722149232,3.373420896152977
1.088220140515233e-06,0.00611735722149232,3.38830368473101
1.108220140515236e-06,0.007119340522528328,3.406907170453548
1.128220140515226e-06,0.00778732938988516,3.395745079020027
1.148220140515229e-06,0.007119340522528024,3.384582987586502
1.168220140515232e-06,0.006785346088849456,3.38830368473101
1.188220140515235e-06,0.006117357221493232,3.38830368473102
1.208220140515225e-06,0.008121323823563727,3.410627867598061
1.228220140515228e-06,0.008121323823563727,3.395745079020027
1.248220140515231e-06,0.006785346088849456,3.369700199008468
1.268220140515235e-06,0.006785346088849304,3.384582987586509
1.288220140515224e-06,0.00645135165517104,3.399465776164529
1.308220140515228e-06,0.006785346088849456,3.403186473309044
1.328220140515231e-06,0.005449368354135184,3.406907170453553
1.348220140515234e-06,0.006785346088849456,3.380862290441993
1.368220140515224e-06,0.005783362787814207,3.3845829875865
1.388220140515227e-06,0.005115373920456617,3.38830368473101
1.40822014051523e-06,0.00611735722149232,3.399465776164535
1.428220140515233e-06,0.006785346088849456,3.38830368473101
1.448220140515236e-06,0.007119340522527265,3.392024381875512
1.468220140515226e-06,0.005449368354135184,3.377141593297485
1.488220140515229e-06,0.004781379486778049,3.38830368473101
1.508220140515232e-06,0.005449368354135184,3.38830368473101
1.528220140515236e-06,0.005449368354135033,3.384582987586497
1.548220140515225e-06,0.005115373920456617,3.373420896152977
1.568220140515228e-06,0.004781379486778049,3.369700199008468
1.588220140515232e-06,0.004781379486778049,3.384582987586502
1.608220140515235e-06,0.005783362787814207,3.384582987586505
1.628220140515224e-06,0.006785346088849,3.392024381875515
1.648220140515228e-06,0.006785346088849456,3.377141593297485
1.668220140515231e-06,0.007119340522528024,3.362258804719451
1.688220140515234e-06,0.00611735722149232,3.369700199008468
1.708220140515224e-06,0.008455318257241232,3.399465776164522
1.728220140515227e-06,0.008121323823563727,3.392024381875518
1.74822014051523e-06,0.007453334956206592,3.373420896152977
1.768220140515233e-06,0.006785346088849456,3.380862290441993
1.788220140515223e-06,0.00645135165517104,3.3845829875865
1.808220140515226e-06,0.006785346088849456,3.384582987586502
1.828220140515229e-06,0.007119340522528024,3.395745079020027
1.848220140515233e-06,0.007453334956206592,3.377141593297485
1.868220140515236e-06,0.006785346088849759,3.362258804719466
1.888220140515225e-06,0.007453334956206592,3.395745079020027
1.908220140515229e-06,0.008455318257242295,3.399465776164535
1.928220140515232e-06,0.008121323823563727,3.384582987586502
1.948220140515235e-06,0.007787329389884553,3.377141593297478
1.968220140515225e-06,0.006451351655171496,3.362258804719458
1.988220140515228e-06,0.00611735722149232,3.384582987586502
2.008220140515231e-06,0.006785346088849456,3.377141593297485
2.028220140515234e-06,0.00745333495620644,3.38458298758649
2.048220140515224e-06,0.007119340522528176,3.358538107574955
2.068220140515227e-06,0.007119340522528024,3.354817410430434
2.08822014051523e-06,0.00611735722149232,3.362258804719451
2.108220140515233e-06,0.007119340522528024,3.373420896152977
2.128220140515223e-06,0.006785346088849608,3.377141593297483
2.148220140515226e-06,0.00778732938988516,3.351096713285926
2.168220140515229e-06,0.00778732938988516,3.343655318996909
2.188220140515233e-06,0.00778732938988516,3.362258804719451
2.208220140515236e-06,0.00812132382356312,3.377141593297483
2.228220140515225e-06,0.006785346088849456,3.373420896152977
2.248220140515229e-06,0.006785346088849456,3.354817410430434
2.268220140515232e-06,0.00611735722149232,3.347376016141417
2.288220140515235e-06,0.005115373920457224,3.365979501863964
2.308220140515225e-06,0.00645135165517028,3.37714159329748
2.328220140515228e-06,0.00611735722149232,3.373420896152977
2.348220140515231e-06,0.007453334956206592,3.36597950186396
2.368220140515234e-06,0.007453334956206137,3.354817410430439
2.388220140515224e-06,0.006451351655171344,3.365979501863955
2.408220140515227e-06,0.00611735722149232,3.377141593297485
2.42822014051523e-06,0.00611735722149232,3.380862290441993
2.448220140515234e-06,0.005449368354135184,3.347376016141417
2.468220140515223e-06,0.0057833627878136,3.354817410430431
2.488220140515226e-06,0.005449368354135184,3.369700199008468
2.50822014051523e-06,0.00611735722149232,3.377141593297485
2.528220140515233e-06,0.005783362787813752,3.377141593297485
2.548220140515236e-06,0.006117357221492169,3.365979501863958
2.568220140515226e-06,0.005783362787813752,3.362258804719451
2.588220140515229e-06,0.005115373920456617,3.373420896152977
2.608220140515232e-06,0.00611735722149232,3.38830368473101
2.628220140515235e-06,0.006117357221492624,3.380862290441985
2.648220140515225e-06,0.006785346088849152,3.36225880471946
2.668220140515228e-06,0.00778732938988516,3.354817410430434
2.688220140515231e-06,0.007453334956206592,3.369700199008468
2.708220140515234e-06,0.008455318257241991,3.384582987586505
2.728220140515224e-06,0.007787329389885463,3.392024381875515
2.748220140515227e-06,0.00778732938988516,3.377141593297485
2.76822014051523e-06,0.006785346088849456,3.358538107574943
2.788220140515234e-06,0.006451351655170888,3.377141593297485
2.808220140515223e-06,0.006785346088849304,3.392024381875512
2.828220140515227e-06,0.005115373920456617,3.380862290441993
2.84822014051523e-06,0.005449368354135184,3.369700199008468
2.868220140515233e-06,0.00611735722149232,3.358538107574943
2.888220140515236e-06,0.004447385053099937,3.380862290442
2.908220140515226e-06,0.005449368354135184,3.395745079020027
2.928220140515229e-06,0.005783362787813752,3.38830368473101
2.948220140515232e-06,0.005115373920456617,3.358538107574943
2.968220140515235e-06,0.005783362787813297,3.36970019900847
2.988220140515225e-06,0.004781379486778504,3.373420896152975
3.008220140515228e-06,0.005115373920456617,3.384582987586502
3.028220140515231e-06,0.004447385053099481,3.38830368473101
3.048220140515235e-06,0.004447385053099785,3.369700199008466
3.068220140515224e-06,0.005115373920456313,3.365979501863961
3.088220140515227e-06,0.005783362787813752,3.373420896152977
3.108220140515231e-06,0.006785346088849456,3.384582987586502
3.128220140515234e-06,0.008455318257242295,3.380862290441993
3.148220140515223e-06,0.007453334956207047,3.37342089615298
3.168220140515227e-06,0.006451351655170888,3.373420896152977
3.18822014051523e-06,0.006451351655170888,3.380862290441993
3.208220140515233e-06,0.005783362787813752,3.399465776164535
3.228220140515236e-06,0.0057833627878136,3.399465776164525
3.248220140515226e-06,0.005449368354135184,3.377141593297485
3.268220140515229e-06,0.006785346088849456,3.373420896152977
3.288220140515232e-06,0.006785346088849456,3.395745079020027
3.308220140515235e-06,0.006785346088849456,3.40318647330904
3.328220140515225e-06,0.006785346088849456,3.395745079020027
3.348220140515228e-06,0.00611735722149232,3.380862290441993
3.368220140515232e-06,0.005449368354135184,3.399465776164535
3.388220140515235e-06,0.006451351655170888,3.388303684731017
3.408220140515224e-06,0.006451351655170888,3.403186473309037
3.428220140515228e-06,0.005449368354135184,3.403186473309044
3.448220140515231e-06,0.00611735722149232,3.377141593297485
3.468220140515234e-06,0.005115373920456617,3.369700199008468
3.488220140515224e-06,0.005449368354135033,3.377141593297481
3.508220140515227e-06,0.00778732938988516,3.392024381875518
3.52822014051523e-06,0.006785346088849456,3.38830368473101
3.548220140515233e-06,0.006785346088849456,3.377141593297485
3.568220140515223e-06,0.006785346088849456,3.365979501863964
3.588220140515226e-06,0.00611735722149232,3.384582987586502
3.608220140515229e-06,0.006451351655170888,3.373420896152977
3.628220140515232e-06,0.006451351655170888,3.377141593297485
3.648220140515236e-06,0.005449368354135488,3.365979501863955
3.668220140515225e-06,0.00611735722149232,3.354817410430434
3.688220140515228e-06,0.005115373920456617,3.369700199008468
3.708220140515232e-06,0.005783362787813752,3.369700199008468
3.728220140515235e-06,0.006451351655170585,3.377141593297475
3.748220140515224e-06,0.005783362787814056,3.354817410430444
3.768220140515228e-06,0.006451351655170888,3.358538107574943
3.788220140515231e-06,0.006785346088849456,3.373420896152977
3.808220140515234e-06,0.005783362787813752,3.380862290441993
3.828220140515224e-06,0.006451351655170585,3.369700199008473
3.848220140515227e-06,0.005783362787813752,3.36597950186396
3.86822014051523e-06,0.005115373920456617,3.36597950186396
3.888220140515233e-06,0.004447385053099481,3.377141593297485
3.908220140515223e-06,0.007119340522526809,3.392024381875512
3.928220140515226e-06,0.007119340522528024,3.384582987586502
3.948220140515229e-06,0.005783362787813752,3.362258804719451
3.968220140515233e-06,0.006785346088849456,3.358538107574943
3.988220140515236e-06,0.006451351655170433,3.373420896152985
4.008220140515225e-06,0.005449368354135184,3.392024381875518
4.028220140515229e-06,0.006785346088849456,3.38830368473101
4.048220140515232e-06,0.005783362787813752,3.373420896152977
4.068220140515235e-06,0.006451351655170736,3.37714159329749
4.088220140515225e-06,0.006117357221492472,3.388303684731005
4.108220140515228e-06,0.006785346088849456,3.406907170453553
4.128220140515231e-06,0.006785346088849456,3.395745079020027
4.148220140515234e-06,0.00645135165517104,3.384582987586495
4.168220140515224e-06,0.006785346088849304,3.369700199008475
4.188220140515227e-06,0.007453334956206592,3.377141593297485
4.20822014051523e-06,0.007119340522528024,3.399465776164535
4.228220140515233e-06,0.005783362787813752,3.38830368473101
4.248220140515223e-06,0.006785346088849,3.37714159329749
4.268220140515226e-06,0.006451351655170888,3.369700199008468
4.288220140515229e-06,0.007453334956206592,3.380862290441993
4.308220140515233e-06,0.008455318257242295,3.392024381875518
4.328220140515236e-06,0.009791295991956415,3.395745079020015
4.348220140515226e-06,0.009457301558278,3.369700199008468
4.368220140515229e-06,0.008455318257242295,3.380862290441993
4.388220140515232e-06,0.009123307124599432,3.384582987586502
4.408220140515235e-06,0.009457301558277544,3.403186473309042
