traces_bank_current_trigger/benchmark_traces/matrix_mult_50MHz_3x3/mat_mult_2.csv

#Digilent WaveForms Oscilloscope Acquisition
#Device Name: Discovery2
#Serial Number: SN:210321B3D813
#Date Time: 2023-07-20 17:05:16.778
#Sample rate: 5e+07Hz
#Samples: 8192
#Trigger: Source: Channel 2 Type: Edge Condition: Rising Level: 2 V Hyst.: Auto HoldOff: 0 s
#Channel 1: Range: 10 mV/div Offset: 0 V Attenuation: 1 X Sample Mode: Average
#Channel 2: Range: 5 V/div Offset: 0 V Attenuation: 1 X Sample Mode: Average

Time (s),Channel 1 (V),Channel 2 (V)
-1.91041614123581e-06,0.007119340522528024,0.01735207180635537
-1.890416141235807e-06,0.007119340522528024,0.02851416323988071
-1.870416141235804e-06,0.007119340522528024,0.01735207180635367
-1.850416141235814e-06,0.007119340522528024,0.01363137466184861
-1.830416141235811e-06,0.007453334956206592,0.02479346609537227
-1.810416141235808e-06,0.006785346088849456,0.02851416323988071
-1.790416141235804e-06,0.006785346088849456,0.01735207180635537
-1.770416141235815e-06,0.007119340522527873,0.02851416323987564
-1.750416141235812e-06,0.006785346088849456,0.01363137466184692
-1.730416141235808e-06,0.00778732938988516,0.02851416323988071
-1.710416141235805e-06,0.006451351655170888,0.03223486038438916
-1.690416141235802e-06,0.007453334956206744,0.02851416323987564
-1.670416141235812e-06,0.00778732938988516,0.01735207180635537
-1.650416141235809e-06,0.007119340522528024,0.00991067751733847
-1.630416141235806e-06,0.006785346088849456,0.01735207180635537
-1.610416141235803e-06,0.006117357221492624,0.03595555752889253
-1.590416141235813e-06,0.006785346088849152,0.02479346609537734
-1.57041614123581e-06,0.007453334956206592,0.02107276895086382
-1.550416141235807e-06,0.00611735722149232,0.01363137466184692
-1.530416141235804e-06,0.006451351655171192,0.02851416323987902
-1.510416141235814e-06,0.007119340522527721,0.02479346609537396
-1.490416141235811e-06,0.007453334956206592,0.01735207180635537
-1.470416141235808e-06,0.007119340522528024,0.01363137466184692
-1.450416141235804e-06,0.007453334956206592,-0.001251413916186876
-1.430416141235815e-06,0.005783362787814512,0.01363137466184015
-1.410416141235812e-06,0.006451351655170888,0.01363137466184692
-1.390416141235808e-06,0.007119340522528024,0.00991067751733847
-1.370416141235805e-06,0.007119340522528024,0.01735207180635537
-1.350416141235802e-06,0.006117357221492624,-0.008692808205193622
-1.330416141235812e-06,0.006785346088849456,0.01363137466184692
-1.310416141235809e-06,0.00611735722149232,0.02107276895086382
-1.290416141235806e-06,0.00611735722149232,0.02107276895086382
-1.270416141235803e-06,0.005449368354135033,0.00991067751733001
-1.250416141235813e-06,0.005115373920456768,-0.008692808205195315
-1.23041614123581e-06,0.005449368354135184,0.006189980372830022
-1.210416141235807e-06,0.005449368354135184,0.02107276895086382
-1.190416141235803e-06,0.006451351655170888,0.01363137466184184
-1.170416141235814e-06,0.006451351655170888,0.002469283228326648
-1.150416141235811e-06,0.004447385053099481,0.006189980372830022
-1.130416141235807e-06,0.005783362787813752,0.01363137466184692
-1.110416141235804e-06,0.006785346088849456,0.01363137466184692
-1.090416141235815e-06,0.006117357221492624,0.002469283228326648
-1.070416141235811e-06,0.00611735722149232,0.006189980372830022
-1.050416141235808e-06,0.006451351655170888,-0.004972111060695325
-1.030416141235805e-06,0.006451351655170888,0.006189980372830022
-1.010416141235802e-06,0.0064513516551718,0.009910677517341855
-9.904161412358121e-07,0.008455318257242295,0.01735207180635537
-9.70416141235809e-07,0.007119340522528024,0.002469283228321573
-9.504161412358058e-07,0.008121323823563727,-0.01241350534971222
-9.304161412358026e-07,0.007119340522527417,-0.004972111060688557
-9.104161412358129e-07,0.005783362787813752,0.00991067751733847
-8.904161412358097e-07,0.00778732938988516,0.002469283228321573
-8.704161412358065e-07,0.007119340522528024,0.006189980372830022
-8.504161412358033e-07,0.007453334956206896,0.006189980372833405
-8.304161412358137e-07,0.008121323823563424,0.01363137466184354
-8.104161412358105e-07,0.006451351655170888,0.02107276895086382
-7.904161412358073e-07,0.007119340522528024,0.01735207180635537
-7.704161412358041e-07,0.00611735722149232,0.00991067751733847
-7.504161412358144e-07,0.005449368354135488,-0.004972111060688558
-7.304161412358112e-07,0.006451351655170888,0.00991067751733847
-7.104161412358081e-07,0.00611735722149232,0.01363137466184692
-6.904161412358049e-07,0.007119340522528024,0.02107276895086382
-6.704161412358017e-07,0.006117357221492624,0.01363137466183507
-6.50416141235812e-07,0.006785346088849456,-0.01241350534971222
-6.304161412358088e-07,0.00611735722149232,-0.008692808205203774
-6.104161412358056e-07,0.00611735722149232,0.02851416323988071
-5.904161412358024e-07,0.007453334956206288,0.00991067751733847
-5.704161412358128e-07,0.006785346088849456,0.00991067751733847
-5.504161412358096e-07,0.007119340522528024,0.00991067751733847
-5.304161412358064e-07,0.007119340522528024,0.00991067751733847
-5.104161412358032e-07,0.007119340522528176,0.009910677517341855
-4.904161412358135e-07,0.00745333495620644,0.01735207180635199
-4.704161412358103e-07,0.006451351655170888,0.006189980372830022
-4.504161412358072e-07,0.007119340522528024,0.006189980372830022
-4.30416141235804e-07,0.00611735722149232,0.00991067751733847
-4.104161412358143e-07,0.006451351655170736,-0.004972111060688558
-3.904161412358111e-07,0.006451351655170888,0.01735207180635537
-3.704161412358079e-07,0.006785346088849456,0.006189980372830022
-3.504161412358047e-07,0.00778732938988516,-0.01241350534971222
-3.304161412358151e-07,0.00778732938988516,0.01363137466183507
-3.104161412358119e-07,0.00611735722149232,0.02107276895086382
-2.904161412358087e-07,0.008121323823563727,0.006189980372830022
-2.704161412358055e-07,0.006785346088849456,0.01735207180635537
-2.504161412358023e-07,0.008121323823562817,0.002469283228321573
-2.304161412358126e-07,0.00611735722149232,0.002469283228321573
-2.104161412358095e-07,0.007453334956206592,0.02479346609537227
-1.904161412358063e-07,0.008455318257242295,-0.001251413916186876
-1.704161412358031e-07,0.006785346088849608,-0.001251413916186876
-1.504161412358134e-07,0.007119340522527873,-0.001251413916186876
-1.304161412358102e-07,0.007119340522528024,0.00991067751733847
-1.10416141235807e-07,0.00611735722149232,0.02107276895086382
-9.041614123580382e-08,0.007787329389885008,0.006189980372828329
-7.041614123581418e-08,0.007453334956206744,0.002469283228323264
-5.041614123581098e-08,0.00611735722149232,-0.004972111060695325
-3.041614123580779e-08,0.005449368354135184,0.01735207180635537
-1.041614123580459e-08,-0.0002285370184004695,0.4601150320028608
9.583858764185054e-09,0.005115373920454186,3.410627867596719
2.958385876418825e-08,0.01179526259402797,3.377141593297485
4.958385876419145e-08,0.00778732938988516,3.36597950186396
6.958385876419464e-08,0.005115373920456617,3.373420896152977
8.958385876419784e-08,0.0001054574152803766,3.369700199008456
1.095838587641875e-07,0.005115373920456617,3.343655318996909
1.295838587641907e-07,0.007119340522528024,3.336213924707892
1.495838587641939e-07,0.00778732938988516,3.3399346218524
1.695838587641971e-07,0.006117357221491561,3.358538107574944
1.895838587641867e-07,0.004447385053100241,3.362258804719449
2.095838587641899e-07,0.003445401752063777,3.354817410430434
2.295838587641931e-07,0.005783362787813752,3.336213924707892
2.495838587641963e-07,0.006451351655170736,3.32133113612987
2.69583858764186e-07,0.006117357221492472,3.347376016141405
2.895838587641891e-07,0.003779396185742345,3.369700199008468
3.095838587641923e-07,0.005783362787813752,3.36597950186396
3.295838587641955e-07,0.00611735722149232,3.343655318996909
3.495838587641852e-07,0.00611735722149232,3.351096713285922
3.695838587641884e-07,0.008121323823563727,3.354817410430434
3.895838587641916e-07,0.006785346088849456,3.369700199008468
4.095838587641948e-07,0.00611735722149232,3.369700199008468
4.29583858764198e-07,0.006117357221492624,3.362258804719446
4.495838587641876e-07,0.006785346088849456,3.351096713285926
4.695838587641908e-07,0.00778732938988516,3.36597950186396
4.89583858764194e-07,0.006451351655170888,3.384582987586502
5.095838587641972e-07,0.007119340522527873,3.380862290441983
5.295838587641869e-07,0.006785346088849608,3.358538107574953
5.4958385876419e-07,0.00611735722149232,3.362258804719451
5.695838587641932e-07,0.007119340522528024,3.369700199008468
5.895838587641964e-07,0.00611735722149308,3.384582987586498
6.095838587641861e-07,0.0077873293898844,3.377141593297488
6.295838587641893e-07,0.006785346088849456,3.377141593297485
6.495838587641925e-07,0.006451351655170888,3.36597950186396
6.695838587641957e-07,0.008455318257242295,3.373420896152977
6.895838587641853e-07,0.007453334956207047,3.38086229044199
7.095838587641885e-07,0.008789312690920863,3.38830368473101
7.295838587641917e-07,0.007119340522528024,3.377141593297485
7.495838587641949e-07,0.008121323823563727,3.369700199008468
7.695838587641981e-07,0.009457301558277696,3.373420896152983
7.895838587641878e-07,0.008789312690920863,3.38830368473101
8.095838587641909e-07,0.009123307124599432,3.392024381875518
8.295838587641941e-07,0.007119340522528024,3.377141593297485
8.495838587641973e-07,0.007119340522528176,3.377141593297488
8.69583858764187e-07,0.00745333495620644,3.384582987586498
8.895838587641902e-07,0.008121323823563727,3.384582987586502
9.095838587641934e-07,0.009123307124599432,3.38830368473101
9.295838587641966e-07,0.009457301558276785,3.380862290441991
9.495838587641862e-07,0.006785346088850671,3.377141593297487
9.695838587641894e-07,0.008121323823563727,3.377141593297485
9.895838587641926e-07,0.007119340522528024,3.392024381875518
1.009583858764196e-06,0.007119340522528024,3.392024381875518
1.029583858764185e-06,0.006785346088849608,3.392024381875518
1.049583858764189e-06,0.005449368354135184,3.377141593297485
1.069583858764192e-06,0.007119340522528024,3.38830368473101
1.089583858764195e-06,0.00611735722149232,3.399465776164535
1.109583858764198e-06,0.007453334956207047,3.399465776164532
1.129583858764188e-06,0.008455318257242295,3.392024381875518
1.149583858764191e-06,0.00778732938988516,3.38830368473101
1.169583858764194e-06,0.008121323823563727,3.399465776164535
1.189583858764197e-06,0.007453334956207199,3.403186473309044
1.209583858764187e-06,0.008789312690920863,3.403186473309044
1.22958385876419e-06,0.008121323823563727,3.392024381875518
1.249583858764194e-06,0.007453334956206592,3.380862290441993
1.269583858764197e-06,0.007787329389885311,3.392024381875522
1.289583858764186e-06,0.008121323823563575,3.399465776164532
1.30958385876419e-06,0.009457301558278,3.403186473309044
1.329583858764193e-06,0.008789312690920863,3.395745079020027
1.349583858764196e-06,0.00778732938988516,3.384582987586502
1.369583858764186e-06,0.008121323823563575,3.388303684731008
1.389583858764189e-06,0.00778732938988516,3.406907170453553
1.409583858764192e-06,0.009123307124599432,3.399465776164535
1.429583858764195e-06,0.008121323823563727,3.38830368473101
1.449583858764198e-06,0.00778732938988516,3.37342089615299
1.469583858764188e-06,0.00778732938988516,3.403186473309044
1.489583858764191e-06,0.007453334956206592,3.392024381875518
1.509583858764194e-06,0.009123307124599432,3.38830368473101
1.529583858764198e-06,0.006785346088849608,3.388303684731014
1.549583858764187e-06,0.007119340522528024,3.395745079020027
1.56958385876419e-06,0.006451351655170888,3.395745079020027
1.589583858764194e-06,0.007119340522528024,3.384582987586502
1.609583858764197e-06,0.007119340522528328,3.403186473309037
1.629583858764186e-06,0.007787329389884856,3.388303684731017
1.64958385876419e-06,0.008121323823563727,3.384582987586502
1.669583858764193e-06,0.007453334956206592,3.377141593297485
1.689583858764196e-06,0.006785346088849456,3.392024381875518
1.709583858764186e-06,0.007453334956206288,3.392024381875518
1.729583858764189e-06,0.00778732938988516,3.380862290441993
1.749583858764192e-06,0.007453334956206592,3.373420896152977
1.769583858764195e-06,0.007453334956206592,3.380862290441993
1.789583858764185e-06,0.006117357221492929,3.399465776164527
1.809583858764188e-06,0.006785346088849456,3.392024381875518
1.829583858764191e-06,0.006451351655170888,3.38830368473101
1.849583858764195e-06,0.006785346088849456,3.380862290441993
1.869583858764198e-06,0.006451351655170433,3.377141593297498
1.889583858764187e-06,0.005449368354135184,3.406907170453553
1.909583858764191e-06,0.006785346088849456,3.38830368473101
1.929583858764194e-06,0.006451351655170888,3.38830368473101
1.949583858764197e-06,0.005783362787814207,3.380862290442
1.969583858764187e-06,0.006785346088849,3.395745079020021
1.98958385876419e-06,0.006451351655170888,3.406907170453553
2.009583858764193e-06,0.007119340522528024,3.392024381875518
2.029583858764196e-06,0.006451351655170433,3.392024381875518
2.049583858764186e-06,0.00544936835413564,3.392024381875518
2.069583858764189e-06,0.00611735722149232,3.38830368473101
2.089583858764192e-06,0.005449368354135184,3.418069261887078
2.109583858764195e-06,0.00611735722149232,3.395745079020027
2.129583858764185e-06,0.006785346088849152,3.39202438187552
2.149583858764188e-06,0.006785346088849456,3.38830368473101
2.169583858764191e-06,0.00778732938988516,3.395745079020027
2.189583858764195e-06,0.007119340522528024,3.41434856474257
2.209583858764198e-06,0.00745333495620644,3.399465776164532
2.229583858764188e-06,0.007119340522528024,3.392024381875518
2.249583858764191e-06,0.007119340522528024,3.403186473309044
2.269583858764194e-06,0.007453334956206592,3.399465776164535
2.289583858764197e-06,0.006785346088850216,3.395745079020025
2.309583858764187e-06,0.008455318257241535,3.39202438187552
2.32958385876419e-06,0.00778732938988516,3.392024381875518
2.349583858764193e-06,0.008121323823563727,3.395745079020027
2.369583858764196e-06,0.008789312690920406,3.392024381875523
2.389583858764186e-06,0.007787329389885615,3.403186473309039
2.409583858764189e-06,0.007119340522528024,3.403186473309044
2.429583858764192e-06,0.007453334956206592,3.392024381875518
2.449583858764196e-06,0.006451351655170888,3.377141593297485
2.469583858764185e-06,0.006117357221492472,3.392024381875512
2.489583858764188e-06,0.00611735722149232,3.41434856474257
2.509583858764192e-06,0.00611735722149232,3.392024381875518
2.529583858764195e-06,0.005449368354135184,3.384582987586502
2.549583858764198e-06,0.007119340522527265,3.38830368473101
2.569583858764188e-06,0.005449368354135184,3.38830368473101
2.589583858764191e-06,0.005115373920456617,3.384582987586502
2.609583858764194e-06,0.00611735722149232,3.38830368473101
2.629583858764197e-06,0.005783362787813448,3.388303684731007
2.649583858764187e-06,0.00511537392045692,3.380862290441997
2.66958385876419e-06,0.005783362787813752,3.36597950186396
2.689583858764193e-06,0.008455318257242295,3.384582987586502
2.709583858764196e-06,0.009457301558277089,3.392024381875515
2.729583858764186e-06,0.007453334956207503,3.384582987586505
2.749583858764189e-06,0.005783362787813752,3.373420896152977
2.769583858764193e-06,0.00778732938988516,3.373420896152977
2.789583858764196e-06,0.008121323823563727,3.384582987586502
2.809583858764185e-06,0.00711934052252848,3.380862290441995
2.829583858764189e-06,0.005115373920456617,3.384582987586502
2.849583858764192e-06,0.00611735722149232,3.373420896152977
2.869583858764195e-06,0.007119340522528024,3.369700199008468
2.889583858764198e-06,0.007119340522527873,3.373420896152978
2.909583858764188e-06,0.006785346088849456,3.377141593297485
2.929583858764191e-06,0.005449368354135184,3.373420896152977
2.949583858764194e-06,0.005783362787813752,3.373420896152977
2.969583858764197e-06,0.007119340522527873,3.380862290441993
2.989583858764187e-06,0.006785346088849608,3.380862290441993
3.00958385876419e-06,0.008789312690920863,3.380862290441993
3.029583858764193e-06,0.008455318257242295,3.377141593297485
3.049583858764197e-06,0.00745333495620644,3.373420896152977
3.069583858764186e-06,0.007119340522528176,3.373420896152977
3.089583858764189e-06,0.00778732938988516,3.384582987586502
3.109583858764193e-06,0.009457301558278,3.377141593297485
3.129583858764196e-06,0.0104592848593137,3.380862290441993
3.149583858764185e-06,0.008455318257243206,3.369700199008473
3.169583858764189e-06,0.008121323823563727,3.369700199008468
3.189583858764192e-06,0.007453334956206592,3.377141593297485
3.209583858764195e-06,0.009457301558278,3.377141593297485
3.229583858764198e-06,0.007453334956207352,3.373420896152977
3.249583858764188e-06,0.009123307124599432,3.373420896152977
3.269583858764191e-06,0.009457301558278,3.373420896152977
3.289583858764194e-06,0.008121323823563727,3.377141593297485
3.309583858764198e-06,0.01012529042563438,3.380862290441986
3.329583858764187e-06,0.008455318257242295,3.36597950186396
3.34958385876419e-06,0.007119340522528024,3.358538107574943
3.369583858764194e-06,0.008455318257242295,3.377141593297485
3.389583858764197e-06,0.00778732938988516,3.37342089615298
3.409583858764186e-06,0.00778732938988516,3.38086229044199
3.42958385876419e-06,0.00611735722149232,3.373420896152977
3.449583858764193e-06,0.006451351655170888,3.358538107574943
3.469583858764196e-06,0.007453334956206592,3.369700199008468
3.489583858764186e-06,0.006785346088849759,3.395745079020015
3.509583858764189e-06,0.008121323823563727,3.38830368473101
3.529583858764192e-06,0.008455318257242295,3.369700199008468
3.549583858764195e-06,0.008455318257242295,3.36597950186396
3.569583858764185e-06,0.007787329389885463,3.373420896152973
3.589583858764188e-06,0.008455318257242295,3.392024381875518
3.609583858764191e-06,0.008455318257242295,3.392024381875518
3.629583858764194e-06,0.008121323823563727,3.373420896152977
3.649583858764198e-06,0.006451351655171344,3.369700199008475
3.669583858764187e-06,0.007453334956206592,3.384582987586502
3.68958385876419e-06,0.00778732938988516,3.384582987586502
3.709583858764194e-06,0.007453334956206592,3.395745079020027
3.729583858764197e-06,0.006785346088849911,3.388303684731007
3.749583858764187e-06,0.007787329389884704,3.380862290441997
3.76958385876419e-06,0.007453334956206592,3.38830368473101
3.789583858764193e-06,0.00778732938988516,3.392024381875518
3.809583858764196e-06,0.006785346088849456,3.38830368473101
3.829583858764186e-06,0.007453334956206288,3.37714159329749
3.849583858764189e-06,0.006785346088849456,3.380862290441993
3.869583858764192e-06,0.006785346088849456,3.399465776164535
3.889583858764195e-06,0.006785346088849456,3.392024381875518
3.909583858764185e-06,0.008455318257241535,3.395745079020025
3.929583858764188e-06,0.007119340522528024,3.377141593297485
3.949583858764191e-06,0.00778732938988516,3.36597950186396
3.969583858764195e-06,0.006785346088849456,3.373420896152977
3.989583858764198e-06,0.006785346088849911,3.3845829875865
4.009583858764187e-06,0.00778732938988516,3.380862290441993
4.029583858764191e-06,0.00611735722149232,3.373420896152977
4.049583858764194e-06,0.005449368354135184,3.354817410430434
4.069583858764197e-06,0.006451351655170128,3.362258804719458
4.089583858764187e-06,0.004781379486778809,3.377141593297478
4.10958385876419e-06,0.006785346088849456,3.380862290441993
4.129583858764193e-06,0.005449368354135184,3.373420896152977
4.149583858764196e-06,0.00611735722149232,3.358538107574949
4.169583858764186e-06,0.00611735722149232,3.37342089615297
4.189583858764189e-06,0.00611735722149232,3.380862290441993
4.209583858764192e-06,0.006451351655170888,3.373420896152977
4.229583858764195e-06,0.005449368354135184,3.373420896152977
4.249583858764185e-06,0.0057833627878136,3.358538107574949
4.269583858764188e-06,0.005449368354135184,3.36597950186396
4.289583858764192e-06,0.005449368354135184,3.373420896152977
4.309583858764195e-06,0.008789312690920863,3.373420896152977
4.329583858764198e-06,0.008121323823563727,3.365979501863955
4.349583858764188e-06,0.008121323823563727,3.354817410430434
4.369583858764191e-06,0.007119340522528024,3.362258804719451
4.389583858764194e-06,0.006785346088849456,3.369700199008468
4.409583858764197e-06,0.007453334956205985,3.373420896152977
