traces_bank_current_trigger/benchmark_traces/matrix_mult_50MHz_3x3/mat_mult_1.csv

#Digilent WaveForms Oscilloscope Acquisition
#Device Name: Discovery2
#Serial Number: SN:210321B3D813
#Date Time: 2023-07-20 17:00:08.798
#Sample rate: 5e+07Hz
#Samples: 8192
#Trigger: Source: Channel 2 Type: Edge Condition: Rising Level: 2 V Hyst.: Auto HoldOff: 0 s
#Channel 1: Range: 10 mV/div Offset: 0 V Attenuation: 1 X Sample Mode: Average
#Channel 2: Range: 5 V/div Offset: 0 V Attenuation: 1 X Sample Mode: Average

Time (s),Channel 1 (V),Channel 2 (V)
-1.909027576197387e-06,0.007453334956206592,0.02107276895086382
-1.889027576197383e-06,0.006451351655170888,0.01363137466184692
-1.86902757619738e-06,0.005449368354135336,0.00991067751733847
-1.849027576197391e-06,0.0057833627878136,0.00991067751733847
-1.829027576197387e-06,0.00611735722149232,0.00991067751733847
-1.809027576197384e-06,0.006451351655170888,0.00991067751733847
-1.789027576197381e-06,0.008121323823563727,0.00991067751733847
-1.769027576197391e-06,0.006117357221493232,-0.0012514139161818
-1.749027576197388e-06,0.007119340522528024,-0.001251413916186876
-1.729027576197385e-06,0.008121323823563727,0.01735207180635537
-1.709027576197382e-06,0.007119340522528024,0.01735207180635537
-1.689027576197379e-06,0.008121323823563727,-0.008692808205197007
-1.669027576197389e-06,0.008121323823563727,0.006189980372830022
-1.649027576197386e-06,0.007119340522528024,-0.004972111060695325
-1.629027576197382e-06,0.006785346088849456,0.01363137466184692
-1.609027576197379e-06,0.005449368354135488,0.02479346609536211
-1.58902757619739e-06,0.006117357221492017,0.002469283228331724
-1.569027576197386e-06,0.004447385053099481,0.006189980372830022
-1.549027576197383e-06,0.005115373920456617,0.002469283228321573
-1.52902757619738e-06,0.005115373920456313,0.02851416323987733
-1.50902757619739e-06,0.004447385053099785,0.0210727689508672
-1.489027576197387e-06,0.005449368354135184,0.01735207180635537
-1.469027576197384e-06,0.006451351655170888,0.00991067751733847
-1.449027576197381e-06,0.005449368354135184,0.006189980372830022
-1.429027576197391e-06,0.005115373920456768,0.01735207180635029
-1.409027576197388e-06,0.004781379486778049,0.02851416323988071
-1.389027576197385e-06,0.005783362787813752,0.00991067751733847
-1.369027576197382e-06,0.004781379486778049,0.01363137466184692
-1.349027576197378e-06,0.005783362787813752,0.01363137466184861
-1.329027576197389e-06,0.005783362787813752,0.01735207180635537
-1.309027576197386e-06,0.005449368354135184,0.02479346609537227
-1.289027576197382e-06,0.004781379486778049,0.02107276895086382
-1.269027576197379e-06,0.004781379486777594,0.006189980372830022
-1.249027576197389e-06,0.0037793961857428,0.006189980372830022
-1.229027576197386e-06,0.005783362787813752,0.00991067751733847
-1.209027576197383e-06,0.005449368354135184,0.01735207180635537
-1.18902757619738e-06,0.005783362787813904,-0.01241350534971391
-1.16902757619739e-06,0.006117357221492169,-0.01613420249421898
-1.149027576197387e-06,0.005783362787813752,-0.02357559678323757
-1.129027576197384e-06,0.006451351655170888,-0.001251413916186876
-1.109027576197381e-06,0.007453334956206592,0.01363137466184692
-1.089027576197391e-06,0.007119340522528176,-0.01985489963871389
-1.069027576197388e-06,0.008455318257242295,-0.01613420249422067
-1.049027576197385e-06,0.008121323823563727,-0.02357559678323757
-1.029027576197381e-06,0.009123307124599432,-0.001251413916186876
-1.009027576197378e-06,0.008121323823564335,-0.004972111060697017
-9.890275761973886e-07,0.009457301558278,-0.008692808205203774
-9.690275761973854e-07,0.01012529042563514,-0.01613420249422067
-9.490275761973822e-07,0.008121323823563727,-0.02357559678323757
-9.29027576197379e-07,0.009123307124598672,0.006189980372833405
-9.090275761973894e-07,0.007453334956206592,0.01363137466184692
-8.890275761973862e-07,0.008121323823563727,-0.004972111060695325
-8.69027576197383e-07,0.00778732938988516,-0.01613420249422067
-8.490275761973798e-07,0.007453334956206744,-0.01241350534971053
-8.290275761973901e-07,0.007787329389885008,-0.008692808205205465
-8.090275761973869e-07,0.00778732938988516,-0.001251413916186876
-7.890275761973837e-07,0.007119340522528024,-0.008692808205203774
-7.690275761973805e-07,0.005783362787813752,-0.008692808205203774
-7.490275761973909e-07,0.006451351655170585,-0.01613420249421729
-7.290275761973877e-07,0.007453334956206592,-0.004972111060695325
-7.090275761973845e-07,0.00611735722149232,0.002469283228321573
-6.890275761973813e-07,0.007119340522528024,0.006189980372830022
-6.690275761973781e-07,0.006785346088849456,-0.004972111060695325
-6.490275761973885e-07,0.006785346088849456,-0.004972111060695325
-6.290275761973853e-07,0.006785346088849456,0.006189980372830022
-6.090275761973821e-07,0.006451351655170888,0.01735207180635537
-5.890275761973789e-07,0.00812132382356312,0.02107276895085705
-5.690275761973892e-07,0.006785346088849456,0.006189980372830022
-5.49027576197386e-07,0.006785346088849456,0.006189980372830022
-5.290275761973828e-07,0.006785346088849456,0.01363137466184692
-5.090275761973796e-07,0.008455318257241839,0.03595555752888746
-4.8902757619739e-07,0.007453334956207047,0.01363137466185707
-4.690275761973868e-07,0.006451351655170888,0.02107276895086382
-4.490275761973836e-07,0.007453334956206592,0.006189980372830022
-4.290275761973804e-07,0.006785346088849456,0.02107276895086382
-4.090275761973908e-07,0.00645135165517104,0.01735207180635706
-3.890275761973876e-07,0.007453334956206592,0.006189980372830022
-3.690275761973844e-07,0.007119340522528024,0.002469283228321573
-3.490275761973812e-07,0.007119340522528024,0.006189980372830022
-3.290275761973915e-07,0.008789312690920103,0.01363137466184354
-3.090275761973883e-07,0.008121323823563727,0.00991067751733847
-2.890275761973851e-07,0.00778732938988516,0.00991067751733847
-2.690275761973819e-07,0.008121323823563727,-0.001251413916186876
-2.490275761973787e-07,0.008789312690920406,0.002469283228318189
-2.290275761973891e-07,0.00778732938988516,-0.004972111060695325
-2.090275761973859e-07,0.007453334956206592,0.00991067751733847
-1.890275761973827e-07,0.008121323823563727,-0.008692808205203774
-1.690275761973795e-07,0.006785346088849759,0.002469283228321573
-1.490275761973899e-07,0.007453334956206288,0.002469283228321573
-1.290275761973867e-07,0.00778732938988516,0.01363137466184692
-1.090275761973835e-07,0.007119340522528024,0.01363137466184692
-8.902757619738027e-08,0.0077873293898844,0.009910677517331703
-6.902757619739062e-08,0.006117357221493079,-0.004972111060688558
-4.902757619738743e-08,0.005449368354135184,0.00991067751733847
-2.902757619738423e-08,0.006785346088849456,0.01735207180635537
-9.027576197381034e-09,-0.00323448692150758,0.8396261407427226
1.097242380260861e-08,0.009457301558272228,3.403186473307878
3.097242380261181e-08,0.01079327929299227,3.358538107574943
5.0972423802615e-08,0.008121323823563727,3.358538107574943
7.09724238026182e-08,0.003111407318385209,3.362258804719451
9.09724238026214e-08,0.002443418451029289,3.351096713285914
1.10972423802611e-07,0.005115373920456617,3.325051833274367
1.309724238026142e-07,0.007453334956206592,3.313889741840841
1.509724238026174e-07,0.007453334956206592,3.332493227563384
1.709724238026206e-07,0.004781379486777897,3.358538107574946
1.909724238026103e-07,0.004447385053099633,3.365979501863956
2.109724238026135e-07,0.004447385053099481,3.347376016141417
2.309724238026167e-07,0.005783362787813752,3.3399346218524
2.509724238026199e-07,0.00611735722149232,3.343655318996914
2.709724238026095e-07,0.00611735722149232,3.354817410430429
2.909724238026127e-07,0.004113390619420913,3.369700199008468
3.109724238026159e-07,0.003779396185742345,3.347376016141417
3.309724238026191e-07,0.003779396185742345,3.343655318996909
3.509724238026087e-07,0.005783362787812841,3.354817410430429
3.709724238026119e-07,0.006451351655170888,3.36597950186396
3.909724238026151e-07,0.005783362787813752,3.373420896152977
4.109724238026183e-07,0.005115373920456617,3.36597950186396
4.309724238026215e-07,0.005783362787813752,3.358538107574946
4.509724238026112e-07,0.005783362787813752,3.36597950186396
4.709724238026144e-07,0.00611735722149232,3.369700199008468
4.909724238026176e-07,0.004781379486778049,3.380862290441993
5.109724238026208e-07,0.004781379486778201,3.365979501863958
5.309724238026104e-07,0.005115373920456465,3.362258804719453
5.509724238026136e-07,0.005115373920456617,3.36597950186396
5.709724238026168e-07,0.005783362787813752,3.380862290441993
5.9097242380262e-07,0.005115373920457224,3.395745079020014
6.109724238026096e-07,0.00645135165517028,3.365979501863973
6.309724238026128e-07,0.005449368354135184,3.362258804719451
6.50972423802616e-07,0.005449368354135184,3.362258804719451
6.709724238026192e-07,0.005449368354135184,3.373420896152977
6.909724238026089e-07,0.006117357221492017,3.377141593297483
7.109724238026121e-07,0.005449368354135184,3.36597950186396
7.309724238026153e-07,0.005115373920456617,3.369700199008468
7.509724238026185e-07,0.00611735722149232,3.362258804719451
7.709724238026217e-07,0.006451351655170433,3.388303684731008
7.909724238026113e-07,0.005449368354135184,3.384582987586502
8.109724238026145e-07,0.005783362787813752,3.380862290441993
8.309724238026177e-07,0.005783362787813752,3.369700199008468
8.509724238026209e-07,0.005449368354135033,3.377141593297487
8.709724238026105e-07,0.005115373920456768,3.380862290441991
8.909724238026137e-07,0.004781379486778049,3.384582987586502
9.109724238026169e-07,0.006785346088849456,3.36597950186396
9.309724238026201e-07,0.00444738505309933,3.365979501863963
9.509724238026098e-07,0.004113390619421065,3.373420896152973
9.70972423802613e-07,0.004447385053099481,3.380862290441993
9.909724238026162e-07,0.003779396185742345,3.38830368473101
1.010972423802619e-06,0.005115373920456617,3.369700199008468
1.030972423802609e-06,0.004113390619421368,3.365979501863961
1.050972423802612e-06,0.004447385053099481,3.36597950186396
1.070972423802615e-06,0.005115373920456617,3.373420896152977
1.090972423802619e-06,0.005449368354135184,3.377141593297485
1.110972423802622e-06,0.006117357221492624,3.37342089615297
1.130972423802611e-06,0.006785346088849456,3.358538107574943
1.150972423802615e-06,0.005783362787813752,3.36597950186396
1.170972423802618e-06,0.006785346088849456,3.373420896152977
1.190972423802621e-06,0.005783362787814056,3.392024381875508
1.210972423802611e-06,0.006451351655170888,3.369700199008468
1.230972423802614e-06,0.005115373920456617,3.36597950186396
1.250972423802617e-06,0.005783362787813752,3.373420896152977
1.27097242380262e-06,0.005115373920456313,3.377141593297488
1.29097242380261e-06,0.004447385053099785,3.384582987586498
1.310972423802613e-06,0.005783362787813752,3.369700199008468
1.330972423802616e-06,0.004781379486778049,3.369700199008468
1.350972423802619e-06,0.004781379486778049,3.369700199008468
1.370972423802609e-06,0.005449368354134881,3.377141593297481
1.390972423802612e-06,0.003779396185742345,3.384582987586502
1.410972423802616e-06,0.006451351655170888,3.384582987586502
1.430972423802619e-06,0.005115373920456617,3.373420896152977
1.450972423802622e-06,0.005115373920456465,3.365979501863964
1.470972423802612e-06,0.004781379486778049,3.377141593297485
1.490972423802615e-06,0.004447385053099481,3.369700199008468
1.510972423802618e-06,0.005115373920456617,3.362258804719451
1.530972423802621e-06,0.004447385053099481,3.362258804719451
1.550972423802611e-06,0.004447385053099481,3.362258804719451
1.570972423802614e-06,0.006785346088849456,3.384582987586502
1.590972423802617e-06,0.00611735722149232,3.377141593297485
1.61097242380262e-06,0.006785346088849608,3.38086229044199
1.63097242380261e-06,0.007119340522527873,3.37342089615298
1.650972423802613e-06,0.007119340522528024,3.369700199008468
1.670972423802616e-06,0.00778732938988516,3.373420896152977
1.69097242380262e-06,0.007119340522528024,3.38830368473101
1.710972423802609e-06,0.006785346088849608,3.373420896152983
1.730972423802612e-06,0.007119340522528024,3.380862290441993
1.750972423802616e-06,0.00611735722149232,3.380862290441993
1.770972423802619e-06,0.007119340522528024,3.384582987586502
1.790972423802609e-06,0.005783362787814359,3.384582987586502
1.810972423802612e-06,0.007453334956206592,3.38830368473101
1.830972423802615e-06,0.007119340522528024,3.369700199008468
1.850972423802618e-06,0.007453334956206592,3.380862290441993
1.870972423802621e-06,0.008121323823563575,3.380862290442002
1.890972423802611e-06,0.00778732938988516,3.399465776164535
1.910972423802614e-06,0.008455318257242295,3.380862290441993
1.930972423802617e-06,0.00778732938988516,3.380862290441993
1.950972423802621e-06,0.007453334956206896,3.373420896152978
1.97097242380261e-06,0.008121323823563424,3.377141593297483
1.990972423802613e-06,0.007119340522528024,3.384582987586502
2.010972423802617e-06,0.007453334956206592,3.36597950186396
2.03097242380262e-06,0.00711934052252848,3.373420896152975
2.050972423802609e-06,0.008121323823563271,3.36970019900847
2.070972423802613e-06,0.007453334956206592,3.373420896152977
2.090972423802616e-06,0.007453334956206592,3.38830368473101
2.110972423802619e-06,0.00778732938988516,3.377141593297485
2.130972423802609e-06,0.00778732938988516,3.365979501863964
2.150972423802612e-06,0.007453334956206592,3.362258804719451
2.170972423802615e-06,0.008789312690920863,3.36597950186396
2.190972423802618e-06,0.008789312690920863,3.373420896152977
2.210972423802621e-06,0.009123307124598976,3.362258804719451
2.230972423802611e-06,0.008121323823563727,3.362258804719451
2.250972423802614e-06,0.007119340522528024,3.358538107574943
2.270972423802617e-06,0.007453334956206592,3.354817410430434
2.290972423802621e-06,0.006451351655171648,3.369700199008466
2.31097242380261e-06,0.008121323823562968,3.365979501863961
2.330972423802614e-06,0.007119340522528024,3.351096713285926
2.350972423802617e-06,0.007453334956206592,3.362258804719451
2.37097242380262e-06,0.008455318257241991,3.354817410430444
2.39097242380261e-06,0.007787329389885463,3.377141593297475
2.410972423802613e-06,0.008455318257242295,3.369700199008468
2.430972423802616e-06,0.006785346088849456,3.358538107574943
2.450972423802619e-06,0.006785346088849456,3.36597950186396
2.470972423802609e-06,0.007453334956206288,3.380862290441986
2.490972423802612e-06,0.00778732938988516,3.377141593297485
2.510972423802615e-06,0.008121323823563727,3.377141593297485
2.530972423802618e-06,0.00778732938988516,3.377141593297485
2.550972423802622e-06,0.007453334956206896,3.373420896152975
2.570972423802611e-06,0.008121323823563727,3.369700199008468
2.590972423802614e-06,0.005449368354135184,3.377141593297485
2.610972423802618e-06,0.006785346088849456,3.373420896152977
2.630972423802621e-06,0.007453334956206137,3.365979501863961
2.65097242380261e-06,0.006451351655171344,3.369700199008466
2.670972423802614e-06,0.008789312690920863,3.377141593297485
2.690972423802617e-06,0.00778732938988516,3.384582987586502
2.71097242380262e-06,0.007787329389884704,3.380862290441988
2.73097242380261e-06,0.006785346088849911,3.369700199008473
2.750972423802613e-06,0.006451351655170888,3.373420896152977
2.770972423802616e-06,0.007119340522528024,3.38830368473101
2.790972423802619e-06,0.007119340522528024,3.395745079020027
2.810972423802609e-06,0.007787329389884856,3.388303684731014
2.830972423802612e-06,0.007119340522528024,3.380862290441993
2.850972423802615e-06,0.006451351655170888,3.377141593297485
2.870972423802618e-06,0.006785346088849456,3.392024381875518
2.890972423802622e-06,0.006785346088849608,3.392024381875517
2.910972423802611e-06,0.007119340522528024,3.38830368473101
2.930972423802615e-06,0.00611735722149232,3.373420896152977
2.950972423802618e-06,0.005783362787813752,3.380862290441993
2.970972423802621e-06,0.005115373920457224,3.399465776164537
2.990972423802611e-06,0.00645135165517028,3.403186473309042
3.010972423802614e-06,0.006451351655170888,3.384582987586502
3.030972423802617e-06,0.004781379486778049,3.384582987586502
3.05097242380262e-06,0.005115373920457072,3.388303684731012
3.07097242380261e-06,0.006117357221491865,3.392024381875517
3.090972423802613e-06,0.005449368354135184,3.399465776164535
3.110972423802616e-06,0.007119340522528024,3.392024381875518
3.130972423802619e-06,0.00611735722149232,3.395745079020027
3.150972423802609e-06,0.005783362787813904,3.395745079020027
3.170972423802612e-06,0.005783362787813752,3.395745079020027
3.190972423802615e-06,0.004447385053099481,3.410627867598061
3.210972423802619e-06,0.005115373920456617,3.395745079020027
3.230972423802622e-06,0.005783362787813904,3.377141593297487
3.250972423802611e-06,0.00611735722149232,3.380862290441993
3.270972423802615e-06,0.006451351655170888,3.392024381875518
3.290972423802618e-06,0.006451351655170888,3.395745079020027
3.310972423802621e-06,0.007119340522527873,3.399465776164532
3.330972423802611e-06,0.006785346088849456,3.392024381875518
3.350972423802614e-06,0.005115373920456617,3.38830368473101
3.370972423802617e-06,0.006451351655170888,3.395745079020027
3.39097242380262e-06,0.005783362787813752,3.392024381875517
3.41097242380261e-06,0.005783362787813752,3.388303684731012
3.430972423802613e-06,0.006451351655170888,3.36597950186396
3.450972423802616e-06,0.005115373920456617,3.362258804719451
3.47097242380262e-06,0.007119340522528024,3.369700199008468
3.490972423802609e-06,0.00745333495620644,3.388303684731002
3.510972423802612e-06,0.008121323823563727,3.377141593297485
3.530972423802616e-06,0.006785346088849456,3.36597950186396
3.550972423802619e-06,0.006785346088849456,3.373420896152977
3.570972423802608e-06,0.00645135165517104,3.373420896152977
3.590972423802612e-06,0.007119340522528024,3.392024381875518
3.610972423802615e-06,0.006451351655170888,3.36597950186396
3.630972423802618e-06,0.006785346088849456,3.380862290441993
3.650972423802621e-06,0.005115373920457224,3.36225880471946
3.670972423802611e-06,0.006451351655170888,3.380862290441993
3.690972423802614e-06,0.005783362787813752,3.380862290441993
3.710972423802617e-06,0.006785346088849456,3.373420896152977
3.73097242380262e-06,0.007453334956206137,3.365979501863958
3.75097242380261e-06,0.006451351655171344,3.362258804719453
3.770972423802613e-06,0.007119340522528024,3.384582987586502
3.790972423802616e-06,0.00611735722149232,3.373420896152977
3.81097242380262e-06,0.005449368354135184,3.377141593297485
3.830972423802609e-06,0.005449368354135184,3.362258804719458
3.850972423802613e-06,0.00611735722149232,3.362258804719451
3.870972423802616e-06,0.007119340522528024,3.377141593297485
3.890972423802619e-06,0.006785346088849456,3.373420896152977
3.910972423802609e-06,0.007787329389884704,3.373420896152977
3.930972423802612e-06,0.007453334956206592,3.358538107574943
3.950972423802615e-06,0.008121323823563727,3.369700199008468
3.970972423802618e-06,0.007453334956206592,3.373420896152977
3.990972423802621e-06,0.006785346088849911,3.377141593297481
4.010972423802611e-06,0.00778732938988516,3.369700199008468
4.030972423802614e-06,0.006451351655170888,3.358538107574943
4.050972423802617e-06,0.006451351655170888,3.369700199008468
4.070972423802621e-06,0.006451351655170888,3.380862290441995
4.09097242380261e-06,0.006451351655170888,3.3845829875865
4.110972423802613e-06,0.008121323823563727,3.377141593297485
4.130972423802617e-06,0.00611735722149232,3.369700199008468
4.15097242380262e-06,0.006451351655171344,3.373420896152985
4.170972423802609e-06,0.007453334956206137,3.39202438187551
4.190972423802613e-06,0.006785346088849456,3.384582987586502
4.210972423802616e-06,0.00611735722149232,3.384582987586502
4.230972423802619e-06,0.005449368354135184,3.380862290441993
4.250972423802609e-06,0.005115373920456768,3.377141593297487
4.270972423802612e-06,0.005783362787813752,3.38830368473101
4.290972423802615e-06,0.005449368354135184,3.395745079020027
4.310972423802618e-06,0.006451351655170888,3.380862290441993
4.330972423802621e-06,0.007453334956206744,3.373420896152977
4.350972423802611e-06,0.00778732938988516,3.373420896152977
4.370972423802614e-06,0.00778732938988516,3.38830368473101
4.390972423802617e-06,0.006451351655170888,3.380862290441993
