traces_bank_current_trigger/sampling_freq_100MHz/ASR/ASR_5.csv

#Digilent WaveForms Oscilloscope Acquisition
#Device Name: Discovery2
#Serial Number: SN:210321B3D813
#Date Time: 2023-06-19 11:16:18.294
#Sample rate: 1e+08Hz
#Samples: 8192
#Trigger: Source: Channel 2 Type: Edge Condition: Rising Level: 2 V Hyst.: Auto HoldOff: 0 s
#Channel 1: Range: 10 mV/div Offset: 0 V Attenuation: 1 X Sample Mode: Average
#Channel 2: Range: 5 V/div Offset: 0 V Attenuation: 1 X Sample Mode: Average

Time (s),Channel 1 (V),Channel 2 (V)
-9.541062801932351e-07,0.00778732938988516,0.00991067751733847
-9.441062801932335e-07,0.007119340522528024,-0.01241350534971222
-9.341062801932319e-07,0.0077873293898844,0.03223486038437055
-9.241062801932371e-07,0.006117357221493079,-0.008692808205185164
-9.141062801932355e-07,0.006451351655170888,0.03595555752889761
-9.041062801932339e-07,0.005783362787813752,0.03595555752889761
-8.941062801932323e-07,0.004781379486778049,-0.001251413916186876
-8.841062801932375e-07,0.006785346088848544,0.06572113468493476
-8.741062801932359e-07,0.00611735722149232,-0.01613420249422067
-8.641062801932343e-07,0.007453334956206592,0.05083834610693141
-8.541062801932327e-07,0.005115373920456617,0.006189980372830022
-8.441062801932311e-07,0.006117357221492776,0.009910677517357082
-8.341062801932363e-07,0.007119340522528024,0.05083834610693141
-8.241062801932347e-07,0.00611735722149232,-0.008692808205203774
-8.141062801932331e-07,0.00611735722149232,0.02851416323988071
-8.041062801932315e-07,0.003779396185744168,0.01735207180633676
-7.941062801932367e-07,0.007787329389883337,-0.02357559678321896
-7.841062801932351e-07,0.006451351655170888,0.03595555752889761
-7.741062801932335e-07,0.005783362787813752,-0.001251413916186876
-7.641062801932319e-07,0.006451351655170281,0.03967625467339252
-7.54106280193237e-07,0.005115373920457224,0.009910677517352005
-7.441062801932354e-07,0.007119340522528024,0.02479346609537227
-7.341062801932338e-07,0.006451351655170888,0.03595555752889761
-7.241062801932322e-07,0.005783362787813752,0.006189980372830022
-7.141062801932374e-07,0.006117357221492169,0.02479346609536381
-7.041062801932358e-07,0.005783362787813752,0.01735207180635537
-6.941062801932342e-07,0.006785346088849456,0.03223486038438916
-6.841062801932326e-07,0.007119340522528024,0.04339695181791451
-6.74106280193231e-07,0.005115373920456768,0.002469283228335108
-6.641062801932362e-07,0.005449368354135184,0.03223486038438916
-6.541062801932346e-07,0.003445401752063777,0.00991067751733847
-6.44106280193233e-07,0.007453334956206592,0.02479346609537227
-6.341062801932314e-07,0.005449368354135488,0.02851416323987564
-6.241062801932366e-07,0.006117357221492017,0.01735207180636044
-6.14106280193235e-07,0.006785346088849456,0.02851416323988071
-6.041062801932334e-07,0.006785346088849456,0.02107276895086382
-5.941062801932318e-07,0.006785346088849608,0.009910677517350315
-5.84106280193237e-07,0.007119340522527873,0.03595555752888577
-5.741062801932354e-07,0.005115373920456617,0.002469283228321573
-5.641062801932338e-07,0.007119340522528024,0.03223486038438916
-5.541062801932322e-07,0.005783362787813752,0.002469283228321573
-5.441062801932374e-07,0.007787329389884249,0.00618998037282833
-5.341062801932358e-07,0.00778732938988516,0.01735207180635537
-5.241062801932342e-07,0.006451351655170888,-0.004972111060695325
-5.141062801932326e-07,0.006451351655170888,0.03223486038438916
-5.04106280193231e-07,0.006785346088850063,0.009910677517333395
-4.941062801932361e-07,0.008121323823563727,-0.001251413916186876
-4.841062801932345e-07,0.006451351655170888,0.02107276895086382
-4.741062801932329e-07,0.006451351655170888,-0.01985489963872912
-4.641062801932313e-07,0.008789312690919192,0.006189980372831714
-4.541062801932365e-07,0.005115373920456617,0.00991067751733847
-4.441062801932349e-07,0.008455318257242295,0.002469283228321573
-4.341062801932333e-07,0.007119340522528024,0.03223486038438916
-4.241062801932317e-07,0.007119340522528328,-0.001251413916171648
-4.141062801932369e-07,0.007787329389884856,0.03223486038437393
-4.041062801932353e-07,0.00611735722149232,0.00991067751733847
-3.941062801932337e-07,0.00778732938988516,0.002469283228321573
-3.841062801932321e-07,0.00778732938988516,0.03595555752889761
-3.741062801932373e-07,0.00778732938988516,0.006189980372843556
-3.641062801932357e-07,0.00778732938988516,0.03595555752889761
-3.541062801932341e-07,0.007453334956206592,0.00991067751733847
-3.441062801932325e-07,0.007453334956206592,0.00991067751733847
-3.341062801932309e-07,0.009123307124598825,0.02107276895085367
-3.241062801932361e-07,0.00778732938988516,-0.001251413916186876
-3.141062801932345e-07,0.006785346088849456,0.02479346609537227
-3.041062801932329e-07,0.00611735722149232,0.00991067751733847
-2.941062801932313e-07,0.006785346088850216,0.002469283228335108
-2.841062801932365e-07,0.008455318257242295,0.03223486038438916
-2.741062801932349e-07,0.00611735722149232,-0.008692808205203774
-2.641062801932333e-07,0.007119340522528024,0.03595555752889761
-2.541062801932317e-07,0.006785346088849152,0.01735207180635367
-2.441062801932368e-07,0.006117357221492624,0.01363137466184861
-2.341062801932352e-07,0.005783362787813752,0.02479346609537227
-2.241062801932336e-07,0.004113390619420913,-0.01613420249422067
-2.14106280193232e-07,0.007453334956206592,0.02107276895086382
-2.041062801932372e-07,0.00511537392045768,0.01735207180635706
-1.941062801932356e-07,0.007119340522528024,-0.008692808205203774
-1.84106280193234e-07,0.007453334956206592,0.04339695181791451
-1.741062801932324e-07,0.005783362787813752,-0.001251413916186876
-1.641062801932376e-07,0.006117357221492169,0.02107276895085367
-1.54106280193236e-07,0.004113390619420913,-0.004972111060695325
-1.441062801932344e-07,0.006451351655170888,-0.008692808205203774
-1.341062801932328e-07,0.006451351655170888,0.03223486038438916
-1.241062801932312e-07,0.006451351655170888,-0.001251413916180108
-1.141062801932364e-07,0.006451351655170888,0.01363137466184692
-1.041062801932348e-07,0.005115373920456617,0.002469283228321573
-9.41062801932332e-08,0.00611735722149232,-0.01985489963872912
-8.41062801932316e-08,0.006451351655170128,0.03595555752887731
-7.410628019323677e-08,0.004781379486778809,-0.008692808205183471
-6.410628019323518e-08,0.006785346088849456,0.02851416323988071
-5.410628019323358e-08,0.003445401752063777,0.01735207180635537
-4.410628019323198e-08,0.006117357221491257,-0.01613420249420206
-3.410628019323716e-08,0.003779396185743408,0.02479346609535366
-2.410628019323556e-08,0.005449368354135184,-0.01241350534971222
-1.410628019323396e-08,0.00611735722149232,0.03595555752889761
-4.106280193232363e-09,-0.009246386727721802,0.7317259235519775
5.893719806762459e-09,0.006451351655163747,3.812463159203572
1.589371980676406e-08,-0.001564514753114741,2.971585604546064
2.589371980676566e-08,0.01580319579817079,3.3399346218524
3.589371980676725e-08,0.0104592848593137,3.284124164684774
4.589371980676885e-08,0.008455318257239408,3.302727650407336
5.589371980676367e-08,0.002109424017349506,3.347376016141417
6.589371980676527e-08,0.004781379486778049,3.343655318996909
7.589371980676687e-08,0.0001054574152780984,3.347376016141417
8.589371980676847e-08,-0.0002285370184012289,3.336213924707894
9.589371980676329e-08,-0.00189850918679255,3.339934621852398
1.058937198067649e-07,0.004781379486778049,3.287844861829282
1.158937198067665e-07,0.004447385053099481,3.328772530418875
1.258937198067681e-07,0.00311140731838688,3.284124164684794
1.358937198067629e-07,0.006785346088847785,3.328772530418854
1.458937198067645e-07,0.00778732938988516,3.295286256118299
1.558937198067661e-07,0.00778732938988516,3.328772530418875
1.658937198067677e-07,0.00611735722149232,3.347376016141417
1.758937198067625e-07,0.003779396185743408,3.339934621852404
1.858937198067641e-07,0.003779396185742345,3.347376016141417
1.958937198067657e-07,0.0004394518489566662,3.347376016141417
2.058937198067673e-07,0.002109424017349506,3.321331136129858
2.158937198067689e-07,0.002777412884707401,3.347376016141399
2.258937198067637e-07,0.004447385053099481,3.306448347551824
2.358937198067653e-07,0.005115373920456617,3.336213924707892
2.458937198067669e-07,0.004113390619420913,3.325051833274367
2.558937198067685e-07,0.008455318257240928,3.317610438985372
2.658937198067634e-07,0.005449368354136551,3.365979501863937
2.75893719806765e-07,0.002777412884706641,3.332493227563384
2.858937198067666e-07,0.003111407318385209,3.36597950186396
2.958937198067682e-07,0.002443418451027922,3.339934621852405
3.05893719806763e-07,0.002109424017349658,3.351096713285921
3.158937198067646e-07,0.002109424017349506,3.358538107574943
3.258937198067662e-07,0.003111407318385209,3.325051833274367
3.358937198067678e-07,0.005783362787813752,3.351096713285926
3.458937198067626e-07,0.004447385053100088,3.336213924707899
3.558937198067642e-07,0.00778732938988516,3.321331136129858
3.658937198067658e-07,0.007119340522528024,3.362258804719451
3.758937198067674e-07,0.00611735722149232,3.3399346218524
3.85893719806769e-07,0.005449368354134424,3.358538107574943
3.958937198067638e-07,0.003779396185742345,3.358538107574943
4.058937198067654e-07,0.00611735722149232,3.354817410430434
4.15893719806767e-07,0.007119340522528024,3.377141593297485
4.258937198067686e-07,0.00511537392045768,3.336213924707904
4.358937198067634e-07,0.007453334956205529,3.362258804719439
4.45893719806765e-07,0.006785346088849456,3.347376016141417
4.558937198067666e-07,0.00778732938988516,3.351096713285926
4.658937198067682e-07,0.00645135165517104,3.388303684730987
4.75893719806763e-07,0.006785346088849304,3.336213924707915
4.858937198067646e-07,0.01012529042563514,3.373420896152977
4.958937198067662e-07,0.005783362787813752,3.36597950186396
5.058937198067678e-07,0.00611735722149232,3.36597950186396
5.158937198067627e-07,0.006451351655170736,3.37714159329748
5.258937198067643e-07,0.006451351655170888,3.336213924707892
5.358937198067659e-07,0.007119340522528024,3.377141593297485
5.458937198067675e-07,0.005115373920456617,3.358538107574943
5.558937198067691e-07,0.009457301558276633,3.351096713285939
5.658937198067639e-07,0.006451351655170888,3.380862290441993
5.758937198067655e-07,0.008121323823563727,3.347376016141417
5.858937198067671e-07,0.006785346088849456,3.392024381875518
5.958937198067687e-07,0.006785346088849759,3.380862290441988
6.058937198067635e-07,0.007453334956206592,3.369700199008468
6.158937198067651e-07,0.007119340522528024,3.38830368473101
6.258937198067667e-07,0.006785346088849456,3.354817410430434
6.358937198067683e-07,0.009123307124598369,3.392024381875503
6.458937198067631e-07,0.006785346088850519,3.358538107574958
6.558937198067647e-07,0.008121323823563727,3.369700199008468
6.658937198067663e-07,0.00778732938988516,3.373420896152977
6.758937198067679e-07,0.007453334956206592,3.347376016141417
6.858937198067627e-07,0.006451351655171344,3.380862290441978
6.958937198067643e-07,0.00611735722149232,3.36597950186396
7.058937198067659e-07,0.008121323823563727,3.36597950186396
7.158937198067675e-07,0.005449368354135184,3.395745079020027
7.258937198067691e-07,0.006451351655170736,3.358538107574949
7.358937198067639e-07,0.00611735722149232,3.373420896152977
7.458937198067655e-07,0.006451351655170888,3.354817410430434
7.558937198067671e-07,0.006451351655170888,3.351096713285926
7.658937198067687e-07,0.007119340522528176,3.369700199008459
7.758937198067636e-07,0.007453334956206592,3.351096713285926
7.858937198067652e-07,0.00611735722149232,3.38830368473101
7.958937198067668e-07,0.005115373920456617,3.36597950186396
8.058937198067684e-07,0.008455318257241688,3.369700199008468
8.158937198067632e-07,0.007119340522528632,3.369700199008468
8.258937198067648e-07,0.006785346088849456,3.347376016141417
8.358937198067664e-07,0.006785346088849456,3.380862290441993
8.45893719806768e-07,0.006785346088849456,3.373420896152977
8.558937198067628e-07,0.0097912959919552,3.354817410430443
8.658937198067644e-07,0.00778732938988516,3.38830368473101
8.75893719806766e-07,0.009123307124599432,3.336213924707892
8.858937198067676e-07,0.009123307124599432,3.369700199008468
8.958937198067624e-07,0.008121323823564184,3.369700199008468
9.05893719806764e-07,0.009457301558278,3.343655318996909
9.158937198067656e-07,0.008121323823563727,3.384582987586502
9.258937198067672e-07,0.006451351655170888,3.3399346218524
9.358937198067688e-07,0.008789312690919799,3.392024381875502
9.458937198067636e-07,0.006451351655170888,3.354817410430434
9.558937198067652e-07,0.008455318257242295,3.343655318996909
9.658937198067668e-07,0.008455318257242295,3.392024381875518
9.758937198067684e-07,0.007453334956207047,3.336213924707917
9.858937198067632e-07,0.008455318257241839,3.392024381875493
9.958937198067648e-07,0.007119340522528024,3.377141593297485
1.005893719806766e-06,0.006451351655170888,3.354817410430434
1.015893719806768e-06,0.006785346088849,3.380862290441973
1.025893719806763e-06,0.005783362787814207,3.336213924707912
1.035893719806764e-06,0.006785346088849456,3.373420896152977
1.045893719806766e-06,0.005449368354135184,3.358538107574943
1.055893719806768e-06,0.005449368354135184,3.3399346218524
1.065893719806762e-06,0.005449368354135184,3.392024381875495
1.075893719806764e-06,0.005449368354135184,3.351096713285926
1.085893719806766e-06,0.006451351655170888,3.380862290441993
1.095893719806767e-06,0.004447385053099481,3.369700199008468
1.105893719806769e-06,0.006117357221492624,3.365979501863964
1.115893719806764e-06,0.006785346088849456,3.377141593297485
1.125893719806765e-06,0.005783362787813752,3.3399346218524
1.135893719806767e-06,0.007119340522528024,3.38830368473101
1.145893719806768e-06,0.006451351655171648,3.373420896152975
1.155893719806763e-06,0.008121323823562968,3.36970019900847
1.165893719806765e-06,0.006451351655170888,3.395745079020027
1.175893719806767e-06,0.006785346088849456,3.343655318996909
1.185893719806768e-06,0.008121323823563271,3.384582987586497
1.195893719806763e-06,0.00711934052252848,3.373420896152981
1.205893719806765e-06,0.007119340522528024,3.369700199008468
1.215893719806766e-06,0.008121323823563727,3.380862290441993
1.225893719806768e-06,0.006451351655170888,3.36597950186396
1.235893719806763e-06,0.007453334956206137,3.37714159329748
1.245893719806764e-06,0.00611735722149232,3.392024381875518
1.255893719806766e-06,0.006785346088849456,3.377141593297485
1.265893719806767e-06,0.006451351655170888,3.395745079020027
1.275893719806769e-06,0.007119340522527721,3.373420896152985
1.285893719806764e-06,0.006451351655170888,3.392024381875518
1.295893719806765e-06,0.00611735722149232,3.373420896152977
1.305893719806767e-06,0.008121323823563727,3.377141593297485
1.315893719806769e-06,0.006785346088849304,3.410627867598037
1.325893719806763e-06,0.00645135165517104,3.358538107574966
1.335893719806765e-06,0.00611735722149232,3.38830368473101
1.345893719806767e-06,0.004781379486778049,3.362258804719451
1.355893719806768e-06,0.007453334956205377,3.388303684731014
1.365893719806763e-06,0.004781379486779264,3.395745079020024
1.375893719806765e-06,0.005449368354135184,3.36597950186396
1.385893719806766e-06,0.006785346088849456,3.38830368473101
1.395893719806768e-06,0.004447385053099481,3.395745079020027
1.405893719806763e-06,0.005449368354134729,3.384582987586507
1.415893719806764e-06,0.005115373920456617,3.399465776164535
1.425893719806766e-06,0.005449368354135184,3.384582987586502
1.435893719806767e-06,0.00611735722149232,3.406907170453553
1.445893719806769e-06,0.004447385053100545,3.37714159329749
1.455893719806764e-06,0.006785346088849456,3.38830368473101
1.465893719806765e-06,0.005449368354135184,3.406907170453553
1.475893719806767e-06,0.006451351655170888,3.373420896152977
1.485893719806769e-06,0.007119340522527265,3.392024381875515
1.495893719806763e-06,0.005449368354135944,3.384582987586505
1.505893719806765e-06,0.006451351655170888,3.377141593297485
1.515893719806767e-06,0.006785346088849456,3.403186473309044
1.525893719806768e-06,0.007453334956206896,3.362258804719473
1.535893719806763e-06,0.008121323823563424,3.410627867598039
1.545893719806765e-06,0.005115373920456617,3.384582987586502
1.555893719806766e-06,0.008121323823563727,3.38830368473101
1.565893719806768e-06,0.00611735722149232,3.395745079020027
1.575893719806763e-06,0.008455318257241232,3.373420896152987
1.585893719806764e-06,0.008121323823563727,3.406907170453553
1.595893719806766e-06,0.007119340522528024,3.395745079020027
1.605893719806767e-06,0.007119340522528024,3.369700199008468
1.615893719806769e-06,0.008789312690920406,3.406907170453539
1.625893719806764e-06,0.00778732938988516,3.377141593297485
1.635893719806765e-06,0.007119340522528024,3.403186473309044
1.645893719806767e-06,0.00611735722149232,3.392024381875518
1.655893719806769e-06,0.007787329389885463,3.377141593297498
1.665893719806764e-06,0.008455318257242295,3.406907170453553
1.675893719806765e-06,0.006785346088849456,3.380862290441993
1.685893719806767e-06,0.008455318257242295,3.392024381875518
1.695893719806768e-06,0.007453334956207199,3.39202438187551
1.705893719806763e-06,0.008789312690920256,3.373420896152985
1.715893719806765e-06,0.009123307124599432,3.392024381875518
1.725893719806766e-06,0.009123307124599432,3.373420896152977
1.735893719806768e-06,0.009123307124599432,3.410627867598061
1.745893719806763e-06,0.007453334956207352,3.380862290442006
1.755893719806764e-06,0.008789312690920863,3.373420896152977
1.765893719806766e-06,0.006785346088849456,3.410627867598061
1.775893719806768e-06,0.008455318257242295,3.351096713285926
1.785893719806762e-06,0.0064513516551718,3.395745079020007
1.795893719806764e-06,0.00778732938988516,3.36597950186396
1.805893719806766e-06,0.008789312690920863,3.369700199008468
1.815893719806767e-06,0.008789312690920863,3.384582987586502
1.825893719806769e-06,0.007787329389885463,3.354817410430448
1.835893719806764e-06,0.008455318257242295,3.384582987586502
1.845893719806765e-06,0.007453334956206592,3.373420896152977
1.855893719806767e-06,0.008121323823563727,3.36597950186396
1.865893719806768e-06,0.009457301558276785,3.403186473309029
1.875893719806763e-06,0.006785346088850671,3.369700199008483
1.885893719806765e-06,0.007453334956206592,3.406907170453553
1.895893719806766e-06,0.008455318257242295,3.36597950186396
1.905893719806768e-06,0.009123307124599432,3.384582987586502
1.915893719806763e-06,0.009457301558277847,3.392024381875515
1.925893719806764e-06,0.009123307124599432,3.36597950186396
1.935893719806766e-06,0.009123307124599432,3.380862290441993
1.945893719806768e-06,0.007453334956206592,3.369700199008468
1.955893719806762e-06,0.009791295991955504,3.369700199008468
1.965893719806764e-06,0.008455318257242295,3.395745079020027
1.975893719806766e-06,0.006785346088849456,3.362258804719451
1.985893719806767e-06,0.007453334956206592,3.403186473309044
1.995893719806769e-06,0.006451351655171952,3.373420896152972
2.005893719806764e-06,0.008789312690920863,3.362258804719451
2.015893719806765e-06,0.006451351655170888,3.38830368473101
2.025893719806767e-06,0.00611735722149232,3.358538107574943
2.035893719806768e-06,0.00745333495620477,3.395745079020025
2.045893719806763e-06,0.0034454017520656,3.39202438187552
2.055893719806765e-06,0.007119340522528024,3.369700199008468
2.065893719806766e-06,0.006785346088849456,3.410627867598061
2.075893719806768e-06,0.006117357221493232,3.343655318996938
2.085893719806763e-06,0.008121323823562817,3.406907170453524
2.095893719806764e-06,0.005449368354135184,3.369700199008468
2.105893719806766e-06,0.007453334956206592,3.362258804719451
2.115893719806768e-06,0.006785346088849456,3.38830368473101
2.125893719806762e-06,0.009457301558276784,3.373420896152983
2.135893719806764e-06,0.008121323823563727,3.399465776164535
2.145893719806766e-06,0.006785346088849456,3.377141593297485
2.155893719806767e-06,0.008121323823563727,3.380862290441993
2.165893719806769e-06,0.006451351655172103,3.3920243818755
2.175893719806764e-06,0.009123307124599432,3.351096713285926
2.185893719806765e-06,0.007453334956206592,3.384582987586502
2.195893719806767e-06,0.00611735722149232,3.358538107574943
