traces_bank_current_trigger/sampling_freq_100MHz/ASR/ASR_6.csv

#Digilent WaveForms Oscilloscope Acquisition
#Device Name: Discovery2
#Serial Number: SN:210321B3D813
#Date Time: 2023-06-19 11:21:06.683
#Sample rate: 1e+08Hz
#Samples: 8192
#Trigger: Source: Channel 2 Type: Edge Condition: Rising Level: 2 V Hyst.: Auto HoldOff: 0 s
#Channel 1: Range: 10 mV/div Offset: 0 V Attenuation: 1 X Sample Mode: Average
#Channel 2: Range: 5 V/div Offset: 0 V Attenuation: 1 X Sample Mode: Average

Time (s),Channel 1 (V),Channel 2 (V)
-9.561355081555818e-07,0.007453334956206592,0.00991067751733847
-9.461355081555802e-07,0.008455318257242295,0.03967625467340606
-9.361355081555786e-07,0.008121323823563424,0.03223486038437393
-9.261355081555838e-07,0.007453334956206896,-0.001251413916171645
-9.161355081555822e-07,0.007453334956206592,0.05455904325143986
-9.061355081555806e-07,0.00611735722149232,-0.004972111060695325
-8.96135508155579e-07,0.008121323823563727,0.03595555752889761
-8.861355081555842e-07,0.00711934052252848,0.02479346609537734
-8.761355081555826e-07,0.007453334956206592,-0.01241350534971222
-8.66135508155581e-07,0.00778732938988516,0.04339695181791451
-8.561355081555794e-07,0.00778732938988516,-0.01241350534971222
-8.461355081555778e-07,0.007787329389884856,0.02851416323987733
-8.36135508155583e-07,0.007119340522528024,0.02107276895086382
-8.261355081555814e-07,0.007119340522528024,0.01363137466184692
-8.161355081555798e-07,0.008789312690920863,0.02107276895086382
-8.061355081555782e-07,0.005783362787814664,0.006189980372833405
-7.961355081555834e-07,0.007787329389884249,0.01363137466184354
-7.861355081555818e-07,0.005783362787813752,0.02479346609537227
-7.761355081555802e-07,0.008455318257242295,-0.008692808205203774
-7.661355081555786e-07,0.006785346088849152,0.04339695181789251
-7.561355081555838e-07,0.006117357221492624,-0.004972111060673329
-7.461355081555822e-07,0.008121323823563727,0.02851416323988071
-7.361355081555806e-07,0.007119340522528024,0.02107276895086382
-7.26135508155579e-07,0.00778732938988516,0.006189980372830022
-7.161355081555841e-07,0.008121323823563575,0.04339695181789759
-7.061355081555825e-07,0.00611735722149232,-0.001251413916186876
-6.961355081555809e-07,0.008455318257242295,0.006189980372830022
-6.861355081555793e-07,0.00778732938988516,0.02479346609537227
-6.761355081555777e-07,0.006451351655171192,-0.001251413916178416
-6.661355081555829e-07,0.007119340522528024,0.01735207180635537
-6.561355081555813e-07,0.004113390619420913,0.002469283228321573
-6.461355081555797e-07,0.008789312690920863,0.01363137466184692
-6.361355081555781e-07,0.005449368354135944,0.009910677517331703
-6.261355081555833e-07,0.007119340522527265,-0.004972111060688558
-6.161355081555817e-07,0.008121323823563727,0.04711764896242296
-6.061355081555801e-07,0.005115373920456617,-0.001251413916186876
-5.961355081555785e-07,0.007787329389884553,0.02479346609537565
-5.861355081555837e-07,0.006451351655171496,0.03223486038438578
-5.761355081555821e-07,0.00611735722149232,-0.02357559678323757
-5.661355081555805e-07,0.005783362787813752,0.06200043754045675
-5.561355081555789e-07,0.007119340522528024,-0.001251413916186876
-5.461355081555841e-07,0.007119340522528024,0.02107276895085367
-5.361355081555825e-07,0.00611735722149232,0.02851416323988071
-5.261355081555809e-07,0.006451351655170888,0.006189980372830022
-5.161355081555793e-07,0.008455318257242295,0.03595555752889761
-5.061355081555777e-07,0.005449368354136399,-0.004972111060681789
-4.961355081555829e-07,0.008121323823563727,0.02479346609537227
-4.861355081555813e-07,0.004447385053099481,0.02851416323988071
-4.761355081555797e-07,0.00611735722149232,0.00991067751733847
-4.661355081555781e-07,0.004447385053100545,0.04339695181788913
-4.561355081555832e-07,0.006785346088849456,-0.01241350534971222
-4.461355081555816e-07,0.006451351655170888,0.01735207180635537
-4.3613550815558e-07,0.004447385053099481,0.01363137466184692
-4.261355081555784e-07,0.006451351655170433,-0.00497211106067333
-4.161355081555836e-07,0.00544936835413564,0.04339695181789251
-4.06135508155582e-07,0.00611735722149232,-0.01241350534971222
-3.961355081555804e-07,0.004781379486778049,0.00991067751733847
-3.861355081555788e-07,0.00611735722149232,0.02107276895086382
-3.76135508155584e-07,0.00611735722149232,-0.001251413916176725
-3.661355081555824e-07,0.007119340522528024,0.03223486038438916
-3.561355081555808e-07,0.00611735722149232,-0.01241350534971222
-3.461355081555792e-07,0.007453334956206592,0.02851416323988071
-3.361355081555776e-07,0.006451351655171344,0.01363137466184692
-3.261355081555828e-07,0.007453334956206592,0.01363137466184692
-3.161355081555812e-07,0.00611735722149232,0.06200043754045675
-3.061355081555796e-07,0.005783362787813752,-0.01241350534971222
-2.96135508155578e-07,0.008789312690919496,0.01363137466185369
-2.861355081555832e-07,0.005783362787813752,0.02851416323988071
-2.761355081555816e-07,0.006785346088849456,-0.008692808205203774
-2.6613550815558e-07,0.006451351655170888,0.03967625467340606
-2.561355081555784e-07,0.006451351655172407,-0.03101699107223078
-2.461355081555836e-07,0.009791295991955048,0.02107276895084013
-2.36135508155582e-07,0.00611735722149232,0.00991067751733847
-2.261355081555804e-07,0.00778732938988516,-0.01985489963872912
-2.161355081555788e-07,0.006785346088849456,0.04711764896242296
-2.061355081555839e-07,0.006117357221492624,-0.01241350534968515
-1.961355081555823e-07,0.008789312690920863,0.02479346609537227
-1.861355081555807e-07,0.005449368354135184,0.01735207180635537
-1.761355081555791e-07,0.008121323823563727,-0.001251413916186876
-1.661355081555843e-07,0.006451351655171647,0.0359555575288807
-1.561355081555827e-07,0.006451351655170888,-0.008692808205203774
-1.461355081555811e-07,0.007119340522528024,0.002469283228321573
-1.361355081555795e-07,0.008789312690920863,-0.004972111060695325
-1.261355081555779e-07,0.007119340522528024,-0.01613420249420375
-1.161355081555831e-07,0.007119340522528024,0.02107276895086382
-1.061355081555815e-07,0.006451351655170888,-0.02729629392774602
-9.613550815557991e-08,0.007453334956206592,0.00991067751733847
-8.613550815557831e-08,0.006451351655171952,0.01363137466183338
-7.613550815558349e-08,0.008789312690919799,-0.01613420249420714
-6.613550815558189e-08,0.007119340522528024,0.02851416323988071
-5.613550815558029e-08,0.007453334956206592,-0.01241350534971222
-4.61355081555787e-08,0.007453334956205529,0.02479346609536042
-3.613550815558387e-08,0.00511537392045768,-0.001251413916175032
-2.613550815558228e-08,0.006451351655170888,-0.01241350534971222
-1.613550815558068e-08,0.006451351655170888,0.03223486038438916
-6.135508155579079e-09,0.003445401752063777,0.1773420490202187
3.864491844415743e-09,-0.009914375595072866,3.142737673192104
1.386449184441734e-08,0.01246325146138511,3.276682770395757
2.386449184441894e-08,0.01313124032874225,3.213430918939113
3.386449184442054e-08,0.01480121249713509,3.336213924707892
4.386449184442214e-08,0.005783362787816941,3.265520678962277
5.386449184441696e-08,0.01279724589506368,3.36597950186396
6.386449184441856e-08,0.004781379486778049,3.347376016141417
7.386449184442015e-08,0.002443418451028074,3.358538107574943
8.386449184442175e-08,-0.0002285370183995582,3.377141593297461
9.386449184441658e-08,0.001775429583670027,3.32505183327439
1.038644918444182e-07,0.004113390619420913,3.343655318996909
1.138644918444198e-07,0.002777412884706641,3.321331136129858
1.238644918444214e-07,0.005449368354137158,3.299006953262819
1.338644918444162e-07,0.009791295991954593,3.325051833274355
1.438644918444178e-07,0.006785346088849456,3.302727650407316
1.538644918444194e-07,0.00778732938988516,3.343655318996909
1.63864491844421e-07,0.004447385053099481,3.36597950186396
1.738644918444158e-07,0.007119340522526809,3.339934621852412
1.838644918444174e-07,0.004113390619420913,3.38830368473101
1.93864491844419e-07,0.0007734462826352341,3.328772530418875
2.038644918444206e-07,0.004113390619420913,3.380862290441993
2.138644918444222e-07,0.003445401752063474,3.354817410430417
2.23864491844417e-07,0.002777412884706641,3.31761043898535
2.338644918444186e-07,0.00611735722149232,3.369700199008468
2.438644918444202e-07,0.005449368354135184,3.291565558973791
2.538644918444218e-07,0.009123307124597458,3.354817410430429
2.638644918444166e-07,0.004781379486780023,3.343655318996914
2.738644918444182e-07,0.00611735722149232,3.358538107574943
2.838644918444198e-07,0.005783362787813752,3.384582987586502
2.938644918444214e-07,0.003445401752064385,3.351096713285936
3.038644918444163e-07,0.004781379486777442,3.373420896152966
3.138644918444179e-07,0.001107440716313802,3.373420896152977
3.238644918444195e-07,0.004113390619420913,3.328772530418875
3.338644918444211e-07,0.003779396185742345,3.373420896152977
3.438644918444159e-07,0.004113390619420761,3.317610438985375
3.538644918444175e-07,0.006451351655170888,3.362258804719451
3.638644918444191e-07,0.006785346088849456,3.354817410430434
3.738644918444207e-07,0.006451351655170888,3.336213924707892
3.838644918444223e-07,0.005783362787813904,3.39946577616451
3.938644918444171e-07,0.00611735722149232,3.343655318996909
4.038644918444187e-07,0.00611735722149232,3.377141593297485
4.138644918444203e-07,0.005449368354135184,3.362258804719451
4.238644918444219e-07,0.005115373920457224,3.343655318996926
4.338644918444167e-07,0.00645135165517028,3.380862290441976
4.438644918444183e-07,0.00611735722149232,3.31761043898535
4.538644918444199e-07,0.007453334956206592,3.362258804719451
4.638644918444215e-07,0.005783362787814512,3.373420896152961
4.738644918444163e-07,0.007453334956205832,3.339934621852415
4.838644918444179e-07,0.005783362787813752,3.38830368473101
4.938644918444195e-07,0.004447385053099481,3.325051833274367
5.038644918444211e-07,0.006451351655170888,3.380862290441993
5.138644918444159e-07,0.003111407318386728,3.369700199008473
5.238644918444175e-07,0.004781379486778049,3.347376016141417
5.338644918444191e-07,0.004447385053099481,3.38830368473101
5.438644918444207e-07,0.004781379486778049,3.354817410430434
5.538644918444223e-07,0.006451351655171344,3.380862290441988
5.638644918444172e-07,0.007453334956206592,3.369700199008468
5.738644918444188e-07,0.007453334956206592,3.354817410430434
5.838644918444204e-07,0.008455318257242295,3.38830368473101
5.93864491844422e-07,0.0064513516551718,3.328772530418894
6.038644918444168e-07,0.008455318257242295,3.369700199008468
6.138644918444184e-07,0.006451351655170888,3.380862290441993
6.2386449184442e-07,0.006451351655170888,3.351096713285926
6.338644918444216e-07,0.008789312690919496,3.39946577616451
6.438644918444164e-07,0.005783362787815119,3.343655318996934
6.53864491844418e-07,0.008455318257242295,3.392024381875518
6.638644918444196e-07,0.005783362787813752,3.373420896152977
6.738644918444212e-07,0.007453334956206592,3.362258804719451
6.83864491844416e-07,0.007453334956206592,3.384582987586492
6.938644918444176e-07,0.006785346088849456,3.347376016141417
7.038644918444192e-07,0.008455318257242295,3.38830368473101
7.138644918444208e-07,0.004781379486778049,3.392024381875518
7.238644918444224e-07,0.007787329389883945,3.354817410430455
7.338644918444172e-07,0.005115373920456617,3.399465776164535
7.438644918444188e-07,0.004447385053099481,3.358538107574943
7.538644918444204e-07,0.006451351655170888,3.380862290441993
7.63864491844422e-07,0.00645135165517104,3.354817410430428
7.738644918444168e-07,0.006785346088849456,3.3399346218524
7.838644918444184e-07,0.006451351655170888,3.38830368473101
7.9386449184442e-07,0.004781379486778049,3.332493227563384
8.038644918444216e-07,0.008121323823562968,3.388303684731007
8.138644918444165e-07,0.006451351655171647,3.380862290441997
8.238644918444181e-07,0.008455318257242295,3.369700199008468
8.338644918444197e-07,0.00778732938988516,3.38830368473101
8.438644918444213e-07,0.006785346088849456,3.351096713285926
8.538644918444161e-07,0.008789312690919952,3.388303684730993
8.638644918444177e-07,0.00778732938988516,3.369700199008468
8.738644918444193e-07,0.007119340522528024,3.354817410430434
8.838644918444209e-07,0.01079327929299227,3.384582987586502
8.938644918444157e-07,0.009457301558278607,3.347376016141434
9.038644918444173e-07,0.01112727372667084,3.377141593297485
9.138644918444189e-07,0.009791295991956567,3.384582987586502
9.238644918444205e-07,0.008455318257242295,3.354817410430434
9.338644918444221e-07,0.007787329389885615,3.395745079019997
9.438644918444169e-07,0.008789312690920863,3.328772530418875
9.538644918444185e-07,0.009123307124599432,3.377141593297485
9.638644918444201e-07,0.008121323823563727,3.369700199008468
9.738644918444217e-07,0.008789312690921319,3.354817410430455
9.838644918444165e-07,0.009791295991956111,3.399465776164515
9.938644918444181e-07,0.008121323823563727,3.354817410430434
1.00386449184442e-06,0.008121323823563727,3.380862290441993
1.013864491844421e-06,0.007453334956206744,3.388303684730988
1.023864491844416e-06,0.007787329389885008,3.339934621852422
1.033864491844418e-06,0.007453334956206592,3.399465776164535
1.043864491844419e-06,0.006451351655170888,3.351096713285926
1.053864491844421e-06,0.00778732938988516,3.373420896152977
1.063864491844416e-06,0.007119340522528328,3.373420896152977
1.073864491844417e-06,0.00778732938988516,3.351096713285926
1.083864491844419e-06,0.007453334956206592,3.399465776164535
1.093864491844421e-06,0.007453334956206592,3.351096713285926
1.103864491844422e-06,0.00945730155827724,3.399465776164527
1.113864491844417e-06,0.00778732938988516,3.380862290441993
1.123864491844419e-06,0.008121323823563727,3.347376016141417
1.13386449184442e-06,0.008455318257242295,3.392024381875518
1.143864491844422e-06,0.007453334956207199,3.358538107574959
1.153864491844417e-06,0.008789312690920256,3.39574507902001
1.163864491844418e-06,0.007453334956206592,3.380862290441993
1.17386449184442e-06,0.008789312690920863,3.369700199008468
1.183864491844421e-06,0.007453334956206744,3.40690717045353
1.193864491844416e-06,0.007787329389885008,3.358538107574965
1.203864491844418e-06,0.009457301558278,3.395745079020027
1.213864491844419e-06,0.008789312690920863,3.380862290441993
1.223864491844421e-06,0.009123307124599432,3.369700199008468
1.233864491844416e-06,0.008121323823564184,3.403186473309029
1.243864491844417e-06,0.008121323823563727,3.36597950186396
1.253864491844419e-06,0.009123307124599432,3.38830368473101
1.263864491844421e-06,0.007119340522528024,3.38830368473101
1.273864491844422e-06,0.007119340522528328,3.373420896152995
1.283864491844417e-06,0.00778732938988516,3.41434856474257
1.293864491844419e-06,0.005449368354135184,3.343655318996909
1.30386449184442e-06,0.007453334956206592,3.395745079020027
1.313864491844422e-06,0.007119340522528024,3.388303684731
1.323864491844417e-06,0.007119340522528024,3.36597950186397
1.333864491844418e-06,0.006785346088849456,3.406907170453553
1.34386449184442e-06,0.00611735722149232,3.373420896152977
1.353864491844421e-06,0.006451351655169825,3.395745079020027
1.363864491844416e-06,0.004113390619421976,3.395745079020027
1.373864491844418e-06,0.004113390619420913,3.358538107574943
1.383864491844419e-06,0.004781379486778049,3.406907170453553
1.393864491844421e-06,0.004113390619420913,3.351096713285926
1.403864491844416e-06,0.004113390619420913,3.38086229044198
1.413864491844417e-06,0.003445401752063777,3.384582987586502
1.423864491844419e-06,0.005115373920456617,3.377141593297485
1.433864491844421e-06,0.00611735722149232,3.395745079020027
1.443864491844422e-06,0.005115373920456313,3.358538107574958
1.453864491844417e-06,0.004447385053099481,3.392024381875518
1.463864491844419e-06,0.005115373920456617,3.38830368473101
1.47386449184442e-06,0.005449368354135184,3.354817410430434
1.483864491844422e-06,0.006117357221490954,3.406907170453532
1.493864491844417e-06,0.003111407318386576,3.362258804719472
1.503864491844418e-06,0.00778732938988516,3.395745079020027
1.51386449184442e-06,0.006451351655170888,3.406907170453553
1.523864491844422e-06,0.00645135165517104,3.354817410430456
1.533864491844416e-06,0.006785346088849304,3.403186473309022
1.543864491844418e-06,0.00611735722149232,3.36597950186396
1.55386449184442e-06,0.007453334956206592,3.399465776164535
1.563864491844421e-06,0.005783362787813752,3.38830368473101
1.573864491844416e-06,0.007119340522527417,3.358538107574956
1.583864491844418e-06,0.007119340522528024,3.410627867598061
1.593864491844419e-06,0.004447385053099481,3.373420896152977
1.603864491844421e-06,0.00778732938988516,3.384582987586502
1.613864491844422e-06,0.005449368354136399,3.395745079020014
1.623864491844417e-06,0.008121323823563727,3.36597950186396
1.633864491844419e-06,0.004113390619420913,3.403186473309044
1.64386449184442e-06,0.006785346088849456,3.354817410430434
1.653864491844422e-06,0.007787329389885008,3.384582987586502
1.663864491844417e-06,0.007453334956206592,3.384582987586502
1.673864491844418e-06,0.006451351655170888,3.36597950186396
1.68386449184442e-06,0.00778732938988516,3.403186473309044
1.693864491844422e-06,0.006117357221493384,3.343655318996934
1.703864491844416e-06,0.008455318257241232,3.39946577616451
1.713864491844418e-06,0.006451351655170888,3.399465776164535
1.72386449184442e-06,0.008789312690920863,3.362258804719451
1.733864491844421e-06,0.007453334956206592,3.406907170453553
1.743864491844416e-06,0.00511537392045768,3.347376016141444
1.753864491844418e-06,0.007453334956206592,3.384582987586502
1.763864491844419e-06,0.006785346088849456,3.38830368473101
1.773864491844421e-06,0.007453334956206592,3.347376016141417
1.783864491844416e-06,0.006785346088849759,3.406907170453525
1.793864491844417e-06,0.006451351655170888,3.351096713285926
1.803864491844419e-06,0.006785346088849456,3.392024381875518
1.81386449184442e-06,0.007453334956206592,3.392024381875518
1.823864491844422e-06,0.007453334956205985,3.362258804719473
1.833864491844417e-06,0.00611735722149232,3.410627867598061
1.843864491844418e-06,0.006451351655170888,3.358538107574943
1.85386449184442e-06,0.00778732938988516,3.377141593297485
1.863864491844422e-06,0.005449368354135944,3.39202438187551
1.873864491844416e-06,0.007119340522527265,3.373420896152985
1.883864491844418e-06,0.00611735722149232,3.406907170453553
1.89386449184442e-06,0.007453334956206592,3.347376016141417
1.903864491844421e-06,0.007453334956206592,3.384582987586502
1.913864491844416e-06,0.004781379486779264,3.395745079020022
1.923864491844418e-06,0.00611735722149232,3.354817410430434
1.933864491844419e-06,0.006785346088849456,3.41434856474257
1.943864491844421e-06,0.007119340522528024,3.358538107574943
1.953864491844416e-06,0.007119340522528024,3.392024381875503
1.963864491844417e-06,0.008121323823563727,3.392024381875518
1.973864491844419e-06,0.006451351655170888,3.36597950186396
1.983864491844421e-06,0.008789312690920863,3.395745079020027
1.993864491844422e-06,0.006451351655171344,3.354817410430451
2.003864491844417e-06,0.007453334956206592,3.392024381875518
2.013864491844419e-06,0.004447385053099481,3.38830368473101
2.02386449184442e-06,0.005783362787813752,3.358538107574943
2.033864491844422e-06,0.006451351655170433,3.399465776164515
2.043864491844417e-06,0.00544936835413564,3.354817410430455
2.053864491844418e-06,0.006451351655170888,3.380862290441993
2.06386449184442e-06,0.00611735722149232,3.36597950186396
2.073864491844421e-06,0.006451351655170736,3.339934621852422
2.083864491844416e-06,0.006117357221492472,3.388303684730988
2.093864491844418e-06,0.007119340522528024,3.3399346218524
2.103864491844419e-06,0.006785346088849456,3.384582987586502
2.113864491844421e-06,0.00778732938988516,3.373420896152977
2.123864491844416e-06,0.006451351655171496,3.365979501863963
2.133864491844417e-06,0.008121323823563727,3.38830368473101
2.143864491844419e-06,0.008121323823563727,3.336213924707892
2.153864491844421e-06,0.009123307124599432,3.36597950186396
2.163864491844422e-06,0.007119340522528936,3.377141593297472
2.173864491844417e-06,0.009123307124599432,3.347376016141417
2.183864491844419e-06,0.008455318257242295,3.392024381875518
2.19386449184442e-06,0.008789312690920863,3.3399346218524
2.203864491844422e-06,0.009791295991954897,3.373420896152975
