traces_bank_current_trigger/benchmark_traces/fibonacci_100MHz_40/fib_8.csv

#Digilent WaveForms Oscilloscope Acquisition
#Device Name: Discovery2
#Serial Number: SN:210321B3D813
#Date Time: 2023-07-20 11:25:05.406
#Sample rate: 1e+08Hz
#Samples: 8192
#Trigger: Source: Channel 2 Type: Edge Condition: Rising Level: 2 V Hyst.: Auto HoldOff: 0 s
#Channel 1: Range: 10 mV/div Offset: 0 V Attenuation: 1 X Sample Mode: Average
#Channel 2: Range: 5 V/div Offset: 0 V Attenuation: 1 X Sample Mode: Average

Time (s),Channel 1 (V),Channel 2 (V)
-9.560952380952378e-07,0.007119340522528024,-0.02357559678323757
-9.460952380952362e-07,0.008121323823563727,0.03223486038438916
-9.360952380952346e-07,0.0064513516551718,0.002469283228326648
-9.260952380952397e-07,0.008455318257241384,0.01363137466184184
-9.160952380952381e-07,0.006785346088849456,0.02479346609537227
-9.060952380952366e-07,0.004781379486778049,-0.01241350534971222
-8.96095238095235e-07,0.006451351655170888,0.05827974039594831
-8.860952380952401e-07,0.006451351655170888,-0.01613420249418684
-8.760952380952385e-07,0.006451351655170888,-0.001251413916186876
-8.660952380952369e-07,0.005783362787813752,0.03967625467340606
-8.560952380952353e-07,0.005449368354135184,-0.03473768821676292
-8.460952380952337e-07,0.007453334956206288,0.04711764896239927
-8.360952380952389e-07,0.006785346088849456,-0.004972111060695325
-8.260952380952373e-07,0.00611735722149232,0.03223486038438916
-8.160952380952357e-07,0.00611735722149232,0.04339695181791451
-8.060952380952341e-07,0.005115373920457984,-0.0421790825057409
-7.960952380952393e-07,0.00812132382356236,0.04339695181787559
-7.860952380952377e-07,0.004781379486778049,-0.01241350534971222
-7.760952380952361e-07,0.006785346088849456,0.01363137466184692
-7.660952380952345e-07,0.005449368354135184,0.05455904325140771
-7.560952380952397e-07,0.005449368354135184,-0.01613420249418852
-7.460952380952381e-07,0.006451351655170888,0.04339695181791451
-7.360952380952365e-07,0.005449368354135184,-0.004972111060695325
-7.260952380952349e-07,0.007119340522528024,0.01735207180635537
-7.160952380952401e-07,0.007119340522528024,0.03967625467339591
-7.060952380952385e-07,0.006785346088849456,-0.001251413916186876
-6.960952380952369e-07,0.007453334956206592,0.05455904325143986
-6.860952380952353e-07,0.006451351655170888,-0.01241350534971222
-6.760952380952337e-07,0.006117357221492472,0.02479346609537734
-6.660952380952388e-07,0.006451351655170888,0.03595555752889761
-6.560952380952373e-07,0.005449368354135184,-0.004972111060695325
-6.460952380952357e-07,0.006451351655170888,0.03595555752889761
-6.360952380952341e-07,0.00544936835413564,-0.01613420249421221
-6.260952380952392e-07,0.006451351655170433,0.002469283228313114
-6.160952380952376e-07,0.00778732938988516,0.04711764896242296
-6.06095238095236e-07,0.005449368354135184,-0.001251413916186876
-5.960952380952344e-07,0.007119340522527721,0.04711764896240604
-5.860952380952396e-07,0.006451351655171192,0.009910677517355387
-5.76095238095238e-07,0.006785346088849456,-0.001251413916186876
-5.660952380952364e-07,0.006785346088849456,0.05083834610693141
-5.560952380952348e-07,0.007119340522528024,-0.03473768821676292
-5.4609523809524e-07,0.007787329389884856,0.03967625467337223
-5.360952380952384e-07,0.00778732938988516,0.002469283228321573
-5.260952380952368e-07,0.00778732938988516,0.01363137466184692
-5.160952380952352e-07,0.007453334956206592,0.04711764896242296
-5.060952380952336e-07,0.007119340522528024,-0.008692808205176702
-4.960952380952388e-07,0.007119340522528024,0.05083834610693141
-4.860952380952372e-07,0.005783362787813752,0.00991067751733847
-4.760952380952356e-07,0.00611735722149232,0.02107276895086382
-4.66095238095234e-07,0.00611735722149232,0.03967625467338406
-4.560952380952392e-07,0.00611735722149232,-0.008692808205203774
-4.460952380952376e-07,0.00611735722149232,0.06944183182947365
-4.36095238095236e-07,0.004113390619420913,0.006189980372830022
-4.260952380952344e-07,0.007119340522527265,0.009910677517346931
-4.160952380952395e-07,0.005449368354135944,0.02851416323987226
-4.06095238095238e-07,0.004447385053099481,-0.01241350534971222
-3.960952380952364e-07,0.008455318257242295,0.04339695181791451
-3.860952380952348e-07,0.005115373920456617,-0.004972111060695325
-3.760952380952399e-07,0.006785346088848697,0.006189980372824946
-3.660952380952383e-07,0.006451351655170888,0.03223486038438916
-3.560952380952367e-07,0.006451351655170888,-0.03473768821676292
-3.460952380952351e-07,0.007453334956206592,0.03223486038438916
-3.360952380952335e-07,0.005115373920458439,-0.004972111060697017
-3.260952380952387e-07,0.009123307124599432,-0.008692808205203774
-3.160952380952371e-07,0.006785346088849456,0.02851416323988071
-3.060952380952355e-07,0.00778732938988516,-0.02357559678323757
-2.960952380952339e-07,0.006451351655170888,0.01363137466183677
-2.860952380952391e-07,0.006451351655170888,-0.008692808205203774
-2.760952380952375e-07,0.006451351655170888,-0.001251413916186876
-2.660952380952359e-07,0.006785346088849456,0.02479346609537227
-2.560952380952343e-07,0.007453334956206137,-0.03101699107221894
-2.460952380952395e-07,0.006451351655171344,0.04711764896238744
-2.360952380952379e-07,0.005783362787813752,-0.01613420249422067
-2.260952380952363e-07,0.005783362787813752,0.01735207180635537
-2.160952380952347e-07,0.00778732938988516,0.03967625467340606
-2.060952380952399e-07,0.005115373920457832,-0.01613420249419529
-1.960952380952383e-07,0.00778732938988516,0.03967625467340606
-1.860952380952367e-07,0.00611735722149232,-0.01241350534971222
-1.760952380952351e-07,0.006785346088849456,0.002469283228321573
-1.660952380952402e-07,0.005783362787814207,0.03223486038437563
-1.560952380952386e-07,0.006451351655170888,-0.03845838536127136
-1.460952380952371e-07,0.007119340522528024,0.03223486038438916
-1.360952380952355e-07,0.005449368354135184,-0.004972111060695325
-1.260952380952339e-07,0.006451351655170736,0.006189980372841865
-1.16095238095239e-07,0.00611735722149232,0.03223486038438916
-1.060952380952374e-07,0.005783362787813752,-0.008692808205203774
-9.609523809523584e-08,0.007453334956206592,0.04339695181791451
-8.609523809523424e-08,0.002777412884708768,-0.01613420249421221
-7.609523809523942e-08,0.007453334956204465,0.002469283228313114
-6.609523809523782e-08,0.006451351655170888,0.02107276895086382
-5.609523809523622e-08,0.006785346088849456,-0.02357559678323757
-4.609523809523462e-08,0.005783362787813448,0.03967625467339422
-3.60952380952398e-08,0.00511537392045692,0.01363137466185876
-2.60952380952382e-08,0.00611735722149232,0.01735207180635537
-1.60952380952366e-08,0.005783362787813752,0.03223486038438916
-6.095238095235004e-09,0.004447385053099481,0.09176601469652435
3.904761904759818e-09,-0.01759624756967598,3.2171516160822
1.390476190476142e-08,0.01947713456863504,3.254358587528706
2.390476190476302e-08,0.005115373920456617,3.321331136129858
3.390476190476461e-08,0.01680517909920649,3.280403467540265
4.390476190476621e-08,0.003111407318389614,3.358538107574926
5.390476190476103e-08,0.01279724589506368,3.321331136129858
6.390476190476263e-08,0.00144143514999237,3.399465776164535
7.390476190476423e-08,0.00778732938988516,3.313889741840841
8.390476190476583e-08,-0.004904459089895104,3.436672747609547
9.390476190476065e-08,0.006785346088844142,3.276682770395829
1.039047619047622e-07,-0.0005625314520790374,3.410627867598061
1.139047619047638e-07,0.00611735722149232,3.291565558973791
1.239047619047654e-07,0.002443418451031415,3.358538107574929
1.339047619047603e-07,0.009791295991953226,3.328772530418888
1.439047619047619e-07,0.005449368354135184,3.332493227563384
1.539047619047635e-07,0.008789312690920863,3.369700199008468
1.639047619047651e-07,0.003111407318385209,3.351096713285926
1.739047619047599e-07,0.007787329389883033,3.373420896152966
1.839047619047615e-07,0.001775429583670938,3.395745079020027
1.939047619047631e-07,0.002777412884706641,3.31761043898535
2.039047619047647e-07,0.001107440716313802,3.403186473309044
2.139047619047663e-07,0.00411339061941909,3.347376016141417
2.239047619047611e-07,0.0001054574152780984,3.347376016141417
2.339047619047627e-07,0.005783362787813752,3.380862290441993
2.439047619047643e-07,0.003445401752063777,3.313889741840841
2.539047619047659e-07,0.007787329389883186,3.406907170453521
2.639047619047607e-07,0.003445401752065752,3.336213924707924
2.739047619047623e-07,0.006451351655170888,3.358538107574943
2.839047619047639e-07,0.003779396185742345,3.373420896152977
2.939047619047655e-07,0.004447385053098874,3.358538107574961
3.039047619047603e-07,0.003111407318385817,3.399465776164517
3.139047619047619e-07,0.003111407318385209,3.343655318996909
3.239047619047635e-07,0.004447385053099481,3.354817410430434
3.339047619047651e-07,0.004447385053099481,3.36597950186396
3.4390476190476e-07,0.004447385053099481,3.306448347551851
3.539047619047615e-07,0.005783362787813752,3.403186473309044
3.639047619047631e-07,0.003445401752063777,3.332493227563384
3.739047619047647e-07,0.007119340522528024,3.369700199008468
3.839047619047663e-07,0.004447385053099785,3.392024381875491
3.939047619047612e-07,0.005115373920456617,3.332493227563384
4.039047619047628e-07,0.005115373920456617,3.399465776164535
4.139047619047644e-07,0.003779396185742345,3.369700199008468
4.23904761904766e-07,0.004781379486778809,3.365979501863973
4.339047619047608e-07,0.006451351655170129,3.395745079020014
4.439047619047624e-07,0.004781379486778049,3.336213924707892
4.53904761904764e-07,0.005783362787813752,3.380862290441993
4.639047619047656e-07,0.005449368354136096,3.325051833274387
4.739047619047604e-07,0.007453334956205681,3.369700199008447
4.83904761904762e-07,0.006451351655170888,3.392024381875518
4.939047619047636e-07,0.00611735722149232,3.321331136129858
5.039047619047652e-07,0.007119340522528024,3.395745079020027
5.1390476190476e-07,0.006117357221492776,3.354817410430453
5.239047619047616e-07,0.005449368354135184,3.36597950186396
5.339047619047632e-07,0.006451351655170888,3.38830368473101
5.439047619047648e-07,0.005783362787813752,3.325051833274367
5.539047619047664e-07,0.007453334956205985,3.388303684730998
5.639047619047612e-07,0.00611735722149232,3.362258804719451
5.739047619047628e-07,0.007119340522528024,3.351096713285926
5.839047619047644e-07,0.00611735722149232,3.38830368473101
5.93904761904766e-07,0.005449368354136248,3.321331136129892
6.039047619047609e-07,0.00778732938988516,3.395745079020027
6.139047619047624e-07,0.005115373920456617,3.3399346218524
6.23904761904764e-07,0.007119340522528024,3.347376016141417
6.339047619047656e-07,0.00611735722149232,3.388303684730981
6.439047619047605e-07,0.00611735722149232,3.325051833274395
6.539047619047621e-07,0.00611735722149232,3.395745079020027
6.639047619047637e-07,0.007453334956206592,3.332493227563384
6.739047619047653e-07,0.007453334956206592,3.351096713285926
6.839047619047601e-07,0.008455318257241839,3.38086229044198
6.939047619047617e-07,0.006785346088849456,3.310169044696333
7.039047619047633e-07,0.009457301558278,3.380862290441993
7.139047619047649e-07,0.007453334956206592,3.328772530418875
7.239047619047665e-07,0.007787329389885311,3.347376016141439
7.339047619047613e-07,0.008121323823563727,3.395745079020027
7.439047619047629e-07,0.004113390619420913,3.310169044696333
7.539047619047645e-07,0.009123307124599432,3.38830368473101
7.639047619047661e-07,0.005449368354137311,3.332493227563394
7.739047619047609e-07,0.01012529042563514,3.354817410430434
7.839047619047625e-07,0.00778732938988516,3.38830368473101
7.939047619047641e-07,0.00611735722149232,3.31761043898535
8.039047619047657e-07,0.00745333495620644,3.384582987586485
8.139047619047605e-07,0.007119340522528176,3.347376016141434
8.239047619047621e-07,0.01012529042563514,3.358538107574943
8.339047619047637e-07,0.008789312690920863,3.384582987586502
8.439047619047653e-07,0.006451351655170888,3.31761043898535
8.539047619047602e-07,0.008455318257241384,3.399465776164498
8.639047619047617e-07,0.00611735722149232,3.347376016141417
8.739047619047633e-07,0.006785346088849456,3.373420896152977
8.839047619047649e-07,0.00611735722149232,3.38830368473101
8.939047619047598e-07,0.005783362787813904,3.325051833274395
9.039047619047614e-07,0.008121323823563727,3.406907170453553
9.13904761904763e-07,0.007119340522528024,3.347376016141417
9.239047619047646e-07,0.009457301558278,3.373420896152977
9.339047619047662e-07,0.006117357221493687,3.39574507902
9.43904761904761e-07,0.009123307124599432,3.336213924707892
9.539047619047626e-07,0.006451351655170888,3.41434856474257
9.639047619047642e-07,0.00611735722149232,3.362258804719451
9.739047619047658e-07,0.008455318257241688,3.365979501863975
9.839047619047606e-07,0.007119340522528632,3.39946577616452
9.939047619047622e-07,0.007119340522528024,3.343655318996909
1.003904761904764e-06,0.007119340522528024,3.38830368473101
1.013904761904765e-06,0.0064513516551718,3.365979501863955
1.02390476190476e-06,0.008455318257241384,3.354817410430439
1.033904761904762e-06,0.00611735722149232,3.38830368473101
1.043904761904763e-06,0.004781379486778049,3.3399346218524
1.053904761904765e-06,0.00778732938988516,3.395745079020027
1.06390476190476e-06,0.005449368354136248,3.354817410430453
1.073904761904761e-06,0.00778732938988516,3.380862290441993
1.083904761904763e-06,0.005449368354135184,3.384582987586502
1.093904761904765e-06,0.007119340522528024,3.336213924707892
1.103904761904766e-06,0.006785346088849152,3.41062786759804
1.113904761904761e-06,0.00611735722149232,3.36597950186396
1.123904761904763e-06,0.008121323823563727,3.38830368473101
1.133904761904764e-06,0.004781379486778049,3.406907170453553
1.143904761904766e-06,0.00645135165517104,3.332493227563431
1.153904761904761e-06,0.006785346088849304,3.436672747609573
1.163904761904762e-06,0.006451351655170888,3.347376016141417
1.173904761904764e-06,0.008455318257242295,3.384582987586502
1.183904761904765e-06,0.006117357221492472,3.399465776164507
1.19390476190476e-06,0.006451351655170736,3.336213924707921
1.203904761904762e-06,0.008789312690920863,3.399465776164535
1.213904761904763e-06,0.009123307124599432,3.354817410430434
1.223904761904765e-06,0.008121323823563727,3.384582987586502
1.23390476190476e-06,0.007787329389885311,3.406907170453542
1.243904761904761e-06,0.008121323823563727,3.328772530418875
1.253904761904763e-06,0.007453334956206592,3.429231353320603
1.263904761904765e-06,0.005783362787813752,3.36597950186396
1.273904761904766e-06,0.007453334956205832,3.388303684731025
1.283904761904761e-06,0.005783362787813752,3.421789959031586
1.293904761904763e-06,0.005115373920456617,3.351096713285926
1.303904761904764e-06,0.009791295991956567,3.403186473309044
1.313904761904766e-06,0.007119340522528176,3.369700199008476
1.323904761904761e-06,0.00745333495620644,3.388303684731002
1.333904761904762e-06,0.008789312690920863,3.43667274760962
1.343904761904764e-06,0.006451351655170888,3.351096713285926
1.353904761904766e-06,0.008455318257241232,3.429231353320578
1.36390476190476e-06,0.006117357221493384,3.373420896153002
1.373904761904762e-06,0.009123307124599432,3.395745079020027
1.383904761904764e-06,0.007453334956206592,3.418069261887078
1.393904761904765e-06,0.007453334956206592,3.354817410430434
1.40390476190476e-06,0.008455318257241839,3.414348564742542
1.413904761904762e-06,0.006451351655170888,3.380862290441993
1.423904761904763e-06,0.009123307124599432,3.395745079020027
1.433904761904765e-06,0.00778732938988516,3.41434856474257
1.443904761904766e-06,0.008121323823564031,3.354817410430465
1.453904761904761e-06,0.008789312690920863,3.421789959031586
1.463904761904763e-06,0.005449368354135184,3.358538107574943
1.473904761904764e-06,0.00778732938988516,3.380862290441993
1.483904761904766e-06,0.0077873293898844,3.410627867598039
1.493904761904761e-06,0.006117357221493079,3.362258804719473
1.503904761904762e-06,0.008455318257242295,3.421789959031586
1.513904761904764e-06,0.00778732938988516,3.36597950186396
1.523904761904766e-06,0.008789312690920559,3.384582987586515
1.53390476190476e-06,0.008121323823564031,3.414348564742556
1.543904761904762e-06,0.006785346088849456,3.3399346218524
1.553904761904764e-06,0.009791295991956567,3.429231353320603
1.563904761904765e-06,0.006451351655170888,3.358538107574943
1.57390476190476e-06,0.008789312690919799,3.392024381875503
1.583904761904762e-06,0.009123307124599432,3.421789959031586
1.593904761904763e-06,0.008121323823563727,3.347376016141417
1.603904761904765e-06,0.0104592848593137,3.425510656176095
1.613904761904766e-06,0.008121323823564791,3.380862290442005
1.623904761904761e-06,0.0104592848593137,3.406907170453553
1.633904761904763e-06,0.0104592848593137,3.410627867598061
1.643904761904764e-06,0.01079327929299227,3.343655318996909
1.653904761904766e-06,0.01179526259402797,3.429231353320574
1.663904761904761e-06,0.01179526259402797,3.36597950186396
1.673904761904762e-06,0.01079327929299227,3.403186473309044
1.683904761904764e-06,0.01279724589506368,3.406907170453553
1.693904761904766e-06,0.01246325146138435,3.351096713285954
1.70390476190476e-06,0.01079327929299303,3.414348564742541
1.713904761904762e-06,0.009457301558278,3.369700199008468
1.723904761904764e-06,0.0104592848593137,3.392024381875518
1.733904761904765e-06,0.0104592848593137,3.421789959031586
1.74390476190476e-06,0.009123307124600039,3.354817410430465
1.753904761904762e-06,0.01179526259402797,3.421789959031586
1.763904761904763e-06,0.009123307124599432,3.373420896152977
1.773904761904765e-06,0.009791295991956567,3.38830368473101
1.78390476190476e-06,0.009123307124599736,3.418069261887065
1.793904761904761e-06,0.008455318257242295,3.347376016141417
1.803904761904763e-06,0.008789312690920863,3.432952050465111
1.813904761904765e-06,0.007119340522528024,3.36597950186396
1.823904761904766e-06,0.008455318257242902,3.380862290442006
1.833904761904761e-06,0.009791295991956567,3.410627867598061
1.843904761904763e-06,0.008121323823563727,3.343655318996909
1.853904761904764e-06,0.008789312690920863,3.432952050465111
1.863904761904766e-06,0.007119340522528328,3.354817410430443
1.873904761904761e-06,0.007787329389884856,3.373420896152968
1.883904761904762e-06,0.008455318257242295,3.403186473309044
1.893904761904764e-06,0.006785346088849456,3.351096713285926
1.903904761904765e-06,0.008789312690920863,3.432952050465111
1.91390476190476e-06,0.007787329389885615,3.351096713285963
1.923904761904762e-06,0.00778732938988516,3.369700199008468
1.933904761904763e-06,0.008455318257242295,3.395745079020027
1.943904761904765e-06,0.007119340522528024,3.347376016141417
1.95390476190476e-06,0.008789312690920103,3.414348564742539
1.963904761904761e-06,0.006451351655170888,3.354817410430434
1.973904761904763e-06,0.008455318257242295,3.377141593297485
1.983904761904765e-06,0.007119340522528024,3.403186473309044
1.993904761904766e-06,0.006785346088849911,3.354817410430461
2.003904761904761e-06,0.00778732938988516,3.41434856474257
2.013904761904763e-06,0.007453334956206592,3.358538107574943
2.023904761904764e-06,0.008455318257242295,3.36597950186396
2.033904761904766e-06,0.00778732938988516,3.406907170453522
2.043904761904761e-06,0.00778732938988516,3.339934621852431
2.053904761904762e-06,0.007453334956206592,3.425510656176095
2.063904761904764e-06,0.00611735722149232,3.362258804719451
2.073904761904765e-06,0.008455318257241535,3.38086229044201
2.08390476190476e-06,0.006785346088850215,3.418069261887061
2.093904761904762e-06,0.007453334956206592,3.347376016141417
2.103904761904763e-06,0.008121323823563727,3.41434856474257
2.113904761904765e-06,0.005783362787813752,3.373420896152977
2.12390476190476e-06,0.007787329389884249,3.38086229044199
2.133904761904761e-06,0.00778732938988516,3.406907170453553
2.143904761904763e-06,0.006785346088849456,3.336213924707892
2.153904761904765e-06,0.007119340522528024,3.418069261887078
2.163904761904766e-06,0.005449368354135488,3.354817410430438
2.173904761904761e-06,0.00611735722149232,3.362258804719451
2.183904761904763e-06,0.005449368354135184,3.418069261887078
2.193904761904764e-06,0.00611735722149232,3.3399346218524
2.203904761904766e-06,0.006117357221491713,3.414348564742541
