traces_bank_current_trigger/sampling_freq_100MHz/LSL/LSL_3.csv

#Digilent WaveForms Oscilloscope Acquisition
#Device Name: Discovery2
#Serial Number: SN:210321B3D813
#Date Time: 2023-06-14 16:51:42.610
#Sample rate: 1e+08Hz
#Samples: 8192
#Trigger: Source: Channel 2 Type: Edge Condition: Rising Level: 2 V Hyst.: Auto HoldOff: 0 s
#Channel 1: Range: 5 mV/div Offset: 0 V Attenuation: 1 X Sample Mode: Average
#Channel 2: Range: 2 V/div Offset: 0 V Attenuation: 1 X Sample Mode: Average

Time (s),Channel 1 (V),Channel 2 (V)
-9.519630872483229e-07,0.006451351655170888,0.02479346609537227
-9.419630872483213e-07,0.004781379486778049,0.00991067751733847
-9.319630872483197e-07,0.008121323823562664,0.02479346609536719
-9.219630872483249e-07,0.005783362787814815,0.013631374661852
-9.119630872483233e-07,0.005115373920456617,0.01735207180635537
-9.019630872483217e-07,0.005449368354135184,0.04339695181791451
-8.919630872483201e-07,0.005115373920456617,0.002469283228321573
-8.819630872483253e-07,0.006785346088848697,0.03223486038437563
-8.719630872483237e-07,0.006451351655170888,0.01363137466184692
-8.619630872483221e-07,0.004781379486778049,0.03595555752889761
-8.519630872483205e-07,0.004113390619420913,0.03967625467340606
-8.419630872483189e-07,0.005115373920457376,0.009910677517345238
-8.319630872483241e-07,0.006785346088849456,0.02479346609537227
-8.219630872483225e-07,0.005115373920456617,0.02851416323988071
-8.119630872483209e-07,0.00611735722149232,0.00991067751733847
-8.019630872483193e-07,0.00511537392045692,0.03967625467338745
-7.919630872483245e-07,0.005783362787813448,-0.001251413916168266
-7.819630872483229e-07,0.006451351655170888,0.05083834610693141
-7.719630872483213e-07,0.004447385053099481,0.02107276895086382
-7.619630872483197e-07,0.005783362787812537,0.01735207180636383
-7.519630872483249e-07,0.003111407318386424,0.03595555752888915
-7.419630872483233e-07,0.004781379486778049,0.006189980372830022
-7.319630872483217e-07,0.005115373920456617,0.03223486038438916
-7.219630872483201e-07,0.004447385053099481,0.02851416323988071
-7.119630872483252e-07,0.005115373920456313,0.009910677517346929
-7.019630872483236e-07,0.006451351655170888,0.04711764896242296
-6.91963087248322e-07,0.004113390619420913,-0.004972111060695325
-6.819630872483204e-07,0.005783362787813752,0.03595555752889761
-6.719630872483188e-07,0.002443418451028985,0.013631374661852
-6.61963087248324e-07,0.004447385053099481,0.02479346609537227
-6.519630872483224e-07,0.005115373920456617,0.03223486038438916
-6.419630872483208e-07,0.005115373920456617,0.00991067751733847
-6.319630872483192e-07,0.004447385053100241,0.0322348603843807
-6.219630872483244e-07,0.006117357221491562,0.01363137466185538
-6.119630872483228e-07,0.004447385053099481,0.02479346609537227
-6.019630872483212e-07,0.004447385053099481,0.03967625467340606
-5.919630872483196e-07,0.003779396185743256,0.009910677517350315
-5.819630872483248e-07,0.005783362787812841,0.03595555752888577
-5.719630872483232e-07,0.005115373920456617,0.006189980372830022
-5.619630872483216e-07,0.005115373920456617,0.00991067751733847
-5.5196308724832e-07,0.005115373920456617,0.03967625467340606
-5.419630872483252e-07,0.006117357221491865,0.00246928322833849
-5.319630872483236e-07,0.006785346088849456,0.05083834610693141
-5.21963087248322e-07,0.005115373920456617,0.02479346609537227
-5.119630872483204e-07,0.005449368354135184,0.03223486038438916
-5.019630872483188e-07,0.002777412884707856,0.06200043754042969
-4.91963087248324e-07,0.005449368354135184,0.002469283228321573
-4.819630872483224e-07,0.00611735722149232,0.03595555752889761
-4.719630872483208e-07,0.004781379486778049,0.02107276895086382
-4.619630872483192e-07,0.004447385053099937,0.01363137466184861
-4.519630872483243e-07,0.005449368354135184,0.01735207180635537
-4.419630872483227e-07,0.005783362787813752,-0.004972111060695325
-4.319630872483211e-07,0.006451351655170888,0.02479346609537227
-4.219630872483195e-07,0.005783362787813904,0.00991067751733847
-4.119630872483247e-07,0.006117357221492169,0.00991067751733847
-4.019630872483231e-07,0.004447385053099481,0.05083834610693141
-3.919630872483215e-07,0.005449368354135184,-0.01241350534971222
-3.819630872483199e-07,0.004447385053099481,0.04339695181791451
-3.719630872483251e-07,0.007119340522526809,0.01363137466186045
-3.619630872483235e-07,0.006785346088849456,0.00991067751733847
-3.519630872483219e-07,0.004781379486778049,0.03223486038438916
-3.419630872483203e-07,0.005783362787813752,0.006189980372830022
-3.319630872483187e-07,0.007119340522527113,0.02479346609537396
-3.219630872483239e-07,0.005115373920456617,0.02851416323988071
-3.119630872483223e-07,0.006451351655170888,0.002469283228321573
-3.019630872483207e-07,0.007119340522528024,0.05083834610693141
-2.919630872483191e-07,0.004781379486779112,-0.001251413916171648
-2.819630872483243e-07,0.007119340522528024,0.03223486038438916
-2.719630872483227e-07,0.00611735722149232,0.02479346609537227
-2.619630872483211e-07,0.005783362787813752,0.01363137466184692
-2.519630872483195e-07,0.005783362787814207,0.035955557528879
-2.419630872483247e-07,0.006785346088849,-0.004972111060676715
-2.319630872483231e-07,0.00778732938988516,0.02479346609537227
-2.219630872483215e-07,0.006785346088849456,0.02107276895086382
-2.119630872483199e-07,0.007453334956206592,0.00991067751733847
-2.01963087248325e-07,0.006785346088849759,0.03967625467339253
-1.919630872483234e-07,0.008455318257242295,0.00991067751733847
-1.819630872483218e-07,0.005783362787813752,0.03967625467340606
-1.719630872483202e-07,0.007119340522528024,0.02107276895086382
-1.619630872483254e-07,0.007119340522528024,0.01735207180635706
-1.519630872483238e-07,0.006785346088849456,0.05827974039594831
-1.419630872483222e-07,0.006451351655170888,0.002469283228321573
-1.319630872483206e-07,0.008121323823563727,0.04339695181791451
-1.21963087248319e-07,0.007787329389884856,0.0136313746618503
-1.119630872483242e-07,0.007119340522528024,0.02107276895086382
-1.019630872483226e-07,0.007453334956206592,0.04711764896242296
-9.196308724832101e-08,0.008121323823563727,0.002469283228321573
-8.196308724831941e-08,0.008455318257241991,0.03223486038437225
-7.196308724832459e-08,0.007787329389885463,-0.004972111060678408
-6.196308724832299e-08,0.005783362787813752,0.00991067751733847
-5.196308724832139e-08,0.00778732938988516,0.03967625467340606
-4.196308724831979e-08,0.007119340522527569,-0.01613420249420037
-3.196308724832497e-08,0.006117357221492776,0.02851416323986041
-2.196308724832337e-08,0.00611735722149232,0.01735207180635537
-1.196308724832177e-08,0.00611735722149232,0.006189980372830022
-1.963087248320176e-09,-0.01191834219715034,1.561441386777362
8.036912751674646e-09,0.01580319579815818,3.778976884903389
1.803691275167624e-08,0.00611735722149232,3.016233970280165
2.803691275167784e-08,0.01246325146138511,3.332493227563384
3.803691275167944e-08,0.009123307124599432,3.313889741840841
4.803691275168104e-08,0.01246325146138116,3.310169044696377
5.803691275167586e-08,0.003779396185742345,3.406907170453553
6.803691275167746e-08,0.005449368354135184,3.31761043898535
7.803691275167906e-08,0.001775429583670938,3.43667274760962
8.803691275168066e-08,0.005115373920454794,3.295286256118345
9.803691275167548e-08,0.001107440716315624,3.395745079019981
1.080369127516771e-07,0.003111407318385209,3.26924137610674
1.180369127516787e-07,0.004781379486778049,3.36597950186396
1.280369127516803e-07,0.007787329389885767,3.284124164684796
1.380369127516751e-07,0.009123307124598825,3.332493227563361
1.480369127516767e-07,0.007119340522528024,3.3399346218524
1.580369127516783e-07,0.00778732938988516,3.332493227563384
1.680369127516799e-07,0.008789312690920863,3.351096713285926
1.780369127516747e-07,0.006451351655171952,3.384582987586487
1.880369127516763e-07,0.004447385053099481,3.3399346218524
1.980369127516779e-07,0.002777412884706641,3.399465776164535
2.080369127516795e-07,0.005115373920456617,3.336213924707892
2.180369127516811e-07,0.006451351655170281,3.37342089615296
2.280369127516759e-07,0.005115373920456617,3.336213924707892
2.380369127516775e-07,0.007453334956206592,3.351096713285926
2.480369127516791e-07,0.009791295991956567,3.358538107574943
2.580369127516807e-07,0.00945730155827724,3.351096713285932
2.680369127516755e-07,0.00778732938988592,3.365979501863953
2.780369127516771e-07,0.005783362787813752,3.380862290441993
2.880369127516787e-07,0.005783362787813752,3.36597950186396
2.980369127516803e-07,0.005449368354135184,3.395745079020007
3.080369127516752e-07,0.005449368354135184,3.351096713285946
3.180369127516768e-07,0.005783362787813752,3.392024381875518
3.280369127516784e-07,0.005115373920456617,3.362258804719451
3.3803691275168e-07,0.007119340522528024,3.362258804719451
3.480369127516748e-07,0.006451351655171192,3.373420896152972
3.580369127516764e-07,0.008121323823563727,3.343655318996909
3.68036912751678e-07,0.00778732938988516,3.384582987586502
3.780369127516796e-07,0.008121323823563727,3.373420896152977
3.880369127516812e-07,0.005783362787814815,3.358538107574961
3.98036912751676e-07,0.008121323823563727,3.399465776164535
4.080369127516776e-07,0.006785346088849456,3.343655318996909
4.180369127516792e-07,0.009457301558278,3.380862290441993
4.280369127516808e-07,0.007119340522527569,3.354817410430431
4.380369127516756e-07,0.006117357221492776,3.347376016141421
4.480369127516772e-07,0.008455318257242295,3.38830368473101
4.580369127516788e-07,0.008789312690920863,3.3399346218524
4.680369127516804e-07,0.008121323823563575,3.380862290441985
4.780369127516752e-07,0.007787329389885311,3.36225880471946
4.880369127516768e-07,0.008121323823563727,3.354817410430434
4.980369127516784e-07,0.006785346088849456,3.399465776164535
5.0803691275168e-07,0.007453334956206592,3.358538107574943
5.180369127516748e-07,0.006451351655171344,3.392024381875503
5.280369127516764e-07,0.007119340522528024,3.351096713285926
5.38036912751678e-07,0.006451351655170888,3.377141593297485
5.480369127516796e-07,0.006785346088849456,3.377141593297485
5.580369127516812e-07,0.006785346088849608,3.351096713285932
5.680369127516761e-07,0.007119340522528024,3.36597950186396
5.780369127516777e-07,0.009123307124599432,3.351096713285926
5.880369127516793e-07,0.00778732938988516,3.354817410430434
5.980369127516809e-07,0.01012529042563422,3.380862290441976
6.080369127516757e-07,0.008121323823563727,3.343655318996909
6.180369127516773e-07,0.008789312690920863,3.380862290441993
6.280369127516789e-07,0.008455318257242295,3.358538107574943
6.380369127516805e-07,0.008121323823563424,3.369700199008475
6.480369127516753e-07,0.007453334956206896,3.384582987586495
6.580369127516769e-07,0.008789312690920863,3.343655318996909
6.680369127516785e-07,0.009457301558278,3.380862290441993
6.780369127516801e-07,0.008121323823563727,3.36597950186396
6.880369127516749e-07,0.008121323823563727,3.369700199008466
6.980369127516765e-07,0.006785346088849456,3.384582987586502
7.080369127516781e-07,0.007453334956206592,3.343655318996909
7.180369127516797e-07,0.005783362787813752,3.384582987586502
7.280369127516813e-07,0.006451351655170585,3.373420896152977
7.380369127516761e-07,0.005783362787813752,3.373420896152977
7.480369127516777e-07,0.006451351655170888,3.380862290441993
7.580369127516793e-07,0.00778732938988516,3.358538107574943
7.680369127516809e-07,0.006451351655170736,3.388303684731002
7.780369127516757e-07,0.00611735722149232,3.369700199008468
7.880369127516773e-07,0.007119340522528024,3.373420896152977
7.980369127516789e-07,0.006785346088849456,3.377141593297485
8.080369127516805e-07,0.007119340522527721,3.347376016141434
8.180369127516754e-07,0.006451351655171192,3.384582987586485
8.28036912751677e-07,0.007119340522528024,3.36597950186396
8.380369127516786e-07,0.007119340522528024,3.362258804719451
8.480369127516802e-07,0.008121323823563727,3.38830368473101
8.58036912751675e-07,0.008789312690920559,3.369700199008476
8.680369127516766e-07,0.008455318257242295,3.384582987586502
8.780369127516782e-07,0.008455318257242295,3.369700199008468
8.880369127516798e-07,0.006785346088849456,3.347376016141417
8.980369127516746e-07,0.007453334956206288,3.373420896152965
9.080369127516762e-07,0.009123307124599432,3.343655318996909
9.180369127516778e-07,0.009123307124599432,3.36597950186396
9.280369127516794e-07,0.006451351655170888,3.354817410430434
9.38036912751681e-07,0.008789312690919799,3.358538107574956
9.480369127516758e-07,0.006451351655170888,3.38830368473101
9.580369127516774e-07,0.008121323823563727,3.347376016141417
9.68036912751679e-07,0.01012529042563514,3.373420896152977
9.780369127516806e-07,0.007787329389885767,3.377141593297473
9.880369127516754e-07,0.009123307124598825,3.351096713285938
9.98036912751677e-07,0.008789312690920863,3.395745079020027
1.008036912751679e-06,0.009457301558278,3.351096713285926
1.01803691275168e-06,0.008455318257241535,3.369700199008464
1.028036912751675e-06,0.006785346088850215,3.362258804719455
1.038036912751677e-06,0.006451351655170888,3.36597950186396
1.048036912751678e-06,0.007453334956206592,3.373420896152977
1.05803691275168e-06,0.007453334956206592,3.351096713285926
1.068036912751675e-06,0.008789312690920256,3.377141593297473
1.078036912751676e-06,0.00778732938988516,3.362258804719451
1.088036912751678e-06,0.00778732938988516,3.347376016141417
1.098036912751679e-06,0.00778732938988516,3.377141593297485
1.108036912751681e-06,0.006451351655172103,3.351096713285939
1.118036912751676e-06,0.009123307124599432,3.380862290441993
1.128036912751677e-06,0.007119340522528024,3.380862290441993
1.138036912751679e-06,0.008455318257242295,3.354817410430434
1.148036912751681e-06,0.007453334956206592,3.380862290441983
1.158036912751675e-06,0.007453334956206592,3.358538107574953
1.168036912751677e-06,0.009791295991956567,3.395745079020027
1.178036912751679e-06,0.008789312690920863,3.358538107574943
1.18803691275168e-06,0.006451351655171495,3.377141593297495
1.198036912751675e-06,0.007787329389884553,3.399465776164525
1.208036912751677e-06,0.00778732938988516,3.362258804719451
1.218036912751678e-06,0.009123307124599432,3.392024381875518
1.22803691275168e-06,0.006785346088849456,3.377141593297485
1.238036912751675e-06,0.007787329389884704,3.377141593297485
1.248036912751676e-06,0.008121323823563727,3.384582987586502
1.258036912751678e-06,0.007453334956206592,3.369700199008468
1.26803691275168e-06,0.006785346088849456,3.392024381875518
1.278036912751681e-06,0.007119340522527721,3.369700199008476
1.288036912751676e-06,0.006451351655170888,3.38830368473101
1.298036912751678e-06,0.005783362787813752,3.395745079020027
1.308036912751679e-06,0.005783362787813752,3.362258804719451
1.318036912751681e-06,0.007119340522527873,3.377141593297483
1.328036912751676e-06,0.006785346088849608,3.373420896152978
1.338036912751677e-06,0.007453334956206592,3.354817410430434
1.348036912751679e-06,0.00611735722149232,3.410627867598061
1.35803691275168e-06,0.005783362787814664,3.354817410430455
1.368036912751675e-06,0.007787329389884249,3.399465776164515
1.378036912751677e-06,0.00611735722149232,3.392024381875518
1.388036912751678e-06,0.005783362787813752,3.384582987586502
1.39803691275168e-06,0.004781379486778049,3.421789959031586
1.408036912751675e-06,0.006451351655170129,3.395745079020039
1.418036912751676e-06,0.006451351655170888,3.399465776164535
1.428036912751678e-06,0.006451351655170888,3.369700199008468
1.43803691275168e-06,0.00611735722149232,3.369700199008468
1.448036912751681e-06,0.005783362787814207,3.399465776164522
1.458036912751676e-06,0.006785346088849456,3.369700199008468
1.468036912751678e-06,0.007453334956206592,3.380862290441993
1.478036912751679e-06,0.004113390619420913,3.395745079020027
1.488036912751681e-06,0.007453334956206137,3.380862290442005
1.498036912751676e-06,0.006451351655171344,3.406907170453541
1.508036912751677e-06,0.006451351655170888,3.377141593297485
1.518036912751679e-06,0.006785346088849456,3.410627867598061
1.52803691275168e-06,0.006451351655171344,3.395745079020024
1.538036912751675e-06,0.007453334956206137,3.388303684731014
1.548036912751677e-06,0.00778732938988516,3.399465776164535
1.558036912751678e-06,0.00611735722149232,3.36597950186396
1.56803691275168e-06,0.008121323823563727,3.399465776164535
1.578036912751675e-06,0.006785346088850064,3.395745079020029
1.588036912751676e-06,0.006451351655170888,3.377141593297485
1.598036912751678e-06,0.006785346088849456,3.403186473309044
1.60803691275168e-06,0.005783362787813752,3.377141593297485
1.618036912751681e-06,0.008455318257240624,3.399465776164529
1.628036912751676e-06,0.004781379486778049,3.384582987586502
1.638036912751678e-06,0.005449368354135184,3.373420896152977
1.648036912751679e-06,0.005449368354135184,3.403186473309044
1.658036912751681e-06,0.005783362787814815,3.36597950186398
1.668036912751676e-06,0.008121323823563727,3.410627867598061
1.678036912751677e-06,0.004447385053099481,3.36597950186396
1.688036912751679e-06,0.006451351655170888,3.38830368473101
1.69803691275168e-06,0.004781379486779112,3.406907170453529
1.708036912751675e-06,0.007119340522526961,3.354817410430458
1.718036912751677e-06,0.00778732938988516,3.403186473309044
1.728036912751679e-06,0.00611735722149232,3.395745079020027
1.73803691275168e-06,0.00778732938988516,3.377141593297485
1.748036912751675e-06,0.006785346088849911,3.425510656176073
1.758036912751677e-06,0.007119340522528024,3.377141593297485
1.768036912751678e-06,0.00778732938988516,3.38830368473101
1.77803691275168e-06,0.00778732938988516,3.380862290441993
1.788036912751675e-06,0.005783362787814663,3.377141593297487
1.798036912751676e-06,0.007119340522528024,3.395745079020027
1.808036912751678e-06,0.006451351655170888,3.373420896152977
1.818036912751679e-06,0.007119340522528024,3.41434856474257
1.828036912751681e-06,0.007453334956206137,3.384582987586507
1.838036912751676e-06,0.006451351655170888,3.395745079020027
1.848036912751677e-06,0.005783362787813752,3.399465776164535
1.858036912751679e-06,0.006785346088849456,3.369700199008468
1.868036912751681e-06,0.009457301558276329,3.406907170453544
1.878036912751675e-06,0.005783362787815422,3.388303684731019
1.888036912751677e-06,0.007453334956206592,3.384582987586502
1.898036912751679e-06,0.007119340522528024,3.421789959031586
1.90803691275168e-06,0.008455318257242295,3.377141593297485
1.918036912751675e-06,0.007119340522528632,3.399465776164525
1.928036912751677e-06,0.007453334956206592,3.38830368473101
1.938036912751678e-06,0.008455318257242295,3.392024381875518
1.94803691275168e-06,0.006451351655170888,3.41434856474257
1.958036912751675e-06,0.006785346088849304,3.365979501863982
1.968036912751676e-06,0.00778732938988516,3.410627867598061
1.978036912751678e-06,0.008121323823563727,3.392024381875518
1.988036912751679e-06,0.006451351655170888,3.395745079020027
1.998036912751681e-06,0.006451351655170888,3.410627867598049
2.008036912751676e-06,0.006451351655170888,3.384582987586502
2.018036912751677e-06,0.008455318257242295,3.425510656176095
2.028036912751679e-06,0.006451351655170888,3.377141593297485
2.038036912751681e-06,0.007119340522527569,3.388303684731022
2.048036912751675e-06,0.006117357221492776,3.414348564742558
2.058036912751677e-06,0.007119340522528024,3.373420896152977
2.068036912751679e-06,0.009123307124599432,3.410627867598061
2.07803691275168e-06,0.006117357221492928,3.399465776164529
2.088036912751675e-06,0.007453334956205985,3.384582987586509
2.098036912751677e-06,0.006785346088849456,3.418069261887078
2.108036912751678e-06,0.005783362787813752,3.384582987586502
2.11803691275168e-06,0.008789312690920863,3.399465776164535
2.128036912751675e-06,0.007453334956207199,3.406907170453549
2.138036912751676e-06,0.007453334956206592,3.369700199008468
2.148036912751678e-06,0.00778732938988516,3.444114141898637
2.158036912751679e-06,0.00778732938988516,3.358538107574943
2.168036912751681e-06,0.008455318257242295,3.392024381875514
2.178036912751676e-06,0.008455318257242295,3.380862290441993
2.188036912751677e-06,0.008455318257242295,3.377141593297485
2.198036912751679e-06,0.006451351655170888,3.41434856474257
2.208036912751681e-06,0.007453334956206744,3.354817410430456
