traces_bank_current_trigger/sampling_freq_100MHz/EOR/EOR_6.csv

#Digilent WaveForms Oscilloscope Acquisition
#Device Name: Discovery2
#Serial Number: SN:210321B3D813
#Date Time: 2023-06-14 13:42:10.929
#Sample rate: 1e+08Hz
#Samples: 8192
#Trigger: Source: Channel 2 Type: Edge Condition: Rising Level: 2 V Hyst.: Auto HoldOff: 0 s
#Channel 1: Range: 5 mV/div Offset: 0 V Attenuation: 1 X Sample Mode: Average
#Channel 2: Range: 2 V/div Offset: 0 V Attenuation: 1 X Sample Mode: Average

Time (s),Channel 1 (V),Channel 2 (V)
-9.554082840236688e-07,0.008121323823563727,0.02851416323988071
-9.454082840236672e-07,0.009457301558278,0.01363137466184692
-9.354082840236656e-07,0.008455318257242448,0.035955557528879
-9.254082840236708e-07,0.00878931269092071,-0.004972111060676715
-9.154082840236692e-07,0.008789312690920863,0.05827974039594831
-9.054082840236676e-07,0.006785346088849456,-0.001251413916186876
-8.95408284023666e-07,0.008789312690920863,0.03223486038438916
-8.854082840236712e-07,0.009123307124599279,0.02479346609537565
-8.754082840236696e-07,0.006785346088849456,0.006189980372830022
-8.65408284023668e-07,0.00778732938988516,0.04711764896242296
-8.554082840236664e-07,0.007453334956206592,0.006189980372830022
-8.454082840236648e-07,0.009457301558277544,0.03967625467340267
-8.3540828402367e-07,0.008455318257242295,0.03223486038438916
-8.254082840236684e-07,0.00778732938988516,0.00991067751733847
-8.154082840236668e-07,0.008455318257242295,0.03967625467340606
-8.054082840236652e-07,0.006785346088850063,-0.001251413916176724
-7.954082840236704e-07,0.00812132382356312,0.02107276895085367
-7.854082840236688e-07,0.008789312690920863,0.02851416323988071
-7.754082840236672e-07,0.008455318257242295,0.01363137466184692
-7.654082840236656e-07,0.00812132382356312,0.05455904325141786
-7.554082840236707e-07,0.006785346088850064,0.006189980372852018
-7.454082840236691e-07,0.008121323823563727,0.00991067751733847
-7.354082840236675e-07,0.006785346088849456,0.03223486038438916
-7.254082840236659e-07,0.00778732938988516,0.00991067751733847
-7.154082840236711e-07,0.008455318257241991,0.05827974039592631
-7.054082840236695e-07,0.006451351655170888,0.01363137466184692
-6.954082840236679e-07,0.007119340522528024,0.02479346609537227
-6.854082840236663e-07,0.007119340522528024,0.04711764896242296
-6.754082840236647e-07,0.006451351655171344,-0.00869280820517501
-6.654082840236699e-07,0.007453334956206592,0.05455904325143986
-6.554082840236683e-07,0.006451351655170888,0.00991067751733847
-6.454082840236667e-07,0.007453334956206592,0.03967625467340606
-6.354082840236651e-07,0.007119340522527873,0.02107276895085536
-6.254082840236703e-07,0.006785346088849608,0.002469283228330031
-6.154082840236687e-07,0.008121323823563727,0.05083834610693141
-6.054082840236671e-07,0.005449368354135184,0.02479346609537227
-5.954082840236655e-07,0.007787329389884248,0.02479346609539088
-5.854082840236707e-07,0.005783362787814663,0.0657211346849466
-5.754082840236691e-07,0.007119340522528024,-0.004972111060695325
-5.654082840236675e-07,0.00778732938988516,0.05827974039594831
-5.554082840236659e-07,0.008121323823563727,0.006189980372830022
-5.454082840236711e-07,0.008121323823563727,0.03223486038437732
-5.354082840236695e-07,0.005449368354135184,0.04339695181791451
-5.254082840236679e-07,0.007119340522528024,-0.001251413916186876
-5.154082840236663e-07,0.005449368354135184,0.05827974039594831
-5.054082840236647e-07,0.004113390619422128,0.01735207180636214
-4.954082840236698e-07,0.006785346088849456,0.03223486038438916
-4.854082840236682e-07,0.007119340522528024,0.03223486038438916
-4.754082840236666e-07,0.005449368354135184,0.002469283228321573
-4.65408284023665e-07,0.007453334956205225,0.03967625467339252
-4.554082840236702e-07,0.004447385053099481,0.00991067751733847
-4.454082840236686e-07,0.005115373920456617,0.01735207180635537
-4.35408284023667e-07,0.004447385053099481,0.02851416323988071
-4.254082840236654e-07,0.003779396185743712,-0.004972111060681789
-4.154082840236706e-07,0.006785346088848089,0.02479346609535873
-4.05408284023669e-07,0.003111407318385209,0.002469283228321573
-3.954082840236674e-07,0.006451351655170888,0.006189980372830022
-3.854082840236658e-07,0.004447385053099481,0.02479346609537227
-3.75408284023671e-07,0.005783362787813145,-0.01241350534969531
-3.654082840236694e-07,0.004781379486778049,0.04339695181791451
-3.554082840236678e-07,0.00611735722149232,-0.02357559678323757
-3.454082840236662e-07,0.005783362787813752,0.02107276895086382
-3.354082840236646e-07,0.005115373920457072,0.002469283228316497
-3.254082840236698e-07,0.00611735722149232,-0.008692808205203774
-3.154082840236682e-07,0.004447385053099481,0.03223486038438916
-3.054082840236666e-07,0.006451351655170888,-0.01613420249422067
-2.95408284023665e-07,0.006451351655169977,0.02107276895086551
-2.854082840236702e-07,0.004447385053099481,0.02479346609537227
-2.754082840236686e-07,0.004113390619420913,-0.01985489963872912
-2.65408284023667e-07,0.004781379486778049,0.02479346609537227
-2.554082840236654e-07,0.004447385053100393,-0.0272962939277291
-2.454082840236705e-07,0.006451351655169977,0.009910677517321553
-2.354082840236689e-07,0.006451351655170888,0.02107276895086382
-2.254082840236673e-07,0.00611735722149232,-0.03101699107225447
-2.154082840236657e-07,0.005449368354135184,0.03595555752889761
-2.054082840236709e-07,0.005115373920456768,-0.02729629392771726
-1.954082840236693e-07,0.007453334956206592,0.00991067751733847
-1.854082840236677e-07,0.004781379486778049,0.006189980372830022
-1.754082840236661e-07,0.00778732938988516,-0.01613420249422067
-1.654082840236713e-07,0.004447385053101,0.03595555752887392
-1.554082840236697e-07,0.005115373920456617,-0.01613420249422067
-1.454082840236681e-07,0.00778732938988516,0.006189980372830022
-1.354082840236665e-07,0.005115373920456617,0.01735207180635537
-1.254082840236649e-07,0.007787329389885463,-0.01985489963870882
-1.154082840236701e-07,0.008455318257242295,0.02479346609537227
-1.054082840236685e-07,0.006451351655170888,-0.03101699107225447
-9.54082840236669e-08,0.005115373920456617,0.002469283228321573
-8.54082840236653e-08,0.006451351655170736,0.00991067751732155
-7.540828402367048e-08,0.006117357221492472,-0.0272962939277291
-6.540828402366888e-08,0.006785346088849456,0.02479346609537227
-5.540828402366728e-08,0.006451351655170888,-0.01241350534971222
-4.540828402366568e-08,0.005449368354134729,0.013631374661852
-3.540828402367086e-08,0.004447385053099937,0.02479346609536719
-2.540828402366926e-08,0.004447385053099481,-0.01613420249422067
-1.540828402366766e-08,0.005115373920456617,0.03223486038438916
-5.408284023666063e-09,-0.0002285370184004695,0.296404357644489
4.591715976328759e-09,-0.005572447957255125,3.440393444752699
1.459171597633036e-08,0.009457301558278,3.131575581759927
2.459171597633196e-08,0.006451351655170888,3.280403467540265
3.459171597633355e-08,0.01546920136449222,3.284124164684774
4.459171597633515e-08,0.004781379486779264,3.299006953262821
5.459171597632997e-08,0.007453334956206592,3.328772530418875
6.459171597633157e-08,0.001775429583670938,3.38830368473101
7.459171597633317e-08,0.004781379486778049,3.343655318996909
8.459171597633477e-08,-0.001564514753112767,3.403186473309012
9.459171597632959e-08,0.002777412884704667,3.332493227563416
1.045917159763312e-07,0.001107440716313802,3.351096713285926
1.145917159763328e-07,0.007119340522528024,3.321331136129858
1.245917159763344e-07,0.003779396185744016,3.302727650407331
1.345917159763292e-07,0.007453334956204921,3.336213924707877
1.445917159763308e-07,0.004781379486778049,3.321331136129858
1.545917159763324e-07,0.0104592848593137,3.325051833274367
1.64591715976334e-07,0.004113390619420913,3.369700199008468
1.745917159763288e-07,0.005783362787812992,3.343655318996921
1.845917159763304e-07,0.004113390619420913,3.418069261887078
1.94591715976332e-07,0.003445401752063777,3.354817410430434
2.045917159763336e-07,0.004113390619420913,3.392024381875518
2.145917159763352e-07,0.003779396185743256,3.354817410430428
2.2459171597633e-07,0.005783362787813752,3.3399346218524
2.345917159763316e-07,0.008789312690920863,3.373420896152977
2.445917159763332e-07,0.005449368354135184,3.325051833274367
2.545917159763348e-07,0.006785346088849759,3.358538107574953
2.645917159763297e-07,0.007453334956206288,3.380862290441983
2.745917159763313e-07,0.008121323823563727,3.351096713285926
2.845917159763329e-07,0.006785346088849456,3.418069261887078
2.945917159763345e-07,0.006117357221491865,3.36225880471947
3.045917159763293e-07,0.005115373920457072,3.403186473309025
3.145917159763309e-07,0.005115373920456617,3.395745079020027
3.245917159763325e-07,0.005115373920456617,3.347376016141417
3.345917159763341e-07,0.00611735722149232,3.403186473309044
3.445917159763289e-07,0.008121323823562817,3.347376016141443
3.545917159763305e-07,0.007119340522528024,3.373420896152977
3.645917159763321e-07,0.008455318257242295,3.373420896152977
3.745917159763337e-07,0.008789312690920863,3.362258804719451
3.845917159763353e-07,0.007119340522527721,3.410627867598047
3.945917159763301e-07,0.006451351655170888,3.380862290441993
4.045917159763317e-07,0.007119340522528024,3.403186473309044
4.145917159763333e-07,0.006451351655170888,3.403186473309044
4.245917159763349e-07,0.00544936835413564,3.358538107574959
4.345917159763297e-07,0.006451351655170433,3.39574507902001
4.445917159763313e-07,0.00611735722149232,3.36597950186396
4.545917159763329e-07,0.007453334956206592,3.36597950186396
4.645917159763345e-07,0.006785346088850063,3.395745079020012
4.745917159763293e-07,0.00812132382356312,3.362258804719466
4.845917159763309e-07,0.008455318257242295,3.418069261887078
4.945917159763325e-07,0.005115373920456617,3.380862290441993
5.045917159763341e-07,0.007119340522528024,3.38830368473101
5.14591715976329e-07,0.00745333495620644,3.410627867598051
5.245917159763306e-07,0.005783362787813752,3.362258804719451
5.345917159763322e-07,0.005783362787813752,3.406907170453553
5.445917159763338e-07,0.004447385053099481,3.358538107574943
5.545917159763354e-07,0.008455318257240624,3.399465776164544
5.645917159763302e-07,0.004781379486778049,3.418069261887078
5.745917159763318e-07,0.006451351655170888,3.351096713285926
5.845917159763334e-07,0.008789312690920863,3.43667274760962
5.94591715976335e-07,0.006451351655171344,3.351096713285941
6.045917159763298e-07,0.007453334956206592,3.384582987586502
6.145917159763314e-07,0.007119340522528024,3.410627867598061
6.24591715976333e-07,0.006451351655170888,3.36597950186396
6.345917159763346e-07,0.007453334956205985,3.425510656176066
6.445917159763294e-07,0.006117357221492929,3.36225880471948
6.54591715976331e-07,0.008455318257242295,3.395745079020027
6.645917159763326e-07,0.006451351655170888,3.392024381875518
6.745917159763342e-07,0.00778732938988516,3.343655318996909
6.84591715976329e-07,0.00778732938988516,3.41062786759803
6.945917159763306e-07,0.006451351655170888,3.358538107574943
7.045917159763322e-07,0.008121323823563727,3.403186473309044
7.145917159763338e-07,0.006785346088849456,3.418069261887078
7.245917159763354e-07,0.005115373920457376,3.347376016141448
7.345917159763302e-07,0.006785346088849456,3.41434856474257
7.445917159763318e-07,0.006785346088849456,3.351096713285926
7.545917159763334e-07,0.00611735722149232,3.38830368473101
7.64591715976335e-07,0.005783362787813752,3.406907170453539
7.745917159763299e-07,0.005783362787813752,3.377141593297485
7.845917159763315e-07,0.005783362787813752,3.41434856474257
7.945917159763331e-07,0.005783362787813752,3.369700199008468
8.045917159763347e-07,0.007453334956206592,3.388303684731019
8.145917159763295e-07,0.007453334956206592,3.406907170453544
8.245917159763311e-07,0.005783362787813752,3.351096713285926
8.345917159763327e-07,0.006451351655170888,3.410627867598061
8.445917159763343e-07,0.005783362787813752,3.373420896152977
8.545917159763291e-07,0.008789312690919496,3.399465776164524
8.645917159763307e-07,0.006785346088849456,3.373420896152977
8.745917159763323e-07,0.007119340522528024,3.36597950186396
8.845917159763339e-07,0.008789312690920863,3.41434856474257
8.945917159763287e-07,0.006451351655171952,3.365979501863982
9.045917159763303e-07,0.007119340522528024,3.395745079020027
9.145917159763319e-07,0.007119340522528024,3.406907170453553
9.245917159763335e-07,0.00611735722149232,3.358538107574943
9.345917159763351e-07,0.006117357221491865,3.421789959031557
9.445917159763299e-07,0.005115373920456617,3.358538107574943
9.545917159763315e-07,0.006451351655170888,3.395745079020027
9.645917159763331e-07,0.005783362787813752,3.38830368473101
9.745917159763347e-07,0.00611735722149232,3.369700199008483
9.845917159763295e-07,0.00611735722149232,3.403186473309029
9.945917159763311e-07,0.005115373920456617,3.380862290441993
1.004591715976333e-06,0.007453334956206592,3.384582987586502
1.014591715976334e-06,0.006117357221491713,3.388303684730997
1.024591715976329e-06,0.004781379486778656,3.358538107574956
1.034591715976331e-06,0.006451351655170888,3.410627867598061
1.044591715976332e-06,0.005449368354135184,3.351096713285926
1.054591715976334e-06,0.007119340522528024,3.377141593297485
1.064591715976329e-06,0.006451351655171192,3.395745079020019
1.07459171597633e-06,0.005449368354135184,3.36597950186396
1.084591715976332e-06,0.007119340522528024,3.410627867598061
1.094591715976334e-06,0.005449368354135184,3.343655318996909
1.104591715976335e-06,0.007119340522528024,3.373420896152989
1.11459171597633e-06,0.007119340522528024,3.399465776164535
1.124591715976332e-06,0.00778732938988516,3.358538107574943
1.134591715976333e-06,0.007119340522528024,3.421789959031586
1.144591715976335e-06,0.004447385053101608,3.339934621852419
1.15459171597633e-06,0.009123307124597305,3.380862290441975
1.164591715976331e-06,0.007119340522528024,3.403186473309044
1.174591715976333e-06,0.006785346088849456,3.362258804719451
1.184591715976334e-06,0.008789312690920406,3.399465776164522
1.194591715976329e-06,0.007787329389885615,3.369700199008481
1.204591715976331e-06,0.009457301558278,3.384582987586502
1.214591715976332e-06,0.008455318257242295,3.392024381875518
1.224591715976334e-06,0.008789312690920863,3.358538107574943
1.234591715976329e-06,0.009123307124599279,3.40690717045353
1.24459171597633e-06,0.006451351655170888,3.362258804719451
1.254591715976332e-06,0.008455318257242295,3.38830368473101
1.264591715976334e-06,0.008455318257242295,3.399465776164535
1.274591715976335e-06,0.008455318257241839,3.347376016141444
1.28459171597633e-06,0.007453334956206592,3.406907170453553
1.294591715976332e-06,0.006451351655170888,3.358538107574943
1.304591715976333e-06,0.008121323823563727,3.392024381875518
1.314591715976335e-06,0.008789312690920559,3.388303684730998
1.32459171597633e-06,0.008121323823564031,3.362258804719463
1.334591715976331e-06,0.00778732938988516,3.392024381875518
1.344591715976333e-06,0.00611735722149232,3.358538107574943
1.354591715976334e-06,0.00812132382356312,3.384582987586507
1.364591715976329e-06,0.006785346088850064,3.395745079020022
1.374591715976331e-06,0.00611735722149232,3.354817410430434
1.384591715976332e-06,0.006451351655170888,3.410627867598061
1.394591715976334e-06,0.005783362787813752,3.347376016141417
1.404591715976329e-06,0.007453334956205832,3.377141593297472
1.414591715976331e-06,0.007119340522528024,3.380862290441993
1.424591715976332e-06,0.006451351655170888,3.369700199008468
1.434591715976334e-06,0.007453334956206592,3.395745079020027
1.444591715976335e-06,0.005783362787814512,3.351096713285936
1.45459171597633e-06,0.007453334956206592,3.373420896152977
1.464591715976332e-06,0.006451351655170888,3.380862290441993
1.474591715976333e-06,0.005115373920456617,3.3399346218524
1.484591715976335e-06,0.007453334956205529,3.403186473309017
1.49459171597633e-06,0.00511537392045768,3.343655318996936
1.504591715976331e-06,0.008455318257242295,3.36597950186396
1.514591715976333e-06,0.006451351655170888,3.380862290441993
1.524591715976335e-06,0.007453334956207199,3.351096713285949
1.534591715976329e-06,0.008789312690920256,3.40318647330902
1.544591715976331e-06,0.006451351655170888,3.358538107574943
1.554591715976333e-06,0.008121323823563727,3.377141593297485
1.564591715976334e-06,0.008121323823563727,3.377141593297485
1.574591715976329e-06,0.008455318257242142,3.347376016141431
1.584591715976331e-06,0.008789312690920863,3.395745079020027
1.594591715976332e-06,0.006785346088849456,3.358538107574943
1.604591715976334e-06,0.00778732938988516,3.373420896152977
1.614591715976335e-06,0.008455318257241535,3.403186473309023
1.62459171597633e-06,0.006785346088849456,3.358538107574943
1.634591715976332e-06,0.007453334956206592,3.395745079020027
1.644591715976333e-06,0.005783362787813752,3.362258804719451
1.654591715976335e-06,0.007119340522527265,3.388303684731008
1.66459171597633e-06,0.005449368354135184,3.384582987586502
1.674591715976331e-06,0.00778732938988516,3.351096713285926
1.684591715976333e-06,0.008121323823563727,3.418069261887078
1.694591715976335e-06,0.005783362787814664,3.358538107574953
1.704591715976329e-06,0.007787329389884249,3.380862290441983
1.714591715976331e-06,0.008121323823563727,3.399465776164535
1.724591715976333e-06,0.006785346088849456,3.3399346218524
1.734591715976334e-06,0.009457301558278,3.399465776164535
1.744591715976329e-06,0.006451351655172255,3.358538107574961
1.754591715976331e-06,0.009457301558278,3.384582987586502
1.764591715976332e-06,0.00611735722149232,3.403186473309044
1.774591715976334e-06,0.006785346088849456,3.347376016141417
1.784591715976329e-06,0.005783362787814207,3.406907170453525
1.79459171597633e-06,0.005783362787813752,3.354817410430434
1.804591715976332e-06,0.005449368354135184,3.392024381875518
1.814591715976333e-06,0.006451351655170888,3.380862290441993
1.824591715976335e-06,0.008121323823563727,3.351096713285954
1.83459171597633e-06,0.008121323823563727,3.41434856474257
1.844591715976331e-06,0.005449368354135184,3.347376016141417
1.854591715976333e-06,0.00778732938988516,3.380862290441993
1.864591715976335e-06,0.007787329389885615,3.37714159329747
1.874591715976329e-06,0.008789312690920406,3.343655318996924
1.884591715976331e-06,0.008455318257242295,3.403186473309044
1.894591715976333e-06,0.006785346088849456,3.351096713285926
1.904591715976334e-06,0.009123307124599432,3.373420896152977
1.914591715976329e-06,0.007787329389885767,3.377141593297483
1.924591715976331e-06,0.007119340522528024,3.362258804719451
1.934591715976332e-06,0.008121323823563727,3.403186473309044
1.944591715976334e-06,0.006451351655170888,3.343655318996909
1.954591715976329e-06,0.007787329389884553,3.380862290441976
1.96459171597633e-06,0.007119340522528024,3.373420896152977
1.974591715976332e-06,0.006451351655170888,3.373420896152977
1.984591715976334e-06,0.007119340522528024,3.406907170453553
1.994591715976335e-06,0.004781379486779112,3.347376016141432
2.00459171597633e-06,0.007119340522528024,3.380862290441993
2.014591715976332e-06,0.006451351655170888,3.395745079020027
2.024591715976333e-06,0.005783362787813752,3.347376016141417
2.034591715976335e-06,0.00711934052252605,3.392024381875502
2.04459171597633e-06,0.002777412884708615,3.354817410430451
2.054591715976331e-06,0.007453334956206592,3.36597950186396
2.064591715976333e-06,0.006451351655170888,3.384582987586502
2.074591715976334e-06,0.006451351655170888,3.343655318996941
2.084591715976329e-06,0.006451351655170888,3.414348564742538
2.094591715976331e-06,0.005783362787813752,3.347376016141417
2.104591715976332e-06,0.007453334956206592,3.384582987586502
2.114591715976334e-06,0.007119340522528024,3.392024381875518
2.124591715976329e-06,0.008121323823563271,3.347376016141438
2.13459171597633e-06,0.00611735722149232,3.410627867598061
2.144591715976332e-06,0.00611735722149232,3.3399346218524
2.154591715976334e-06,0.00778732938988516,3.38830368473101
2.164591715976335e-06,0.007119340522528024,3.384582987586489
2.17459171597633e-06,0.007119340522528024,3.354817410430434
2.184591715976332e-06,0.006451351655170888,3.406907170453553
2.194591715976333e-06,0.006785346088849456,3.369700199008468
2.204591715976335e-06,0.006785346088849152,3.392024381875518
