traces_bank_current_trigger/sampling_freq_100MHz/EOR/EOR_9.csv

#Digilent WaveForms Oscilloscope Acquisition
#Device Name: Discovery2
#Serial Number: SN:210321B3D813
#Date Time: 2023-06-14 13:57:21.502
#Sample rate: 1e+08Hz
#Samples: 8192
#Trigger: Source: Channel 2 Type: Edge Condition: Rising Level: 2 V Hyst.: Auto HoldOff: 0 s
#Channel 1: Range: 5 mV/div Offset: 0 V Attenuation: 1 X Sample Mode: Average
#Channel 2: Range: 2 V/div Offset: 0 V Attenuation: 1 X Sample Mode: Average

Time (s),Channel 1 (V),Channel 2 (V)
-9.557856272837957e-07,0.00778732938988516,-0.008692808205203774
-9.457856272837941e-07,0.007119340522528024,0.01735207180635537
-9.357856272837925e-07,0.007453334956206592,-0.0124135053497173
-9.257856272837977e-07,0.007453334956206592,-0.02357559678323249
-9.157856272837961e-07,0.007453334956206592,0.01363137466184692
-9.057856272837945e-07,0.005783362787813752,-0.03473768821676292
-8.957856272837929e-07,0.006785346088849456,-0.008692808205203774
-8.857856272837981e-07,0.00645135165517104,0.01363137466183677
-8.757856272837965e-07,0.006785346088849456,-0.02357559678323757
-8.657856272837949e-07,0.00778732938988516,0.02107276895086382
-8.557856272837933e-07,0.005115373920456617,-0.02729629392774602
-8.457856272837917e-07,0.007119340522527873,0.002469283228318189
-8.357856272837969e-07,0.006785346088849456,-0.004972111060695325
-8.257856272837953e-07,0.007453334956206592,-0.03473768821676292
-8.157856272837937e-07,0.00778732938988516,0.01363137466184692
-8.057856272837921e-07,0.00711934052252848,-0.01985489963871897
-7.957856272837973e-07,0.008121323823563271,0.002469283228311421
-7.857856272837957e-07,0.007453334956206592,-0.004972111060695325
-7.757856272837941e-07,0.006785346088849456,-0.01985489963872912
-7.657856272837925e-07,0.007119340522527873,0.02479346609535196
-7.557856272837976e-07,0.006785346088849608,-0.01985489963870882
-7.45785627283796e-07,0.01012529042563514,0.006189980372830022
-7.357856272837944e-07,0.005783362787813752,0.01735207180635537
-7.257856272837928e-07,0.007119340522528024,-0.01241350534971222
-7.15785627283798e-07,0.006785346088849608,0.02107276895084859
-7.057856272837964e-07,0.006451351655170888,-0.001251413916186876
-6.957856272837948e-07,0.00611735722149232,0.01363137466184692
-6.857856272837932e-07,0.007119340522528024,0.01363137466184692
-6.757856272837916e-07,0.006451351655171495,0.006189980372845249
-6.657856272837968e-07,0.00778732938988516,0.03967625467340606
-6.557856272837952e-07,0.006451351655170888,-0.008692808205203774
-6.457856272837936e-07,0.006451351655170888,0.01735207180635537
-6.35785627283792e-07,0.006117357221492776,0.05083834610690434
-6.257856272837972e-07,0.007119340522527569,-0.008692808205176705
-6.157856272837956e-07,0.006451351655170888,0.03967625467340606
-6.05785627283794e-07,0.005449368354135184,0.00991067751733847
-5.957856272837924e-07,0.007787329389883793,0.03595555752889253
-5.857856272837976e-07,0.004781379486779416,0.02479346609537734
-5.75785627283796e-07,0.006451351655170888,0.01735207180635537
-5.657856272837944e-07,0.00611735722149232,0.05083834610693141
-5.557856272837928e-07,0.005115373920456617,0.01363137466184692
-5.45785627283798e-07,0.006785346088848697,0.04339695181790097
-5.357856272837964e-07,0.006785346088849456,0.03595555752889761
-5.257856272837948e-07,0.006785346088849456,0.02851416323988071
-5.157856272837932e-07,0.007119340522528024,0.04711764896242296
-5.057856272837916e-07,0.003779396185743408,0.002469283228333416
-4.957856272837967e-07,0.00611735722149232,0.02851416323988071
-4.857856272837951e-07,0.004781379486778049,0.02107276895086382
-4.757856272837935e-07,0.006451351655170888,0.002469283228321573
-4.657856272837919e-07,0.005449368354134881,0.0657211346849263
-4.557856272837971e-07,0.004781379486778049,-0.01985489963872912
-4.457856272837955e-07,0.006785346088849456,0.01735207180635537
-4.357856272837939e-07,0.005449368354135184,0.05455904325143986
-4.257856272837923e-07,0.006117357221492472,0.006189980372848633
-4.157856272837975e-07,0.006451351655170736,0.04711764896240435
-4.057856272837959e-07,0.004447385053099481,0.01363137466184692
-3.957856272837943e-07,0.005783362787813752,0.02851416323988071
-3.857856272837927e-07,0.006451351655170888,0.03595555752889761
-3.757856272837979e-07,0.007787329389884553,-0.001251413916169959
-3.657856272837963e-07,0.006451351655170888,0.03595555752889761
-3.557856272837947e-07,0.006451351655170888,0.002469283228321573
-3.457856272837931e-07,0.007453334956206592,0.03595555752889761
-3.357856272837915e-07,0.005783362787814664,0.01363137466184184
-3.257856272837967e-07,0.00778732938988516,0.002469283228321573
-3.157856272837951e-07,0.006451351655170888,0.04339695181791451
-3.057856272837935e-07,0.007119340522528024,-0.004972111060695325
-2.957856272837919e-07,0.007119340522527721,0.02107276895086551
-2.857856272837971e-07,0.006451351655170888,0.02479346609537227
-2.757856272837955e-07,0.005449368354135184,0.002469283228321573
-2.657856272837939e-07,0.006451351655170888,0.03223486038438916
-2.557856272837923e-07,0.006117357221492624,-0.01613420249421052
-2.457856272837974e-07,0.006785346088849152,0.00618998037281987
-2.357856272837958e-07,0.005115373920456617,0.02107276895086382
-2.257856272837942e-07,0.006785346088849456,0.002469283228321573
-2.157856272837926e-07,0.006785346088849456,0.05083834610693141
-2.057856272837978e-07,0.004447385053100545,0.006189980372850325
-1.957856272837962e-07,0.004781379486778049,0.02479346609537227
-1.857856272837946e-07,0.004781379486778049,0.02107276895086382
-1.75785627283793e-07,0.005115373920456617,0.00991067751733847
-1.657856272837982e-07,0.005449368354135033,0.04711764896240604
-1.557856272837966e-07,0.007119340522528024,-0.001251413916186876
-1.45785627283795e-07,0.00611735722149232,0.01363137466184692
-1.357856272837934e-07,0.006451351655170888,0.02107276895086382
-1.257856272837918e-07,0.004781379486778049,0.009910677517367234
-1.15785627283797e-07,0.004781379486778049,0.07316252897398209
-1.057856272837954e-07,0.004113390619420913,-0.001251413916186876
-9.578562728379379e-08,0.004447385053099481,0.04711764896242296
-8.578562728379219e-08,0.00411339061942152,0.0359555575288807
-7.578562728379737e-08,0.005449368354134577,-0.001251413916169959
-6.578562728379577e-08,0.00611735722149232,0.02851416323988071
-5.578562728379417e-08,0.004113390619420913,-0.008692808205203774
-4.578562728379257e-08,0.007787329389883489,0.03223486038439424
-3.578562728379775e-08,0.004113390619422583,0.04339695181790944
-2.578562728379615e-08,0.004113390619420913,0.02107276895086382
-1.578562728379455e-08,0.003111407318385209,0.07316252897398209
-5.785627283792956e-09,-0.0005625314520790374,0.229431809043337
4.214372716201866e-09,-0.01091635889610993,3.284124164683385
1.421437271620346e-08,0.008455318257242295,3.213430918939113
2.421437271620506e-08,0.007119340522528024,3.265520678962231
3.421437271620666e-08,0.01580319579817079,3.287844861829282
4.421437271620826e-08,0.003111407318388551,3.321331136129872
5.421437271620308e-08,0.0104592848593137,3.351096713285926
6.421437271620468e-08,-0.0002285370184004695,3.421789959031586
7.421437271620628e-08,0.004447385053099481,3.369700199008468
8.421437271620788e-08,-0.00390247578886259,3.43667274760958
9.42143727162027e-08,0.0007734462826331076,3.347376016141458
1.042143727162043e-07,-0.0002285370184004695,3.384582987586502
1.142143727162059e-07,0.005449368354135184,3.343655318996909
1.242143727162075e-07,-0.0002285370183975838,3.325051833274363
1.342143727162023e-07,0.006117357221489435,3.317610438985353
1.442143727162039e-07,0.005115373920456617,3.31761043898535
1.542143727162055e-07,0.009791295991956567,3.332493227563384
1.642143727162071e-07,0.005783362787813752,3.377141593297485
1.742143727162019e-07,0.004781379486778504,3.32505183327439
1.842143727162035e-07,0.003445401752063777,3.410627867598061
1.942143727162051e-07,0.00144143514999237,3.325051833274367
2.042143727162067e-07,0.00144143514999237,3.380862290441993
2.142143727162083e-07,0.0004394518489574257,3.358538107574931
2.242143727162031e-07,0.002109424017349506,3.332493227563384
2.342143727162047e-07,0.004113390619420913,3.351096713285926
2.442143727162063e-07,0.001775429583670938,3.321331136129858
2.542143727162079e-07,0.007119340522526506,3.336213924707904
2.642143727162028e-07,0.003779396185743864,3.362258804719439
2.742143727162044e-07,0.006451351655170888,3.336213924707892
2.84214372716206e-07,0.002777412884706641,3.399465776164535
2.942143727162076e-07,0.0004394518489572738,3.351096713285936
3.042143727162024e-07,0.00177542958367033,3.373420896152966
3.14214372716204e-07,0.002777412884706641,3.358538107574943
3.242143727162056e-07,0.003779396185742345,3.302727650407316
3.342143727162072e-07,0.004781379486778049,3.373420896152977
3.44214372716202e-07,0.002777412884707552,3.313889741840868
3.542143727162036e-07,0.00611735722149232,3.354817410430434
3.642143727162052e-07,0.005783362787813752,3.351096713285926
3.742143727162068e-07,0.005449368354135184,3.328772530418875
3.842143727162084e-07,0.004781379486778353,3.388303684730985
3.942143727162032e-07,0.005449368354135184,3.332493227563384
4.042143727162048e-07,0.005115373920456617,3.380862290441993
4.142143727162064e-07,0.004447385053099481,3.362258804719451
4.24214372716208e-07,0.004447385053100088,3.343655318996929
4.342143727162028e-07,0.005783362787813145,3.38830368473099
4.442143727162044e-07,0.005115373920456617,3.328772530418875
4.54214372716206e-07,0.007119340522528024,3.351096713285926
4.642143727162076e-07,0.00511537392045692,3.369700199008456
4.742143727162024e-07,0.005783362787813448,3.343655318996921
4.84214372716204e-07,0.006451351655170888,3.395745079020027
4.942143727162056e-07,0.006785346088849456,3.332493227563384
5.042143727162072e-07,0.006451351655170888,3.373420896152977
5.142143727162021e-07,0.00544936835413564,3.377141593297483
5.242143727162037e-07,0.00611735722149232,3.354817410430434
5.342143727162053e-07,0.006451351655170888,3.403186473309044
5.442143727162069e-07,0.006451351655170888,3.351096713285926
5.542143727162085e-07,0.007119340522527721,3.37714159329749
5.642143727162033e-07,0.006451351655170888,3.38830368473101
5.742143727162049e-07,0.008455318257242295,3.358538107574943
5.842143727162065e-07,0.00611735722149232,3.406907170453553
5.942143727162081e-07,0.008121323823564184,3.358538107574951
6.042143727162029e-07,0.009123307124599432,3.377141593297485
6.142143727162045e-07,0.008121323823563727,3.399465776164535
6.242143727162061e-07,0.008455318257242295,3.351096713285926
6.342143727162077e-07,0.007453334956206288,3.406907170453536
6.442143727162025e-07,0.006785346088849759,3.369700199008485
6.542143727162041e-07,0.008455318257242295,3.392024381875518
6.642143727162057e-07,0.008455318257242295,3.380862290441993
6.742143727162073e-07,0.00778732938988516,3.36597950186396
6.842143727162021e-07,0.006785346088849911,3.414348564742547
6.942143727162037e-07,0.008121323823563727,3.369700199008468
7.042143727162053e-07,0.006785346088849456,3.395745079020027
7.142143727162069e-07,0.00611735722149232,3.406907170453553
7.242143727162085e-07,0.006451351655170888,3.377141593297505
7.342143727162033e-07,0.006451351655170888,3.421789959031586
7.442143727162049e-07,0.004447385053099481,3.369700199008468
7.542143727162065e-07,0.005449368354135184,3.392024381875518
7.642143727162081e-07,0.006117357221491865,3.399465776164519
7.74214372716203e-07,0.005115373920456617,3.362258804719451
7.842143727162046e-07,0.00611735722149232,3.399465776164535
7.942143727162062e-07,0.004781379486778049,3.351096713285926
8.042143727162078e-07,0.00611735722149232,3.403186473309047
8.142143727162026e-07,0.00611735722149232,3.410627867598057
8.242143727162042e-07,0.005449368354135184,3.362258804719451
8.342143727162058e-07,0.004781379486778049,3.429231353320603
8.442143727162074e-07,0.004447385053099481,3.3399346218524
8.542143727162022e-07,0.007787329389883641,3.392024381875495
8.642143727162038e-07,0.006451351655170888,3.406907170453553
8.742143727162054e-07,0.005449368354135184,3.377141593297485
8.84214372716207e-07,0.00778732938988516,3.41434856474257
8.942143727162018e-07,0.007119340522528328,3.362258804719475
9.042143727162034e-07,0.00778732938988516,3.399465776164535
9.14214372716205e-07,0.005449368354135184,3.395745079020027
9.242143727162066e-07,0.007119340522528024,3.373420896152977
9.342143727162082e-07,0.005115373920457072,3.43667274760959
9.44214372716203e-07,0.00611735722149232,3.369700199008468
9.542143727162046e-07,0.007119340522528024,3.403186473309044
9.642143727162062e-07,0.00611735722149232,3.395745079020027
9.742143727162078e-07,0.006117357221492472,3.35853810757497
9.842143727162026e-07,0.006451351655170736,3.418069261887051
9.942143727162042e-07,0.004781379486778049,3.354817410430434
1.004214372716206e-06,0.007453334956206592,3.395745079020027
1.014214372716207e-06,0.00544936835413564,3.392024381875506
1.024214372716202e-06,0.006451351655170433,3.365979501863972
1.034214372716204e-06,0.005449368354135184,3.429231353320603
1.044214372716205e-06,0.004781379486778049,3.358538107574943
1.054214372716207e-06,0.00778732938988516,3.392024381875518
1.064214372716202e-06,0.004781379486779416,3.388303684731012
1.074214372716203e-06,0.005783362787813752,3.362258804719451
1.084214372716205e-06,0.007119340522528024,3.406907170453553
1.094214372716207e-06,0.004781379486778049,3.36597950186396
1.104214372716208e-06,0.007119340522527873,3.392024381875517
1.114214372716203e-06,0.006785346088849456,3.38830368473101
1.124214372716205e-06,0.00611735722149232,3.362258804719451
1.134214372716206e-06,0.00611735722149232,3.421789959031586
1.144214372716208e-06,0.004781379486779871,3.358538107574959
1.154214372716203e-06,0.008789312690919041,3.39574507902001
1.164214372716204e-06,0.007119340522528024,3.384582987586502
1.174214372716206e-06,0.00778732938988516,3.362258804719451
1.184214372716208e-06,0.00745333495620644,3.418069261887046
1.194214372716202e-06,0.007119340522528176,3.347376016141449
1.204214372716204e-06,0.008455318257242295,3.38830368473101
1.214214372716206e-06,0.00778732938988516,3.392024381875518
1.224214372716207e-06,0.008789312690920863,3.36597950186396
1.234214372716202e-06,0.008455318257242448,3.41062786759804
1.244214372716204e-06,0.007119340522528024,3.358538107574943
1.254214372716205e-06,0.009457301558278,3.377141593297485
1.264214372716207e-06,0.008455318257242295,3.369700199008468
1.274214372716208e-06,0.007787329389884856,3.39202438187552
1.284214372716203e-06,0.007119340522528024,3.395745079020027
1.294214372716205e-06,0.00778732938988516,3.351096713285926
1.304214372716206e-06,0.008121323823563727,3.384582987586502
1.314214372716208e-06,0.007119340522527569,3.384582987586485
1.324214372716203e-06,0.006117357221492776,3.347376016141434
1.334214372716204e-06,0.006451351655170888,3.384582987586502
1.344214372716206e-06,0.005115373920456617,3.3399346218524
1.354214372716208e-06,0.006117357221491713,3.37342089615298
1.364214372716202e-06,0.004781379486778656,3.38086229044199
1.374214372716204e-06,0.005449368354135184,3.3399346218524
1.384214372716206e-06,0.005449368354135184,3.410627867598061
1.394214372716207e-06,0.004781379486778049,3.3399346218524
1.404214372716202e-06,0.006117357221491712,3.362258804719441
1.414214372716204e-06,0.004113390619420913,3.377141593297485
1.424214372716205e-06,0.00778732938988516,3.362258804719451
1.434214372716207e-06,0.005449368354135184,3.399465776164535
1.444214372716208e-06,0.004781379486778201,3.343655318996919
1.454214372716203e-06,0.005115373920456617,3.36597950186396
1.464214372716205e-06,0.004781379486778049,3.384582987586502
1.474214372716206e-06,0.00611735722149232,3.3399346218524
1.484214372716208e-06,0.005783362787813448,3.384582987586489
1.494214372716203e-06,0.00511537392045692,3.354817410430448
1.504214372716204e-06,0.007119340522528024,3.373420896152977
1.514214372716206e-06,0.004447385053099481,3.38830368473101
1.524214372716208e-06,0.007453334956205832,3.358538107574963
1.534214372716202e-06,0.005783362787814512,3.403186473309023
1.544214372716204e-06,0.006451351655170888,3.336213924707892
1.554214372716206e-06,0.00611735722149232,3.406907170453553
1.564214372716207e-06,0.006785346088849456,3.395745079020027
1.574214372716202e-06,0.006117357221492624,3.351096713285946
1.584214372716204e-06,0.006451351655170888,3.403186473309044
1.594214372716205e-06,0.00611735722149232,3.3399346218524
1.604214372716207e-06,0.006451351655170888,3.395745079020027
1.614214372716208e-06,0.004113390619421216,3.37342089615297
1.624214372716203e-06,0.004781379486778049,3.358538107574943
1.634214372716205e-06,0.006785346088849456,3.403186473309044
1.644214372716206e-06,0.004781379486778049,3.358538107574943
1.654214372716208e-06,0.00645135165517104,3.388303684731012
1.664214372716203e-06,0.006785346088849456,3.392024381875518
1.674214372716205e-06,0.00611735722149232,3.3399346218524
1.684214372716206e-06,0.008455318257242295,3.410627867598061
1.694214372716208e-06,0.005783362787814512,3.347376016141441
1.704214372716203e-06,0.007453334956205832,3.399465776164512
1.714214372716204e-06,0.007119340522528024,3.392024381875518
1.724214372716206e-06,0.007453334956206592,3.347376016141417
1.734214372716207e-06,0.00778732938988516,3.41434856474257
1.744214372716202e-06,0.006785346088849911,3.362258804719475
1.754214372716204e-06,0.008455318257242295,3.395745079020027
1.764214372716205e-06,0.006785346088849456,3.392024381875518
1.774214372716207e-06,0.005783362787813752,3.358538107574943
1.784214372716202e-06,0.006451351655170585,3.392024381875503
1.794214372716203e-06,0.005115373920456617,3.354817410430434
1.804214372716205e-06,0.006785346088849456,3.380862290441993
1.814214372716207e-06,0.006451351655170888,3.380862290441993
1.824214372716208e-06,0.006451351655170888,3.358538107574965
1.834214372716203e-06,0.006451351655170888,3.406907170453553
1.844214372716205e-06,0.005783362787813752,3.347376016141417
1.854214372716206e-06,0.006785346088849456,3.403186473309044
1.864214372716208e-06,0.00812132382356312,3.392024381875502
1.874214372716203e-06,0.006785346088850064,3.354817410430451
1.884214372716204e-06,0.007453334956206592,3.421789959031586
1.894214372716206e-06,0.008121323823563727,3.3399346218524
1.904214372716207e-06,0.008455318257242295,3.395745079020027
1.914214372716202e-06,0.0064513516551718,3.395745079020027
1.924214372716204e-06,0.008121323823563727,3.369700199008468
1.934214372716205e-06,0.006785346088849456,3.418069261887078
1.944214372716207e-06,0.006785346088849456,3.358538107574943
1.954214372716202e-06,0.008455318257241535,3.377141593297476
1.964214372716203e-06,0.006785346088849456,3.406907170453553
1.974214372716205e-06,0.00778732938988516,3.3399346218524
1.984214372716207e-06,0.00778732938988516,3.406907170453553
1.994214372716208e-06,0.006451351655171192,3.351096713285946
2.004214372716203e-06,0.007119340522528024,3.395745079020027
2.014214372716205e-06,0.006451351655170888,3.380862290441993
2.024214372716206e-06,0.005783362787813752,3.36597950186396
2.034214372716208e-06,0.007119340522527113,3.380862290441981
2.044214372716203e-06,0.005115373920457527,3.354817410430446
2.054214372716204e-06,0.008121323823563727,3.410627867598061
2.064214372716206e-06,0.00611735722149232,3.384582987586502
2.074214372716207e-06,0.006785346088850216,3.354817410430456
2.084214372716202e-06,0.008455318257241535,3.403186473309022
2.094214372716204e-06,0.00778732938988516,3.347376016141417
2.104214372716205e-06,0.009123307124599432,3.399465776164535
2.114214372716207e-06,0.008789312690920863,3.392024381875518
2.124214372716202e-06,0.008121323823564031,3.358538107574958
2.134214372716203e-06,0.00778732938988516,3.421789959031586
2.144214372716205e-06,0.00778732938988516,3.343655318996909
2.154214372716207e-06,0.009457301558278,3.399465776164535
2.164214372716208e-06,0.008789312690920103,3.384582987586487
2.174214372716203e-06,0.007119340522528024,3.351096713285926
2.184214372716205e-06,0.00778732938988516,3.403186473309044
2.194214372716206e-06,0.007119340522528024,3.36597950186396
