traces_bank_current_trigger/sampling_freq_100MHz/EOR/EOR_2.csv

#Digilent WaveForms Oscilloscope Acquisition
#Device Name: Discovery2
#Serial Number: SN:210321B3D813
#Date Time: 2023-06-14 13:21:53.486
#Sample rate: 1e+08Hz
#Samples: 8192
#Trigger: Source: Channel 2 Type: Edge Condition: Rising Level: 2 V Hyst.: Auto HoldOff: 0 s
#Channel 1: Range: 5 mV/div Offset: 0 V Attenuation: 1 X Sample Mode: Average
#Channel 2: Range: 2 V/div Offset: 0 V Attenuation: 1 X Sample Mode: Average

Time (s),Channel 1 (V),Channel 2 (V)
-9.569365721997272e-07,0.007453334956206592,-0.02357559678323757
-9.469365721997256e-07,0.009457301558278,0.02851416323988071
-9.36936572199724e-07,0.008455318257242295,-0.01613420249422236
-9.269365721997292e-07,0.008455318257242295,-0.01985489963872743
-9.169365721997276e-07,0.008121323823563727,0.03223486038438916
-9.06936572199726e-07,0.00778732938988516,-0.03101699107225447
-8.969365721997244e-07,0.01012529042563514,0.02107276895086382
-8.869365721997296e-07,0.006785346088850975,-0.001251413916176725
-8.76936572199728e-07,0.008455318257242295,-0.01241350534971222
-8.669365721997264e-07,0.008789312690920863,0.04711764896242296
-8.569365721997248e-07,0.008455318257242295,-0.01985489963872912
-8.469365721997232e-07,0.008789312690920103,0.02479346609536888
-8.369365721997283e-07,0.007119340522528024,0.01735207180635537
-8.269365721997267e-07,0.009123307124599432,0.00991067751733847
-8.169365721997251e-07,0.008121323823563727,0.03223486038438916
-8.069365721997235e-07,0.008789312690921319,-0.02357559678321219
-7.969365721997287e-07,0.009791295991956111,0.03223486038436378
-7.869365721997271e-07,0.008121323823563727,0.00991067751733847
-7.769365721997255e-07,0.01012529042563514,0.00991067751733847
-7.669365721997239e-07,0.01079327929299121,0.03967625467338406
-7.569365721997291e-07,0.008455318257243358,-0.008692808205181778
-7.469365721997275e-07,0.0104592848593137,0.04339695181791451
-7.369365721997259e-07,0.008789312690920863,0.01363137466184692
-7.269365721997243e-07,0.009123307124599432,0.002469283228321573
-7.169365721997295e-07,0.01112727372666993,0.03595555752888238
-7.069365721997279e-07,0.008455318257242295,-0.01613420249422067
-6.969365721997263e-07,0.008789312690920863,0.04339695181791451
-6.869365721997247e-07,0.008455318257242295,0.01363137466184692
-6.769365721997231e-07,0.009457301558277847,0.02851416323988241
-6.669365721997283e-07,0.009123307124599432,0.03223486038438916
-6.569365721997267e-07,0.006451351655170888,0.00991067751733847
-6.469365721997251e-07,0.009791295991956567,0.01735207180635537
-6.369365721997235e-07,0.0064513516551718,0.0173520718063486
-6.269365721997287e-07,0.008455318257241384,0.00246928322832834
-6.169365721997271e-07,0.008455318257242295,0.04711764896242296
-6.069365721997255e-07,0.006451351655170888,-0.01613420249422067
-5.969365721997239e-07,0.006785346088849911,0.02107276895085536
-5.86936572199729e-07,0.007787329389884704,0.002469283228330031
-5.769365721997274e-07,0.008455318257242295,-0.001251413916186876
-5.669365721997258e-07,0.008789312690920863,0.03967625467340606
-5.569365721997242e-07,0.005783362787813752,-0.02729629392774602
-5.469365721997294e-07,0.008789312690919496,0.03595555752886885
-5.369365721997278e-07,0.00611735722149232,0.00991067751733847
-5.269365721997262e-07,0.007453334956206592,-0.001251413916186876
-5.169365721997246e-07,0.006785346088849456,0.03223486038438916
-5.06936572199723e-07,0.004447385053101,-0.01613420249420375
-4.969365721997282e-07,0.00778732938988516,0.02107276895086382
-4.869365721997266e-07,0.005783362787813752,0.00991067751733847
-4.76936572199725e-07,0.006451351655170888,0.002469283228321573
-4.669365721997234e-07,0.006451351655170888,0.0285141632398621
-4.569365721997286e-07,0.006451351655170888,-0.01241350534971222
-4.46936572199727e-07,0.005783362787813752,0.03223486038438916
-4.369365721997254e-07,0.004447385053099481,0.01735207180635537
-4.269365721997238e-07,0.007119340522526657,-0.004972111060668254
-4.16936572199729e-07,0.00411339061942228,0.05455904325141279
-4.069365721997274e-07,0.005115373920456617,-0.008692808205203774
-3.969365721997258e-07,0.005783362787813752,0.03967625467340606
-3.869365721997242e-07,0.004447385053099481,0.03223486038438916
-3.769365721997294e-07,0.005115373920456313,-0.001251413916171645
-3.669365721997278e-07,0.006451351655170888,0.04711764896242296
-3.569365721997262e-07,0.005115373920456617,0.006189980372830022
-3.469365721997246e-07,0.006451351655170888,0.02479346609537227
-3.36936572199723e-07,0.003111407318386424,0.009910677517340162
-3.269365721997281e-07,0.005783362787813752,0.01363137466184692
-3.169365721997265e-07,0.00611735722149232,0.03967625467340606
-3.069365721997249e-07,0.004447385053099481,-0.01241350534971222
-2.969365721997233e-07,0.006117357221491257,0.04339695181790436
-2.869365721997285e-07,0.003779396185742345,0.02107276895086382
-2.769365721997269e-07,0.004781379486778049,0.00991067751733847
-2.669365721997253e-07,0.004781379486778049,0.03967625467340606
-2.569365721997237e-07,0.00411339061942152,0.0024692832283368
-2.469365721997289e-07,0.005449368354134577,0.03595555752888238
-2.369365721997273e-07,0.005449368354135184,0.01363137466184692
-2.269365721997257e-07,0.00611735722149232,-0.001251413916186876
-2.169365721997241e-07,0.005449368354135184,0.04339695181791451
-2.069365721997293e-07,0.004113390619421521,-0.0161342024941936
-1.969365721997277e-07,0.005115373920456617,0.06200043754045675
-1.869365721997261e-07,0.004781379486778049,0.01363137466184692
-1.769365721997245e-07,0.00611735722149232,0.00991067751733847
-1.669365721997297e-07,0.005783362787813904,0.03223486038437901
-1.569365721997281e-07,0.004447385053099481,0.01735207180635537
-1.469365721997265e-07,0.005115373920456617,0.03223486038438916
-1.369365721997249e-07,0.004781379486778049,0.02851416323988071
-1.269365721997233e-07,0.007787329389884553,0.01735207180637736
-1.169365721997285e-07,0.006451351655170888,0.06572113468496521
-1.069365721997269e-07,0.004447385053099481,-0.001251413916186876
-9.693657219972526e-08,0.005449368354135184,0.03223486038438916
-8.693657219972366e-08,0.004113390619422128,0.03223486038438408
-7.693657219972884e-08,0.006785346088848241,0.02107276895086889
-6.693657219972724e-08,0.006451351655170888,0.04339695181791451
-5.693657219972564e-08,0.003779396185742345,0.006189980372830022
-4.693657219972404e-08,0.006451351655169825,0.04339695181790605
-3.693657219972922e-08,0.004113390619421976,0.02479346609538072
-2.693657219972762e-08,0.004447385053099481,0.02479346609537227
-1.693657219972603e-08,0.004781379486778049,0.02107276895086382
-6.936572199724427e-09,0.003111407318385209,0.08432462040750745
3.063427800270395e-09,-0.01459029766657084,2.841361204487014
1.306342780027199e-08,0.01146126816034941,3.380862290441993
2.306342780027359e-08,0.005783362787813752,3.202268827505588
3.306342780027519e-08,0.01379922919609938,3.302727650407316
4.306342780027679e-08,0.003445401752067727,3.336213924707887
5.306342780027161e-08,0.01212925702770654,3.325051833274367
6.306342780027321e-08,0.002777412884706641,3.421789959031586
7.306342780027481e-08,0.00611735722149232,3.31761043898535
8.306342780027641e-08,-0.004570464656218966,3.447834839043074
9.306342780027123e-08,0.001775429583668052,3.291565558973862
1.030634278002728e-07,-0.0002285370184004695,3.395745079020027
1.130634278002744e-07,0.004447385053099481,3.291565558973791
1.23063427800276e-07,0.0004394518489594001,3.328772530418862
1.330634278002708e-07,0.006451351655168153,3.299006953262821
1.430634278002724e-07,0.004781379486778049,3.313889741840841
1.53063427800274e-07,0.008789312690920863,3.336213924707892
1.630634278002756e-07,0.004113390619420913,3.354817410430434
1.730634278002705e-07,0.005783362787812992,3.339934621852407
1.830634278002721e-07,0.003779396185742345,3.410627867598061
1.930634278002737e-07,0.004781379486778049,3.332493227563384
2.030634278002753e-07,0.002443418451028074,3.399465776164535
2.130634278002769e-07,0.002443418451029137,3.328772530418885
2.230634278002717e-07,0.004781379486778049,3.351096713285926
2.330634278002733e-07,0.005783362787813752,3.347376016141417
2.430634278002749e-07,0.005115373920456617,3.310169044696333
2.530634278002765e-07,0.006451351655170736,3.358538107574939
2.630634278002713e-07,0.006117357221492472,3.351096713285929
2.730634278002729e-07,0.005115373920456617,3.347376016141417
2.830634278002745e-07,0.005449368354135184,3.38830368473101
2.930634278002761e-07,0.00311140731838612,3.336213924707919
3.030634278002709e-07,0.005115373920455706,3.39574507902
3.130634278002725e-07,0.002109424017349506,3.347376016141417
3.230634278002741e-07,0.003445401752063777,3.3399346218524
3.330634278002757e-07,0.003779396185742345,3.373420896152977
3.430634278002705e-07,0.004447385053099178,3.325051833274389
3.530634278002721e-07,0.00611735722149232,3.362258804719451
3.630634278002737e-07,0.006451351655170888,3.351096713285926
3.730634278002753e-07,0.007453334956206592,3.3399346218524
3.830634278002769e-07,0.006451351655170888,3.380862290441975
3.930634278002717e-07,0.006451351655170888,3.3399346218524
4.030634278002733e-07,0.005115373920456617,3.380862290441993
4.130634278002749e-07,0.005449368354135184,3.358538107574943
4.230634278002765e-07,0.005783362787813904,3.354817410430453
4.330634278002714e-07,0.006117357221492169,3.395745079020009
4.43063427800273e-07,0.005783362787813752,3.3399346218524
4.530634278002746e-07,0.00611735722149232,3.38830368473101
4.630634278002762e-07,0.00645135165517104,3.362258804719443
4.73063427800271e-07,0.006785346088849304,3.343655318996917
4.830634278002726e-07,0.005783362787813752,3.384582987586502
4.930634278002742e-07,0.005115373920456617,3.332493227563384
5.030634278002758e-07,0.006785346088849456,3.380862290441993
5.130634278002706e-07,0.005115373920457376,3.36225880471946
5.230634278002722e-07,0.006451351655170888,3.362258804719451
5.330634278002738e-07,0.00611735722149232,3.380862290441993
5.430634278002754e-07,0.006451351655170888,3.351096713285926
5.53063427800277e-07,0.007453334956205985,3.358538107574934
5.630634278002718e-07,0.00611735722149232,3.3399346218524
5.730634278002734e-07,0.00778732938988516,3.351096713285926
5.83063427800275e-07,0.009791295991956567,3.380862290441993
5.930634278002766e-07,0.008455318257242751,3.336213924707911
6.030634278002714e-07,0.009457301558278,3.377141593297485
6.13063427800273e-07,0.007453334956206592,3.351096713285926
6.230634278002746e-07,0.01012529042563514,3.362258804719451
6.330634278002762e-07,0.008789312690921319,3.384582987586481
6.43063427800271e-07,0.009791295991956111,3.339934621852421
6.530634278002726e-07,0.007453334956206592,3.377141593297485
6.630634278002742e-07,0.009457301558278,3.362258804719451
6.730634278002758e-07,0.00778732938988516,3.3399346218524
6.830634278002707e-07,0.008121323823563575,3.380862290441975
6.930634278002723e-07,0.007119340522528024,3.347376016141417
7.030634278002739e-07,0.00778732938988516,3.377141593297485
7.130634278002755e-07,0.008121323823563727,3.36597950186396
7.230634278002771e-07,0.008789312690920406,3.373420896152989
7.330634278002719e-07,0.00778732938988516,3.399465776164535
7.430634278002735e-07,0.007453334956206592,3.336213924707892
7.530634278002751e-07,0.008121323823563727,3.38830368473101
7.630634278002767e-07,0.00778732938988516,3.377141593297481
7.730634278002715e-07,0.00778732938988516,3.369700199008468
7.830634278002731e-07,0.007119340522528024,3.395745079020027
7.930634278002747e-07,0.00778732938988516,3.354817410430434
8.030634278002763e-07,0.008121323823562664,3.380862290441993
8.130634278002711e-07,0.005783362787814815,3.380862290441993
8.230634278002727e-07,0.009123307124599432,3.358538107574943
8.330634278002743e-07,0.009791295991956567,3.410627867598061
8.430634278002759e-07,0.00778732938988516,3.354817410430434
8.530634278002707e-07,0.01012529042563407,3.392024381875502
8.630634278002723e-07,0.008789312690920863,3.377141593297485
8.730634278002739e-07,0.009791295991956567,3.362258804719451
8.830634278002755e-07,0.0104592848593137,3.410627867598061
8.930634278002703e-07,0.009457301558278456,3.351096713285953
9.030634278002719e-07,0.01146126816034941,3.395745079020027
9.130634278002735e-07,0.008121323823563727,3.399465776164535
9.230634278002751e-07,0.0104592848593137,3.362258804719451
9.330634278002767e-07,0.009457301558277696,3.414348564742542
9.430634278002716e-07,0.008789312690920863,3.354817410430434
9.530634278002732e-07,0.01012529042563514,3.403186473309044
9.630634278002748e-07,0.01012529042563514,3.369700199008468
9.730634278002764e-07,0.00979129599195672,3.369700199008485
9.830634278002712e-07,0.01012529042563498,3.406907170453536
9.930634278002728e-07,0.009791295991956567,3.358538107574943
1.003063427800274e-06,0.009457301558278,3.403186473309044
1.013063427800276e-06,0.009123307124599279,3.373420896152977
1.023063427800271e-06,0.008789312690921015,3.373420896152977
1.033063427800272e-06,0.009457301558278,3.38830368473101
1.043063427800274e-06,0.008789312690920863,3.358538107574943
1.053063427800276e-06,0.008455318257242295,3.395745079020027
1.06306342780027e-06,0.007787329389885463,3.36970019900848
1.073063427800272e-06,0.009123307124599432,3.377141593297485
1.083063427800274e-06,0.007453334956206592,3.418069261887078
1.093063427800275e-06,0.008789312690920863,3.362258804719451
1.103063427800277e-06,0.008789312690920103,3.406907170453539
1.113063427800272e-06,0.007119340522528024,3.377141593297485
1.123063427800273e-06,0.008789312690920863,3.362258804719451
1.133063427800275e-06,0.007453334956206592,3.399465776164535
1.143063427800276e-06,0.007787329389886527,3.351096713285946
1.153063427800271e-06,0.0107932792929909,3.395745079020007
1.163063427800273e-06,0.01012529042563514,3.38830368473101
1.173063427800274e-06,0.009457301558278,3.36597950186396
1.183063427800276e-06,0.01079327929299121,3.418069261887041
1.193063427800271e-06,0.008455318257243358,3.336213924707929
1.203063427800272e-06,0.0104592848593137,3.395745079020027
1.213063427800274e-06,0.008789312690920863,3.369700199008468
1.223063427800276e-06,0.01079327929299227,3.369700199008468
1.23306342780027e-06,0.009791295991957024,3.406907170453536
1.243063427800272e-06,0.008121323823563727,3.358538107574943
1.253063427800274e-06,0.0104592848593137,3.41434856474257
1.263063427800275e-06,0.008455318257242295,3.369700199008468
1.273063427800277e-06,0.007787329389885311,3.354817410430455
1.283063427800272e-06,0.008121323823563727,3.399465776164535
1.293063427800273e-06,0.008121323823563727,3.347376016141417
1.303063427800275e-06,0.007119340522528024,3.399465776164535
1.313063427800276e-06,0.006785346088849911,3.365979501863961
1.323063427800271e-06,0.007787329389884704,3.369700199008466
1.333063427800273e-06,0.006451351655170888,3.395745079020027
1.343063427800275e-06,0.007119340522528024,3.362258804719451
1.353063427800276e-06,0.009123307124597762,3.392024381875514
1.363063427800271e-06,0.005449368354136855,3.380862290441998
1.373063427800273e-06,0.006451351655170888,3.395745079020027
1.383063427800274e-06,0.005115373920456617,3.399465776164535
1.393063427800276e-06,0.004447385053099481,3.354817410430434
1.403063427800271e-06,0.006785346088848392,3.395745079020009
1.413063427800272e-06,0.004447385053099481,3.38830368473101
1.423063427800274e-06,0.005783362787813752,3.36597950186396
1.433063427800275e-06,0.00611735722149232,3.403186473309044
1.443063427800277e-06,0.005783362787814207,3.358538107574959
1.453063427800272e-06,0.006785346088849456,3.395745079020027
1.463063427800273e-06,0.004781379486778049,3.395745079020027
1.473063427800275e-06,0.00611735722149232,3.384582987586502
1.483063427800277e-06,0.005783362787814056,3.410627867598032
1.493063427800271e-06,0.006451351655170585,3.347376016141446
1.503063427800273e-06,0.006785346088849456,3.406907170453553
1.513063427800275e-06,0.00611735722149232,3.392024381875518
1.523063427800276e-06,0.00745333495620644,3.380862290442
1.533063427800271e-06,0.007119340522528176,3.395745079020021
1.543063427800273e-06,0.00778732938988516,3.351096713285926
1.553063427800274e-06,0.008455318257242295,3.38830368473101
1.563063427800276e-06,0.005783362787813752,3.373420896152977
1.573063427800271e-06,0.008455318257241079,3.362258804719456
1.583063427800272e-06,0.007119340522528024,3.38830368473101
1.593063427800274e-06,0.006785346088849456,3.358538107574943
1.603063427800275e-06,0.007119340522528024,3.406907170453553
1.613063427800277e-06,0.006785346088849759,3.388303684731007
1.623063427800272e-06,0.007453334956206592,3.380862290441993
1.633063427800273e-06,0.00611735722149232,3.392024381875518
1.643063427800275e-06,0.006451351655170888,3.343655318996909
1.653063427800277e-06,0.006451351655170433,3.399465776164534
1.663063427800271e-06,0.005449368354135184,3.395745079020027
1.673063427800273e-06,0.008455318257242295,3.377141593297485
1.683063427800275e-06,0.00778732938988516,3.399465776164535
1.693063427800276e-06,0.007787329389885615,3.354817410430453
1.703063427800271e-06,0.008789312690920406,3.395745079020009
1.713063427800273e-06,0.007119340522528024,3.377141593297485
1.723063427800274e-06,0.00778732938988516,3.362258804719451
1.733063427800276e-06,0.006785346088849456,3.410627867598061
1.743063427800271e-06,0.006785346088849456,3.34365531899694
1.753063427800272e-06,0.007453334956206592,3.392024381875518
1.763063427800274e-06,0.006785346088849456,3.369700199008468
1.773063427800275e-06,0.00778732938988516,3.38830368473101
1.78306342780027e-06,0.007453334956206744,3.403186473309037
1.793063427800272e-06,0.00611735722149232,3.358538107574943
1.803063427800273e-06,0.00778732938988516,3.392024381875518
1.813063427800275e-06,0.006451351655170888,3.392024381875518
1.823063427800277e-06,0.00711934052252848,3.369700199008488
1.833063427800272e-06,0.008121323823563727,3.41434856474257
1.843063427800273e-06,0.00611735722149232,3.351096713285926
1.853063427800275e-06,0.008789312690920863,3.403186473309044
1.863063427800276e-06,0.00611735722149308,3.373420896152975
1.873063427800271e-06,0.0077873293898844,3.36970019900847
1.883063427800273e-06,0.008789312690920863,3.395745079020027
1.893063427800274e-06,0.006451351655170888,3.347376016141417
1.903063427800276e-06,0.007453334956206592,3.395745079020027
1.913063427800271e-06,0.008121323823563424,3.380862290442
1.923063427800272e-06,0.00778732938988516,3.380862290441993
1.933063427800274e-06,0.00778732938988516,3.403186473309044
1.943063427800276e-06,0.006451351655170888,3.343655318996909
1.95306342780027e-06,0.007119340522527721,3.406907170453524
1.963063427800272e-06,0.00778732938988516,3.377141593297485
1.973063427800274e-06,0.007453334956206592,3.377141593297485
1.983063427800275e-06,0.008121323823563727,3.403186473309044
1.993063427800277e-06,0.006117357221492017,3.362258804719466
2.003063427800272e-06,0.005449368354135184,3.395745079020027
2.013063427800273e-06,0.006451351655170888,3.384582987586502
2.023063427800275e-06,0.006451351655170888,3.362258804719451
2.033063427800276e-06,0.00544936835413564,3.410627867598037
2.043063427800271e-06,0.006451351655170433,3.358538107574966
2.053063427800273e-06,0.007119340522528024,3.38830368473101
2.063063427800274e-06,0.007119340522528024,3.38830368473101
2.073063427800276e-06,0.007453334956205832,3.369700199008486
2.083063427800271e-06,0.005783362787814512,3.410627867598042
2.093063427800272e-06,0.006785346088849456,3.358538107574943
2.103063427800274e-06,0.006451351655170888,3.403186473309044
2.113063427800276e-06,0.007119340522528024,3.384582987586502
2.12306342780027e-06,0.008455318257241688,3.358538107574955
2.133063427800272e-06,0.00778732938988516,3.410627867598061
2.143063427800274e-06,0.006785346088849456,3.3399346218524
2.153063427800275e-06,0.006785346088849456,3.395745079020027
2.163063427800277e-06,0.006451351655172103,3.362258804719446
2.173063427800272e-06,0.009123307124599432,3.351096713285926
2.183063427800273e-06,0.008455318257242295,3.403186473309044
2.193063427800275e-06,0.008455318257242295,3.343655318996909
2.203063427800276e-06,0.007787329389885008,3.392024381875506
