traces_bank_current_trigger/benchmark_traces/Factorial_100MHz/factorial_7.csv

#Digilent WaveForms Oscilloscope Acquisition
#Device Name: Discovery2
#Serial Number: SN:210321B3D813
#Date Time: 2023-07-18 17:10:26.189
#Sample rate: 1e+08Hz
#Samples: 8192
#Trigger: Source: Channel 2 Type: Edge Condition: Rising Level: 2 V Hyst.: Auto HoldOff: 0 s
#Channel 1: Range: 10 mV/div Offset: 0 V Attenuation: 1 X Sample Mode: Average
#Channel 2: Range: 5 V/div Offset: 0 V Attenuation: 1 X Sample Mode: Average

Time (s),Channel 1 (V),Channel 2 (V)
-9.584458398744115e-07,0.006451351655170888,0.01735207180635537
-9.484458398744099e-07,0.00611735722149232,0.01735207180635537
-9.384458398744083e-07,0.007787329389885463,-0.02729629392772741
-9.284458398744135e-07,0.008455318257241991,0.01363137466182831
-9.184458398744119e-07,0.006451351655170888,0.006189980372830022
-9.084458398744103e-07,0.00778732938988516,-0.01613420249422067
-8.984458398744087e-07,0.006451351655170888,0.02107276895086382
-8.884458398744139e-07,0.007119340522527721,-0.02729629392772402
-8.784458398744123e-07,0.006785346088849456,0.02107276895086382
-8.684458398744107e-07,0.006451351655170888,0.006189980372830022
-8.584458398744091e-07,0.008455318257242295,-0.01241350534971222
-8.484458398744075e-07,0.007119340522527417,0.02479346609534858
-8.384458398744127e-07,0.005783362787813752,-0.02729629392774602
-8.284458398744111e-07,0.008455318257242295,0.03223486038438916
-8.184458398744095e-07,0.006785346088849456,-0.004972111060695325
-8.084458398744079e-07,0.00745333495620644,-0.01241350534969192
-7.984458398744131e-07,0.007119340522528176,0.03223486038436886
-7.884458398744115e-07,0.008121323823563727,-0.01613420249422067
-7.784458398744099e-07,0.006785346088849456,0.01363137466184692
-7.684458398744083e-07,0.007787329389884248,0.009910677517328319
-7.584458398744135e-07,0.005783362787814663,-0.01241350534970207
-7.484458398744119e-07,0.007453334956206592,0.03967625467340606
-7.384458398744103e-07,0.00611735722149232,-0.02729629392774602
-7.284458398744087e-07,0.008121323823563727,0.02479346609537227
-7.184458398744138e-07,0.008121323823563727,0.013631374661852
-7.084458398744122e-07,0.006785346088849456,-0.004972111060695325
-6.984458398744106e-07,0.00611735722149232,0.05083834610693141
-6.88445839874409e-07,0.008455318257242295,-0.01613420249422067
-6.784458398744074e-07,0.007119340522527721,0.02851416323987395
-6.684458398744126e-07,0.006451351655170888,0.01363137466184692
-6.58445839874411e-07,0.00778732938988516,0.002469283228321573
-6.484458398744094e-07,0.006785346088849456,0.03595555752889761
-6.384458398744078e-07,0.006117357221492624,0.002469283228330032
-6.28445839874413e-07,0.006785346088849152,0.02107276895085536
-6.184458398744114e-07,0.008121323823563727,0.00991067751733847
-6.084458398744098e-07,0.007119340522528024,-0.008692808205203774
-5.984458398744082e-07,0.007787329389885463,0.03967625467338237
-5.884458398744134e-07,0.008455318257241991,-0.01241350534968853
-5.784458398744118e-07,0.008789312690920863,0.02851416323988071
-5.684458398744102e-07,0.009123307124599432,0.02107276895086382
-5.584458398744086e-07,0.007119340522528024,-0.01613420249422067
-5.484458398744138e-07,0.007787329389884856,0.05455904325140771
-5.384458398744122e-07,0.006785346088849456,-0.01241350534971222
-5.284458398744106e-07,0.008789312690920863,0.03223486038438916
-5.18445839874409e-07,0.007119340522528024,0.01363137466184692
-5.084458398744074e-07,0.006451351655171192,0.01735207180636552
-4.984458398744126e-07,0.007119340522528024,0.03967625467340606
-4.88445839874411e-07,0.00611735722149232,-0.02357559678323757
-4.784458398744094e-07,0.008455318257242295,0.03595555752889761
-4.684458398744078e-07,0.007453334956207047,0.0173520718063486
-4.584458398744129e-07,0.008455318257242295,0.002469283228321573
-4.484458398744113e-07,0.007453334956206592,0.04339695181791451
-4.384458398744097e-07,0.00611735722149232,-0.01613420249422067
-4.284458398744081e-07,0.007119340522527721,0.03967625467340437
-4.184458398744133e-07,0.006451351655171192,0.03595555752889931
-4.084458398744117e-07,0.006451351655170888,-0.001251413916186876
-3.984458398744101e-07,0.00611735722149232,0.06200043754045675
-3.884458398744085e-07,0.007119340522528024,-0.02357559678323757
-3.784458398744137e-07,0.009123307124598521,0.02479346609535027
-3.684458398744121e-07,0.009791295991956567,0.01363137466184692
-3.584458398744105e-07,0.0104592848593137,-0.01613420249422067
-3.484458398744089e-07,0.008121323823563727,0.03595555752889761
-3.384458398744073e-07,0.007453334956205985,0.006189980372846941
-3.284458398744125e-07,0.00611735722149232,0.04339695181791451
-3.184458398744109e-07,0.006785346088849456,0.02107276895086382
-3.084458398744093e-07,0.006451351655170888,-0.001251413916186876
-2.984458398744077e-07,0.006785346088850367,0.0471176489623942
-2.884458398744129e-07,0.008789312690920863,-0.01613420249422067
-2.784458398744113e-07,0.009123307124599432,0.03595555752889761
-2.684458398744097e-07,0.008789312690920863,0.006189980372830022
-2.584458398744081e-07,0.01012529042563422,0.002469283228340185
-2.484458398744133e-07,0.008121323823564638,0.0433969518178959
-2.384458398744117e-07,0.00778732938988516,-0.008692808205203774
-2.284458398744101e-07,0.007453334956206592,0.03223486038438916
-2.184458398744085e-07,0.006451351655170888,0.02107276895086382
-2.084458398744136e-07,0.005783362787814056,-0.001251413916176725
-1.98445839874412e-07,0.006451351655170888,0.03223486038438916
-1.884458398744104e-07,0.00611735722149232,-0.01985489963872912
-1.784458398744088e-07,0.009123307124599432,0.02851416323988071
-1.68445839874414e-07,0.008121323823564184,0.02479346609537396
-1.584458398744124e-07,0.007453334956206592,-0.01241350534971222
-1.484458398744108e-07,0.008455318257242295,0.03967625467340606
-1.384458398744092e-07,0.005783362787813752,-0.03101699107225447
-1.284458398744076e-07,0.01012529042563377,0.03595555752888577
-1.184458398744128e-07,0.007119340522528024,0.00991067751733847
-1.084458398744112e-07,0.005783362787813752,-0.01613420249422067
-9.844583987440961e-08,0.005783362787813752,0.03595555752889761
-8.844583987440801e-08,0.005115373920457832,-0.01613420249420206
-7.844583987441319e-08,0.007787329389883945,0.02479346609535366
-6.844583987441159e-08,0.006785346088849456,-0.004972111060695325
-5.844583987441e-08,0.007453334956206592,-0.01241350534971222
-4.84458398744084e-08,0.006785346088849456,0.02851416323985534
-3.844583987441358e-08,0.006785346088849456,-0.02729629392772064
-2.844583987441198e-08,0.008455318257242295,0.02107276895086382
-1.844583987441038e-08,0.005449368354135184,0.002469283228321573
-8.445839874408781e-09,0.00611735722149232,-0.004972111060695325
1.554160125586041e-09,-0.01659426426863997,2.365111969990109
1.155416012558764e-08,0.01847515126759933,3.678518062002669
2.155416012558924e-08,0.002777412884706641,2.990189090268606
3.155416012559084e-08,0.01713917353288506,3.395745079020027
4.155416012559243e-08,0.004781379486782757,3.246917193239721
5.155416012558726e-08,0.01513520693081365,3.31761043898535
6.155416012558885e-08,0.001775429583670938,3.373420896152977
7.155416012559045e-08,0.006785346088849456,3.276682770395757
8.155416012559205e-08,-0.001230520319433287,3.425510656176
9.155416012558687e-08,0.005115373920453731,3.217151616083716
1.015541601255885e-07,0.0004394518489566662,3.421789959031586
1.115541601255901e-07,0.006451351655170888,3.22087231322813
1.215541601255917e-07,0.004113390619423191,3.406907170453473
1.315541601255865e-07,0.009123307124597153,3.232034404661735
1.415541601255881e-07,0.006451351655170888,3.354817410430434
1.515541601255897e-07,0.009457301558278,3.306448347551824
1.615541601255913e-07,0.005783362787813752,3.354817410430434
1.715541601255861e-07,0.009123307124597912,3.30272765040734
1.815541601255877e-07,0.004113390619420913,3.38830368473101
1.915541601255893e-07,0.004447385053099481,3.272962073251248
2.015541601255909e-07,0.0004394518489566662,3.410627867598061
2.115541601255925e-07,0.003445401752063474,3.265520678962272
2.215541601255873e-07,0.002777412884706641,3.354817410430434
2.315541601255889e-07,0.005783362787813752,3.276682770395757
2.415541601255905e-07,0.005783362787813752,3.325051833274367
2.515541601255921e-07,0.007453334956205529,3.343655318996904
2.615541601255869e-07,0.00511537392045768,3.332493227563389
2.715541601255885e-07,0.00778732938988516,3.328772530418875
2.815541601255901e-07,0.005783362787813752,3.384582987586502
2.915541601255917e-07,0.007119340522526506,3.332493227563421
3.015541601255866e-07,0.003779396185743864,3.414348564742532
3.115541601255882e-07,0.004781379486778049,3.306448347551824
3.215541601255898e-07,0.003445401752063777,3.377141593297485
3.315541601255914e-07,0.005783362787813752,3.332493227563384
3.415541601255862e-07,0.00511537392045692,3.328772530418877
3.515541601255878e-07,0.006785346088849456,3.358538107574943
3.615541601255894e-07,0.004447385053099481,3.321331136129858
3.71554160125591e-07,0.008455318257242295,3.351096713285926
3.815541601255926e-07,0.00812132382356388,3.380862290441964
3.915541601255874e-07,0.008455318257242295,3.31761043898535
4.01554160125589e-07,0.005449368354135184,3.403186473309044
4.115541601255906e-07,0.006451351655170888,3.336213924707892
4.215541601255922e-07,0.007453334956205985,3.369700199008464
4.31554160125587e-07,0.006117357221492929,3.362258804719455
4.415541601255886e-07,0.006785346088849456,3.3399346218524
4.515541601255902e-07,0.006451351655170888,3.354817410430434
4.615541601255918e-07,0.007453334956207655,3.351096713285929
4.715541601255866e-07,0.009791295991955504,3.358538107574939
4.815541601255882e-07,0.00778732938988516,3.369700199008468
4.915541601255898e-07,0.006785346088849456,3.343655318996909
5.015541601255914e-07,0.007453334956206592,3.399465776164535
5.115541601255862e-07,0.007453334956206592,3.328772530418907
5.215541601255878e-07,0.009123307124599432,3.380862290441993
5.315541601255894e-07,0.007453334956206592,3.36597950186396
5.41554160125591e-07,0.008455318257242295,3.347376016141417
5.515541601255926e-07,0.009123307124599129,3.388303684730987
5.615541601255875e-07,0.008455318257242295,3.336213924707892
5.715541601255891e-07,0.008789312690920863,3.380862290441993
5.815541601255907e-07,0.009123307124599432,3.380862290441993
5.915541601255923e-07,0.008455318257242599,3.339934621852436
6.015541601255871e-07,0.009123307124599432,3.418069261887078
6.115541601255887e-07,0.007119340522528024,3.3399346218524
6.215541601255903e-07,0.008121323823563727,3.373420896152977
6.315541601255919e-07,0.006785346088849911,3.395745079020009
6.415541601255867e-07,0.007787329389884704,3.354817410430453
6.515541601255883e-07,0.007119340522528024,3.399465776164535
6.615541601255899e-07,0.008121323823563727,3.354817410430434
6.715541601255915e-07,0.008789312690920863,3.384582987586502
6.815541601255863e-07,0.006785346088850367,3.365979501863968
6.915541601255879e-07,0.008121323823563727,3.354817410430434
7.015541601255895e-07,0.009457301558278,3.406907170453553
7.115541601255911e-07,0.007119340522528024,3.336213924707892
7.215541601255927e-07,0.008789312690920863,3.380862290442
7.315541601255875e-07,0.008789312690920863,3.395745079020027
7.415541601255891e-07,0.009457301558278,3.347376016141417
7.515541601255907e-07,0.009123307124599432,3.38830368473101
7.615541601255923e-07,0.008455318257242751,3.358538107574951
7.715541601255871e-07,0.009457301558278,3.377141593297485
7.815541601255887e-07,0.009791295991956567,3.373420896152977
7.915541601255903e-07,0.008789312690920863,3.3399346218524
8.015541601255919e-07,0.007453334956207047,3.403186473309015
8.115541601255868e-07,0.008455318257241839,3.339934621852429
8.215541601255884e-07,0.009123307124599432,3.403186473309044
8.3155416012559e-07,0.00611735722149232,3.399465776164535
8.415541601255916e-07,0.007119340522528024,3.351096713285926
8.515541601255864e-07,0.006451351655171192,3.410627867598034
8.61554160125588e-07,0.006785346088849456,3.354817410430434
8.715541601255896e-07,0.006785346088849456,3.380862290441993
8.815541601255912e-07,0.006451351655170888,3.403186473309044
8.91554160125586e-07,0.004781379486778809,3.365979501863976
9.015541601255876e-07,0.007119340522528024,3.410627867598061
9.115541601255892e-07,0.005783362787813752,3.377141593297485
9.215541601255908e-07,0.007453334956206592,3.403186473309044
9.315541601255924e-07,0.007453334956206592,3.395745079020005
9.415541601255872e-07,0.007453334956206592,3.347376016141417
9.515541601255888e-07,0.007453334956206592,3.41434856474257
9.615541601255904e-07,0.007453334956206592,3.354817410430434
9.71554160125592e-07,0.007787329389885767,3.406907170453548
9.815541601255868e-07,0.009123307124598825,3.395745079020032
9.915541601255884e-07,0.007453334956206592,3.354817410430434
1.00155416012559e-06,0.008789312690920863,3.421789959031586
1.011554160125592e-06,0.00611735722149232,3.36597950186398
1.021554160125586e-06,0.00611735722149232,3.41062786759804
1.031554160125588e-06,0.006451351655170888,3.403186473309044
1.04155416012559e-06,0.007453334956206592,3.362258804719451
1.051554160125591e-06,0.006451351655170888,3.418069261887078
1.061554160125586e-06,0.005783362787814056,3.365979501863983
1.071554160125588e-06,0.00611735722149232,3.395745079020027
1.081554160125589e-06,0.006785346088849456,3.384582987586502
1.091554160125591e-06,0.005783362787813752,3.369700199008468
1.101554160125592e-06,0.005449368354135336,3.429231353320574
1.111554160125587e-06,0.005783362787813752,3.36597950186396
1.121554160125589e-06,0.005449368354135184,3.410627867598061
1.13155416012559e-06,0.004781379486778049,3.403186473309044
1.141554160125592e-06,0.006117357221492776,3.36970019900849
1.151554160125587e-06,0.007119340522527569,3.418069261887056
1.161554160125588e-06,0.006785346088849456,3.362258804719451
1.17155416012559e-06,0.008121323823563727,3.41434856474257
1.181554160125592e-06,0.007453334956206288,3.406907170453534
1.191554160125587e-06,0.006785346088849759,3.365979501863978
1.201554160125588e-06,0.00778732938988516,3.43667274760962
1.21155416012559e-06,0.008121323823563727,3.369700199008468
1.221554160125591e-06,0.009123307124599432,3.410627867598061
1.231554160125586e-06,0.008121323823564184,3.39946577616454
1.241554160125588e-06,0.008455318257242295,3.380862290441993
1.251554160125589e-06,0.007119340522528024,3.440393444754128
1.261554160125591e-06,0.00778732938988516,3.369700199008468
1.271554160125593e-06,0.007119340522528024,3.414348564742561
1.281554160125587e-06,0.007119340522528024,3.395745079020027
1.291554160125589e-06,0.005783362787813752,3.373420896152977
1.301554160125591e-06,0.008455318257242295,3.418069261887078
1.311554160125592e-06,0.0064513516551718,3.36970019900848
1.321554160125587e-06,0.008455318257241384,3.395745079020015
1.331554160125589e-06,0.005783362787813752,3.384582987586502
1.34155416012559e-06,0.006785346088849456,3.377141593297485
1.351554160125592e-06,0.00544936835413564,3.432952050465084
1.361554160125587e-06,0.006451351655170433,3.373420896153004
1.371554160125588e-06,0.008121323823563727,3.418069261887078
1.38155416012559e-06,0.007119340522528024,3.377141593297485
1.391554160125591e-06,0.005783362787813752,3.373420896152977
1.401554160125586e-06,0.006785346088849,3.418069261887057
1.411554160125588e-06,0.007119340522528024,3.351096713285926
1.421554160125589e-06,0.006785346088849456,3.410627867598061
1.431554160125591e-06,0.006785346088849456,3.403186473309044
1.441554160125593e-06,0.007453334956206137,3.373420896153004
1.451554160125587e-06,0.006451351655170888,3.432952050465111
1.461554160125589e-06,0.00778732938988516,3.369700199008468
1.471554160125591e-06,0.009457301558278,3.399465776164535
1.481554160125592e-06,0.007119340522529391,3.418069261887054
1.491554160125587e-06,0.01012529042563377,3.365979501863983
1.501554160125589e-06,0.006451351655170888,3.406907170453553
1.51155416012559e-06,0.00778732938988516,3.373420896152977
1.521554160125592e-06,0.009123307124599736,3.399465776164534
1.531554160125587e-06,0.009791295991956264,3.395745079020029
1.541554160125588e-06,0.008789312690920863,3.384582987586502
1.55155416012559e-06,0.00778732938988516,3.429231353320603
1.561554160125591e-06,0.008455318257242295,3.351096713285926
1.571554160125586e-06,0.009457301558277544,3.406907170453527
1.581554160125588e-06,0.007119340522528024,3.403186473309044
1.591554160125589e-06,0.006785346088849456,3.38830368473101
1.601554160125591e-06,0.007453334956206592,3.429231353320603
1.611554160125593e-06,0.007453334956207352,3.365979501863976
1.621554160125587e-06,0.009123307124599432,3.403186473309044
1.631554160125589e-06,0.008121323823563727,3.380862290441993
1.641554160125591e-06,0.00778732938988516,3.36597950186396
1.651554160125592e-06,0.007453334956206137,3.410627867598042
1.661554160125587e-06,0.006451351655170888,3.369700199008468
1.671554160125589e-06,0.008789312690920863,3.410627867598061
1.68155416012559e-06,0.006451351655170888,3.395745079020027
1.691554160125592e-06,0.00812132382356312,3.373420896152993
1.701554160125587e-06,0.006785346088850064,3.410627867598044
1.711554160125588e-06,0.006451351655170888,3.354817410430434
1.72155416012559e-06,0.007453334956206592,3.41434856474257
1.731554160125592e-06,0.004113390619420913,3.410627867598061
1.741554160125586e-06,0.005115373920456161,3.3771415932975
1.751554160125588e-06,0.005115373920456617,3.432952050465111
1.76155416012559e-06,0.004781379486778049,3.377141593297485
1.771554160125591e-06,0.006451351655170888,3.41434856474257
1.781554160125586e-06,0.005783362787814056,3.406907170453556
1.791554160125588e-06,0.00611735722149232,3.362258804719451
1.801554160125589e-06,0.00611735722149232,3.418069261887078
1.811554160125591e-06,0.00611735722149232,3.358538107574943
1.821554160125592e-06,0.006785346088849759,3.410627867598059
1.831554160125587e-06,0.007453334956206592,3.406907170453553
1.841554160125589e-06,0.005115373920456617,3.36597950186396
1.85155416012559e-06,0.007119340522528024,3.41434856474257
1.861554160125592e-06,0.006451351655170888,3.36225880471947
1.871554160125587e-06,0.006451351655170888,3.403186473309025
1.881554160125588e-06,0.005115373920456617,3.395745079020027
1.89155416012559e-06,0.007119340522528024,3.36597950186396
1.901554160125592e-06,0.005783362787813752,3.421789959031586
1.911554160125586e-06,0.005783362787813752,3.377141593297505
1.921554160125588e-06,0.007119340522528024,3.395745079020027
1.93155416012559e-06,0.00611735722149232,3.395745079020027
1.941554160125591e-06,0.006785346088849456,3.36597950186396
1.951554160125586e-06,0.005115373920457376,3.421789959031561
1.961554160125588e-06,0.002443418451028074,3.362258804719451
1.971554160125589e-06,0.005449368354135184,3.399465776164535
1.981554160125591e-06,0.005783362787813752,3.418069261887078
1.991554160125592e-06,0.00511537392045692,3.362258804719487
2.001554160125587e-06,0.005783362787813752,3.440393444754128
2.011554160125589e-06,0.004447385053099481,3.377141593297485
2.02155416012559e-06,0.00611735722149232,3.41434856474257
2.031554160125592e-06,0.005115373920456768,3.399465776164522
2.041554160125587e-06,0.005449368354135033,3.369700199008481
2.051554160125588e-06,0.005449368354135184,3.429231353320603
2.06155416012559e-06,0.005115373920456617,3.36597950186396
2.071554160125592e-06,0.008121323823562968,3.403186473309039
2.081554160125586e-06,0.006451351655171647,3.392024381875523
2.091554160125588e-06,0.007453334956206592,3.358538107574943
2.10155416012559e-06,0.007119340522528024,3.421789959031586
2.111554160125591e-06,0.008121323823563727,3.380862290441993
2.121554160125586e-06,0.008455318257242142,3.410627867598047
2.131554160125588e-06,0.007119340522528024,3.395745079020027
2.141554160125589e-06,0.007119340522528024,3.36597950186396
2.151554160125591e-06,0.009123307124599432,3.403186473309044
2.161554160125592e-06,0.00711934052252924,3.377141593297505
2.171554160125587e-06,0.009791295991956567,3.421789959031586
2.181554160125589e-06,0.008121323823563727,3.399465776164535
2.19155416012559e-06,0.008121323823563727,3.362258804719451
2.201554160125592e-06,0.007119340522528328,3.43667274760959
