traces_bank_current_trigger/benchmark_traces/Factorial_100MHz/factorial_6.csv

#Digilent WaveForms Oscilloscope Acquisition
#Device Name: Discovery2
#Serial Number: SN:210321B3D813
#Date Time: 2023-07-18 17:06:03.535
#Sample rate: 1e+08Hz
#Samples: 8192
#Trigger: Source: Channel 2 Type: Edge Condition: Rising Level: 2 V Hyst.: Auto HoldOff: 0 s
#Channel 1: Range: 10 mV/div Offset: 0 V Attenuation: 1 X Sample Mode: Average
#Channel 2: Range: 5 V/div Offset: 0 V Attenuation: 1 X Sample Mode: Average

Time (s),Channel 1 (V),Channel 2 (V)
-9.550105485232028e-07,0.005783362787813752,-0.01241350534971222
-9.450105485232012e-07,0.00778732938988516,0.00991067751733847
-9.350105485231996e-07,0.007787329389885008,0.03967625467338237
-9.250105485232048e-07,0.007453334956206744,-0.01241350534968853
-9.150105485232032e-07,0.008455318257242295,0.06200043754045675
-9.050105485232016e-07,0.008121323823563727,-0.01613420249422067
-8.950105485232e-07,0.00778732938988516,0.02851416323988071
-8.850105485232052e-07,0.006451351655171496,0.01735207180636044
-8.750105485232036e-07,0.007453334956206592,-0.004972111060695325
-8.65010548523202e-07,0.007453334956206592,0.06572113468496521
-8.550105485232004e-07,0.006785346088849456,-0.01241350534971222
-8.450105485231988e-07,0.008455318257241688,0.04711764896241111
-8.35010548523204e-07,0.007119340522528024,0.02107276895086382
-8.250105485232024e-07,0.00778732938988516,0.002469283228321573
-8.150105485232008e-07,0.007119340522528024,0.06572113468496521
-8.050105485231992e-07,0.005449368354135791,-0.01613420249418514
-7.950105485232044e-07,0.006785346088848848,0.06200043754042123
-7.850105485232028e-07,0.006451351655170888,0.03223486038438916
-7.750105485232012e-07,0.005783362787813752,0.006189980372830022
-7.650105485231996e-07,0.006451351655169977,0.05827974039591277
-7.550105485232047e-07,0.004447385053100392,-0.0198548996386936
-7.450105485232031e-07,0.00611735722149232,0.03595555752889761
-7.350105485232015e-07,0.005783362787813752,0.02851416323988071
-7.250105485232e-07,0.005783362787813752,0.002469283228321573
-7.150105485232051e-07,0.007119340522527417,0.05455904325141617
-7.050105485232035e-07,0.004781379486778049,-0.004972111060695325
-6.950105485232019e-07,0.006451351655170888,0.03967625467340606
-6.850105485232003e-07,0.005449368354135184,0.01735207180635537
-6.750105485231987e-07,0.005449368354135184,-0.001251413916163189
-6.650105485232039e-07,0.005449368354135184,0.05083834610693141
-6.550105485232023e-07,0.003111407318385209,-0.01985489963872912
-6.450105485232007e-07,0.005449368354135184,0.02107276895086382
-6.350105485231991e-07,0.005115373920457224,0.009910677517336779
-6.250105485232043e-07,0.00645135165517028,0.006189980372831713
-6.150105485232027e-07,0.005115373920456617,0.05827974039594831
-6.050105485232011e-07,0.006451351655170888,-0.02729629392774602
-5.950105485231995e-07,0.007119340522527417,0.02479346609536888
-5.850105485232047e-07,0.005783362787814359,0.01735207180635875
-5.750105485232031e-07,0.006451351655170888,-0.01613420249422067
-5.650105485232015e-07,0.005449368354135184,0.03595555752889761
-5.550105485231999e-07,0.007119340522528024,-0.03473768821676292
-5.450105485232051e-07,0.006451351655171192,0.0247934660953452
-5.350105485232035e-07,0.00611735722149232,-0.004972111060695325
-5.250105485232019e-07,0.006785346088849456,-0.001251413916186876
-5.150105485232003e-07,0.007453334956206592,0.05827974039594831
-5.050105485231987e-07,0.005449368354136551,-0.0235755967832105
-4.950105485232038e-07,0.008455318257242295,0.03595555752889761
-4.850105485232022e-07,0.006451351655170888,0.01363137466184692
-4.750105485232007e-07,0.00611735722149232,-0.01241350534971222
-4.650105485231991e-07,0.006117357221493232,0.0471176489623925
-4.550105485232042e-07,0.008121323823563727,-0.01985489963872912
-4.450105485232026e-07,0.00611735722149232,0.02851416323988071
-4.35010548523201e-07,0.005783362787813752,0.00991067751733847
-4.250105485231994e-07,0.007453334956206137,-0.01613420249418852
-4.150105485232046e-07,0.006451351655171344,0.05455904325140771
-4.05010548523203e-07,0.005783362787813752,-0.03101699107225447
-3.950105485232014e-07,0.008455318257242295,0.02851416323988071
-3.850105485231998e-07,0.005115373920456617,0.00991067751733847
-3.75010548523205e-07,0.005783362787813448,0.006189980372831713
-3.650105485232034e-07,0.006451351655170888,0.04339695181791451
-3.550105485232018e-07,0.006785346088849456,-0.03845838536127136
-3.450105485232002e-07,0.008121323823563727,0.04711764896242296
-3.350105485231986e-07,0.008455318257241081,-0.001251413916195336
-3.250105485232038e-07,0.005783362787813752,-0.01985489963872912
-3.150105485232022e-07,0.007119340522528024,0.04711764896242296
-3.050105485232006e-07,0.007453334956206592,-0.03101699107225447
-2.95010548523199e-07,0.007119340522527873,0.04711764896240435
-2.850105485232042e-07,0.006785346088849456,0.006189980372830022
-2.750105485232026e-07,0.00611735722149232,-0.008692808205203774
-2.65010548523201e-07,0.006785346088849456,0.04711764896242296
-2.550105485231994e-07,0.006117357221492928,-0.008692808205190238
-2.450105485232045e-07,0.007453334956205985,0.02107276895085028
-2.350105485232029e-07,0.007453334956206592,0.02107276895086382
-2.250105485232013e-07,0.007453334956206592,-0.004972111060695325
-2.150105485231998e-07,0.008121323823563727,0.04711764896242296
-2.050105485232049e-07,0.00711934052252848,-0.00125141391616488
-1.950105485232033e-07,0.007119340522528024,0.01363137466184692
-1.850105485232017e-07,0.006451351655170888,0.006189980372830022
-1.750105485232001e-07,0.005783362787813752,0.002469283228321573
-1.650105485232053e-07,0.007119340522527417,0.0433969518178959
-1.550105485232037e-07,0.00611735722149232,-0.01241350534971222
-1.450105485232021e-07,0.008121323823563727,0.03223486038438916
-1.350105485232005e-07,0.006451351655170888,0.02107276895086382
-1.250105485231989e-07,0.008121323823562513,-0.001251413916166573
-1.150105485232041e-07,0.005449368354135184,0.04339695181791451
-1.050105485232025e-07,0.006785346088849456,-0.03101699107225447
-9.50105485232009e-08,0.00778732938988516,0.00991067751733847
-8.50105485231993e-08,0.005449368354135944,0.006189980372818178
-7.501054852320448e-08,0.007119340522527265,-0.01985489963871728
-6.501054852320288e-08,0.006451351655170888,0.03223486038438916
-5.501054852320128e-08,0.00778732938988516,-0.04962047679479671
-4.501054852319969e-08,0.007119340522526961,0.03223486038437732
-3.501054852320486e-08,0.004781379486779112,0.006189980372841866
-2.501054852320326e-08,0.005449368354135184,-0.02357559678323757
-1.501054852320167e-08,0.00778732938988516,0.02851416323988071
-5.010548523200068e-09,0.002777412884706641,0.229431809043337
4.989451476794754e-09,-0.009246386727716334,3.756652702035743
1.498945147679635e-08,0.01179526259402797,2.85996469021081
2.498945147679795e-08,0.00611735722149232,3.529690176222331
3.498945147679955e-08,0.01747316796656363,3.131575581759927
4.498945147680115e-08,0.004113390619424558,3.421789959031512
5.498945147679597e-08,0.01212925702770654,3.258079284673214
6.498945147679757e-08,0.001107440716313802,3.410627867598061
7.498945147679917e-08,0.006451351655170888,3.280403467540265
8.498945147680076e-08,-0.003568481355182807,3.429231353320536
9.498945147679559e-08,0.003779396185739004,3.280403467540333
1.049894514767972e-07,0.0001054574152780984,3.373420896152977
1.149894514767988e-07,0.00778732938988516,3.295286256118299
1.249894514768004e-07,0.003111407318388095,3.325051833274362
1.349894514767952e-07,0.009457301558275115,3.313889741840846
1.449894514767968e-07,0.00611735722149232,3.302727650407316
1.549894514767984e-07,0.009791295991956567,3.3399346218524
1.649894514768e-07,0.003779396185742345,3.351096713285926
1.749894514767948e-07,0.008121323823561753,3.299006953262831
1.849894514767964e-07,0.003111407318385209,3.410627867598061
1.94989451476798e-07,0.004113390619420913,3.295286256118299
2.049894514767996e-07,0.00144143514999237,3.38830368473101
2.149894514768012e-07,0.004447385053100088,3.321331136129857
2.24989451476796e-07,0.005783362787813752,3.31761043898535
2.349894514767976e-07,0.00778732938988516,3.351096713285926
2.449894514767992e-07,0.005783362787813752,3.295286256118299
2.549894514768008e-07,0.009791295991955504,3.343655318996902
2.649894514767957e-07,0.007453334956207655,3.328772530418882
2.749894514767973e-07,0.008455318257242295,3.31761043898535
2.849894514767988e-07,0.004781379486778049,3.392024381875518
2.949894514768004e-07,0.006117357221490954,3.302727650407347
3.049894514767953e-07,0.003111407318386576,3.369700199008437
3.149894514767969e-07,0.005783362787813752,3.31761043898535
3.249894514767985e-07,0.002109424017349506,3.332493227563384
3.349894514768001e-07,0.006451351655170888,3.351096713285926
3.449894514767949e-07,0.005783362787814056,3.302727650407338
3.549894514767965e-07,0.008789312690920863,3.3399346218524
3.649894514767981e-07,0.007119340522528024,3.351096713285926
3.749894514767997e-07,0.008121323823563727,3.325051833274367
3.849894514768013e-07,0.005783362787814207,3.380862290441963
3.949894514767961e-07,0.006785346088849456,3.313889741840841
4.049894514767977e-07,0.006451351655170888,3.384582987586502
4.149894514767993e-07,0.005783362787813752,3.354817410430434
4.249894514768009e-07,0.006451351655171344,3.332493227563411
4.349894514767957e-07,0.007453334956206137,3.392024381875491
4.449894514767973e-07,0.007119340522528024,3.321331136129858
4.549894514767989e-07,0.007453334956206592,3.373420896152977
4.649894514768005e-07,0.007119340522528328,3.365979501863941
4.749894514767953e-07,0.007787329389884856,3.325051833274385
4.849894514767969e-07,0.007453334956206592,3.38830368473101
4.949894514767985e-07,0.00778732938988516,3.321331136129858
5.049894514768001e-07,0.006451351655170888,3.395745079020027
5.14989451476795e-07,0.006451351655170888,3.362258804719466
5.249894514767966e-07,0.00778732938988516,3.358538107574943
5.349894514767981e-07,0.00778732938988516,3.406907170453553
5.449894514767997e-07,0.006451351655170888,3.343655318996909
5.549894514768013e-07,0.007119340522528176,3.392024381875514
5.649894514767962e-07,0.007453334956206592,3.380862290441993
5.749894514767978e-07,0.008789312690920863,3.343655318996909
5.849894514767994e-07,0.007119340522528024,3.403186473309044
5.94989451476801e-07,0.006785346088849911,3.317610438985387
6.049894514767958e-07,0.00778732938988516,3.399465776164535
6.149894514767974e-07,0.006785346088849456,3.373420896152977
6.24989451476799e-07,0.006785346088849456,3.351096713285926
6.349894514768006e-07,0.006451351655171192,3.429231353320553
6.449894514767954e-07,0.007119340522527721,3.3176104389854
6.54989451476797e-07,0.006785346088849456,3.406907170453553
6.649894514767986e-07,0.005115373920456617,3.373420896152977
6.749894514768002e-07,0.006785346088849456,3.347376016141417
6.84989451476795e-07,0.005115373920457376,3.406907170453525
6.949894514767966e-07,0.005783362787813752,3.332493227563384
7.049894514767982e-07,0.006451351655170888,3.384582987586502
7.149894514767998e-07,0.008121323823563727,3.362258804719451
7.249894514768014e-07,0.007119340522527417,3.358538107574965
7.349894514767962e-07,0.005783362787813752,3.406907170453553
7.449894514767978e-07,0.00778732938988516,3.3399346218524
7.549894514767994e-07,0.006451351655170888,3.421789959031586
7.64989451476801e-07,0.007119340522528328,3.362258804719448
7.749894514767959e-07,0.00778732938988516,3.354817410430434
7.849894514767975e-07,0.006451351655170888,3.418069261887078
7.94989451476799e-07,0.004781379486778049,3.347376016141417
8.049894514768006e-07,0.00745333495620568,3.399465776164527
8.149894514767955e-07,0.005449368354136095,3.380862290442002
8.249894514767971e-07,0.006451351655170888,3.354817410430434
8.349894514767987e-07,0.006451351655170888,3.41434856474257
8.449894514768003e-07,0.006785346088849456,3.354817410430434
8.549894514767951e-07,0.006785346088849456,3.410627867598035
8.649894514767967e-07,0.005115373920456617,3.380862290441993
8.749894514767983e-07,0.007119340522528024,3.373420896152977
8.849894514767999e-07,0.005783362787813752,3.410627867598061
8.949894514767947e-07,0.006117357221492169,3.328772530418912
9.049894514767963e-07,0.006451351655170888,3.410627867598061
9.149894514767979e-07,0.006451351655170888,3.377141593297485
9.249894514767995e-07,0.007453334956206592,3.362258804719451
9.349894514768011e-07,0.006117357221492472,3.40690717045353
9.449894514767959e-07,0.006451351655170888,3.358538107574943
9.549894514767975e-07,0.009123307124599432,3.403186473309044
9.649894514767991e-07,0.007119340522528024,3.380862290441993
9.749894514768007e-07,0.006785346088849608,3.369700199008486
9.849894514767955e-07,0.007119340522527873,3.410627867598042
9.949894514767971e-07,0.00611735722149232,3.336213924707892
1.004989451476799e-06,0.00778732938988516,3.38830368473101
1.0149894514768e-06,0.007453334956206896,3.373420896152973
1.024989451476795e-06,0.008121323823563424,3.365979501863963
1.034989451476797e-06,0.00611735722149232,3.406907170453553
1.044989451476798e-06,0.006451351655170888,3.332493227563384
1.0549894514768e-06,0.007453334956206592,3.395745079020027
1.064989451476795e-06,0.006451351655171344,3.384582987586507
1.074989451476796e-06,0.00611735722149232,3.354817410430434
1.084989451476798e-06,0.007453334956206592,3.41434856474257
1.0949894514768e-06,0.007453334956206592,3.343655318996909
1.104989451476801e-06,0.007787329389884553,3.388303684731004
1.114989451476796e-06,0.006451351655170888,3.373420896152977
1.124989451476798e-06,0.006785346088849456,3.343655318996909
1.134989451476799e-06,0.008789312690920863,3.410627867598061
1.144989451476801e-06,0.006451351655170888,3.328772530418902
1.154989451476796e-06,0.006451351655170888,3.388303684730983
1.164989451476797e-06,0.006451351655170888,3.36597950186396
1.174989451476799e-06,0.009457301558278,3.351096713285926
1.1849894514768e-06,0.007453334956206592,3.384582987586481
1.194989451476795e-06,0.007453334956206592,3.339934621852421
1.204989451476797e-06,0.008121323823563727,3.373420896152977
1.214989451476798e-06,0.00778732938988516,3.36597950186396
1.2249894514768e-06,0.008121323823563727,3.351096713285926
1.234989451476795e-06,0.008121323823563727,3.406907170453527
1.244989451476796e-06,0.006451351655170888,3.362258804719451
1.254989451476798e-06,0.008455318257242295,3.395745079020027
1.2649894514768e-06,0.007119340522528024,3.36597950186396
1.274989451476801e-06,0.006451351655171344,3.351096713285949
1.284989451476796e-06,0.007453334956206592,3.403186473309044
1.294989451476798e-06,0.00778732938988516,3.325051833274367
1.304989451476799e-06,0.008789312690920863,3.399465776164535
1.314989451476801e-06,0.006451351655171648,3.365979501863953
1.324989451476796e-06,0.008121323823562968,3.351096713285932
1.334989451476797e-06,0.007453334956206592,3.410627867598061
1.344989451476799e-06,0.00611735722149232,3.343655318996909
1.3549894514768e-06,0.0107932792929903,3.403186473309029
1.364989451476795e-06,0.006451351655172862,3.369700199008483
1.374989451476797e-06,0.009457301558278,3.354817410430434
1.384989451476798e-06,0.008121323823563727,3.410627867598061
1.3949894514768e-06,0.007453334956206592,3.351096713285926
1.404989451476795e-06,0.009123307124598672,3.399465776164513
1.414989451476797e-06,0.009123307124599432,3.373420896152977
1.424989451476798e-06,0.00778732938988516,3.354817410430434
1.4349894514768e-06,0.008455318257242295,3.41434856474257
1.444989451476801e-06,0.007119340522529088,3.343655318996941
1.454989451476796e-06,0.009457301558278,3.41434856474257
1.464989451476798e-06,0.007119340522528024,3.36597950186396
1.474989451476799e-06,0.008455318257242295,3.354817410430434
1.484989451476801e-06,0.01012529042563407,3.421789959031547
1.494989451476796e-06,0.007787329389886223,3.336213924707931
1.504989451476797e-06,0.009457301558278,3.410627867598061
1.514989451476799e-06,0.009457301558278,3.380862290441993
1.524989451476801e-06,0.008121323823564638,3.369700199008491
1.534989451476795e-06,0.01012529042563422,3.421789959031563
1.544989451476797e-06,0.00778732938988516,3.336213924707892
1.554989451476799e-06,0.009791295991956567,3.410627867598061
1.5649894514768e-06,0.009123307124599432,3.373420896152977
1.574989451476795e-06,0.01012529042563468,3.36970019900847
1.584989451476797e-06,0.008455318257242295,3.432952050465111
1.594989451476798e-06,0.006451351655170888,3.332493227563384
1.6049894514768e-06,0.00778732938988516,3.406907170453553
1.614989451476801e-06,0.008455318257241688,3.373420896152972
1.624989451476796e-06,0.007119340522528024,3.362258804719451
1.634989451476798e-06,0.009123307124599432,3.395745079020027
1.644989451476799e-06,0.006785346088849456,3.328772530418875
1.654989451476801e-06,0.009457301558276936,3.399465776164524
1.664989451476796e-06,0.007119340522528024,3.373420896152977
1.674989451476797e-06,0.008121323823563727,3.3399346218524
1.684989451476799e-06,0.009123307124599432,3.432952050465111
1.694989451476801e-06,0.007453334956207352,3.328772530418907
1.704989451476795e-06,0.009123307124598672,3.399465776164504
1.714989451476797e-06,0.00778732938988516,3.354817410430434
1.724989451476799e-06,0.008455318257242295,3.354817410430434
1.7349894514768e-06,0.00778732938988516,3.392024381875518
1.744989451476795e-06,0.004781379486779416,3.325051833274397
1.754989451476797e-06,0.00611735722149232,3.384582987586502
1.764989451476798e-06,0.007119340522528024,3.358538107574943
1.7749894514768e-06,0.007119340522528024,3.351096713285926
1.784989451476795e-06,0.007119340522528024,3.399465776164513
1.794989451476796e-06,0.00778732938988516,3.325051833274367
1.804989451476798e-06,0.007453334956206592,3.403186473309044
1.814989451476799e-06,0.006451351655170888,3.369700199008468
1.824989451476801e-06,0.009791295991955808,3.373420896152992
1.834989451476796e-06,0.008121323823563727,3.406907170453553
1.844989451476797e-06,0.006785346088849456,3.325051833274367
1.854989451476799e-06,0.009457301558278,3.384582987586502
1.864989451476801e-06,0.007453334956206744,3.351096713285924
1.874989451476795e-06,0.007787329389885008,3.347376016141419
1.884989451476797e-06,0.006785346088849456,3.399465776164535
1.894989451476799e-06,0.00778732938988516,3.325051833274367
1.9049894514768e-06,0.00778732938988516,3.406907170453553
1.914989451476795e-06,0.008121323823563575,3.369700199008485
1.924989451476797e-06,0.007453334956206592,3.354817410430434
1.934989451476798e-06,0.006451351655170888,3.403186473309044
1.9449894514768e-06,0.007453334956206592,3.336213924707892
1.954989451476795e-06,0.008789312690920256,3.377141593297466
1.964989451476796e-06,0.006785346088849456,3.377141593297485
1.974989451476798e-06,0.00778732938988516,3.362258804719451
1.9849894514768e-06,0.006451351655170888,3.406907170453553
1.994989451476801e-06,0.007787329389884704,3.351096713285944
2.004989451476796e-06,0.006785346088849456,3.392024381875518
2.014989451476798e-06,0.005783362787813752,3.377141593297485
2.024989451476799e-06,0.007119340522528024,3.351096713285926
2.034989451476801e-06,0.007453334956205832,3.414348564742536
2.044989451476796e-06,0.005783362787814512,3.339934621852434
2.054989451476797e-06,0.007119340522528024,3.395745079020027
2.064989451476799e-06,0.00611735722149232,3.373420896152977
2.0749894514768e-06,0.00745333495620568,3.354817410430465
2.084989451476795e-06,0.005449368354136095,3.421789959031555
2.094989451476797e-06,0.007119340522528024,3.3399346218524
2.104989451476798e-06,0.008121323823563727,3.406907170453553
2.1149894514768e-06,0.006785346088849456,3.377141593297485
2.124989451476795e-06,0.008455318257241535,3.365979501863964
2.134989451476796e-06,0.006785346088849456,3.41434856474257
2.144989451476798e-06,0.00778732938988516,3.3399346218524
2.1549894514768e-06,0.00778732938988516,3.403186473309044
2.164989451476801e-06,0.007453334956205832,3.380862290441981
2.174989451476796e-06,0.005783362787813752,3.354817410430434
2.184989451476798e-06,0.008789312690920863,3.395745079020027
2.194989451476799e-06,0.00611735722149232,3.3399346218524
2.204989451476801e-06,0.008121323823562664,3.39574507902001
