traces_bank_current_trigger/benchmark_traces/Factorial_100MHz/factorial_3.csv

#Digilent WaveForms Oscilloscope Acquisition
#Device Name: Discovery2
#Serial Number: SN:210321B3D813
#Date Time: 2023-07-18 16:49:44.214
#Sample rate: 1e+08Hz
#Samples: 8192
#Trigger: Source: Channel 2 Type: Edge Condition: Rising Level: 2 V Hyst.: Auto HoldOff: 0 s
#Channel 1: Range: 10 mV/div Offset: 0 V Attenuation: 1 X Sample Mode: Average
#Channel 2: Range: 5 V/div Offset: 0 V Attenuation: 1 X Sample Mode: Average

Time (s),Channel 1 (V),Channel 2 (V)
-9.558155230596124e-07,0.008121323823563727,-0.01241350534971222
-9.458155230596108e-07,0.008121323823563727,0.03223486038438916
-9.358155230596092e-07,0.00812132382356388,0.01363137466183677
-9.258155230596144e-07,0.008455318257242142,-0.008692808205193622
-9.158155230596128e-07,0.00778732938988516,0.04711764896242296
-9.058155230596112e-07,0.00611735722149232,-0.01613420249422067
-8.958155230596096e-07,0.007453334956206592,0.03595555752889761
-8.858155230596147e-07,0.006451351655171344,0.01363137466185707
-8.758155230596131e-07,0.008121323823563727,0.01363137466184692
-8.658155230596116e-07,0.006451351655170888,0.03223486038438916
-8.5581552305961e-07,0.006785346088849456,-0.03101699107225447
-8.458155230596084e-07,0.008455318257241232,0.03595555752887731
-8.358155230596135e-07,0.00611735722149232,-0.008692808205203774
-8.258155230596119e-07,0.006785346088849456,0.00991067751733847
-8.158155230596103e-07,0.00778732938988516,0.03967625467340606
-8.058155230596087e-07,0.00611735722149308,-0.01241350534969023
-7.958155230596139e-07,0.0077873293898844,0.03595555752887562
-7.858155230596123e-07,0.005115373920456617,0.002469283228321573
-7.758155230596107e-07,0.006785346088849456,0.002469283228321573
-7.658155230596091e-07,0.005783362787814512,0.03595555752887054
-7.558155230596143e-07,0.007453334956205832,-0.0235755967832105
-7.458155230596127e-07,0.00611735722149232,0.05083834610693141
-7.358155230596111e-07,0.005783362787813752,-0.004972111060695325
-7.258155230596095e-07,0.006785346088849456,0.02107276895086382
-7.158155230596147e-07,0.00645135165517104,0.01735207180635706
-7.058155230596131e-07,0.006451351655170888,-0.02357559678323757
-6.958155230596115e-07,0.00611735722149232,0.04339695181791451
-6.858155230596099e-07,0.005783362787813752,-0.001251413916186876
-6.758155230596083e-07,0.00745333495620568,-0.004972111060669945
-6.658155230596135e-07,0.005449368354135184,0.05083834610693141
-6.558155230596119e-07,0.005115373920456617,-0.01613420249422067
-6.458155230596103e-07,0.007119340522528024,0.03223486038438916
-6.358155230596087e-07,0.00511537392045692,-0.01241350534971053
-6.258155230596138e-07,0.005783362787813448,-0.008692808205205465
-6.158155230596123e-07,0.005449368354135184,0.03595555752889761
-6.058155230596107e-07,0.005115373920456617,-0.02729629392774602
-5.958155230596091e-07,0.006785346088848849,0.0359555575288807
-5.858155230596142e-07,0.005449368354135791,-0.001251413916169959
-5.758155230596126e-07,0.005783362787813752,-0.001251413916186876
-5.65815523059611e-07,0.006451351655170888,0.03595555752889761
-5.558155230596094e-07,0.004447385053099481,-0.01613420249422067
-5.458155230596146e-07,0.007119340522526809,0.03595555752887392
-5.35815523059613e-07,0.005115373920456617,-0.008692808205203774
-5.258155230596114e-07,0.007453334956206592,0.006189980372830022
-5.158155230596098e-07,0.005115373920456617,0.03595555752889761
-5.058155230596082e-07,0.005783362787813297,-0.03845838536123414
-4.958155230596134e-07,0.004781379486778049,0.04339695181791451
-4.858155230596118e-07,0.003779396185742345,0.002469283228321573
-4.758155230596102e-07,0.006451351655170888,0.002469283228321573
-4.658155230596086e-07,0.006117357221491257,0.0471176489623925
-4.558155230596138e-07,0.003779396185742345,-0.01985489963872912
-4.458155230596122e-07,0.004447385053099481,0.03967625467340606
-4.358155230596106e-07,0.003445401752063777,0.002469283228321573
-4.25815523059609e-07,0.006451351655170585,0.002469283228341876
-4.158155230596142e-07,0.005783362787814056,0.04711764896240266
-4.058155230596126e-07,0.004447385053099481,-0.01985489963872912
-3.95815523059611e-07,0.005115373920456617,0.04711764896242296
-3.858155230596094e-07,0.006451351655170888,0.00991067751733847
-3.758155230596145e-07,0.00544936835413564,-0.0012514139161818
-3.658155230596129e-07,0.00611735722149232,0.03967625467340606
-3.558155230596114e-07,0.005783362787813752,-0.01241350534971222
-3.458155230596098e-07,0.005115373920456617,0.03223486038438916
-3.358155230596082e-07,0.004781379486778656,0.02107276895085874
-3.258155230596133e-07,0.00611735722149232,0.00991067751733847
-3.158155230596117e-07,0.004781379486778049,0.04711764896242296
-3.058155230596101e-07,0.005783362787813752,-0.01613420249422067
-2.958155230596085e-07,0.006117357221492472,0.04339695181788575
-2.858155230596137e-07,0.006451351655170888,-0.01985489963872912
-2.758155230596121e-07,0.005115373920456617,-0.001251413916186876
-2.658155230596105e-07,0.00611735722149232,0.03595555752889761
-2.558155230596089e-07,0.006451351655170736,-0.02357559678320373
-2.458155230596141e-07,0.006117357221492472,0.05083834610689757
-2.358155230596125e-07,0.004781379486778049,0.01735207180635537
-2.258155230596109e-07,0.005783362787813752,-0.01241350534971222
-2.158155230596093e-07,0.006451351655170888,0.05083834610693141
-2.058155230596145e-07,0.004447385053100392,-0.02357559678320374
-1.958155230596129e-07,0.006785346088849456,0.03223486038438916
-1.858155230596113e-07,0.005115373920456617,-0.01613420249422067
-1.758155230596097e-07,0.006785346088849456,-0.01985489963872912
-1.658155230596149e-07,0.005449368354135791,0.03967625467337899
-1.558155230596133e-07,0.004447385053099481,-0.01985489963872912
-1.458155230596117e-07,0.005783362787813752,0.02107276895086382
-1.358155230596101e-07,0.003779396185742345,-0.02729629392774602
-1.258155230596085e-07,0.006451351655169521,0.009910677517346931
-1.158155230596136e-07,0.003445401752063777,0.02851416323988071
-1.058155230596121e-07,0.006785346088849456,-0.03845838536127136
-9.581552305961045e-08,0.007119340522528024,0.02107276895086382
-8.581552305960885e-08,0.004113390619421824,-0.008692808205200389
-7.581552305961403e-08,0.006117357221491409,-0.00125141391619026
-6.581552305961243e-08,0.004447385053099481,0.02851416323988071
-5.581552305961084e-08,0.005449368354135184,-0.03101699107225447
-4.581552305960924e-08,0.005115373920456009,0.02107276895084859
-3.581552305961442e-08,0.003779396185742953,-0.01241350534969699
-2.581552305961282e-08,0.007453334956206592,-0.02357559678323757
-1.581552305961122e-08,0.004113390619420913,0.02479346609537227
-5.81552305960962e-09,0.003111407318385209,0.07316252897398209
4.184476940385202e-09,-0.01492429210024926,3.380862290440489
1.41844769403868e-08,0.01513520693081365,3.112972096037385
2.41844769403884e-08,0.003779396185742345,3.358538107574943
3.418447694039e-08,0.01814115683392076,3.213430918939113
4.41844769403916e-08,0.001441435149997686,3.365979501863912
5.418447694038642e-08,0.01313124032874225,3.261799981817723
6.418447694038802e-08,-0.001898509186793309,3.406907170453553
7.418447694038961e-08,0.006785346088849456,3.261799981817723
8.418447694039121e-08,-0.004570464656218358,3.451555536187559
9.418447694038603e-08,0.003111407318381716,3.243196496095275
1.041844769403876e-07,-0.002232503620471877,3.41434856474257
1.141844769403892e-07,0.007453334956206592,3.265520678962231
1.241844769403908e-07,0.0007734462826387274,3.343655318996897
1.341844769403857e-07,0.008455318257238801,3.317610438985362
1.441844769403872e-07,0.004447385053099481,3.343655318996909
1.541844769403888e-07,0.009457301558278,3.302727650407316
1.641844769403904e-07,0.002777412884706641,3.377141593297485
1.741844769403853e-07,0.006451351655169218,3.32505183327439
1.841844769403869e-07,0.00144143514999237,3.410627867598061
1.941844769403885e-07,0.002443418451028074,3.272962073251248
2.041844769403901e-07,-0.0008965258857576053,3.421789959031586
2.141844769403917e-07,0.003445401752062714,3.30644834755185
2.241844769403865e-07,0.001107440716313802,3.362258804719451
2.341844769403881e-07,0.006451351655170888,3.347376016141417
2.441844769403897e-07,0.003779396185742345,3.313889741840841
2.541844769403913e-07,0.008121323823561297,3.362258804719448
2.641844769403861e-07,0.002777412884709072,3.354817410430438
2.741844769403877e-07,0.00611735722149232,3.328772530418875
2.841844769403893e-07,0.004781379486778049,3.41434856474257
2.941844769403909e-07,0.002777412884706641,3.310169044696377
3.041844769403857e-07,0.002777412884706641,3.406907170453509
3.141844769403873e-07,0.002777412884706641,3.302727650407316
3.241844769403889e-07,0.003445401752063777,3.362258804719451
3.341844769403905e-07,0.003779396185742345,3.377141593297485
3.441844769403853e-07,0.004781379486777594,3.317610438985377
3.541844769403869e-07,0.005783362787813752,3.369700199008468
3.641844769403885e-07,0.00611735722149232,3.343655318996909
3.741844769403901e-07,0.00778732938988516,3.347376016141417
3.841844769403917e-07,0.006785346088849152,3.399465776164495
3.941844769403866e-07,0.00611735722149232,3.310169044696333
4.041844769403881e-07,0.005783362787813752,3.392024381875518
4.141844769403897e-07,0.003445401752063777,3.343655318996909
4.241844769403913e-07,0.006117357221491713,3.347376016141432
4.341844769403862e-07,0.004781379486778656,3.380862290441978
4.441844769403878e-07,0.005449368354135184,3.325051833274367
4.541844769403894e-07,0.006785346088849456,3.373420896152977
4.64184476940391e-07,0.007119340522527873,3.347376016141419
4.741844769403858e-07,0.006785346088849608,3.351096713285924
4.841844769403874e-07,0.006785346088849456,3.395745079020027
4.94184476940389e-07,0.007453334956206592,3.310169044696333
5.041844769403906e-07,0.007119340522528024,3.410627867598061
5.141844769403854e-07,0.006451351655171192,3.339934621852432
5.24184476940387e-07,0.006785346088849456,3.362258804719451
5.341844769403886e-07,0.006785346088849456,3.403186473309044
5.441844769403902e-07,0.006785346088849456,3.310169044696333
5.541844769403918e-07,0.007453334956205832,3.399465776164512
5.641844769403866e-07,0.005783362787813752,3.347376016141417
5.741844769403882e-07,0.00778732938988516,3.351096713285926
5.841844769403898e-07,0.007119340522528024,3.399465776164535
5.941844769403914e-07,0.007787329389885311,3.328772530418907
6.041844769403862e-07,0.008121323823563727,3.399465776164535
6.141844769403878e-07,0.005115373920456617,3.36597950186396
6.241844769403894e-07,0.007119340522528024,3.369700199008468
6.34184476940391e-07,0.006451351655170585,3.395745079020004
6.441844769403859e-07,0.005783362787814056,3.343655318996932
6.541844769403874e-07,0.00611735722149232,3.399465776164535
6.64184476940389e-07,0.006785346088849456,3.36597950186396
6.741844769403906e-07,0.007119340522528024,3.362258804719451
6.841844769403855e-07,0.007119340522528024,3.395745079020012
6.941844769403871e-07,0.006451351655170888,3.325051833274367
7.041844769403887e-07,0.008789312690920863,3.399465776164535
7.141844769403903e-07,0.007453334956206592,3.354817410430434
7.241844769403919e-07,0.009123307124599279,3.362258804719468
7.341844769403867e-07,0.008789312690920863,3.399465776164535
7.441844769403883e-07,0.005783362787813752,3.3399346218524
7.541844769403899e-07,0.007119340522528024,3.399465776164535
7.641844769403915e-07,0.00812132382356236,3.358538107574956
7.741844769403863e-07,0.005115373920456617,3.38830368473101
7.841844769403879e-07,0.007119340522528024,3.410627867598061
7.941844769403895e-07,0.00611735722149232,3.328772530418875
8.041844769403911e-07,0.007119340522526506,3.410627867598046
8.141844769403859e-07,0.003779396185743864,3.3771415932975
8.241844769403875e-07,0.005783362787813752,3.380862290441993
8.341844769403891e-07,0.003779396185742345,3.399465776164535
8.441844769403907e-07,0.004447385053099481,3.347376016141417
8.541844769403855e-07,0.005115373920456313,3.414348564742539
8.641844769403871e-07,0.003445401752063777,3.36597950186396
8.741844769403887e-07,0.006451351655170888,3.392024381875518
8.841844769403903e-07,0.005449368354135184,3.410627867598061
8.941844769403852e-07,0.004447385053099937,3.339934621852432
9.041844769403867e-07,0.004781379486778049,3.43667274760962
9.141844769403883e-07,0.004781379486778049,3.392024381875518
9.241844769403899e-07,0.006785346088849456,3.373420896152977
9.341844769403915e-07,0.005115373920456768,3.432952050465079
9.441844769403864e-07,0.005449368354135184,3.362258804719451
9.54184476940388e-07,0.00611735722149232,3.425510656176095
9.641844769403896e-07,0.004781379486778049,3.369700199008468
9.741844769403912e-07,0.004781379486778656,3.373420896152997
9.84184476940386e-07,0.006117357221491712,3.418069261887057
9.941844769403876e-07,0.005115373920456617,3.328772530418875
1.004184476940389e-06,0.005783362787813752,3.406907170453553
1.014184476940391e-06,0.005115373920457376,3.343655318996922
1.024184476940386e-06,0.006785346088848697,3.373420896152963
1.034184476940387e-06,0.005115373920456617,3.406907170453553
1.044184476940389e-06,0.004781379486778049,3.332493227563384
1.05418447694039e-06,0.004781379486778049,3.410627867598061
1.064184476940385e-06,0.004447385053099633,3.369700199008486
1.074184476940387e-06,0.004113390619420913,3.358538107574943
1.084184476940388e-06,0.006451351655170888,3.399465776164535
1.09418447694039e-06,0.005115373920456617,3.3399346218524
1.104184476940392e-06,0.004781379486778353,3.410627867598037
1.114184476940386e-06,0.005449368354135184,3.358538107574943
1.124184476940388e-06,0.00611735722149232,3.36597950186396
1.13418447694039e-06,0.005115373920456617,3.406907170453553
1.144184476940391e-06,0.004113390619422128,3.336213924707924
1.154184476940386e-06,0.006785346088848241,3.406907170453521
1.164184476940388e-06,0.004113390619420913,3.351096713285926
1.174184476940389e-06,0.00778732938988516,3.358538107574943
1.184184476940391e-06,0.006785346088848392,3.410627867598019
1.194184476940386e-06,0.004447385053100545,3.317610438985392
1.204184476940387e-06,0.006785346088849456,3.41434856474257
1.214184476940389e-06,0.006451351655170888,3.343655318996909
1.22418447694039e-06,0.007453334956206592,3.36597950186396
1.234184476940385e-06,0.006785346088849759,3.380862290441986
1.244184476940387e-06,0.00611735722149232,3.325051833274367
1.254184476940388e-06,0.008455318257242295,3.403186473309044
1.26418447694039e-06,0.006451351655170888,3.351096713285926
1.274184476940392e-06,0.008789312690919496,3.358538107574956
1.284184476940386e-06,0.005783362787813752,3.38830368473101
1.294184476940388e-06,0.007453334956206592,3.3399346218524
1.30418447694039e-06,0.008455318257242295,3.406907170453553
1.314184476940391e-06,0.006785346088849456,3.347376016141419
1.324184476940386e-06,0.006785346088849456,3.351096713285924
1.334184476940388e-06,0.007453334956206592,3.395745079020027
1.344184476940389e-06,0.007119340522528024,3.351096713285926
1.354184476940391e-06,0.007119340522528024,3.39946577616452
1.364184476940386e-06,0.007119340522528024,3.365979501863975
1.374184476940387e-06,0.006451351655170888,3.369700199008468
1.384184476940389e-06,0.008455318257242295,3.406907170453553
1.394184476940391e-06,0.008121323823563727,3.325051833274367
1.404184476940385e-06,0.006451351655171647,3.414348564742529
1.414184476940387e-06,0.009123307124599432,3.373420896152977
1.424184476940389e-06,0.007453334956206592,3.373420896152977
1.43418447694039e-06,0.009123307124599432,3.418069261887078
1.444184476940392e-06,0.007453334956207199,3.325051833274411
1.454184476940387e-06,0.008789312690920863,3.421789959031586
1.464184476940388e-06,0.009123307124599432,3.362258804719451
1.47418447694039e-06,0.0104592848593137,3.377141593297485
1.484184476940391e-06,0.01012529042563422,3.406907170453525
1.494184476940386e-06,0.008121323823564638,3.347376016141444
1.504184476940388e-06,0.0104592848593137,3.406907170453553
1.514184476940389e-06,0.009123307124599432,3.354817410430434
1.524184476940391e-06,0.0104592848593131,3.384582987586509
1.534184476940386e-06,0.009123307124600039,3.399465776164529
1.544184476940387e-06,0.009457301558278,3.325051833274367
1.554184476940389e-06,0.009791295991956567,3.410627867598061
1.564184476940391e-06,0.009123307124599432,3.369700199008468
1.574184476940385e-06,0.008789312690921015,3.369700199008468
1.584184476940387e-06,0.008789312690920863,3.406907170453553
1.594184476940389e-06,0.007119340522528024,3.3399346218524
1.60418447694039e-06,0.009123307124599432,3.41434856474257
1.614184476940392e-06,0.007119340522529391,3.377141593297485
1.624184476940387e-06,0.01012529042563514,3.377141593297485
1.634184476940388e-06,0.008121323823563727,3.425510656176095
1.64418447694039e-06,0.007453334956206592,3.3399346218524
1.654184476940391e-06,0.008455318257241839,3.418069261887056
1.664184476940386e-06,0.007453334956206592,3.369700199008468
1.674184476940388e-06,0.008789312690920863,3.380862290441993
1.684184476940389e-06,0.008121323823563727,3.403186473309044
1.694184476940391e-06,0.005115373920458135,3.358538107574968
1.704184476940386e-06,0.008455318257240777,3.414348564742544
1.714184476940387e-06,0.008455318257242295,3.351096713285926
1.724184476940389e-06,0.007119340522528024,3.380862290441993
1.734184476940391e-06,0.007453334956206592,3.429231353320603
1.744184476940385e-06,0.005783362787814512,3.365979501863988
1.754184476940387e-06,0.007453334956206592,3.403186473309044
1.764184476940389e-06,0.005783362787813752,3.377141593297485
1.77418447694039e-06,0.006451351655170888,3.380862290441993
1.784184476940385e-06,0.007453334956206137,3.432952050465088
1.794184476940387e-06,0.005449368354135184,3.347376016141417
1.804184476940388e-06,0.006451351655170888,3.421789959031586
1.81418447694039e-06,0.005449368354135184,3.36597950186396
1.824184476940391e-06,0.006117357221492624,3.384582987586517
1.834184476940386e-06,0.006785346088849456,3.418069261887078
1.844184476940388e-06,0.007119340522528024,3.36597950186396
1.85418447694039e-06,0.006451351655170888,3.429231353320603
1.864184476940391e-06,0.005449368354136096,3.362258804719466
1.874184476940386e-06,0.007453334956205681,3.395745079020012
1.884184476940388e-06,0.006451351655170888,3.440393444754128
1.894184476940389e-06,0.007119340522528024,3.362258804719451
1.904184476940391e-06,0.007453334956206592,3.425510656176095
1.914184476940386e-06,0.00511537392045768,3.392024381875534
1.924184476940387e-06,0.00611735722149232,3.392024381875518
1.934184476940389e-06,0.007453334956206592,3.432952050465111
1.94418447694039e-06,0.006785346088849456,3.369700199008468
1.954184476940385e-06,0.005449368354135791,3.429231353320576
1.964184476940387e-06,0.006451351655170888,3.369700199008468
1.974184476940388e-06,0.00611735722149232,3.395745079020027
1.98418447694039e-06,0.004781379486778049,3.432952050465111
1.994184476940392e-06,0.006451351655170736,3.351096713285968
2.004184476940386e-06,0.00611735722149232,3.444114141898637
2.014184476940388e-06,0.006451351655170888,3.373420896152977
2.02418447694039e-06,0.005115373920456617,3.384582987586502
2.034184476940391e-06,0.005783362787813752,3.429231353320569
2.044184476940386e-06,0.005783362787813752,3.354817410430468
2.054184476940388e-06,0.007453334956206592,3.421789959031586
2.064184476940389e-06,0.005449368354135184,3.377141593297485
2.074184476940391e-06,0.007119340522527113,3.38086229044201
2.084184476940386e-06,0.005115373920457527,3.418069261887061
2.094184476940387e-06,0.00611735722149232,3.343655318996909
2.104184476940389e-06,0.007119340522528024,3.421789959031586
2.11418447694039e-06,0.006451351655170888,3.351096713285926
2.124184476940385e-06,0.006785346088849304,3.38086229044198
2.134184476940387e-06,0.007119340522528024,3.399465776164535
2.144184476940388e-06,0.00611735722149232,3.354817410430434
2.15418447694039e-06,0.007119340522528024,3.406907170453553
2.164184476940392e-06,0.006117357221492624,3.351096713285936
2.174184476940386e-06,0.006785346088849456,3.373420896152977
2.184184476940388e-06,0.007453334956206592,3.406907170453553
2.19418447694039e-06,0.00611735722149232,3.343655318996909
