traces_bank_current_trigger/benchmark_traces/Factorial_100MHz/factorial_2.csv

#Digilent WaveForms Oscilloscope Acquisition
#Device Name: Discovery2
#Serial Number: SN:210321B3D813
#Date Time: 2023-07-18 16:45:27.007
#Sample rate: 1e+08Hz
#Samples: 8192
#Trigger: Source: Channel 2 Type: Edge Condition: Rising Level: 2 V Hyst.: Auto HoldOff: 0 s
#Channel 1: Range: 10 mV/div Offset: 0 V Attenuation: 1 X Sample Mode: Average
#Channel 2: Range: 5 V/div Offset: 0 V Attenuation: 1 X Sample Mode: Average

Time (s),Channel 1 (V),Channel 2 (V)
-9.552586206896494e-07,0.008789312690920863,-0.06450326537283051
-9.452586206896478e-07,0.009791295991956567,0.01735207180635537
-9.352586206896462e-07,0.00878931269092071,-0.02729629392774094
-9.252586206896514e-07,0.008455318257242448,-0.01613420249422575
-9.152586206896498e-07,0.0104592848593137,0.01363137466184692
-9.052586206896482e-07,0.008121323823563727,-0.04962047679479671
-8.952586206896466e-07,0.0104592848593137,0.00991067751733847
-8.852586206896517e-07,0.008121323823564791,-0.01985489963871559
-8.752586206896501e-07,0.008789312690920863,-0.02357559678323757
-8.652586206896485e-07,0.008789312690920863,0.01363137466184692
-8.552586206896469e-07,0.008455318257242295,-0.03845838536127136
-8.452586206896453e-07,0.008455318257242142,0.01363137466183169
-8.352586206896505e-07,0.008121323823563727,-0.01985489963872912
-8.252586206896489e-07,0.008121323823563727,-0.008692808205203774
-8.152586206896473e-07,0.00778732938988516,0.02851416323988071
-8.052586206896457e-07,0.006451351655171495,-0.05334117393926625
-7.952586206896509e-07,0.007787329389884553,0.03223486038435024
-7.852586206896493e-07,0.007453334956206592,-0.01613420249422067
-7.752586206896477e-07,0.00778732938988516,-0.001251413916186876
-7.652586206896461e-07,0.007119340522527265,0.02107276895083505
-7.552586206896513e-07,0.005449368354135944,-0.04217908250575105
-7.452586206896497e-07,0.009123307124599432,0.01735207180635537
-7.352586206896481e-07,0.004781379486778049,-0.01613420249422067
-7.252586206896465e-07,0.00778732938988516,-0.01241350534971222
-7.152586206896517e-07,0.007119340522528328,0.0285141632398621
-7.052586206896501e-07,0.006451351655170888,-0.03101699107225447
-6.952586206896485e-07,0.007453334956206592,0.03595555752889761
-6.852586206896469e-07,0.006785346088849456,-0.01985489963872912
-6.752586206896453e-07,0.006451351655170888,-0.01613420249419698
-6.652586206896505e-07,0.006451351655170888,0.03595555752889761
-6.552586206896489e-07,0.003779396185742345,-0.04589977965028826
-6.452586206896473e-07,0.006451351655170888,0.01735207180635537
-6.352586206896457e-07,0.005449368354135336,0.006189980372818178
-6.252586206896508e-07,0.0057833627878136,-0.01985489963871728
-6.152586206896492e-07,0.005115373920456617,0.03967625467340606
-6.052586206896476e-07,0.00611735722149232,-0.02729629392774602
-5.95258620689646e-07,0.006785346088849759,0.03967625467338237
-5.852586206896512e-07,0.007453334956206288,-0.01241350534968853
-5.752586206896496e-07,0.00778732938988516,-0.02357559678323757
-5.65258620689648e-07,0.005783362787813752,0.03967625467340606
-5.552586206896464e-07,0.005115373920456617,-0.03101699107225447
-5.452586206896516e-07,0.00645135165517028,0.01735207180633337
-5.3525862068965e-07,0.00611735722149232,-0.001251413916186876
-5.252586206896484e-07,0.007119340522528024,0.002469283228321573
-5.152586206896468e-07,0.00611735722149232,0.03595555752889761
-5.052586206896452e-07,0.005783362787813297,-0.0161342024941936
-4.952586206896504e-07,0.004781379486778049,0.04339695181791451
-4.852586206896488e-07,0.005783362787813752,0.002469283228321573
-4.752586206896472e-07,0.00611735722149232,-0.008692808205203774
-4.652586206896456e-07,0.005449368354135033,0.04339695181788575
-4.552586206896508e-07,0.005115373920456617,-0.01985489963872912
-4.452586206896492e-07,0.005115373920456617,0.03595555752889761
-4.352586206896476e-07,0.004781379486778049,-0.001251413916186876
-4.25258620689646e-07,0.005449368354135488,-0.001251413916169956
-4.152586206896512e-07,0.006117357221492017,0.0359555575288807
-4.052586206896496e-07,0.006451351655170888,-0.01241350534971222
-3.95258620689648e-07,0.006785346088849456,0.03223486038438916
-3.852586206896464e-07,0.005115373920456617,0.01735207180635537
-3.752586206896515e-07,0.00645135165517028,-0.01613420249420544
-3.652586206896499e-07,0.005783362787813752,0.05455904325143986
-3.552586206896483e-07,0.006785346088849456,-0.02729629392774602
-3.452586206896467e-07,0.008121323823563727,0.04711764896242296
-3.352586206896451e-07,0.005449368354135944,0.02107276895085705
-3.252586206896503e-07,0.007119340522528024,0.006189980372830022
-3.152586206896487e-07,0.006451351655170888,0.04339695181791451
-3.052586206896471e-07,0.007119340522528024,-0.008692808205203774
-2.952586206896455e-07,0.006785346088849759,0.03595555752888407
-2.852586206896507e-07,0.007453334956206592,0.006189980372830022
-2.752586206896491e-07,0.006785346088849456,0.01363137466184692
-2.652586206896475e-07,0.007119340522528024,0.03967625467340606
-2.552586206896459e-07,0.004781379486779416,0.009910677517350315
-2.452586206896511e-07,0.007787329389883793,0.03595555752888577
-2.352586206896495e-07,0.005449368354135184,0.02107276895086382
-2.252586206896479e-07,0.007453334956206592,0.002469283228321573
-2.152586206896463e-07,0.006785346088849456,0.05455904325143986
-2.052586206896515e-07,0.005783362787814207,-0.008692808205175012
-1.952586206896499e-07,0.006785346088849456,0.05083834610693141
-1.852586206896483e-07,0.00611735722149232,0.006189980372830022
-1.752586206896467e-07,0.007453334956206592,0.02107276895086382
-1.652586206896519e-07,0.005449368354136095,0.05083834610691787
-1.552586206896503e-07,0.006785346088849456,-0.02357559678323757
-1.452586206896487e-07,0.008121323823563727,0.05455904325143986
-1.352586206896471e-07,0.00611735722149232,0.002469283228321573
-1.252586206896455e-07,0.009123307124599279,0.01363137466186215
-1.152586206896506e-07,0.008789312690920863,0.04711764896242296
-1.05258620689649e-07,0.006785346088849456,-0.02357559678323757
-9.525862068964744e-08,0.00778732938988516,0.04711764896242296
-8.525862068964584e-08,0.006117357221492928,0.02479346609536211
-7.525862068965102e-08,0.007453334956205985,0.002469283228331724
-6.525862068964942e-08,0.005783362787813752,0.05827974039594831
-5.525862068964782e-08,0.007119340522528024,0.002469283228321573
-4.525862068964622e-08,0.008121323823562057,0.05083834610691618
-3.52586206896514e-08,0.004447385053101152,0.0173520718063706
-2.52586206896498e-08,0.005783362787813752,0.006189980372830022
-1.525862068964821e-08,0.004781379486778049,0.06572113468496521
-5.258620689646608e-09,0.002777412884706641,0.1810627461647271
4.741379310348214e-09,-0.01225233663082208,3.633869696266998
1.474137931034981e-08,0.01580319579817079,2.967864907401555
2.474137931035141e-08,0.00611735722149232,3.492483204777247
3.474137931035301e-08,0.01847515126759933,3.168782553205012
4.474137931035461e-08,0.003445401752068182,3.418069261887017
5.474137931034943e-08,0.01313124032874225,3.284124164684774
6.474137931035103e-08,0.0004394518489566662,3.440393444754128
7.474137931035263e-08,0.008121323823563727,3.284124164684774
8.474137931035422e-08,-0.004904459089896623,3.455276233332073
9.474137931034905e-08,0.003445401752059979,3.258079284673304
1.047413793103506e-07,-0.0005625314520790374,3.41434856474257
1.147413793103522e-07,0.006451351655170888,3.287844861829282
1.247413793103538e-07,0.002109424017353455,3.343655318996896
1.347413793103487e-07,0.01079327929298832,3.313889741840855
1.447413793103503e-07,0.005115373920456617,3.336213924707892
1.547413793103519e-07,0.01212925702770654,3.351096713285926
1.647413793103535e-07,0.004113390619420913,3.380862290441993
1.747413793103483e-07,0.009123307124597153,3.325051833274392
1.847413793103499e-07,0.003445401752063777,3.418069261887078
1.947413793103515e-07,0.004781379486778049,3.321331136129858
2.047413793103531e-07,0.0001054574152780984,3.406907170453553
2.147413793103547e-07,0.003779396185742953,3.33249322756339
2.247413793103495e-07,0.005115373920456617,3.347376016141417
2.347413793103511e-07,0.009457301558278,3.3399346218524
2.447413793103527e-07,0.004781379486778049,3.313889741840841
2.547413793103543e-07,0.01212925702770381,3.354817410430436
2.647413793103491e-07,0.006117357221495054,3.358538107574941
2.747413793103507e-07,0.008455318257242295,3.328772530418875
2.847413793103523e-07,0.004113390619420913,3.392024381875518
2.947413793103539e-07,0.005449368354135033,3.332493227563414
3.047413793103487e-07,0.005115373920456768,3.399465776164505
3.147413793103503e-07,0.005115373920456617,3.3399346218524
3.247413793103519e-07,0.00611735722149232,3.362258804719451
3.347413793103535e-07,0.005115373920456617,3.38830368473101
3.447413793103483e-07,0.005115373920456617,3.339934621852422
3.547413793103499e-07,0.007119340522528024,3.380862290441993
3.647413793103515e-07,0.006451351655170888,3.373420896152977
3.747413793103531e-07,0.009457301558278,3.336213924707892
3.847413793103547e-07,0.008121323823563271,3.399465776164504
3.947413793103496e-07,0.007119340522528024,3.328772530418875
4.047413793103512e-07,0.00611735722149232,3.406907170453553
4.147413793103528e-07,0.006451351655170888,3.373420896152977
4.247413793103544e-07,0.00645135165517104,3.37342089615299
4.347413793103492e-07,0.006785346088849304,3.40318647330903
4.447413793103508e-07,0.005783362787813752,3.336213924707892
4.547413793103524e-07,0.006785346088849456,3.384582987586502
4.64741379310354e-07,0.007453334956207047,3.354817410430428
4.747413793103488e-07,0.008455318257241839,3.339934621852407
4.847413793103504e-07,0.006785346088849456,3.406907170453553
4.94741379310352e-07,0.008789312690920863,3.332493227563384
5.047413793103536e-07,0.008789312690920863,3.410627867598061
5.147413793103484e-07,0.006117357221493536,3.369700199008486
5.2474137931035e-07,0.00778732938988516,3.362258804719451
5.347413793103516e-07,0.006785346088849456,3.418069261887078
5.447413793103532e-07,0.005115373920456617,3.354817410430434
5.547413793103548e-07,0.006785346088849152,3.421789959031566
5.647413793103496e-07,0.00611735722149232,3.377141593297485
5.747413793103512e-07,0.007119340522528024,3.362258804719451
5.847413793103528e-07,0.007453334956206592,3.421789959031586
5.947413793103544e-07,0.006785346088850367,3.321331136129894
6.047413793103492e-07,0.008789312690920863,3.399465776164535
6.147413793103508e-07,0.007453334956206592,3.362258804719451
6.247413793103524e-07,0.007119340522528024,3.373420896152977
6.34741379310354e-07,0.009123307124598369,3.425510656176061
6.447413793103489e-07,0.006785346088850519,3.351096713285959
6.547413793103505e-07,0.007119340522528024,3.421789959031586
6.647413793103521e-07,0.004447385053099481,3.38830368473101
6.747413793103537e-07,0.007119340522528024,3.373420896152977
6.847413793103485e-07,0.007787329389884856,3.414348564742551
6.947413793103501e-07,0.006785346088849456,3.336213924707892
7.047413793103517e-07,0.01012529042563514,3.399465776164535
7.147413793103533e-07,0.009791295991956567,3.377141593297485
7.247413793103549e-07,0.009791295991956415,3.369700199008493
7.347413793103497e-07,0.009457301558278,3.425510656176095
7.447413793103513e-07,0.006785346088849456,3.362258804719451
7.547413793103529e-07,0.008121323823563727,3.41434856474257
7.647413793103545e-07,0.0064513516551718,3.384582987586493
7.747413793103493e-07,0.008455318257242295,3.36597950186396
7.847413793103509e-07,0.007119340522528024,3.399465776164535
7.947413793103525e-07,0.008789312690920863,3.3399346218524
8.047413793103541e-07,0.007453334956206137,3.406907170453534
8.147413793103489e-07,0.006451351655171344,3.365979501863978
8.247413793103505e-07,0.007453334956206592,3.369700199008468
8.347413793103521e-07,0.00611735722149232,3.429231353320603
8.447413793103537e-07,0.005783362787813752,3.343655318996909
8.547413793103485e-07,0.006117357221492169,3.406907170453524
8.647413793103501e-07,0.005115373920456617,3.380862290441993
8.747413793103517e-07,0.005783362787813752,3.377141593297485
8.847413793103533e-07,0.004781379486778049,3.410627867598061
8.947413793103482e-07,0.006451351655170129,3.34365531899694
9.047413793103498e-07,0.006451351655170888,3.410627867598061
9.147413793103514e-07,0.008455318257242295,3.380862290441993
9.24741379310353e-07,0.00778732938988516,3.36597950186396
9.347413793103546e-07,0.00745333495620644,3.418069261887054
9.447413793103494e-07,0.007119340522528024,3.36597950186396
9.54741379310351e-07,0.007119340522528024,3.410627867598061
9.647413793103526e-07,0.006451351655170888,3.38830368473101
9.747413793103542e-07,0.006785346088848241,3.377141593297502
9.84741379310349e-07,0.004113390619422128,3.414348564742553
9.947413793103506e-07,0.005115373920456617,3.347376016141417
1.004741379310352e-06,0.006451351655170888,3.395745079020027
1.014741379310354e-06,0.005449368354135336,3.36597950186396
1.024741379310349e-06,0.0057833627878136,3.36597950186396
1.03474137931035e-06,0.00611735722149232,3.418069261887078
1.044741379310352e-06,0.003779396185742345,3.343655318996909
1.054741379310353e-06,0.004781379486778049,3.425510656176095
1.064741379310348e-06,0.004113390619421216,3.351096713285959
1.07474137931035e-06,0.004113390619420913,3.36597950186396
1.084741379310351e-06,0.005449368354135184,3.41434856474257
1.094741379310353e-06,0.003779396185742345,3.351096713285926
1.104741379310355e-06,0.005449368354134273,3.418069261887059
1.114741379310349e-06,0.003445401752063777,3.377141593297485
1.124741379310351e-06,0.005783362787813752,3.351096713285926
1.134741379310353e-06,0.004781379486778049,3.410627867598061
1.144741379310354e-06,0.00511537392045692,3.325051833274407
1.154741379310349e-06,0.005783362787813448,3.414348564742529
1.164741379310351e-06,0.005115373920456617,3.384582987586502
1.174741379310352e-06,0.005115373920456617,3.36597950186396
1.184741379310354e-06,0.007453334956205832,3.403186473309017
1.194741379310349e-06,0.005783362787814512,3.343655318996936
1.20474137931035e-06,0.006785346088849456,3.418069261887078
1.214741379310352e-06,0.005783362787813752,3.384582987586502
1.224741379310353e-06,0.007119340522528024,3.377141593297485
1.234741379310348e-06,0.006785346088849608,3.4403934447541
1.24474137931035e-06,0.005783362787813752,3.36597950186396
1.254741379310351e-06,0.008455318257242295,3.429231353320603
1.264741379310353e-06,0.00611735722149232,3.395745079020027
1.274741379310355e-06,0.007119340522526961,3.380862290442014
1.28474137931035e-06,0.004781379486778049,3.425510656176095
1.294741379310351e-06,0.00611735722149232,3.369700199008468
1.304741379310353e-06,0.007119340522528024,3.410627867598061
1.314741379310354e-06,0.00511537392045692,3.395745079020019
1.324741379310349e-06,0.005783362787813448,3.377141593297493
1.334741379310351e-06,0.006785346088849456,3.421789959031586
1.344741379310352e-06,0.00611735722149232,3.351096713285926
1.354741379310354e-06,0.008455318257241232,3.444114141898606
1.364741379310349e-06,0.006117357221493384,3.377141593297516
1.37474137931035e-06,0.006451351655170888,3.384582987586502
1.384741379310352e-06,0.008121323823563727,3.425510656176095
1.394741379310354e-06,0.006451351655170888,3.351096713285926
1.404741379310348e-06,0.008121323823562968,3.421789959031554
1.41474137931035e-06,0.00611735722149232,3.38830368473101
1.424741379310352e-06,0.008455318257242295,3.377141593297485
1.434741379310353e-06,0.006451351655170888,3.432952050465111
1.444741379310355e-06,0.006785346088850671,3.351096713285953
1.45474137931035e-06,0.009457301558278,3.410627867598061
1.464741379310351e-06,0.005449368354135184,3.392024381875518
1.474741379310353e-06,0.008789312690920863,3.369700199008468
1.484741379310354e-06,0.007787329389884704,3.429231353320576
1.494741379310349e-06,0.006785346088849911,3.369700199008495
1.504741379310351e-06,0.009457301558278,3.421789959031586
1.514741379310352e-06,0.00778732938988516,3.41434856474257
1.524741379310354e-06,0.009457301558276785,3.3697001990085
1.534741379310349e-06,0.006785346088850671,3.440393444754096
1.54474137931035e-06,0.008789312690920863,3.351096713285926
1.554741379310352e-06,0.007453334956206592,3.43667274760962
1.564741379310354e-06,0.007453334956206592,3.399465776164535
1.574741379310348e-06,0.008455318257241839,3.380862290442002
1.58474137931035e-06,0.007453334956206592,3.444114141898637
1.594741379310352e-06,0.007119340522528024,3.362258804719451
1.604741379310353e-06,0.008121323823563727,3.447834839043145
1.614741379310355e-06,0.007119340522528024,3.392024381875525
1.62474137931035e-06,0.007119340522528024,3.406907170453553
1.634741379310351e-06,0.006785346088849456,3.43667274760962
1.644741379310353e-06,0.00778732938988516,3.351096713285926
1.654741379310354e-06,0.007453334956206592,3.432952050465089
1.664741379310349e-06,0.007453334956206592,3.384582987586502
1.674741379310351e-06,0.00778732938988516,3.395745079020027
1.684741379310352e-06,0.007453334956206592,3.440393444754128
1.694741379310354e-06,0.00611735722149232,3.365979501863987
1.704741379310349e-06,0.00611735722149232,3.425510656176068
1.71474137931035e-06,0.004447385053099481,3.410627867598061
1.724741379310352e-06,0.005783362787813752,3.377141593297485
1.734741379310354e-06,0.005783362787813752,3.425510656176095
1.744741379310348e-06,0.004781379486778504,3.369700199008493
1.75474137931035e-06,0.00611735722149232,3.421789959031586
1.764741379310352e-06,0.006451351655170888,3.399465776164535
1.774741379310353e-06,0.005449368354135184,3.369700199008468
1.784741379310348e-06,0.005449368354135184,3.432952050465083
1.79474137931035e-06,0.005783362787813752,3.347376016141417
1.804741379310351e-06,0.006785346088849456,3.43667274760962
1.814741379310353e-06,0.006451351655170888,3.380862290441993
1.824741379310355e-06,0.006785346088849152,3.380862290442012
1.834741379310349e-06,0.00611735722149232,3.421789959031586
1.844741379310351e-06,0.00611735722149232,3.354817410430434
1.854741379310353e-06,0.006785346088849456,3.406907170453553
1.864741379310354e-06,0.005449368354136096,3.38086229044199
1.874741379310349e-06,0.007453334956205681,3.37342089615298
1.884741379310351e-06,0.006785346088849456,3.421789959031586
1.894741379310352e-06,0.005115373920456617,3.351096713285926
1.904741379310354e-06,0.005115373920456617,3.410627867598061
1.914741379310349e-06,0.00645135165517028,3.36597950186398
1.92474137931035e-06,0.007453334956206592,3.380862290441993
1.934741379310352e-06,0.006451351655170888,3.421789959031586
1.944741379310353e-06,0.004781379486778049,3.332493227563384
1.954741379310348e-06,0.007787329389883793,3.421789959031546
1.96474137931035e-06,0.004781379486778049,3.380862290441993
1.974741379310351e-06,0.007119340522528024,3.358538107574943
1.984741379310353e-06,0.005449368354135184,3.425510656176095
1.994741379310355e-06,0.005115373920457376,3.347376016141446
2.004741379310349e-06,0.006785346088849456,3.410627867598061
2.014741379310351e-06,0.00611735722149232,3.380862290441993
2.024741379310353e-06,0.00611735722149232,3.377141593297485
2.034741379310354e-06,0.005115373920457224,3.418069261887037
2.044741379310349e-06,0.00645135165517028,3.328772530418915
2.054741379310351e-06,0.007119340522528024,3.410627867598061
2.064741379310352e-06,0.006451351655170888,3.380862290441993
2.074741379310354e-06,0.007119340522528328,3.36597950186398
2.084741379310349e-06,0.007787329389884856,3.41062786759804
2.09474137931035e-06,0.00778732938988516,3.358538107574943
2.104741379310352e-06,0.01012529042563514,3.399465776164535
2.114741379310353e-06,0.007453334956206592,3.36597950186396
2.124741379310348e-06,0.007787329389885008,3.369700199008466
2.13474137931035e-06,0.007453334956206592,3.41434856474257
2.144741379310351e-06,0.008455318257242295,3.332493227563384
2.154741379310353e-06,0.00778732938988516,3.399465776164535
2.164741379310355e-06,0.0064513516551718,3.392024381875498
2.174741379310349e-06,0.008455318257242295,3.347376016141417
2.184741379310351e-06,0.007453334956206592,3.41434856474257
2.194741379310353e-06,0.00611735722149232,3.336213924707892
2.204741379310354e-06,0.007453334956205073,3.410627867598046
