traces_bank_current_trigger/sampling_freq_100MHz/UDIV/UDIV_5.csv

#Digilent WaveForms Oscilloscope Acquisition
#Device Name: Discovery2
#Serial Number: SN:210321B3D813
#Date Time: 2023-06-16 16:27:55.715
#Sample rate: 1e+08Hz
#Samples: 8192
#Trigger: Source: Channel 2 Type: Edge Condition: Rising Level: 2 V Hyst.: Auto HoldOff: 0 s
#Channel 1: Range: 10 mV/div Offset: 0 V Attenuation: 1 X Sample Mode: Average
#Channel 2: Range: 5 V/div Offset: 0 V Attenuation: 1 X Sample Mode: Average

Time (s),Channel 1 (V),Channel 2 (V)
-9.535048678720393e-07,0.007119340522528024,0.03595555752889761
-9.435048678720377e-07,0.007453334956206592,-0.008692808205203774
-9.335048678720361e-07,0.009123307124598825,0.0136313746618503
-9.235048678720413e-07,0.007787329389885767,0.02107276895086043
-9.135048678720397e-07,0.008455318257242295,0.00991067751733847
-9.035048678720381e-07,0.008121323823563727,0.02107276895086382
-8.935048678720365e-07,0.00778732938988516,-0.001251413916186876
-8.835048678720417e-07,0.007119340522528328,0.02107276895085367
-8.735048678720401e-07,0.007453334956206592,0.01735207180635537
-8.635048678720385e-07,0.008121323823563727,0.02479346609537227
-8.535048678720369e-07,0.00778732938988516,0.02479346609537227
-8.435048678720353e-07,0.007453334956207199,-0.004972111060683481
-8.335048678720404e-07,0.008789312690920863,0.02107276895086382
-8.235048678720389e-07,0.006451351655170888,0.01363137466184692
-8.135048678720373e-07,0.00778732938988516,0.01735207180635537
-8.035048678720357e-07,0.007119340522527569,0.01363137466184353
-7.935048678720408e-07,0.006117357221492776,0.006189980372833405
-7.835048678720392e-07,0.008789312690920863,0.02479346609537227
-7.735048678720376e-07,0.005783362787813752,0.00991067751733847
-7.63504867872036e-07,0.007787329389885311,0.03223486038438578
-7.535048678720412e-07,0.008121323823563575,0.02479346609537565
-7.435048678720396e-07,0.008121323823563727,-0.008692808205203774
-7.33504867872038e-07,0.008455318257242295,0.04339695181791451
-7.235048678720364e-07,0.006451351655170888,0.02107276895086382
-7.135048678720416e-07,0.006785346088849304,0.02107276895086382
-7.0350486787204e-07,0.007119340522528024,0.03595555752889761
-6.935048678720384e-07,0.006785346088849456,0.01363137466184692
-6.835048678720368e-07,0.006785346088849456,0.03595555752889761
-6.735048678720352e-07,0.005783362787813904,0.002469283228328341
-6.635048678720404e-07,0.00611735722149232,0.01735207180635537
-6.535048678720388e-07,0.004113390619420913,0.03595555752889761
-6.435048678720372e-07,0.004113390619420913,-0.001251413916186876
-6.335048678720356e-07,0.005449368354134577,0.02851416323987226
-6.235048678720408e-07,0.004113390619421521,0.009910677517346929
-6.135048678720392e-07,0.006785346088849456,0.02107276895086382
-6.035048678720376e-07,0.003445401752063777,0.02479346609537227
-5.93504867872036e-07,0.003445401752064689,0.002469283228328341
-5.835048678720411e-07,0.005449368354134274,0.0173520718063486
-5.735048678720396e-07,0.004113390619420913,-0.001251413916186876
-5.63504867872038e-07,0.005783362787813752,0.01735207180635537
-5.535048678720364e-07,0.004113390619420913,0.00991067751733847
-5.435048678720415e-07,0.005783362787812992,-0.008692808205195315
-5.335048678720399e-07,0.005783362787813752,0.03223486038438916
-5.235048678720383e-07,0.004781379486778049,-0.008692808205203774
-5.135048678720367e-07,0.006451351655170888,0.03223486038438916
-5.035048678720351e-07,0.004781379486778353,0.02479346609535027
-4.935048678720403e-07,0.005449368354135184,-0.02357559678323757
-4.835048678720387e-07,0.005449368354135184,0.03223486038438916
-4.735048678720371e-07,0.005115373920456617,0.002469283228321573
-4.635048678720355e-07,0.005115373920456161,0.02107276895087397
-4.535048678720407e-07,0.004113390619420913,0.04339695181791451
-4.435048678720391e-07,0.005449368354135184,-0.004972111060695325
-4.335048678720375e-07,0.005783362787813752,0.02479346609537227
-4.235048678720359e-07,0.004781379486778353,-0.004972111060685173
-4.135048678720411e-07,0.005449368354134881,0.01735207180634522
-4.035048678720395e-07,0.003111407318385209,0.02107276895086382
-3.935048678720379e-07,0.005115373920456617,0.002469283228321573
-3.835048678720363e-07,0.007119340522528024,0.02479346609537227
-3.735048678720415e-07,0.005449368354135944,0.009910677517345238
-3.635048678720399e-07,0.006451351655170888,0.006189980372830022
-3.535048678720383e-07,0.00611735722149232,0.01735207180635537
-3.435048678720367e-07,0.006785346088849456,-0.01613420249422067
-3.335048678720351e-07,0.006451351655170585,0.02107276895085874
-3.235048678720402e-07,0.005783362787813752,0.00991067751733847
-3.135048678720387e-07,0.006785346088849456,0.00991067751733847
-3.035048678720371e-07,0.004781379486778049,0.03595555752889761
-2.935048678720355e-07,0.007787329389884704,-0.01985489963869359
-2.835048678720406e-07,0.006785346088849456,0.05827974039594831
-2.73504867872039e-07,0.007119340522528024,-0.004972111060695325
-2.635048678720374e-07,0.007119340522528024,0.006189980372830022
-2.535048678720358e-07,0.005449368354135944,0.02479346609535704
-2.43504867872041e-07,0.007119340522527265,-0.008692808205188543
-2.335048678720394e-07,0.008121323823563727,0.02851416323988071
-2.235048678720378e-07,0.006451351655170888,0.006189980372830022
-2.135048678720362e-07,0.008121323823563727,0.00991067751733847
-2.035048678720414e-07,0.006785346088850064,0.0247934660953655
-1.935048678720398e-07,0.007453334956206592,0.00991067751733847
-1.835048678720382e-07,0.007119340522528024,0.01363137466184692
-1.735048678720366e-07,0.008455318257242295,0.00991067751733847
-1.635048678720418e-07,0.0064513516551718,0.01363137466184523
-1.535048678720402e-07,0.008121323823563727,0.03595555752889761
-1.435048678720386e-07,0.008121323823563727,-0.01985489963872912
-1.33504867872037e-07,0.008789312690920863,0.03223486038438916
-1.235048678720354e-07,0.00745333495620644,0.006189980372835097
-1.135048678720406e-07,0.007119340522528024,0.01735207180635537
-1.03504867872039e-07,0.00611735722149232,0.02107276895086382
-9.350486787203737e-08,0.00778732938988516,-0.004972111060695325
-8.350486787203577e-08,0.008121323823562664,0.002469283228326648
-7.350486787204095e-08,0.005783362787814815,0.01363137466184184
-6.350486787203935e-08,0.006785346088849456,-0.004972111060695325
-5.350486787203775e-08,0.004113390619420913,0.02107276895086382
-4.350486787203615e-08,0.006117357221492472,-0.0124135053496953
-3.350486787204133e-08,0.006451351655170736,0.02479346609535535
-2.350486787203973e-08,0.005115373920456617,0.01735207180635537
-1.350486787203814e-08,0.00611735722149232,0.01735207180635537
-3.504867872036537e-09,-0.01191834219715034,1.059147272268721
6.495132127958285e-09,0.01313124032873086,3.73432851916908
1.649513212795988e-08,-0.002566498054150445,3.049720244580741
2.649513212796148e-08,0.01446721806345652,3.306448347551824
3.649513212796308e-08,0.0104592848593137,3.295286256118299
4.649513212796468e-08,0.01246325146137995,3.295286256118328
5.64951321279595e-08,0.001107440716313802,3.358538107574943
6.64951321279611e-08,0.005115373920456617,3.3399346218524
7.64951321279627e-08,0.003111407318385209,3.358538107574943
8.64951321279643e-08,0.001441435149990244,3.343655318996924
9.649513212795912e-08,-0.003234486921505453,3.37714159329747
1.064951321279607e-07,0.005115373920456617,3.287844861829282
1.164951321279623e-07,0.003779396185742345,3.3399346218524
1.264951321279639e-07,0.00411339061942152,3.306448347551829
1.364951321279587e-07,0.005449368354134577,3.317610438985345
1.464951321279603e-07,0.008455318257242295,3.321331136129858
1.564951321279619e-07,0.007119340522528024,3.332493227563384
1.664951321279635e-07,0.005783362787813752,3.362258804719451
1.764951321279584e-07,0.003779396185743256,3.35109671328593
1.864951321279599e-07,0.005449368354135184,3.358538107574943
1.964951321279615e-07,0.002443418451028074,3.377141593297485
2.064951321279631e-07,0.0004394518489566662,3.328772530418875
2.164951321279647e-07,0.003111407318386273,3.358538107574926
2.264951321279596e-07,0.005449368354135184,3.321331136129858
2.364951321279612e-07,0.005115373920456617,3.3399346218524
2.464951321279628e-07,0.004781379486778049,3.332493227563384
2.564951321279644e-07,0.006451351655171495,3.313889741840858
2.664951321279592e-07,0.007787329389884553,3.351096713285909
2.764951321279608e-07,0.003779396185742345,3.354817410430434
2.864951321279624e-07,0.005449368354135184,3.36597950186396
2.96495132127964e-07,0.002443418451028529,3.373420896152972
3.064951321279588e-07,0.003445401752063322,3.362258804719456
3.164951321279604e-07,0.003111407318385209,3.362258804719451
3.26495132127962e-07,0.002443418451028074,3.362258804719451
3.364951321279636e-07,0.004781379486778049,3.358538107574943
3.464951321279584e-07,0.005115373920456465,3.343655318996916
3.5649513212796e-07,0.006785346088849456,3.343655318996909
3.664951321279616e-07,0.008121323823563727,3.369700199008468
3.764951321279632e-07,0.00611735722149232,3.347376016141417
3.864951321279648e-07,0.00745333495620568,3.347376016141431
3.964951321279596e-07,0.005449368354135184,3.377141593297485
4.064951321279612e-07,0.00611735722149232,3.358538107574943
4.164951321279628e-07,0.005449368354135184,3.373420896152977
4.264951321279644e-07,0.003779396185743864,3.365979501863956
4.364951321279593e-07,0.007119340522526506,3.358538107574946
4.464951321279608e-07,0.005115373920456617,3.384582987586502
4.564951321279624e-07,0.00611735722149232,3.332493227563384
4.66495132127964e-07,0.00611735722149232,3.384582987586483
4.764951321279589e-07,0.00611735722149232,3.343655318996928
4.864951321279605e-07,0.006785346088849456,3.3399346218524
4.964951321279621e-07,0.00611735722149232,3.38830368473101
5.064951321279637e-07,0.007119340522528024,3.362258804719451
5.164951321279585e-07,0.005449368354135944,3.373420896152972
5.264951321279601e-07,0.004781379486778049,3.369700199008468
5.364951321279617e-07,0.006785346088849456,3.369700199008468
5.464951321279633e-07,0.00611735722149232,3.36597950186396
5.564951321279649e-07,0.006117357221492776,3.351096713285934
5.664951321279597e-07,0.007119340522528024,3.369700199008468
5.764951321279613e-07,0.007453334956206592,3.354817410430434
5.864951321279629e-07,0.007453334956206592,3.36597950186396
5.964951321279645e-07,0.006451351655171344,3.365979501863953
6.064951321279593e-07,0.007453334956206592,3.351096713285926
6.164951321279609e-07,0.006785346088849456,3.384582987586502
6.264951321279625e-07,0.007119340522528024,3.354817410430434
6.364951321279641e-07,0.0077873293898844,3.36225880471946
6.464951321279589e-07,0.006117357221493079,3.380862290441985
6.564951321279605e-07,0.007119340522528024,3.354817410430434
6.664951321279621e-07,0.006451351655170888,3.369700199008468
6.764951321279637e-07,0.006785346088849456,3.354817410430434
6.864951321279586e-07,0.007453334956206288,3.354817410430434
6.964951321279601e-07,0.005449368354135184,3.36597950186396
7.064951321279617e-07,0.005783362787813752,3.336213924707892
7.164951321279633e-07,0.007119340522528024,3.38830368473101
7.264951321279649e-07,0.005115373920456465,3.365979501863963
7.364951321279598e-07,0.004781379486778049,3.373420896152977
7.464951321279614e-07,0.00611735722149232,3.380862290441993
7.56495132127963e-07,0.004781379486778049,3.347376016141417
7.664951321279646e-07,0.006451351655170128,3.380862290441985
7.764951321279594e-07,0.004781379486778049,3.362258804719451
7.86495132127961e-07,0.005449368354135184,3.36597950186396
7.964951321279626e-07,0.004781379486778049,3.369700199008468
8.064951321279642e-07,0.00611735722149232,3.343655318996931
8.16495132127959e-07,0.00611735722149232,3.392024381875496
8.264951321279606e-07,0.004781379486778049,3.36597950186396
8.364951321279622e-07,0.005783362787813752,3.384582987586502
8.464951321279638e-07,0.005783362787813752,3.384582987586502
8.564951321279586e-07,0.007453334956205832,3.362258804719461
8.664951321279602e-07,0.007453334956206592,3.369700199008468
8.764951321279618e-07,0.006451351655170888,3.36597950186396
8.864951321279634e-07,0.006451351655170888,3.362258804719451
8.964951321279582e-07,0.006785346088849304,3.377141593297478
9.064951321279598e-07,0.008455318257242295,3.354817410430434
9.164951321279614e-07,0.00778732938988516,3.36597950186396
9.26495132127963e-07,0.007453334956206592,3.354817410430434
9.364951321279646e-07,0.00745333495620644,3.373420896152983
9.464951321279594e-07,0.007119340522528024,3.38830368473101
9.56495132127961e-07,0.009457301558278,3.354817410430434
9.664951321279626e-07,0.007453334956206592,3.384582987586502
9.764951321279642e-07,0.007453334956206592,3.358538107574947
9.864951321279591e-07,0.007453334956206592,3.369700199008463
9.964951321279607e-07,0.007453334956206592,3.358538107574943
1.006495132127962e-06,0.008455318257242295,3.351096713285926
1.016495132127964e-06,0.008455318257241991,3.380862290441983
1.026495132127959e-06,0.007787329389885463,3.358538107574953
1.03649513212796e-06,0.00778732938988516,3.369700199008468
1.046495132127962e-06,0.00611735722149232,3.377141593297485
1.056495132127963e-06,0.008121323823563727,3.351096713285926
1.066495132127958e-06,0.006785346088850064,3.384582987586487
1.07649513212796e-06,0.006451351655170888,3.351096713285926
1.086495132127961e-06,0.008455318257242295,3.369700199008468
1.096495132127963e-06,0.005783362787813752,3.369700199008468
1.106495132127965e-06,0.007787329389885463,3.365979501863972
1.11649513212796e-06,0.008455318257242295,3.392024381875518
1.126495132127961e-06,0.007453334956206592,3.347376016141417
1.136495132127963e-06,0.008121323823563727,3.380862290441993
1.146495132127964e-06,0.008121323823564031,3.380862290441981
1.156495132127959e-06,0.008789312690920559,3.354817410430446
1.166495132127961e-06,0.009457301558278,3.384582987586502
1.176495132127962e-06,0.008121323823563727,3.354817410430434
1.186495132127964e-06,0.01012529042563438,3.39202438187551
1.196495132127959e-06,0.008455318257243055,3.373420896152985
1.20649513212796e-06,0.009123307124599432,3.362258804719451
1.216495132127962e-06,0.01012529042563514,3.384582987586502
1.226495132127964e-06,0.009791295991956567,3.358538107574943
1.236495132127958e-06,0.008789312690921319,3.358538107574943
1.24649513212796e-06,0.009123307124599432,3.36597950186396
1.256495132127962e-06,0.009457301558278,3.347376016141417
1.266495132127963e-06,0.009791295991956567,3.369700199008468
1.276495132127965e-06,0.009791295991956415,3.362258804719458
1.28649513212796e-06,0.009457301558278,3.377141593297485
1.296495132127961e-06,0.008789312690920863,3.380862290441993
1.306495132127963e-06,0.009457301558278,3.336213924707892
1.316495132127964e-06,0.008121323823563575,3.38458298758649
1.326495132127959e-06,0.007787329389885311,3.358538107574955
1.336495132127961e-06,0.008789312690920863,3.377141593297485
1.346495132127962e-06,0.00611735722149232,3.380862290441993
1.356495132127964e-06,0.007787329389885008,3.343655318996932
1.366495132127959e-06,0.007453334956206744,3.395745079020004
1.37649513212796e-06,0.007453334956206592,3.369700199008468
1.386495132127962e-06,0.00778732938988516,3.354817410430434
1.396495132127964e-06,0.006451351655170888,3.38830368473101
1.406495132127958e-06,0.004781379486778809,3.362258804719463
1.41649513212796e-06,0.007119340522528024,3.384582987586502
1.426495132127962e-06,0.005783362787813752,3.362258804719451
1.436495132127963e-06,0.008121323823563727,3.392024381875518
1.446495132127965e-06,0.005783362787814207,3.388303684730997
1.45649513212796e-06,0.006785346088849456,3.358538107574943
1.466495132127961e-06,0.007119340522528024,3.392024381875518
1.476495132127963e-06,0.006451351655170888,3.36597950186396
1.486495132127964e-06,0.008121323823562968,3.380862290442
1.496495132127959e-06,0.006451351655171647,3.395745079020021
1.506495132127961e-06,0.007119340522528024,3.36597950186396
1.516495132127962e-06,0.006451351655170888,3.406907170453553
1.526495132127964e-06,0.008121323823563727,3.380862290441998
1.536495132127959e-06,0.008121323823563727,3.392024381875514
1.54649513212796e-06,0.007119340522528024,3.384582987586502
1.556495132127962e-06,0.008121323823563727,3.373420896152977
1.566495132127964e-06,0.009457301558278,3.406907170453553
1.576495132127958e-06,0.008789312690921166,3.380862290442005
1.58649513212796e-06,0.009457301558278,3.399465776164535
1.596495132127962e-06,0.007119340522528024,3.384582987586502
1.606495132127963e-06,0.009123307124599432,3.380862290441993
1.616495132127965e-06,0.009123307124598825,3.403186473309037
1.62649513212796e-06,0.00778732938988516,3.38830368473101
1.636495132127961e-06,0.01112727372667084,3.392024381875518
1.646495132127963e-06,0.006785346088849456,3.380862290441993
1.656495132127965e-06,0.009123307124598825,3.380862290442002
1.666495132127959e-06,0.00778732938988516,3.399465776164535
1.676495132127961e-06,0.009457301558278,3.373420896152977
1.686495132127963e-06,0.007119340522528024,3.395745079020027
1.696495132127964e-06,0.009123307124600039,3.395745079020029
1.706495132127959e-06,0.0104592848593131,3.399465776164534
1.716495132127961e-06,0.009791295991956567,3.395745079020027
1.726495132127962e-06,0.006785346088849456,3.377141593297485
1.736495132127964e-06,0.009123307124599432,3.395745079020027
1.746495132127959e-06,0.008455318257242599,3.384582987586507
1.75649513212796e-06,0.008789312690920863,3.380862290441993
1.766495132127962e-06,0.008455318257242295,3.406907170453553
1.776495132127963e-06,0.006785346088849456,3.380862290441993
1.786495132127958e-06,0.007119340522527873,3.388303684731007
1.79649513212796e-06,0.007119340522528024,3.410627867598061
1.806495132127961e-06,0.008455318257242295,3.369700199008468
1.816495132127963e-06,0.008789312690920863,3.403186473309044
1.826495132127965e-06,0.007787329389884856,3.392024381875522
1.836495132127959e-06,0.007119340522528024,3.399465776164535
1.846495132127961e-06,0.007119340522528024,3.403186473309044
1.856495132127963e-06,0.00778732938988516,3.380862290441993
1.866495132127964e-06,0.006785346088849608,3.410627867598051
1.876495132127959e-06,0.007119340522527873,3.38830368473102
1.886495132127961e-06,0.00778732938988516,3.395745079020027
1.896495132127962e-06,0.004781379486778049,3.395745079020027
1.906495132127964e-06,0.00778732938988516,3.380862290441993
1.916495132127959e-06,0.006451351655171496,3.418069261887061
1.92649513212796e-06,0.006451351655170888,3.392024381875518
1.936495132127962e-06,0.008121323823563727,3.399465776164535
1.946495132127963e-06,0.007119340522528024,3.403186473309044
1.956495132127958e-06,0.006451351655171192,3.395745079020031
1.96649513212796e-06,0.008455318257242295,3.410627867598061
1.976495132127961e-06,0.006451351655170888,3.395745079020027
1.986495132127963e-06,0.008789312690920863,3.425510656176095
1.996495132127965e-06,0.007119340522528024,3.410627867598046
2.006495132127959e-06,0.007119340522528024,3.377141593297485
2.016495132127961e-06,0.008121323823563727,3.425510656176095
2.026495132127963e-06,0.00611735722149232,3.392024381875518
2.036495132127964e-06,0.008121323823562664,3.406907170453549
2.046495132127959e-06,0.005783362787814815,3.399465776164539
2.056495132127961e-06,0.006785346088849456,3.406907170453553
2.066495132127962e-06,0.006785346088849456,3.41434856474257
2.076495132127964e-06,0.006451351655171495,3.395745079020032
2.086495132127959e-06,0.007787329389884553,3.406907170453548
2.09649513212796e-06,0.006785346088849456,3.41434856474257
2.106495132127962e-06,0.008455318257242295,3.380862290441993
2.116495132127963e-06,0.007119340522528024,3.399465776164535
2.126495132127958e-06,0.009457301558276936,3.380862290442002
2.13649513212796e-06,0.008455318257242295,3.392024381875518
2.146495132127962e-06,0.007119340522528024,3.410627867598061
2.156495132127963e-06,0.006451351655170888,3.403186473309044
2.166495132127965e-06,0.0077873293898844,3.399465776164537
2.17649513212796e-06,0.00611735722149232,3.403186473309044
2.186495132127961e-06,0.008789312690920863,3.380862290441993
2.196495132127963e-06,0.007453334956206592,3.406907170453553
2.206495132127964e-06,0.00778732938988516,3.395745079020029
