traces_bank_current_trigger/sampling_freq_100MHz/UDIV/UDIV_8.csv

#Digilent WaveForms Oscilloscope Acquisition
#Device Name: Discovery2
#Serial Number: SN:210321B3D813
#Date Time: 2023-06-16 16:43:01.799
#Sample rate: 1e+08Hz
#Samples: 8192
#Trigger: Source: Channel 2 Type: Edge Condition: Rising Level: 2 V Hyst.: Auto HoldOff: 0 s
#Channel 1: Range: 10 mV/div Offset: 0 V Attenuation: 1 X Sample Mode: Average
#Channel 2: Range: 5 V/div Offset: 0 V Attenuation: 1 X Sample Mode: Average

Time (s),Channel 1 (V),Channel 2 (V)
-9.541538461538455e-07,0.006785346088849456,0.02851416323988071
-9.441538461538439e-07,0.01012529042563514,0.002469283228321573
-9.341538461538423e-07,0.009123307124598218,0.04711764896239758
-9.241538461538475e-07,0.006451351655172103,-0.008692808205178391
-9.141538461538459e-07,0.009123307124599432,0.03223486038438916
-9.041538461538443e-07,0.006451351655170888,0.02851416323988071
-8.941538461538427e-07,0.008789312690920863,-0.001251413916186876
-8.841538461538479e-07,0.008121323823564031,0.03967625467338745
-8.741538461538463e-07,0.009123307124599432,-0.004972111060695325
-8.641538461538447e-07,0.009457301558278,0.002469283228321573
-8.541538461538431e-07,0.006451351655170888,0.002469283228321573
-8.441538461538415e-07,0.008455318257242448,-0.01613420249420206
-8.341538461538467e-07,0.008789312690920863,0.02479346609537227
-8.241538461538451e-07,0.008121323823563727,-0.01241350534971222
-8.141538461538435e-07,0.008121323823563727,0.00991067751733847
-8.041538461538419e-07,0.00745333495620644,0.009910677517323243
-7.94153846153847e-07,0.007119340522528176,-0.02357559678322234
-7.841538461538454e-07,0.00778732938988516,0.03223486038438916
-7.741538461538439e-07,0.007119340522528024,-0.01985489963872912
-7.641538461538423e-07,0.008789312690920256,0.03223486038437732
-7.541538461538474e-07,0.007453334956207199,0.006189980372841866
-7.441538461538458e-07,0.007453334956206592,-0.01985489963872912
-7.341538461538442e-07,0.007453334956206592,0.03967625467340606
-7.241538461538426e-07,0.007453334956206592,-0.004972111060695325
-7.141538461538478e-07,0.007119340522528176,0.01363137466183846
-7.041538461538462e-07,0.005449368354135184,0.02107276895086382
-6.941538461538446e-07,0.008121323823563727,-0.01241350534971222
-6.84153846153843e-07,0.006451351655170888,0.03967625467340606
-6.741538461538414e-07,0.00645135165517104,0.002469283228323264
-6.641538461538466e-07,0.006785346088849456,0.006189980372830022
-6.54153846153845e-07,0.005449368354135184,0.02107276895086382
-6.441538461538434e-07,0.00611735722149232,-0.01241350534971222
-6.341538461538418e-07,0.006451351655170888,0.02851416323986718
-6.24153846153847e-07,0.006451351655170888,-0.001251413916173342
-6.141538461538454e-07,0.007453334956206592,0.01735207180635537
-6.041538461538438e-07,0.00611735722149232,0.02851416323988071
-5.941538461538422e-07,0.006785346088848544,0.002469283228338492
-5.841538461538474e-07,0.00478137948677896,0.03967625467338914
-5.741538461538458e-07,0.00611735722149232,0.01363137466184692
-5.641538461538442e-07,0.006785346088849456,0.03595555752889761
-5.541538461538426e-07,0.004447385053099481,0.00991067751733847
-5.441538461538477e-07,0.008789312690918889,0.00991067751733847
-5.341538461538461e-07,0.006785346088849456,0.02107276895086382
-5.241538461538445e-07,0.005783362787813752,-0.001251413916186876
-5.14153846153843e-07,0.008121323823563727,0.00991067751733847
-5.041538461538414e-07,0.005449368354136248,0.02851416323986041
-4.941538461538465e-07,0.00778732938988516,-0.01613420249422067
-4.841538461538449e-07,0.006451351655170888,0.03223486038438916
-4.741538461538433e-07,0.005115373920456617,0.002469283228321573
-4.641538461538417e-07,0.00611735722149232,0.03595555752889592
-4.541538461538469e-07,0.00611735722149232,0.03223486038438916
-4.441538461538453e-07,0.007119340522528024,0.006189980372830022
-4.341538461538437e-07,0.005783362787813752,0.03595555752889761
-4.241538461538421e-07,0.00611735722149232,0.01735207180635029
-4.141538461538473e-07,0.00611735722149232,0.006189980372835097
-4.041538461538457e-07,0.006451351655170888,0.02479346609537227
-3.941538461538441e-07,0.006451351655170888,0.00991067751733847
-3.841538461538425e-07,0.008121323823563727,0.03967625467340606
-3.741538461538477e-07,0.008121323823563727,0.00246928322833849
-3.641538461538461e-07,0.00611735722149232,0.01363137466184692
-3.541538461538445e-07,0.005783362787813752,0.03223486038438916
-3.441538461538429e-07,0.007453334956206592,0.00991067751733847
-3.341538461538413e-07,0.006117357221492776,0.02851416323987226
-3.241538461538465e-07,0.007119340522528024,0.00991067751733847
-3.141538461538449e-07,0.008455318257242295,0.02107276895086382
-3.041538461538433e-07,0.005783362787813752,0.00991067751733847
-2.941538461538417e-07,0.006785346088849456,0.002469283228338492
-2.841538461538468e-07,0.006785346088849456,0.03967625467340606
-2.741538461538452e-07,0.006451351655170888,0.006189980372830022
-2.641538461538437e-07,0.007453334956206592,0.03967625467340606
-2.541538461538421e-07,0.006451351655171952,0.02851416323986887
-2.441538461538472e-07,0.008789312690919799,0.002469283228333417
-2.341538461538456e-07,0.00778732938988516,0.03223486038438916
-2.24153846153844e-07,0.005783362787813752,0.02479346609537227
-2.141538461538424e-07,0.00611735722149232,0.03223486038438916
-2.041538461538476e-07,0.005115373920457072,0.02107276895086889
-1.94153846153846e-07,0.006785346088849456,-0.008692808205203774
-1.841538461538444e-07,0.007453334956206592,0.02851416323988071
-1.741538461538428e-07,0.004113390619420913,-0.001251413916186876
-1.64153846153848e-07,0.006785346088848241,0.03223486038437393
-1.541538461538464e-07,0.005783362787813752,0.03595555752889761
-1.441538461538448e-07,0.005115373920456617,0.00991067751733847
-1.341538461538432e-07,0.007453334956206592,0.04711764896242296
-1.241538461538416e-07,0.006117357221492624,-0.001251413916176724
-1.141538461538468e-07,0.006785346088849456,0.02107276895086382
-1.041538461538452e-07,0.003779396185742345,0.02107276895086382
-9.415384615384358e-08,0.006451351655170888,-0.01241350534971222
-8.415384615384199e-08,0.005115373920456313,0.03223486038436717
-7.415384615384716e-08,0.004447385053099785,-0.01613420249419868
-6.415384615384557e-08,0.004447385053099481,0.03223486038438916
-5.415384615384397e-08,0.004447385053099481,0.00991067751733847
-4.415384615384237e-08,0.00511537392045692,-0.0161342024941936
-3.415384615384755e-08,0.005783362787813448,0.04339695181788744
-2.415384615384595e-08,0.005783362787813752,-0.01613420249422067
-1.415384615384435e-08,0.00611735722149232,0.02107276895086382
-4.153846153842752e-09,-0.008244403426686099,0.7912570778641128
5.84615384615207e-09,0.008789312690913117,3.693400850579383
1.584615384615367e-08,-0.002566498054150445,3.060882336014267
2.584615384615527e-08,0.01647118466552792,3.284124164684774
3.584615384615687e-08,0.0104592848593137,3.328772530418875
4.584615384615846e-08,0.011461268160345,3.291565558973818
5.584615384615329e-08,0.001775429583670938,3.351096713285926
6.584615384615488e-08,0.007119340522528024,3.343655318996909
7.584615384615648e-08,0.002443418451028074,3.380862290441993
8.584615384615808e-08,0.000773446282634171,3.351096713285927
9.58461538461529e-08,-0.001564514753113678,3.354817410430432
1.058461538461545e-07,0.004113390619420913,3.280403467540265
1.158461538461561e-07,0.005115373920456617,3.332493227563384
1.258461538461577e-07,0.003445401752065752,3.284124164684791
1.358461538461525e-07,0.007787329389883186,3.321331136129841
1.458461538461541e-07,0.009123307124599432,3.306448347551824
1.558461538461557e-07,0.008789312690920863,3.310169044696333
1.658461538461573e-07,0.006785346088849456,3.369700199008468
1.758461538461521e-07,0.005449368354135791,3.325051833274387
1.858461538461537e-07,0.00611735722149232,3.362258804719451
1.958461538461553e-07,0.001775429583670938,3.358538107574943
2.058461538461569e-07,0.003445401752063777,3.328772530418875
2.158461538461585e-07,0.003779396185742649,3.369700199008439
2.258461538461534e-07,0.004447385053099481,3.306448347551824
2.35846153846155e-07,0.006451351655170888,3.351096713285926
2.458461538461565e-07,0.005783362787813752,3.3399346218524
2.558461538461581e-07,0.008455318257242142,3.328772530418892
2.65846153846153e-07,0.00812132382356388,3.365979501863943
2.758461538461546e-07,0.004781379486778049,3.358538107574943
2.858461538461562e-07,0.006785346088849456,3.369700199008468
2.958461538461578e-07,0.005115373920456465,3.38458298758648
3.058461538461526e-07,0.004781379486778201,3.336213924707914
3.158461538461542e-07,0.00611735722149232,3.384582987586502
3.258461538461558e-07,0.005449368354135184,3.343655318996909
3.358461538461574e-07,0.006451351655170888,3.36597950186396
3.458461538461522e-07,0.006117357221492472,3.351096713285932
3.558461538461538e-07,0.008121323823563727,3.351096713285926
3.658461538461554e-07,0.007453334956206592,3.369700199008468
3.75846153846157e-07,0.007119340522528024,3.332493227563384
3.858461538461586e-07,0.008121323823562664,3.395745079020012
3.958461538461534e-07,0.005783362787813752,3.362258804719451
4.05846153846155e-07,0.006451351655170888,3.380862290441993
4.158461538461566e-07,0.006451351655170888,3.380862290441993
4.258461538461582e-07,0.004113390619422583,3.336213924707907
4.35846153846153e-07,0.007787329389883489,3.369700199008453
4.458461538461546e-07,0.007453334956206592,3.369700199008468
4.558461538461562e-07,0.00778732938988516,3.354817410430434
4.658461538461578e-07,0.005783362787814207,3.362258804719446
4.758461538461527e-07,0.006785346088849,3.35109671328593
4.858461538461543e-07,0.008455318257242295,3.358538107574943
4.958461538461558e-07,0.00611735722149232,3.358538107574943
5.058461538461574e-07,0.005449368354135184,3.369700199008468
5.158461538461523e-07,0.005115373920456768,3.384582987586495
5.258461538461539e-07,0.004781379486778049,3.354817410430434
5.358461538461555e-07,0.007119340522528024,3.384582987586502
5.458461538461571e-07,0.004781379486778049,3.373420896152977
5.558461538461587e-07,0.007119340522528024,3.351096713285942
5.658461538461535e-07,0.007119340522528024,3.38830368473101
5.758461538461551e-07,0.007119340522528024,3.351096713285926
5.858461538461567e-07,0.00778732938988516,3.38830368473101
5.958461538461583e-07,0.008121323823563727,3.373420896152972
6.058461538461531e-07,0.008121323823563727,3.362258804719451
6.158461538461547e-07,0.009123307124599432,3.395745079020027
6.258461538461563e-07,0.00778732938988516,3.362258804719451
6.358461538461579e-07,0.009123307124598672,3.406907170453541
6.458461538461527e-07,0.007453334956207352,3.380862290442005
6.558461538461543e-07,0.008121323823563727,3.362258804719451
6.658461538461559e-07,0.009123307124599432,3.395745079020027
6.758461538461575e-07,0.007119340522528024,3.358538107574943
6.858461538461523e-07,0.009791295991955353,3.380862290441983
6.958461538461539e-07,0.006451351655170888,3.377141593297485
7.058461538461555e-07,0.01012529042563514,3.369700199008468
7.158461538461571e-07,0.008121323823563727,3.392024381875518
7.258461538461587e-07,0.006451351655171192,3.358538107574958
7.358461538461536e-07,0.007119340522528024,3.392024381875518
7.458461538461551e-07,0.006785346088849456,3.38830368473101
7.558461538461567e-07,0.00778732938988516,3.358538107574943
7.658461538461583e-07,0.006785346088848544,3.392024381875508
7.758461538461532e-07,0.004781379486778049,3.369700199008468
7.858461538461548e-07,0.00778732938988516,3.399465776164535
7.958461538461564e-07,0.005783362787813752,3.369700199008468
8.05846153846158e-07,0.009123307124599432,3.377141593297493
8.158461538461528e-07,0.009123307124599432,3.395745079020019
8.258461538461544e-07,0.007453334956206592,3.384582987586502
8.35846153846156e-07,0.007453334956206592,3.38830368473101
8.458461538461576e-07,0.005783362787813752,3.395745079020027
8.558461538461524e-07,0.008455318257241079,3.373420896152987
8.65846153846154e-07,0.00778732938988516,3.395745079020027
8.758461538461556e-07,0.007119340522528024,3.36597950186396
8.858461538461572e-07,0.007453334956206592,3.399465776164535
8.95846153846152e-07,0.006117357221492929,3.377141593297495
9.058461538461536e-07,0.008455318257242295,3.392024381875518
9.158461538461552e-07,0.008455318257242295,3.395745079020027
9.258461538461568e-07,0.007453334956206592,3.373420896152977
9.358461538461584e-07,0.008789312690919648,3.406907170453546
9.458461538461532e-07,0.00611735722149232,3.392024381875518
9.558461538461548e-07,0.009123307124599432,3.392024381875518
9.658461538461564e-07,0.00778732938988516,3.392024381875518
9.75846153846158e-07,0.005115373920458439,3.369700199008481
9.858461538461529e-07,0.009123307124597611,3.399465776164522
9.958461538461544e-07,0.00611735722149232,3.377141593297485
1.005846153846156e-06,0.007119340522528024,3.377141593297485
1.015846153846158e-06,0.006785346088849759,3.388303684731004
1.025846153846152e-06,0.007453334956206288,3.373420896152983
1.035846153846154e-06,0.006785346088849456,3.395745079020027
1.045846153846156e-06,0.004781379486778049,3.395745079020027
1.055846153846157e-06,0.008455318257242295,3.36597950186396
1.065846153846152e-06,0.009123307124599129,3.41062786759804
1.075846153846154e-06,0.007119340522528024,3.377141593297485
1.085846153846155e-06,0.007119340522528024,3.399465776164535
1.095846153846157e-06,0.007453334956206592,3.395745079020027
1.105846153846158e-06,0.007453334956206896,3.365979501863966
1.115846153846153e-06,0.008121323823563727,3.380862290441993
1.125846153846155e-06,0.007453334956206592,3.369700199008468
1.135846153846156e-06,0.008455318257242295,3.38830368473101
1.145846153846158e-06,0.007119340522529391,3.410627867598046
1.155846153846153e-06,0.01012529042563377,3.3771415932975
1.165846153846155e-06,0.008789312690920863,3.406907170453553
1.175846153846156e-06,0.009123307124599432,3.392024381875518
1.185846153846158e-06,0.008455318257242448,3.399465776164524
1.195846153846153e-06,0.00878931269092071,3.373420896152989
1.205846153846154e-06,0.009457301558278,3.373420896152977
1.215846153846156e-06,0.009791295991956567,3.395745079020027
1.225846153846157e-06,0.009123307124599432,3.362258804719451
1.235846153846152e-06,0.01012529042563468,3.384582987586492
1.245846153846154e-06,0.008455318257242295,3.403186473309044
1.255846153846155e-06,0.008121323823563727,3.380862290441993
1.265846153846157e-06,0.008121323823563727,3.399465776164535
1.275846153846159e-06,0.007453334956207807,3.377141593297493
1.285846153846153e-06,0.01012529042563514,3.395745079020027
1.295846153846155e-06,0.008121323823563727,3.392024381875518
1.305846153846157e-06,0.007453334956206592,3.358538107574943
1.315846153846158e-06,0.008455318257241384,3.399465776164515
1.325846153846153e-06,0.0064513516551718,3.354817410430455
1.335846153846155e-06,0.01012529042563514,3.38830368473101
1.345846153846156e-06,0.005783362787813752,3.38830368473101
1.355846153846158e-06,0.006785346088850367,3.38830368473102
1.365846153846153e-06,0.008789312690919952,3.410627867598051
1.375846153846154e-06,0.005783362787813752,3.354817410430434
1.385846153846156e-06,0.00778732938988516,3.384582987586502
1.395846153846157e-06,0.005449368354135184,3.380862290441993
1.405846153846152e-06,0.009123307124597762,3.369700199008473
1.415846153846154e-06,0.006451351655170888,3.395745079020027
1.425846153846155e-06,0.006785346088849456,3.377141593297485
1.435846153846157e-06,0.007119340522528024,3.395745079020027
1.445846153846159e-06,0.007119340522527873,3.373420896152977
1.455846153846153e-06,0.006785346088849456,3.373420896152977
1.465846153846155e-06,0.007453334956206592,3.380862290441993
1.475846153846157e-06,0.00611735722149232,3.373420896152977
1.485846153846158e-06,0.007119340522527721,3.38086229044199
1.495846153846153e-06,0.006451351655171192,3.37342089615298
1.505846153846155e-06,0.01012529042563514,3.369700199008468
1.515846153846156e-06,0.00778732938988516,3.399465776164535
1.525846153846158e-06,0.00778732938988516,3.354817410430448
1.535846153846153e-06,0.00778732938988516,3.384582987586489
1.545846153846154e-06,0.006451351655170888,3.373420896152977
1.555846153846156e-06,0.007453334956206592,3.36597950186396
1.565846153846157e-06,0.008789312690920863,3.403186473309044
1.575846153846152e-06,0.006117357221493536,3.37342089615299
1.585846153846154e-06,0.007453334956206592,3.373420896152977
1.595846153846155e-06,0.006451351655170888,3.369700199008468
1.605846153846157e-06,0.007453334956206592,3.358538107574943
1.615846153846159e-06,0.007787329389884248,3.399465776164515
1.625846153846154e-06,0.005783362787813752,3.354817410430434
1.635846153846155e-06,0.007453334956206592,3.395745079020027
1.645846153846157e-06,0.00611735722149232,3.395745079020027
1.655846153846158e-06,0.008789312690920256,3.373420896152989
1.665846153846153e-06,0.007453334956206592,3.399465776164535
1.675846153846155e-06,0.008121323823563727,3.369700199008468
1.685846153846156e-06,0.00778732938988516,3.425510656176095
1.695846153846158e-06,0.00711934052252848,3.373420896152987
1.705846153846153e-06,0.008121323823563271,3.395745079020017
1.715846153846154e-06,0.008789312690920863,3.392024381875518
1.725846153846156e-06,0.008121323823563727,3.377141593297485
1.735846153846158e-06,0.008789312690920863,3.406907170453553
1.745846153846152e-06,0.007453334956207199,3.380862290442005
1.755846153846154e-06,0.007453334956206592,3.369700199008468
1.765846153846156e-06,0.008789312690920863,3.406907170453553
1.775846153846157e-06,0.007119340522528024,3.380862290441993
1.785846153846152e-06,0.007787329389884856,3.395745079020021
1.795846153846154e-06,0.00611735722149232,3.392024381875518
1.805846153846155e-06,0.008121323823563727,3.395745079020027
1.815846153846157e-06,0.009791295991956567,3.392024381875518
1.825846153846158e-06,0.006451351655171344,3.39946577616454
1.835846153846153e-06,0.007453334956206592,3.410627867598061
1.845846153846155e-06,0.00611735722149232,3.380862290441993
1.855846153846156e-06,0.008455318257242295,3.384582987586502
1.865846153846158e-06,0.008121323823563271,3.410627867598051
1.875846153846153e-06,0.00711934052252848,3.38830368473102
1.885846153846154e-06,0.008455318257242295,3.403186473309044
1.895846153846156e-06,0.00611735722149232,3.399465776164535
1.905846153846158e-06,0.009123307124599432,3.384582987586502
1.915846153846152e-06,0.009123307124599432,3.425510656176076
1.925846153846154e-06,0.008789312690920863,3.362258804719451
1.935846153846156e-06,0.007453334956206592,3.38830368473101
1.945846153846157e-06,0.007453334956206592,3.395745079020027
1.955846153846152e-06,0.009791295991955504,3.39202438187552
1.965846153846154e-06,0.008789312690920863,3.406907170453553
1.975846153846155e-06,0.007453334956206592,3.384582987586502
1.985846153846157e-06,0.009457301558278,3.392024381875518
1.995846153846158e-06,0.007453334956207047,3.395745079020022
2.005846153846153e-06,0.008455318257242295,3.384582987586502
2.015846153846155e-06,0.00778732938988516,3.406907170453553
2.025846153846156e-06,0.008789312690920863,3.380862290441993
2.035846153846158e-06,0.006451351655170585,3.399465776164532
2.045846153846153e-06,0.005783362787814056,3.392024381875522
2.055846153846154e-06,0.005449368354135184,3.377141593297485
2.065846153846156e-06,0.009123307124599432,3.406907170453553
2.075846153846158e-06,0.006117357221492928,3.395745079020031
2.085846153846152e-06,0.007453334956205985,3.40318647330904
2.095846153846154e-06,0.007453334956206592,3.395745079020027
2.105846153846156e-06,0.009457301558278,3.377141593297485
2.115846153846157e-06,0.008455318257242295,3.406907170453553
2.125846153846152e-06,0.006117357221493384,3.373420896152992
2.135846153846154e-06,0.008121323823563727,3.410627867598061
2.145846153846155e-06,0.007119340522528024,3.38830368473101
2.155846153846157e-06,0.008121323823563727,3.384582987586502
2.165846153846158e-06,0.007787329389885008,3.418069261887049
2.175846153846153e-06,0.007453334956206592,3.354817410430434
2.185846153846155e-06,0.00778732938988516,3.395745079020027
2.195846153846157e-06,0.006451351655170888,3.380862290441993
