traces_bank_current_trigger/sampling_freq_100MHz/UDIV/UDIV_9.csv

#Digilent WaveForms Oscilloscope Acquisition
#Device Name: Discovery2
#Serial Number: SN:210321B3D813
#Date Time: 2023-06-16 16:48:01.509
#Sample rate: 1e+08Hz
#Samples: 8192
#Trigger: Source: Channel 2 Type: Edge Condition: Rising Level: 2 V Hyst.: Auto HoldOff: 0 s
#Channel 1: Range: 10 mV/div Offset: 0 V Attenuation: 1 X Sample Mode: Average
#Channel 2: Range: 5 V/div Offset: 0 V Attenuation: 1 X Sample Mode: Average

Time (s),Channel 1 (V),Channel 2 (V)
-9.576435935198792e-07,0.00778732938988516,-0.008692808205203774
-9.476435935198776e-07,0.008455318257242295,0.03967625467340606
-9.37643593519876e-07,0.006451351655171648,0.02851416323987056
-9.276435935198812e-07,0.008121323823562968,0.006189980372840173
-9.176435935198796e-07,0.008789312690920863,0.03595555752889761
-9.07643593519878e-07,0.006785346088849456,-0.008692808205203774
-8.976435935198764e-07,0.007453334956206592,0.05083834610693141
-8.876435935198815e-07,0.006451351655171344,0.01363137466186384
-8.776435935198799e-07,0.009123307124599432,0.02479346609537227
-8.676435935198783e-07,0.006785346088849456,0.05455904325143986
-8.576435935198767e-07,0.006451351655170888,0.006189980372830022
-8.476435935198751e-07,0.0077873293898844,0.035955557528901
-8.376435935198803e-07,0.00611735722149232,0.04339695181791451
-8.276435935198787e-07,0.008121323823563727,0.01735207180635537
-8.176435935198771e-07,0.007453334956206592,0.05455904325143986
-8.076435935198755e-07,0.007453334956206288,0.01735207180636383
-7.976435935198807e-07,0.006785346088849759,0.03595555752888915
-7.876435935198791e-07,0.00778732938988516,0.02479346609537227
-7.776435935198775e-07,0.008121323823563727,0.02107276895086382
-7.676435935198759e-07,0.007453334956206288,0.04711764896240435
-7.576435935198811e-07,0.006785346088849759,0.006189980372848632
-7.476435935198795e-07,0.008455318257242295,0.05083834610693141
-7.376435935198779e-07,0.006451351655170888,0.01363137466184692
-7.276435935198763e-07,0.008789312690920863,0.01735207180635537
-7.176435935198815e-07,0.007119340522528784,0.05083834610691618
-7.076435935198799e-07,0.005449368354135184,0.02107276895086382
-6.976435935198783e-07,0.008121323823563727,0.05083834610693141
-6.876435935198767e-07,0.006451351655170888,0.02479346609537227
-6.776435935198751e-07,0.006785346088849456,0.02107276895087735
-6.676435935198803e-07,0.006785346088849456,0.05083834610693141
-6.576435935198787e-07,0.00611735722149232,-0.008692808205203774
-6.476435935198771e-07,0.00611735722149232,0.05083834610693141
-6.376435935198755e-07,0.0057833627878136,0.01735207180635537
-6.276435935198806e-07,0.005449368354135336,0.01735207180635537
-6.17643593519879e-07,0.007119340522528024,0.04711764896242296
-6.076435935198774e-07,0.005115373920456617,-0.001251413916186876
-5.976435935198758e-07,0.00645135165517104,0.02851416323987226
-5.87643593519881e-07,0.006785346088849304,0.009910677517346929
-5.776435935198794e-07,0.006451351655170888,0.002469283228321573
-5.676435935198778e-07,0.005449368354135184,0.04711764896242296
-5.576435935198762e-07,0.005115373920456617,-0.01241350534971222
-5.476435935198814e-07,0.007119340522527114,0.01363137466183507
-5.376435935198798e-07,0.005783362787813752,0.002469283228321573
-5.276435935198782e-07,0.00611735722149232,-0.004972111060695325
-5.176435935198766e-07,0.007119340522528024,0.04711764896242296
-5.07643593519875e-07,0.005449368354135944,-0.004972111060680098
-4.976435935198802e-07,0.007119340522528024,0.02851416323988071
-4.876435935198786e-07,0.005783362787813752,0.002469283228321573
-4.77643593519877e-07,0.005115373920456617,0.006189980372830022
-4.676435935198754e-07,0.005449368354135184,0.03595555752888407
-4.576435935198806e-07,0.005449368354135184,0.006189980372830022
-4.47643593519879e-07,0.005449368354135184,0.02479346609537227
-4.376435935198774e-07,0.003779396185742345,0.01363137466184692
-4.276435935198758e-07,0.005783362787813904,-0.00497211106067333
-4.17643593519881e-07,0.006117357221492169,0.04339695181789251
-4.076435935198794e-07,0.00611735722149232,-0.004972111060695325
-3.976435935198778e-07,0.006785346088849456,0.03595555752889761
-3.876435935198762e-07,0.004447385053099481,0.006189980372830022
-3.776435935198813e-07,0.007119340522526809,0.02107276895085705
-3.676435935198797e-07,0.005783362787813752,0.03967625467340606
-3.576435935198781e-07,0.006451351655170888,-0.01985489963872912
-3.476435935198765e-07,0.006785346088849456,0.04339695181791451
-3.37643593519875e-07,0.006785346088849759,0.002469283228326648
-3.276435935198801e-07,0.007453334956206592,0.01363137466184692
-3.176435935198785e-07,0.008455318257242295,0.03967625467340606
-3.076435935198769e-07,0.00778732938988516,0.002469283228321573
-2.976435935198753e-07,0.007787329389885008,0.04339695181790605
-2.876435935198805e-07,0.007453334956206592,0.02479346609537227
-2.776435935198789e-07,0.008121323823563727,0.002469283228321573
-2.676435935198773e-07,0.008121323823563727,0.02851416323988071
-2.576435935198757e-07,0.007787329389885463,0.01363137466186722
-2.476435935198809e-07,0.008455318257241991,0.058279740395928
-2.376435935198793e-07,0.00778732938988516,0.00991067751733847
-2.276435935198777e-07,0.008121323823563727,0.02107276895086382
-2.176435935198761e-07,0.008789312690920863,0.06200043754045675
-2.076435935198813e-07,0.008121323823564031,0.002469283228348641
-1.976435935198797e-07,0.00778732938988516,0.05083834610693141
-1.876435935198781e-07,0.008455318257242295,0.03223486038438916
-1.776435935198765e-07,0.008789312690920863,0.01735207180635537
-1.676435935198817e-07,0.008455318257242448,0.04711764896240943
-1.576435935198801e-07,0.00778732938988516,-0.004972111060695325
-1.476435935198785e-07,0.009123307124599432,0.04339695181791451
-1.376435935198769e-07,0.007119340522528024,0.03223486038438916
-1.276435935198753e-07,0.009457301558277544,0.02479346609538072
-1.176435935198804e-07,0.008455318257242295,0.04339695181791451
-1.076435935198788e-07,0.008455318257242295,-0.004972111060695325
-9.764359351987725e-08,0.009123307124599432,0.04711764896242296
-8.764359351987565e-08,0.00711934052252924,0.02107276895086551
-7.764359351988083e-08,0.009791295991955353,0.02479346609537057
-6.764359351987923e-08,0.007453334956206592,0.05455904325143986
-5.764359351987763e-08,0.006451351655170888,0.01363137466184692
-4.764359351987603e-08,0.007119340522528176,0.03223486038437393
-3.764359351988121e-08,0.00745333495620644,-0.001251413916171645
-2.764359351987961e-08,0.008789312690920863,0.02107276895086382
-1.764359351987801e-08,0.006451351655170888,0.05827974039594831
-7.643593519876416e-09,0.006785346088849456,0.06572113468496521
2.356406480118407e-09,-0.01392230879921234,2.592074495805053
1.235640648012e-08,0.01747316796656363,3.522248781933314
2.23564064801216e-08,0.008121323823563727,3.135296278904436
3.23564064801232e-08,0.01446721806345652,3.3399346218524
4.23564064801248e-08,0.005115373920461476,3.287844861829313
5.235640648011962e-08,0.01580319579817079,3.354817410430434
6.235640648012122e-08,0.005115373920456617,3.384582987586502
7.235640648012282e-08,0.005783362787813752,3.351096713285926
8.235640648012442e-08,-0.0005625314520758479,3.421789959031547
9.235640648011924e-08,0.006451351655167699,3.336213924707931
1.023564064801208e-07,0.001775429583670938,3.380862290441993
1.123564064801224e-07,0.003445401752063777,3.328772530418875
1.22356406480124e-07,0.005449368354137463,3.325051833274379
1.323564064801189e-07,0.01045928485931142,3.351096713285914
1.423564064801205e-07,0.006785346088849456,3.299006953262807
1.523564064801221e-07,0.008789312690920863,3.36597950186396
1.623564064801237e-07,0.00778732938988516,3.3399346218524
1.723564064801185e-07,0.01012529042563407,3.358538107574934
1.823564064801201e-07,0.004113390619420913,3.403186473309044
1.923564064801217e-07,0.003445401752063777,3.373420896152977
2.023564064801233e-07,0.00611735722149232,3.406907170453553
2.123564064801249e-07,0.003779396185742953,3.358538107574943
2.223564064801197e-07,0.005115373920456617,3.358538107574943
2.323564064801213e-07,0.00611735722149232,3.362258804719451
2.423564064801229e-07,0.009123307124599432,3.328772530418875
2.523564064801245e-07,0.009123307124598521,3.38086229044198
2.623564064801193e-07,0.007119340522528935,3.351096713285939
2.723564064801209e-07,0.009123307124599432,3.362258804719451
2.823564064801225e-07,0.008455318257242295,3.392024381875518
2.923564064801241e-07,0.005115373920456768,3.384582987586509
3.023564064801189e-07,0.005449368354135033,3.399465776164529
3.123564064801205e-07,0.004781379486778049,3.392024381875518
3.223564064801221e-07,0.004781379486778049,3.354817410430434
3.323564064801237e-07,0.005115373920456617,3.38830368473101
3.423564064801185e-07,0.005449368354135033,3.332493227563409
3.523564064801201e-07,0.008121323823563727,3.377141593297485
3.623564064801217e-07,0.006785346088849456,3.358538107574943
3.723564064801233e-07,0.009123307124599432,3.362258804719451
3.823564064801249e-07,0.008455318257241384,3.39574507902001
3.923564064801198e-07,0.006451351655170888,3.358538107574943
4.023564064801214e-07,0.007453334956206592,3.392024381875518
4.12356406480123e-07,0.004447385053099481,3.354817410430434
4.223564064801245e-07,0.007119340522527569,3.365979501863975
4.323564064801194e-07,0.006117357221492776,3.39946577616452
4.42356406480121e-07,0.006451351655170888,3.321331136129858
4.523564064801226e-07,0.007119340522528024,3.384582987586502
4.623564064801242e-07,0.00812132382356312,3.358538107574939
4.72356406480119e-07,0.006785346088850064,3.351096713285929
4.823564064801206e-07,0.008455318257242295,3.384582987586502
4.923564064801222e-07,0.006451351655170888,3.343655318996909
5.023564064801238e-07,0.007119340522528024,3.403186473309044
5.123564064801186e-07,0.00411339061942228,3.37342089615299
5.223564064801202e-07,0.007453334956206592,3.362258804719451
5.323564064801218e-07,0.004113390619420913,3.395745079020027
5.423564064801234e-07,0.005115373920456617,3.343655318996909
5.52356406480125e-07,0.00611735722149232,3.373420896152966
5.623564064801198e-07,0.00611735722149232,3.351096713285926
5.723564064801214e-07,0.008121323823563727,3.354817410430434
5.82356406480123e-07,0.007453334956206592,3.384582987586502
5.923564064801246e-07,0.006785346088850063,3.325051833274392
6.023564064801194e-07,0.008121323823563727,3.380862290441993
6.12356406480121e-07,0.007453334956206592,3.362258804719451
6.223564064801226e-07,0.009123307124599432,3.362258804719451
6.323564064801242e-07,0.007453334956206896,3.392024381875498
6.423564064801191e-07,0.008121323823563424,3.347376016141438
6.523564064801207e-07,0.00778732938988516,3.392024381875518
6.623564064801223e-07,0.00778732938988516,3.36597950186396
6.723564064801239e-07,0.008121323823563727,3.336213924707892
6.823564064801187e-07,0.007453334956206896,3.388303684730987
6.923564064801203e-07,0.007119340522528024,3.328772530418875
7.023564064801219e-07,0.007119340522528024,3.377141593297485
7.123564064801235e-07,0.006451351655170888,3.362258804719451
7.223564064801251e-07,0.007119340522526961,3.354817410430453
7.323564064801199e-07,0.004781379486778049,3.395745079020027
7.423564064801215e-07,0.005449368354135184,3.354817410430434
7.523564064801231e-07,0.007119340522528024,3.392024381875518
7.623564064801247e-07,0.00611735722149308,3.365979501863961
7.723564064801195e-07,0.00778732938988516,3.369700199008468
7.823564064801211e-07,0.005449368354135184,3.395745079020027
7.923564064801227e-07,0.005115373920456617,3.3399346218524
8.023564064801243e-07,0.006451351655170281,3.384582987586489
8.123564064801191e-07,0.005115373920457224,3.354817410430448
8.223564064801207e-07,0.008121323823563727,3.358538107574943
8.323564064801223e-07,0.007119340522528024,3.406907170453553
8.423564064801239e-07,0.006451351655170888,3.336213924707892
8.523564064801187e-07,0.007787329389884553,3.388303684730987
8.623564064801203e-07,0.006451351655170888,3.369700199008468
8.723564064801219e-07,0.008121323823563727,3.369700199008468
8.823564064801235e-07,0.007453334956206592,3.38830368473101
8.923564064801184e-07,0.006785346088849759,3.354817410430449
9.0235640648012e-07,0.008789312690920863,3.384582987586502
9.123564064801216e-07,0.00778732938988516,3.369700199008468
9.223564064801232e-07,0.0104592848593137,3.369700199008468
9.323564064801247e-07,0.008121323823562817,3.384582987586489
9.423564064801196e-07,0.00611735722149232,3.354817410430434
9.523564064801212e-07,0.009457301558278,3.410627867598061
9.623564064801228e-07,0.007119340522528024,3.358538107574943
9.723564064801244e-07,0.009791295991955353,3.369700199008481
9.823564064801192e-07,0.00711934052252924,3.399465776164522
9.923564064801208e-07,0.007453334956206592,3.3399346218524
1.002356406480122e-06,0.006785346088849456,3.392024381875518
1.012356406480124e-06,0.007453334956206744,3.380862290441983
1.022356406480119e-06,0.007787329389885008,3.358538107574953
1.03235640648012e-06,0.006785346088849456,3.384582987586502
1.042356406480122e-06,0.00778732938988516,3.354817410430434
1.052356406480124e-06,0.006451351655170888,3.395745079020027
1.062356406480118e-06,0.006117357221492472,3.373420896152987
1.07235640648012e-06,0.009791295991956567,3.369700199008468
1.082356406480122e-06,0.008455318257242295,3.392024381875518
1.092356406480123e-06,0.004781379486778049,3.362258804719451
1.102356406480125e-06,0.008455318257241384,3.392024381875514
1.11235640648012e-06,0.006451351655170888,3.380862290441993
1.122356406480121e-06,0.006451351655170888,3.373420896152977
1.132356406480123e-06,0.008455318257242295,3.399465776164535
1.142356406480124e-06,0.006117357221493687,3.347376016141439
1.152356406480119e-06,0.009123307124598065,3.395745079020005
1.162356406480121e-06,0.008455318257242295,3.38830368473101
1.172356406480122e-06,0.009123307124599432,3.369700199008468
1.182356406480124e-06,0.01012529042563453,3.410627867598032
1.192356406480119e-06,0.00878931269092147,3.347376016141446
1.20235640648012e-06,0.009791295991956567,3.392024381875518
1.212356406480122e-06,0.009457301558278,3.380862290441993
1.222356406480124e-06,0.01012529042563514,3.347376016141417
1.232356406480118e-06,0.009123307124599888,3.384582987586485
1.24235640648012e-06,0.00778732938988516,3.343655318996909
1.252356406480122e-06,0.009791295991956567,3.392024381875518
1.262356406480123e-06,0.007119340522528024,3.351096713285926
1.272356406480125e-06,0.007787329389885463,3.369700199008483
1.28235640648012e-06,0.008455318257242295,3.403186473309044
1.292356406480121e-06,0.008121323823563727,3.351096713285926
1.302356406480123e-06,0.008455318257242295,3.392024381875518
1.312356406480124e-06,0.00812132382356388,3.365979501863961
1.322356406480119e-06,0.008455318257242142,3.369700199008466
1.332356406480121e-06,0.009457301558278,3.395745079020027
1.342356406480123e-06,0.006785346088849456,3.343655318996909
1.352356406480124e-06,0.009457301558276633,3.395745079020017
1.362356406480119e-06,0.006451351655172255,3.373420896152987
1.372356406480121e-06,0.00778732938988516,3.347376016141417
1.382356406480122e-06,0.00778732938988516,3.395745079020027
1.392356406480124e-06,0.007119340522528024,3.347376016141417
1.402356406480119e-06,0.008455318257241688,3.380862290441978
1.41235640648012e-06,0.005115373920456617,3.373420896152977
1.422356406480122e-06,0.006785346088849456,3.354817410430434
1.432356406480123e-06,0.008121323823563727,3.392024381875518
1.442356406480125e-06,0.007787329389885463,3.351096713285942
1.45235640648012e-06,0.008455318257242295,3.38830368473101
1.462356406480121e-06,0.006785346088849456,3.373420896152977
1.472356406480123e-06,0.008455318257242295,3.36597950186396
1.482356406480125e-06,0.007453334956206592,3.377141593297478
1.492356406480119e-06,0.007453334956206592,3.362258804719458
1.502356406480121e-06,0.008455318257242295,3.395745079020027
1.512356406480123e-06,0.008121323823563727,3.373420896152977
1.522356406480124e-06,0.009123307124599129,3.351096713285948
1.532356406480119e-06,0.008455318257242599,3.399465776164513
1.542356406480121e-06,0.009123307124599432,3.3399346218524
1.552356406480122e-06,0.009791295991956567,3.392024381875518
1.562356406480124e-06,0.008455318257242295,3.362258804719451
1.572356406480119e-06,0.01045928485931279,3.358538107574944
1.58235640648012e-06,0.00778732938988516,3.395745079020027
1.592356406480122e-06,0.00778732938988516,3.351096713285926
1.602356406480123e-06,0.008455318257242295,3.41434856474257
1.612356406480125e-06,0.006785346088850367,3.365979501863955
1.62235640648012e-06,0.008789312690920863,3.354817410430434
1.632356406480121e-06,0.006785346088849456,3.392024381875518
1.642356406480123e-06,0.00778732938988516,3.347376016141417
1.652356406480125e-06,0.007453334956206896,3.406907170453534
1.662356406480119e-06,0.008121323823563727,3.36597950186396
1.672356406480121e-06,0.007453334956206592,3.351096713285926
1.682356406480123e-06,0.00778732938988516,3.369700199008468
1.692356406480124e-06,0.007787329389885767,3.347376016141436
1.702356406480119e-06,0.009123307124598825,3.388303684730992
1.712356406480121e-06,0.008455318257242295,3.373420896152977
1.722356406480122e-06,0.009123307124599432,3.347376016141417
1.732356406480124e-06,0.007453334956206592,3.380862290441993
1.742356406480119e-06,0.007119340522528176,3.325051833274392
1.75235640648012e-06,0.008121323823563727,3.373420896152977
1.762356406480122e-06,0.006451351655170888,3.369700199008468
1.772356406480123e-06,0.008121323823563727,3.343655318996909
1.782356406480118e-06,0.007453334956206896,3.406907170453524
1.79235640648012e-06,0.00611735722149232,3.321331136129858
1.802356406480122e-06,0.007119340522528024,3.377141593297485
1.812356406480123e-06,0.008121323823563727,3.347376016141417
1.822356406480125e-06,0.008455318257242295,3.351096713285939
1.83235640648012e-06,0.008455318257242295,3.380862290441993
1.842356406480121e-06,0.006785346088849456,3.351096713285926
1.852356406480123e-06,0.007453334956206592,3.373420896152977
1.862356406480124e-06,0.008789312690920559,3.362258804719446
1.872356406480119e-06,0.008121323823564031,3.35109671328593
1.882356406480121e-06,0.008455318257242295,3.373420896152977
1.892356406480122e-06,0.004781379486778049,3.336213924707892
1.902356406480124e-06,0.008789312690920863,3.403186473309044
1.912356406480119e-06,0.007119340522528784,3.347376016141443
1.92235640648012e-06,0.009123307124599432,3.36597950186396
1.932356406480122e-06,0.00611735722149232,3.384582987586502
1.942356406480124e-06,0.006451351655170888,3.332493227563384
1.952356406480118e-06,0.007453334956206137,3.380862290441971
1.96235640648012e-06,0.005115373920456617,3.369700199008468
1.972356406480122e-06,0.008789312690920863,3.358538107574943
1.982356406480123e-06,0.007119340522528024,3.373420896152977
1.992356406480125e-06,0.008455318257241839,3.339934621852424
2.00235640648012e-06,0.007453334956206592,3.392024381875518
2.012356406480121e-06,0.005449368354135184,3.358538107574943
2.022356406480123e-06,0.006451351655170888,3.369700199008468
2.032356406480124e-06,0.005783362787813904,3.392024381875495
2.042356406480119e-06,0.006117357221492169,3.339934621852424
2.052356406480121e-06,0.00611735722149232,3.392024381875518
2.062356406480122e-06,0.005783362787813752,3.351096713285926
2.072356406480124e-06,0.006451351655170888,3.377141593297488
2.082356406480119e-06,0.006451351655170888,3.384582987586498
2.09235640648012e-06,0.00611735722149232,3.328772530418875
2.102356406480122e-06,0.007453334956206592,3.399465776164535
2.112356406480124e-06,0.007119340522528024,3.358538107574943
2.122356406480118e-06,0.009791295991955353,3.362258804719449
2.13235640648012e-06,0.00611735722149232,3.399465776164535
2.142356406480122e-06,0.008121323823563727,3.354817410430434
2.152356406480123e-06,0.008455318257242295,3.380862290441993
2.162356406480125e-06,0.005449368354136248,3.380862290441985
2.17235640648012e-06,0.00778732938988516,3.362258804719451
2.182356406480121e-06,0.006451351655170888,3.395745079020027
2.192356406480123e-06,0.006785346088849456,3.347376016141417
2.202356406480124e-06,0.00812132382356312,3.395745079020014
