traces_bank_current_trigger/sampling_freq_100MHz/UDIV/UDIV_1.csv

#Digilent WaveForms Oscilloscope Acquisition
#Device Name: Discovery2
#Serial Number: SN:210321B3D813
#Date Time: 2023-06-16 16:06:32.634
#Sample rate: 1e+08Hz
#Samples: 8192
#Trigger: Source: Channel 2 Type: Edge Condition: Rising Level: 2 V Hyst.: Auto HoldOff: 0 s
#Channel 1: Range: 10 mV/div Offset: 0 V Attenuation: 1 X Sample Mode: Average
#Channel 2: Range: 5 V/div Offset: 0 V Attenuation: 1 X Sample Mode: Average

Time (s),Channel 1 (V),Channel 2 (V)
-9.584430176564951e-07,0.008789312690920863,0.01735207180635537
-9.484430176564935e-07,0.008789312690920863,0.02479346609537227
-9.384430176564919e-07,0.008121323823564335,0.03595555752888746
-9.284430176564971e-07,0.009457301558277393,0.01363137466185707
-9.184430176564955e-07,0.009123307124599432,0.05455904325143986
-9.084430176564939e-07,0.009457301558278,0.006189980372830022
-8.984430176564923e-07,0.008121323823563727,0.03595555752889761
-8.884430176564975e-07,0.007453334956206896,0.01363137466185707
-8.784430176564959e-07,0.009457301558278,0.002469283228321573
-8.684430176564943e-07,0.008789312690920863,0.02851416323988071
-8.584430176564927e-07,0.00778732938988516,-0.008692808205203774
-8.484430176564911e-07,0.01112727372666932,0.03595555752888407
-8.384430176564962e-07,0.00778732938988516,0.006189980372830022
-8.284430176564946e-07,0.009791295991956567,0.006189980372830022
-8.18443017656493e-07,0.007119340522528024,0.01363137466184692
-8.084430176564914e-07,0.009123307124598672,0.002469283228331725
-7.984430176564966e-07,0.007453334956207352,0.02479346609536211
-7.88443017656495e-07,0.008455318257242295,0.006189980372830022
-7.784430176564934e-07,0.008455318257242295,0.01735207180635537
-7.684430176564918e-07,0.009123307124598672,0.02851416323986379
-7.58443017656497e-07,0.007453334956207352,-0.008692808205186857
-7.484430176564954e-07,0.0104592848593137,0.02479346609537227
-7.384430176564938e-07,0.007453334956206592,0.002469283228321573
-7.284430176564922e-07,0.009791295991956567,0.002469283228321573
-7.184430176564974e-07,0.00778732938988607,0.02479346609536211
-7.084430176564958e-07,0.007453334956206592,-0.008692808205203774
-6.984430176564942e-07,0.00778732938988516,0.03223486038438916
-6.884430176564926e-07,0.006451351655170888,0.00991067751733847
-6.78443017656491e-07,0.00778732938988516,0.02479346609536381
-6.684430176564962e-07,0.00778732938988516,0.006189980372830022
-6.584430176564946e-07,0.00611735722149232,-0.004972111060695325
-6.48443017656493e-07,0.008121323823563727,0.02479346609537227
-6.384430176564914e-07,0.005783362787814664,0.002469283228321573
-6.284430176564966e-07,0.007787329389884249,0.002469283228321573
-6.18443017656495e-07,0.006451351655170888,0.002469283228321573
-6.084430176564934e-07,0.007119340522528024,-0.01985489963872912
-5.984430176564918e-07,0.007787329389884704,0.01735207180634522
-5.884430176564969e-07,0.006785346088849911,-0.004972111060685173
-5.784430176564953e-07,0.006451351655170888,-0.008692808205203774
-5.684430176564937e-07,0.008789312690920863,0.01735207180635537
-5.584430176564921e-07,0.008121323823563727,-0.01613420249422067
-5.484430176564973e-07,0.00711934052252848,0.02851416323986041
-5.384430176564957e-07,0.007453334956206592,-0.01241350534971222
-5.284430176564941e-07,0.007119340522528024,-0.01241350534971222
-5.184430176564925e-07,0.00611735722149232,0.02479346609537227
-5.084430176564909e-07,0.006451351655171495,-0.01613420249420375
-4.984430176564961e-07,0.00778732938988516,0.02107276895086382
-4.884430176564945e-07,0.006451351655170888,-0.004972111060695325
-4.784430176564929e-07,0.008789312690920863,-0.001251413916186876
-4.684430176564913e-07,0.006785346088849304,0.00991067751733001
-4.584430176564965e-07,0.006451351655170888,-0.008692808205203774
-4.484430176564949e-07,0.00778732938988516,0.01735207180635537
-4.384430176564933e-07,0.00611735722149232,-0.01241350534971222
-4.284430176564917e-07,0.005783362787813752,0.002469283228335108
-4.184430176564969e-07,0.005783362787813752,0.03223486038437563
-4.084430176564953e-07,0.007453334956206592,-0.01241350534971222
-3.984430176564937e-07,0.006451351655170888,0.03595555752889761
-3.884430176564921e-07,0.007453334956206592,-0.001251413916186876
-3.784430176564973e-07,0.007787329389885008,-0.004972111060693634
-3.684430176564957e-07,0.007453334956206592,0.03223486038438916
-3.584430176564941e-07,0.007119340522528024,0.002469283228321573
-3.484430176564925e-07,0.007119340522528024,0.02107276895086382
-3.384430176564909e-07,0.008455318257242448,-0.001251413916188568
-3.28443017656496e-07,0.008789312690920863,-0.004972111060695325
-3.184430176564944e-07,0.008121323823563727,0.02107276895086382
-3.084430176564928e-07,0.006785346088849456,-0.01241350534971222
-2.984430176564912e-07,0.00945730155827648,0.0247934660953655
-2.884430176564964e-07,0.00611735722149232,0.00991067751733847
-2.784430176564948e-07,0.008455318257242295,0.002469283228321573
-2.684430176564932e-07,0.006451351655170888,0.03967625467340606
-2.584430176564916e-07,0.007787329389885615,-0.008692808205181778
-2.484430176564968e-07,0.008789312690920406,0.03967625467338406
-2.384430176564952e-07,0.006451351655170888,-0.008692808205203774
-2.284430176564936e-07,0.008789312690920863,0.00991067751733847
-2.18443017656492e-07,0.008455318257242295,0.04339695181791451
-2.084430176564972e-07,0.006785346088850215,-0.01241350534968684
-1.984430176564956e-07,0.007453334956206592,0.05083834610693141
-1.88443017656494e-07,0.007119340522528024,0.01363137466184692
-1.784430176564924e-07,0.008121323823563727,0.02107276895086382
-1.684430176564976e-07,0.007787329389885311,0.03223486038438408
-1.58443017656496e-07,0.006451351655170888,-0.008692808205203774
-1.484430176564944e-07,0.006785346088849456,0.04339695181791451
-1.384430176564928e-07,0.007119340522528024,0.02107276895086382
-1.284430176564912e-07,0.008121323823563424,0.0285141632398841
-1.184430176564964e-07,0.007453334956206592,0.03595555752889761
-1.084430176564948e-07,0.006785346088849456,0.006189980372830022
-9.844301765649316e-08,0.006785346088849456,0.04339695181791451
-8.844301765649156e-08,0.005115373920457224,0.02851416323987564
-7.844301765649674e-08,0.00645135165517028,0.01735207180636044
-6.844301765649514e-08,0.006785346088849456,0.04339695181791451
-5.844301765649355e-08,0.005449368354135184,0.01363137466184692
-4.844301765649195e-08,0.005449368354135184,0.04711764896241111
-3.844301765649713e-08,0.005449368354135184,0.02107276895087566
-2.844301765649553e-08,0.006451351655170888,0.002469283228321573
-1.844301765649393e-08,0.004781379486778049,0.03595555752889761
-8.44301765649233e-09,0.004781379486778049,0.03967625467340606
1.556982343502492e-09,-0.01692825870231899,2.357670575701115
1.155698234350409e-08,0.01713917353288506,3.574338541956433
2.155698234350569e-08,0.003111407318385209,3.127854884615419
3.155698234350729e-08,0.01346523476242081,3.3399346218524
4.155698234350889e-08,0.006451351655174382,3.310169044696341
5.155698234350371e-08,0.01413322362977795,3.328772530418875
6.155698234350531e-08,0.003445401752063777,3.377141593297485
7.15569823435069e-08,0.004113390619420913,3.36597950186396
8.15569823435085e-08,-0.0008965258857544158,3.395745079019997
9.155698234350332e-08,0.006117357221489131,3.328772530418906
1.015569823435049e-07,0.0004394518489566662,3.380862290441993
1.115569823435065e-07,0.002777412884706641,3.306448347551824
1.215569823435081e-07,0.005783362787814056,3.321331136129862
1.315569823435029e-07,0.006451351655170585,3.328772530418871
1.415569823435045e-07,0.006785346088849456,3.306448347551824
1.515569823435061e-07,0.009123307124599432,3.343655318996909
1.615569823435077e-07,0.00778732938988516,3.3399346218524
1.715569823435026e-07,0.008121323823563575,3.362258804719441
1.815569823435042e-07,0.003111407318385209,3.369700199008468
1.915569823435058e-07,0.004113390619420913,3.362258804719451
2.015569823435074e-07,0.002777412884706641,3.392024381875518
2.11556982343509e-07,0.003111407318385513,3.343655318996905
2.215569823435038e-07,0.003779396185742345,3.336213924707892
2.315569823435054e-07,0.004781379486778049,3.358538107574943
2.41556982343507e-07,0.007119340522528024,3.302727650407316
2.515569823435086e-07,0.007119340522528176,3.351096713285919
2.615569823435034e-07,0.00745333495620644,3.336213924707899
2.71556982343505e-07,0.007453334956206592,3.358538107574943
2.815569823435066e-07,0.006451351655170888,3.384582987586502
2.915569823435082e-07,0.005449368354134881,3.354817410430451
3.01556982343503e-07,0.004781379486778353,3.392024381875502
3.115569823435046e-07,0.004447385053099481,3.377141593297485
3.215569823435062e-07,0.004781379486778049,3.369700199008468
3.315569823435078e-07,0.006785346088849456,3.358538107574943
3.415569823435026e-07,0.003445401752065296,3.325051833274382
3.515569823435042e-07,0.008789312690920863,3.358538107574943
3.615569823435058e-07,0.007119340522528024,3.358538107574943
3.715569823435074e-07,0.006785346088849456,3.3399346218524
3.81556982343509e-07,0.007119340522527873,3.373420896152972
3.915569823435038e-07,0.006785346088849456,3.362258804719451
4.015569823435054e-07,0.005783362787813752,3.395745079020027
4.11556982343507e-07,0.006451351655170888,3.384582987586502
4.215569823435086e-07,0.005449368354134729,3.358538107574959
4.315569823435035e-07,0.004447385053099937,3.39574507902001
4.415569823435051e-07,0.00611735722149232,3.347376016141417
4.515569823435067e-07,0.006451351655170888,3.38830368473101
4.615569823435083e-07,0.006117357221493536,3.358538107574949
4.715569823435031e-07,0.008789312690919648,3.37342089615297
4.815569823435047e-07,0.006785346088849456,3.380862290441993
4.915569823435063e-07,0.00611735722149232,3.347376016141417
5.015569823435079e-07,0.009123307124599432,3.392024381875518
5.115569823435027e-07,0.004113390619423191,3.354817410430451
5.215569823435043e-07,0.008121323823563727,3.395745079020027
5.315569823435059e-07,0.00611735722149232,3.384582987586502
5.415569823435075e-07,0.005783362787813752,3.358538107574943
5.515569823435091e-07,0.008121323823562664,3.392024381875508
5.615569823435039e-07,0.005783362787813752,3.369700199008468
5.715569823435055e-07,0.0104592848593137,3.358538107574943
5.815569823435071e-07,0.008121323823563727,3.384582987586502
5.915569823435087e-07,0.008455318257242599,3.343655318996932
6.015569823435035e-07,0.009123307124599432,3.395745079020027
6.115569823435051e-07,0.00778732938988516,3.380862290441993
6.215569823435067e-07,0.009123307124599432,3.369700199008468
6.315569823435083e-07,0.008789312690920406,3.403186473309022
6.415569823435031e-07,0.007787329389885615,3.354817410430456
6.515569823435047e-07,0.009791295991956567,3.392024381875518
6.615569823435063e-07,0.009123307124599432,3.373420896152977
6.715569823435079e-07,0.007453334956206592,3.369700199008468
6.815569823435028e-07,0.009123307124598672,3.377141593297481
6.915569823435044e-07,0.008455318257242295,3.358538107574943
7.01556982343506e-07,0.006451351655170888,3.377141593297485
7.115569823435076e-07,0.00778732938988516,3.358538107574943
7.215569823435092e-07,0.009791295991955808,3.384582987586507
7.31556982343504e-07,0.008121323823563727,3.395745079020027
7.415569823435056e-07,0.00611735722149232,3.358538107574943
7.515569823435072e-07,0.007119340522528024,3.392024381875518
7.615569823435088e-07,0.005783362787814056,3.369700199008468
7.715569823435036e-07,0.006451351655170888,3.369700199008468
7.815569823435052e-07,0.007453334956206592,3.369700199008468
7.915569823435068e-07,0.00611735722149232,3.354817410430434
8.015569823435084e-07,0.007119340522528328,3.392024381875506
8.115569823435032e-07,0.007787329389884856,3.365979501863972
8.215569823435048e-07,0.00611735722149232,3.369700199008468
8.315569823435064e-07,0.007119340522528024,3.392024381875518
8.41556982343508e-07,0.006451351655170888,3.351096713285926
8.515569823435028e-07,0.008121323823562968,3.395745079020007
8.615569823435044e-07,0.007453334956206592,3.373420896152977
8.71556982343506e-07,0.008455318257242295,3.380862290441993
8.815569823435076e-07,0.007453334956206592,3.403186473309044
8.915569823435024e-07,0.007453334956206592,3.36225880471947
9.01556982343504e-07,0.009457301558278,3.395745079020027
9.115569823435056e-07,0.008455318257242295,3.377141593297485
9.215569823435072e-07,0.008455318257242295,3.369700199008468
9.315569823435088e-07,0.007453334956206137,3.403186473309029
9.415569823435037e-07,0.006451351655170888,3.369700199008468
9.515569823435053e-07,0.008789312690920863,3.403186473309044
9.615569823435069e-07,0.005783362787813752,3.377141593297485
9.715569823435085e-07,0.00611735722149308,3.373420896152992
9.815569823435033e-07,0.0077873293898844,3.406907170453537
9.915569823435049e-07,0.006451351655170888,3.36597950186396
1.001556982343506e-06,0.00778732938988516,3.406907170453553
1.011556982343508e-06,0.0064513516551718,3.369700199008476
1.021556982343503e-06,0.008455318257241384,3.388303684731002
1.031556982343504e-06,0.006785346088849456,3.380862290441993
1.041556982343506e-06,0.006451351655170888,3.362258804719451
1.051556982343508e-06,0.006785346088849456,3.403186473309044
1.061556982343503e-06,0.006785346088849456,3.36225880471947
1.071556982343504e-06,0.006785346088849456,3.38830368473101
1.081556982343506e-06,0.007119340522528024,3.392024381875518
1.091556982343507e-06,0.005115373920456617,3.369700199008468
1.101556982343509e-06,0.006117357221492624,3.39202438187551
1.111556982343504e-06,0.006785346088849456,3.373420896152977
1.121556982343505e-06,0.00778732938988516,3.36597950186396
1.131556982343507e-06,0.006785346088849456,3.392024381875518
1.141556982343509e-06,0.006117357221493232,3.343655318996932
1.151556982343503e-06,0.008121323823562817,3.395745079020004
1.161556982343505e-06,0.007453334956206592,3.369700199008468
1.171556982343507e-06,0.008121323823563727,3.373420896152977
1.181556982343508e-06,0.008789312690921015,3.39574507902001
1.191556982343503e-06,0.009123307124599279,3.358538107574959
1.201556982343505e-06,0.008789312690920863,3.403186473309044
1.211556982343506e-06,0.007119340522528024,3.36597950186396
1.221556982343508e-06,0.009123307124599432,3.384582987586502
1.231556982343503e-06,0.007787329389885767,3.406907170453542
1.241556982343504e-06,0.007119340522528024,3.384582987586502
1.251556982343506e-06,0.009123307124599432,3.399465776164535
1.261556982343507e-06,0.007119340522528024,3.395745079020027
1.271556982343509e-06,0.00979129599195596,3.388303684731015
1.281556982343504e-06,0.008455318257242295,3.399465776164535
1.291556982343505e-06,0.006785346088849456,3.354817410430434
1.301556982343507e-06,0.009123307124599432,3.392024381875518
1.311556982343509e-06,0.006117357221492928,3.392024381875514
1.321556982343503e-06,0.007453334956205985,3.380862290441998
1.331556982343505e-06,0.006785346088849456,3.395745079020027
1.341556982343507e-06,0.006451351655170888,3.362258804719451
1.351556982343508e-06,0.007119340522527569,3.421789959031569
1.361556982343503e-06,0.006117357221492776,3.384582987586519
1.371556982343505e-06,0.007453334956206592,3.384582987586502
1.381556982343506e-06,0.006785346088849456,3.421789959031586
1.391556982343508e-06,0.00611735722149232,3.362258804719451
1.401556982343503e-06,0.007453334956205985,3.414348564742546
1.411556982343504e-06,0.00611735722149232,3.380862290441993
1.421556982343506e-06,0.008121323823563727,3.377141593297485
1.431556982343507e-06,0.00611735722149232,3.399465776164535
1.441556982343509e-06,0.005449368354136399,3.365979501863978
1.451556982343504e-06,0.008121323823563727,3.406907170453553
1.461556982343505e-06,0.006451351655170888,3.384582987586502
1.471556982343507e-06,0.008455318257242295,3.377141593297485
1.481556982343509e-06,0.006785346088850216,3.421789959031557
1.491556982343503e-06,0.008455318257241535,3.358538107574971
1.501556982343505e-06,0.008121323823563727,3.410627867598061
1.511556982343507e-06,0.006785346088849456,3.384582987586502
1.521556982343508e-06,0.009457301558278,3.377141593297492
1.531556982343503e-06,0.009457301558278,3.392024381875512
1.541556982343505e-06,0.008455318257242295,3.380862290441993
1.551556982343506e-06,0.009791295991956567,3.41434856474257
1.561556982343508e-06,0.01079327929299227,3.377141593297485
1.571556982343503e-06,0.01012529042563544,3.399465776164525
1.581556982343504e-06,0.008789312690920863,3.418069261887078
1.591556982343506e-06,0.008789312690920863,3.369700199008468
1.601556982343508e-06,0.00778732938988516,3.410627867598061
1.611556982343509e-06,0.008455318257241535,3.3845829875865
1.621556982343504e-06,0.006785346088849456,3.380862290441993
1.631556982343506e-06,0.008789312690920863,3.399465776164535
1.641556982343507e-06,0.00778732938988516,3.36597950186396
1.651556982343509e-06,0.00812132382356388,3.406907170453534
1.661556982343504e-06,0.008455318257242295,3.36597950186396
1.671556982343505e-06,0.008789312690920863,3.399465776164535
1.681556982343507e-06,0.009457301558278,3.392024381875518
1.691556982343508e-06,0.006451351655171495,3.369700199008483
1.701556982343503e-06,0.007787329389884553,3.403186473309029
1.711556982343505e-06,0.006451351655170888,3.38830368473101
1.721556982343506e-06,0.009791295991956567,3.377141593297485
1.731556982343508e-06,0.007453334956206592,3.399465776164535
1.741556982343503e-06,0.006785346088849759,3.377141593297495
1.751556982343504e-06,0.008789312690920863,3.395745079020027
1.761556982343506e-06,0.007453334956206592,3.384582987586502
1.771556982343508e-06,0.00778732938988516,3.399465776164535
1.781556982343502e-06,0.008121323823563575,3.392024381875522
1.791556982343504e-06,0.007119340522528024,3.36597950186396
1.801556982343506e-06,0.009123307124599432,3.392024381875518
1.811556982343507e-06,0.007119340522528024,3.362258804719451
1.821556982343509e-06,0.007787329389884553,3.365979501863966
1.831556982343504e-06,0.006451351655170888,3.380862290441993
1.841556982343505e-06,0.006451351655170888,3.36597950186396
1.851556982343507e-06,0.008121323823563727,3.399465776164535
1.861556982343508e-06,0.007119340522529391,3.365979501863961
1.871556982343503e-06,0.01012529042563377,3.369700199008466
1.881556982343505e-06,0.008789312690920863,3.38830368473101
1.891556982343506e-06,0.009791295991956567,3.343655318996909
1.901556982343508e-06,0.01079327929299227,3.395745079020027
1.911556982343503e-06,0.007787329389886527,3.388303684731014
1.921556982343504e-06,0.009791295991956567,3.380862290441993
1.931556982343506e-06,0.008789312690920863,3.384582987586502
1.941556982343508e-06,0.008455318257242295,3.351096713285926
1.951556982343502e-06,0.01112727372666962,3.377141593297473
1.961556982343504e-06,0.008121323823563727,3.38830368473101
1.971556982343506e-06,0.008789312690920863,3.351096713285926
1.981556982343507e-06,0.008455318257242295,3.384582987586502
1.991556982343509e-06,0.008121323823563727,3.347376016141439
2.001556982343504e-06,0.008121323823563727,3.395745079020027
2.011556982343505e-06,0.00778732938988516,3.369700199008468
2.021556982343507e-06,0.008789312690920863,3.392024381875518
2.031556982343508e-06,0.008789312690919799,3.392024381875503
2.041556982343503e-06,0.006451351655171952,3.358538107574958
2.051556982343505e-06,0.008789312690920863,3.41434856474257
2.061556982343506e-06,0.006451351655170888,3.380862290441993
2.071556982343508e-06,0.009457301558276936,3.395745079020021
2.081556982343503e-06,0.007119340522529088,3.380862290442
2.091556982343505e-06,0.008121323823563727,3.373420896152977
2.101556982343506e-06,0.008789312690920863,3.418069261887078
2.111556982343508e-06,0.007453334956206592,3.373420896152977
2.121556982343503e-06,0.01012529042563392,3.384582987586497
2.131556982343504e-06,0.008121323823563727,3.399465776164535
2.141556982343506e-06,0.008455318257242295,3.362258804719451
2.151556982343507e-06,0.008121323823563727,3.406907170453553
2.161556982343509e-06,0.008455318257242448,3.384582987586515
2.171556982343504e-06,0.008789312690920863,3.41434856474257
2.181556982343505e-06,0.007119340522528024,3.403186473309044
2.191556982343507e-06,0.007453334956206592,3.377141593297485
