traces_bank_current_trigger/sampling_freq_100MHz/UDIV/UDIV_6.csv

#Digilent WaveForms Oscilloscope Acquisition
#Device Name: Discovery2
#Serial Number: SN:210321B3D813
#Date Time: 2023-06-16 16:32:56.602
#Sample rate: 1e+08Hz
#Samples: 8192
#Trigger: Source: Channel 2 Type: Edge Condition: Rising Level: 2 V Hyst.: Auto HoldOff: 0 s
#Channel 1: Range: 10 mV/div Offset: 0 V Attenuation: 1 X Sample Mode: Average
#Channel 2: Range: 5 V/div Offset: 0 V Attenuation: 1 X Sample Mode: Average

Time (s),Channel 1 (V),Channel 2 (V)
-9.543560606060597e-07,0.00778732938988516,0.03595555752889761
-9.443560606060581e-07,0.007453334956206592,0.03595555752889761
-9.343560606060565e-07,0.008455318257241384,0.04339695181790436
-9.243560606060617e-07,0.0064513516551718,0.02107276895087397
-9.143560606060601e-07,0.008789312690920863,0.04339695181791451
-9.043560606060585e-07,0.005783362787813752,0.03595555752889761
-8.943560606060569e-07,0.009123307124599432,0.02479346609537227
-8.84356060606062e-07,0.008455318257242599,0.04339695181790605
-8.743560606060604e-07,0.00778732938988516,0.02851416323988071
-8.643560606060588e-07,0.008455318257242295,0.03967625467340606
-8.543560606060572e-07,0.007453334956206592,0.03223486038438916
-8.443560606060556e-07,0.00812132382356388,0.01735207180637736
-8.343560606060608e-07,0.008455318257242295,0.06572113468496521
-8.243560606060592e-07,0.006785346088849456,0.02851416323988071
-8.143560606060576e-07,0.008789312690920863,0.02851416323988071
-8.04356060606056e-07,0.005783362787814512,0.0322348603843824
-7.943560606060612e-07,0.007453334956205832,0.01735207180636213
-7.843560606060596e-07,0.00778732938988516,0.03967625467340606
-7.74356060606058e-07,0.006785346088849456,0.006189980372830022
-7.643560606060564e-07,0.008455318257240775,0.03595555752888915
-7.543560606060616e-07,0.005115373920458135,0.01735207180636383
-7.4435606060606e-07,0.006785346088849456,0.02107276895086382
-7.343560606060584e-07,0.007453334956206592,0.06572113468496521
-7.243560606060568e-07,0.006451351655170888,0.01363137466184692
-7.14356060606062e-07,0.00544936835413564,0.03595555752888746
-7.043560606060604e-07,0.004781379486778049,0.02851416323988071
-6.943560606060588e-07,0.008121323823563727,0.01363137466184692
-6.843560606060572e-07,0.005115373920456617,0.03223486038438916
-6.743560606060556e-07,0.005449368354136096,0.02479346609537057
-6.643560606060608e-07,0.007453334956206592,0.02107276895086382
-6.543560606060592e-07,0.005783362787813752,0.03595555752889761
-6.443560606060576e-07,0.00611735722149232,0.01735207180635537
-6.34356060606056e-07,0.005115373920456465,0.03967625467339252
-6.243560606060611e-07,0.004781379486778201,0.009910677517352005
-6.143560606060595e-07,0.005115373920456617,0.04711764896242296
-6.043560606060579e-07,0.005783362787813752,0.02851416323988071
-5.943560606060563e-07,0.005783362787813752,0.002469283228340185
-5.843560606060615e-07,0.005783362787813752,0.0433969518178959
-5.743560606060599e-07,0.004781379486778049,-0.008692808205203774
-5.643560606060583e-07,0.006451351655170888,0.03595555752889761
-5.543560606060567e-07,0.004781379486778049,0.02479346609537227
-5.443560606060619e-07,0.005449368354134881,0.002469283228331724
-5.343560606060603e-07,0.00778732938988516,0.03967625467340606
-5.243560606060587e-07,0.005449368354135184,0.00991067751733847
-5.143560606060571e-07,0.006785346088849456,0.01735207180635537
-5.043560606060555e-07,0.004113390619421824,0.01735207180635199
-4.943560606060607e-07,0.00611735722149232,0.00991067751733847
-4.843560606060591e-07,0.005115373920456617,0.02851416323988071
-4.743560606060575e-07,0.005449368354135184,0.00991067751733847
-4.643560606060559e-07,0.004447385053099633,0.03223486038437732
-4.543560606060611e-07,0.004781379486778049,0.006189980372830022
-4.443560606060595e-07,0.006785346088849456,0.01363137466184692
-4.343560606060579e-07,0.004781379486778049,0.03967625467340606
-4.243560606060563e-07,0.003445401752064841,0.01735207180635706
-4.143560606060615e-07,0.005783362787812689,0.02107276895086212
-4.043560606060599e-07,0.002777412884706641,0.02107276895086382
-3.943560606060583e-07,0.006451351655170888,-0.008692808205203774
-3.843560606060567e-07,0.004113390619420913,0.03595555752889761
-3.743560606060618e-07,0.005115373920456161,0.009910677517350315
-3.643560606060602e-07,0.007453334956206592,0.03595555752889761
-3.543560606060586e-07,0.00611735722149232,0.02107276895086382
-3.44356060606057e-07,0.006451351655170888,0.00991067751733847
-3.343560606060554e-07,0.00745333495620568,0.03595555752888577
-3.243560606060606e-07,0.005449368354135184,0.00991067751733847
-3.14356060606059e-07,0.007119340522528024,0.02479346609537227
-3.043560606060574e-07,0.005115373920456617,0.03223486038438916
-2.943560606060558e-07,0.006117357221492776,0.002469283228338492
-2.84356060606061e-07,0.007119340522528024,0.03967625467340606
-2.743560606060594e-07,0.004781379486778049,0.006189980372830022
-2.643560606060578e-07,0.00778732938988516,0.03223486038438916
-2.543560606060562e-07,0.004447385053100848,0.0322348603843807
-2.443560606060614e-07,0.007453334956205225,0.01363137466185538
-2.343560606060598e-07,0.007119340522528024,0.03223486038438916
-2.243560606060582e-07,0.006451351655170888,0.01735207180635537
-2.143560606060566e-07,0.007453334956206592,0.02479346609537227
-2.043560606060618e-07,0.00511537392045768,0.03595555752889254
-1.943560606060602e-07,0.006785346088849456,-0.001251413916186876
-1.843560606060586e-07,0.006451351655170888,0.04711764896242296
-1.74356060606057e-07,0.00611735722149232,0.01363137466184692
-1.643560606060622e-07,0.007453334956205985,0.04339695181790097
-1.543560606060606e-07,0.004447385053099481,0.03595555752889761
-1.44356060606059e-07,0.005783362787813752,0.03223486038438916
-1.343560606060574e-07,0.008121323823563727,0.03595555752889761
-1.243560606060558e-07,0.005115373920457224,0.01735207180636383
-1.143560606060609e-07,0.006451351655170888,0.03595555752889761
-1.043560606060593e-07,0.004447385053099481,0.02479346609537227
-9.435606060605775e-08,0.005449368354135184,-0.001251413916186876
-8.435606060605615e-08,0.006451351655170281,0.03595555752888746
-7.435606060606133e-08,0.005115373920457224,0.01363137466185707
-6.435606060605973e-08,0.005449368354135184,0.03595555752889761
-5.435606060605813e-08,0.003445401752063777,0.01363137466184692
-4.435606060605653e-08,0.004781379486777442,0.01363137466185707
-3.435606060606171e-08,0.003445401752064385,0.03595555752888746
-2.435606060606011e-08,0.004781379486778049,-0.001251413916186876
-1.435606060605851e-08,0.005449368354135184,0.02479346609537227
-4.356060606056913e-09,-0.007242420125650395,0.7131224378294354
5.643939393937909e-09,0.00812132382355674,3.659914576278786
1.564393939393951e-08,-0.0005625314520790374,3.101810004603859
2.564393939394111e-08,0.01546920136449222,3.287844861829282
3.56439393939427e-08,0.01112727372667084,3.325051833274367
4.56439393939443e-08,0.01045928485931051,3.284124164684809
5.564393939393912e-08,0.003445401752063777,3.362258804719451
6.564393939394072e-08,0.006451351655170888,3.347376016141417
7.564393939394232e-08,0.002777412884706641,3.36597950186396
8.564393939394392e-08,-0.001230520319436325,3.369700199008464
9.564393939393874e-08,-0.001564514753114589,3.362258804719455
1.056439393939403e-07,0.005783362787813752,3.31761043898535
1.156439393939419e-07,0.005449368354135184,3.351096713285926
1.256439393939435e-07,0.00411339061942228,3.302727650407335
1.356439393939384e-07,0.007119340522526657,3.34365531899689
1.4564393939394e-07,0.007453334956206592,3.343655318996909
1.556439393939416e-07,0.007453334956206592,3.351096713285926
1.656439393939432e-07,0.007453334956206592,3.362258804719451
1.75643939393938e-07,0.006117357221492929,3.343655318996917
1.856439393939396e-07,0.006451351655170888,3.380862290441993
1.956439393939412e-07,0.004113390619420913,3.373420896152977
2.056439393939428e-07,0.004447385053099481,3.3399346218524
2.156439393939444e-07,0.005783362787813904,3.369700199008443
2.256439393939392e-07,0.00611735722149232,3.313889741840841
2.356439393939408e-07,0.007119340522528024,3.347376016141417
2.456439393939424e-07,0.007119340522528024,3.347376016141417
2.55643939393944e-07,0.00979129599195596,3.351096713285934
2.656439393939388e-07,0.008455318257242902,3.369700199008459
2.756439393939404e-07,0.007119340522528024,3.347376016141417
2.85643939393942e-07,0.006785346088849456,3.373420896152977
2.956439393939436e-07,0.004113390619421216,3.362258804719451
3.056439393939384e-07,0.004781379486777745,3.362258804719451
3.1564393939394e-07,0.005783362787813752,3.384582987586502
3.256439393939416e-07,0.003779396185742345,3.332493227563384
3.356439393939432e-07,0.005783362787813752,3.354817410430434
3.45643939393938e-07,0.004781379486778504,3.347376016141421
3.556439393939396e-07,0.007453334956206592,3.332493227563384
3.656439393939412e-07,0.008455318257242295,3.354817410430434
3.756439393939428e-07,0.008455318257242295,3.347376016141417
3.856439393939444e-07,0.009123307124597609,3.36970019900848
3.956439393939393e-07,0.005115373920456617,3.395745079020027
4.056439393939409e-07,0.00778732938988516,3.351096713285926
4.156439393939425e-07,0.00611735722149232,3.384582987586502
4.256439393939441e-07,0.006117357221492472,3.354817410430448
4.356439393939389e-07,0.006451351655170736,3.384582987586489
4.456439393939405e-07,0.005115373920456617,3.347376016141417
4.556439393939421e-07,0.008121323823563727,3.351096713285926
4.656439393939437e-07,0.007453334956206288,3.380862290441978
4.756439393939385e-07,0.006785346088849759,3.347376016141432
4.856439393939401e-07,0.008121323823563727,3.377141593297485
4.956439393939417e-07,0.004113390619420913,3.377141593297485
5.056439393939433e-07,0.00778732938988516,3.36597950186396
5.156439393939381e-07,0.007453334956206744,3.373420896152973
5.256439393939397e-07,0.005783362787813752,3.36597950186396
5.356439393939413e-07,0.006785346088849456,3.373420896152977
5.456439393939429e-07,0.007119340522528024,3.369700199008468
5.556439393939445e-07,0.009123307124599129,3.347376016141431
5.656439393939393e-07,0.008455318257242295,3.377141593297485
5.756439393939409e-07,0.007119340522528024,3.351096713285926
5.856439393939425e-07,0.009457301558278,3.380862290441993
5.956439393939441e-07,0.008455318257242448,3.380862290441988
6.056439393939389e-07,0.008789312690920863,3.369700199008468
6.156439393939405e-07,0.00778732938988516,3.380862290441993
6.256439393939421e-07,0.007453334956206592,3.362258804719451
6.356439393939437e-07,0.008121323823562817,3.388303684730993
6.456439393939386e-07,0.006117357221493232,3.351096713285942
6.556439393939402e-07,0.008455318257242295,3.362258804719451
6.656439393939418e-07,0.009457301558278,3.399465776164535
6.756439393939434e-07,0.007453334956206592,3.351096713285926
6.856439393939382e-07,0.006785346088849759,3.38086229044198
6.956439393939398e-07,0.00611735722149232,3.384582987586502
7.056439393939414e-07,0.007453334956206592,3.369700199008468
7.15643939393943e-07,0.008121323823563727,3.395745079020027
7.256439393939446e-07,0.005783362787814967,3.358538107574956
7.356439393939394e-07,0.008455318257242295,3.38830368473101
7.45643939393941e-07,0.004781379486778049,3.38830368473101
7.556439393939426e-07,0.007453334956206592,3.362258804719451
7.656439393939442e-07,0.006117357221492017,3.392024381875502
7.75643939393939e-07,0.005449368354135184,3.354817410430434
7.856439393939406e-07,0.006451351655170888,3.380862290441993
7.956439393939422e-07,0.006451351655170888,3.384582987586502
8.056439393939438e-07,0.008121323823563424,3.354817410430451
8.156439393939386e-07,0.007453334956206896,3.392024381875502
8.256439393939402e-07,0.007119340522528024,3.354817410430434
8.356439393939418e-07,0.008455318257242295,3.384582987586502
8.456439393939434e-07,0.00611735722149232,3.373420896152977
8.556439393939382e-07,0.009791295991954897,3.362258804719456
8.656439393939398e-07,0.006451351655170888,3.38830368473101
8.756439393939414e-07,0.009791295991956567,3.354817410430434
8.85643939393943e-07,0.009791295991956567,3.384582987586502
8.956439393939379e-07,0.008789312690921319,3.388303684731008
9.056439393939395e-07,0.009791295991956567,3.369700199008468
9.156439393939411e-07,0.009123307124599432,3.384582987586502
9.256439393939427e-07,0.008455318257242295,3.373420896152977
9.356439393939443e-07,0.009123307124598672,3.392024381875515
9.456439393939391e-07,0.007453334956206592,3.384582987586502
9.556439393939407e-07,0.009457301558278,3.36597950186396
9.656439393939423e-07,0.008455318257242295,3.403186473309044
9.756439393939439e-07,0.008121323823564335,3.358538107574959
9.856439393939387e-07,0.009457301558277393,3.39574507902001
9.956439393939403e-07,0.00778732938988516,3.377141593297485
1.005643939393942e-06,0.009123307124599432,3.36597950186396
1.015643939393943e-06,0.008455318257241839,3.403186473309035
1.025643939393938e-06,0.007453334956207047,3.38458298758651
1.03564393939394e-06,0.008789312690920863,3.395745079020027
1.045643939393942e-06,0.008789312690920863,3.392024381875518
1.055643939393943e-06,0.008789312690920863,3.384582987586502
1.065643939393938e-06,0.009457301558277696,3.392024381875515
1.07564393939394e-06,0.007119340522528024,3.38830368473101
1.085643939393941e-06,0.008121323823563727,3.392024381875518
1.095643939393943e-06,0.005783362787813752,3.392024381875518
1.105643939393944e-06,0.009457301558277847,3.37342089615299
1.115643939393939e-06,0.009123307124599432,3.403186473309044
1.125643939393941e-06,0.006785346088849456,3.369700199008468
1.135643939393942e-06,0.008455318257242295,3.41434856474257
1.145643939393944e-06,0.007453334956208111,3.380862290441983
1.155643939393939e-06,0.01079327929299075,3.358538107574953
1.16564393939394e-06,0.008121323823563727,3.392024381875518
1.175643939393942e-06,0.008789312690920863,3.369700199008468
1.185643939393944e-06,0.01045928485931294,3.392024381875508
1.195643939393938e-06,0.008789312690921623,3.369700199008478
1.20564393939394e-06,0.0104592848593137,3.377141593297485
1.215643939393942e-06,0.01146126816034941,3.392024381875518
1.225643939393943e-06,0.01012529042563514,3.36597950186396
1.235643939393938e-06,0.01079327929299197,3.403186473309027
1.24564393939394e-06,0.008121323823563727,3.392024381875518
1.255643939393941e-06,0.0104592848593137,3.362258804719451
1.265643939393943e-06,0.008455318257242295,3.410627867598061
1.275643939393944e-06,0.007787329389885767,3.373420896152981
1.285643939393939e-06,0.009123307124599432,3.384582987586502
1.295643939393941e-06,0.007453334956206592,3.377141593297485
1.305643939393942e-06,0.008789312690920863,3.369700199008468
1.315643939393944e-06,0.01012529042563392,3.384582987586489
1.325643939393939e-06,0.007453334956207807,3.354817410430448
1.33564393939394e-06,0.009457301558278,3.395745079020027
1.345643939393942e-06,0.006451351655170888,3.395745079020027
1.355643939393944e-06,0.008455318257241991,3.354817410430458
1.365643939393938e-06,0.007787329389885463,3.406907170453529
1.37564393939394e-06,0.006785346088849456,3.384582987586502
1.385643939393942e-06,0.007453334956206592,3.38830368473101
1.395643939393943e-06,0.003779396185742345,3.373420896152977
1.405643939393938e-06,0.006117357221491257,3.36970019900847
1.41564393939394e-06,0.006451351655170888,3.392024381875518
1.425643939393941e-06,0.00778732938988516,3.358538107574943
1.435643939393943e-06,0.00611735722149232,3.38830368473101
1.445643939393944e-06,0.007453334956206137,3.377141593297476
1.455643939393939e-06,0.006451351655170888,3.358538107574943
1.465643939393941e-06,0.009123307124599432,3.384582987586502
1.475643939393942e-06,0.007453334956206592,3.354817410430434
1.485643939393944e-06,0.006117357221492928,3.38086229044199
1.495643939393939e-06,0.007453334956205985,3.37342089615298
1.50564393939394e-06,0.009791295991956567,3.36597950186396
1.515643939393942e-06,0.008789312690920863,3.399465776164535
1.525643939393944e-06,0.007453334956207352,3.347376016141434
1.535643939393939e-06,0.009123307124598672,3.384582987586485
1.54564393939394e-06,0.007119340522528024,3.380862290441993
1.555643939393942e-06,0.009123307124599432,3.354817410430434
1.565643939393943e-06,0.008455318257242295,3.38830368473101
1.575643939393938e-06,0.007453334956207047,3.373420896152983
1.58564393939394e-06,0.008455318257242295,3.38830368473101
1.595643939393941e-06,0.005783362787813752,3.384582987586502
1.605643939393943e-06,0.00778732938988516,3.384582987586502
1.615643939393945e-06,0.006451351655171648,3.384582987586493
1.625643939393939e-06,0.008121323823563727,3.36597950186396
1.635643939393941e-06,0.007453334956206592,3.384582987586502
1.645643939393943e-06,0.006785346088849456,3.369700199008468
1.655643939393944e-06,0.008789312690921015,3.377141593297493
1.665643939393939e-06,0.009123307124599432,3.395745079020027
1.675643939393941e-06,0.008789312690920863,3.354817410430434
1.685643939393942e-06,0.008455318257242295,3.406907170453553
1.695643939393944e-06,0.008455318257242448,3.369700199008463
1.705643939393939e-06,0.00878931269092071,3.358538107574947
1.71564393939394e-06,0.01012529042563514,3.403186473309044
1.725643939393942e-06,0.008455318257242295,3.36597950186396
1.735643939393943e-06,0.01079327929299227,3.406907170453553
1.745643939393938e-06,0.009791295991957024,3.377141593297498
1.75564393939394e-06,0.01012529042563514,3.377141593297485
1.765643939393941e-06,0.01012529042563514,3.38830368473101
1.775643939393943e-06,0.00778732938988516,3.362258804719451
1.785643939393938e-06,0.009791295991955657,3.392024381875505
1.795643939393939e-06,0.00778732938988516,3.377141593297485
1.805643939393941e-06,0.009791295991956567,3.36597950186396
1.815643939393943e-06,0.008455318257242295,3.399465776164535
1.825643939393944e-06,0.008455318257242902,3.37342089615299
1.835643939393939e-06,0.009791295991956567,3.403186473309044
1.845643939393941e-06,0.009457301558278,3.377141593297485
1.855643939393942e-06,0.009123307124599432,3.373420896152977
1.865643939393944e-06,0.008121323823564335,3.399465776164525
1.875643939393939e-06,0.009457301558277393,3.377141593297495
1.88564393939394e-06,0.0104592848593137,3.384582987586502
1.895643939393942e-06,0.009123307124599432,3.384582987586502
1.905643939393943e-06,0.01012529042563514,3.369700199008468
1.915643939393938e-06,0.00979129599195672,3.403186473309029
1.92564393939394e-06,0.009791295991956567,3.358538107574943
1.935643939393941e-06,0.01112727372667084,3.392024381875518
1.945643939393943e-06,0.00778732938988516,3.380862290441993
1.955643939393938e-06,0.0107932792929909,3.369700199008473
1.965643939393939e-06,0.009123307124599432,3.384582987586502
1.975643939393941e-06,0.008455318257242295,3.373420896152977
1.985643939393943e-06,0.009457301558278,3.399465776164535
1.995643939393944e-06,0.006785346088850519,3.36970019900847
2.005643939393939e-06,0.009123307124599432,3.373420896152977
2.015643939393941e-06,0.008455318257242295,3.395745079020027
2.025643939393942e-06,0.007119340522528024,3.369700199008468
2.035643939393944e-06,0.009123307124597912,3.392024381875514
2.045643939393939e-06,0.005783362787815271,3.380862290441998
2.05564393939394e-06,0.009123307124599432,3.369700199008468
2.065643939393942e-06,0.007453334956206592,3.403186473309044
2.075643939393944e-06,0.007119340522528936,3.362258804719468
2.085643939393938e-06,0.009123307124598521,3.399465776164519
2.09564393939394e-06,0.005115373920456617,3.384582987586502
2.105643939393942e-06,0.009123307124599432,3.369700199008468
2.115643939393943e-06,0.007453334956206592,3.406907170453553
2.125643939393938e-06,0.008121323823563424,3.354817410430458
2.13564393939394e-06,0.008455318257242295,3.392024381875518
2.145643939393941e-06,0.00611735722149232,3.38830368473101
2.155643939393943e-06,0.008121323823563727,3.373420896152977
2.165643939393944e-06,0.008121323823562817,3.392024381875514
2.175643939393939e-06,0.00611735722149232,3.380862290441993
2.185643939393941e-06,0.006785346088849456,3.395745079020027
2.195643939393942e-06,0.005115373920456617,3.36597950186396
2.205643939393944e-06,0.008121323823563271,3.37342089615299
