traces_bank_current_trigger/sampling_freq_100MHz/ADD/ADD_9.csv

#Digilent WaveForms Oscilloscope Acquisition
#Device Name: Discovery2
#Serial Number: SN:210321B3D813
#Date Time: 2023-06-12 14:32:54.560
#Sample rate: 1e+08Hz
#Samples: 8192
#Trigger: Source: Channel 2 Type: Edge Condition: Rising Level: 2 V Hyst.: Auto HoldOff: 0 s
#Channel 1: Range: 5 mV/div Offset: 0 V Attenuation: 1 X Sample Mode: Average
#Channel 2: Range: 2 V/div Offset: 0 V Attenuation: 1 X Sample Mode: Average

Time (s),Channel 1 (V),Channel 2 (V)
-9.508812260536383e-07,0.006451351655170888,0.01735207180635537
-9.408812260536367e-07,0.007119340522528024,-0.01613420249422067
-9.308812260536351e-07,0.008121323823562664,0.01363137466184015
-9.208812260536403e-07,0.005783362787814815,-0.001251413916180109
-9.108812260536387e-07,0.006785346088849456,-0.008692808205203774
-9.008812260536371e-07,0.00778732938988516,0.02479346609537227
-8.908812260536355e-07,0.006785346088849456,-0.01985489963872912
-8.808812260536407e-07,0.00812132382356312,0.01735207180633845
-8.708812260536391e-07,0.007453334956206592,-0.004972111060695325
-8.608812260536375e-07,0.007119340522528024,-0.004972111060695325
-8.508812260536359e-07,0.005783362787813752,0.01363137466184692
-8.408812260536343e-07,0.005783362787814664,-0.02729629392772064
-8.308812260536395e-07,0.00778732938988516,0.02851416323988071
-8.208812260536379e-07,0.005783362787813752,0.006189980372830022
-8.108812260536363e-07,0.007453334956206592,-0.004972111060695325
-8.008812260536347e-07,0.006117357221492776,0.02851416323985703
-7.908812260536398e-07,0.007119340522527569,-0.02357559678321388
-7.808812260536382e-07,0.007453334956206592,0.01735207180635537
-7.708812260536366e-07,0.007119340522528024,0.006189980372830022
-7.60881226053635e-07,0.006785346088848696,-0.004972111060685173
-7.508812260536402e-07,0.005115373920457376,0.01735207180634522
-7.408812260536386e-07,0.00611735722149232,-0.03473768821676292
-7.30881226053637e-07,0.007453334956206592,0.01735207180635537
-7.208812260536354e-07,0.00611735722149232,-0.001251413916186876
-7.108812260536406e-07,0.006451351655170736,0.002469283228319881
-7.00881226053639e-07,0.005783362787813752,-0.004972111060695325
-6.908812260536374e-07,0.006785346088849456,-0.03845838536127136
-6.808812260536358e-07,0.00778732938988516,0.002469283228321573
-6.708812260536342e-07,0.00745333495620644,0.002469283228316497
-6.608812260536394e-07,0.007119340522528024,-0.008692808205203774
-6.508812260536378e-07,0.006785346088849456,0.01363137466184692
-6.408812260536362e-07,0.007453334956206592,-0.01985489963872912
-6.308812260536346e-07,0.009457301558276936,0.009910677517328319
-6.208812260536398e-07,0.007119340522529088,-0.01241350534970207
-6.108812260536382e-07,0.007453334956206592,0.002469283228321573
-6.008812260536366e-07,0.006785346088849456,0.02107276895086382
-5.90881226053635e-07,0.007119340522529088,-0.02729629392773079
-5.808812260536402e-07,0.009457301558276936,0.006189980372814791
-5.708812260536386e-07,0.007119340522528024,-0.004972111060695325
-5.60881226053637e-07,0.006451351655170888,-0.01241350534971222
-5.508812260536354e-07,0.007119340522528024,0.03595555752889761
-5.408812260536405e-07,0.007787329389884856,-0.02729629392771726
-5.308812260536389e-07,0.009123307124599432,0.02107276895086382
-5.208812260536373e-07,0.006785346088849456,-0.01985489963872912
-5.108812260536357e-07,0.009123307124599432,-0.001251413916186876
-5.008812260536341e-07,0.007453334956207047,-0.004972111060695325
-4.908812260536393e-07,0.008455318257242295,-0.004972111060695325
-4.808812260536377e-07,0.009123307124599432,0.01363137466184692
-4.708812260536361e-07,0.00778732938988516,0.01735207180635537
-4.608812260536345e-07,0.006451351655170736,-0.01241350534969869
-4.508812260536397e-07,0.00611735722149232,0.01735207180635537
-4.408812260536381e-07,0.007453334956206592,-0.01241350534971222
-4.308812260536365e-07,0.007453334956206592,0.00991067751733847
-4.208812260536349e-07,0.006451351655170433,0.009910677517340162
-4.108812260536401e-07,0.00544936835413564,0.01363137466184523
-4.008812260536385e-07,0.007453334956206592,0.02851416323988071
-3.908812260536369e-07,0.006785346088849456,-0.008692808205203774
-3.808812260536353e-07,0.00778732938988516,0.02107276895086382
-3.708812260536405e-07,0.008121323823563575,0.009910677517343546
-3.608812260536389e-07,0.00778732938988516,0.006189980372830022
-3.508812260536373e-07,0.008121323823563727,0.03595555752889761
-3.408812260536357e-07,0.008455318257242295,-0.01241350534971222
-3.308812260536341e-07,0.008121323823563424,0.03967625467339252
-3.208812260536393e-07,0.007453334956206592,0.00991067751733847
-3.108812260536377e-07,0.00611735722149232,0.01735207180635537
-3.008812260536361e-07,0.008455318257242295,0.03595555752889761
-2.908812260536345e-07,0.008789312690920559,0.0024692832283368
-2.808812260536396e-07,0.008121323823563727,0.03595555752889761
-2.70881226053638e-07,0.007119340522528024,0.02479346609537227
-2.608812260536364e-07,0.008121323823563727,0.02107276895086382
-2.508812260536348e-07,0.006785346088849911,0.05083834610690772
-2.4088122605364e-07,0.007787329389884704,-0.001251413916163187
-2.308812260536384e-07,0.009457301558278,0.03595555752889761
-2.208812260536368e-07,0.008789312690920863,0.01735207180635537
-2.108812260536352e-07,0.009123307124599432,0.006189980372830022
-2.008812260536404e-07,0.006785346088850519,0.03967625467339083
-1.908812260536388e-07,0.009123307124599432,-0.01613420249422067
-1.808812260536372e-07,0.009123307124599432,0.03223486038438916
-1.708812260536356e-07,0.008789312690920863,0.01735207180635537
-1.608812260536408e-07,0.009123307124599279,0.006189980372835097
-1.508812260536392e-07,0.008121323823563727,0.03967625467340606
-1.408812260536376e-07,0.00778732938988516,0.002469283228321573
-1.30881226053636e-07,0.009457301558278,0.04339695181791451
-1.208812260536344e-07,0.007119340522528328,0.02107276895085197
-1.108812260536396e-07,0.00778732938988516,-0.004972111060695325
-1.00881226053638e-07,0.008121323823563727,0.05083834610693141
-9.088122605363638e-08,0.008455318257242295,-0.008692808205203774
-8.088122605363478e-08,0.00878931269092071,0.03967625467339422
-7.088122605363996e-08,0.008455318257242448,0.01363137466185876
-6.088122605363836e-08,0.008789312690920863,0.00991067751733847
-5.088122605363676e-08,0.008455318257242295,0.05083834610693141
-4.088122605363516e-08,0.007787329389886071,-0.01613420249420037
-3.088122605364034e-08,0.009791295991955657,0.02851416323986041
-2.088122605363874e-08,0.00778732938988516,0.01735207180635537
-1.088122605363715e-08,0.007453334956206592,0.01363137466184692
-8.81226053635548e-10,-0.01258633106450748,1.825610884037461
9.118773946359274e-09,0.01780716240022837,3.767814793469989
1.911877394636087e-08,0.006451351655170888,3.001351181702132
2.911877394636247e-08,0.01346523476242081,3.354817410430434
3.911877394636407e-08,0.01079327929299227,3.299006953262807
4.911877394636567e-08,0.01580319579816654,3.328772530418914
5.911877394636049e-08,0.006451351655170888,3.41434856474257
6.911877394636209e-08,0.004447385053099481,3.313889741840841
7.911877394636369e-08,0.0007734462826352341,3.43667274760962
8.911877394636528e-08,0.004447385053098721,3.317610438985402
9.911877394636011e-08,0.002777412884707401,3.432952050465059
1.091187739463617e-07,0.005783362787813752,3.26924137610674
1.191187739463633e-07,0.005449368354135184,3.377141593297485
1.291187739463649e-07,0.006785346088850063,3.291565558973811
1.391187739463597e-07,0.00812132382356312,3.336213924707871
1.491187739463613e-07,0.008455318257242295,3.328772530418875
1.591187739463629e-07,0.006451351655170888,3.351096713285926
1.691187739463645e-07,0.009123307124599432,3.343655318996909
1.791187739463593e-07,0.005115373920458439,3.392024381875496
1.891187739463609e-07,0.004447385053099481,3.3399346218524
1.991187739463625e-07,0.003779396185742345,3.418069261887078
2.091187739463641e-07,0.004113390619420913,3.325051833274367
2.191187739463657e-07,0.006785346088849456,3.380862290441971
2.291187739463606e-07,0.006785346088849456,3.332493227563384
2.391187739463622e-07,0.006785346088849456,3.354817410430434
2.491187739463638e-07,0.00778732938988516,3.343655318996909
2.591187739463654e-07,0.009457301558277696,3.339934621852414
2.691187739463602e-07,0.008789312690921166,3.369700199008455
2.791187739463618e-07,0.005115373920456617,3.384582987586502
2.891187739463634e-07,0.004447385053099481,3.3399346218524
2.99118773946365e-07,0.004447385053099633,3.399465776164507
3.091187739463598e-07,0.004781379486777897,3.336213924707921
3.191187739463614e-07,0.004447385053099481,3.38830368473101
3.29118773946363e-07,0.004447385053099481,3.362258804719451
3.391187739463646e-07,0.004113390619420913,3.36597950186396
3.491187739463594e-07,0.006451351655169825,3.358538107574946
3.59118773946361e-07,0.00611735722149232,3.31761043898535
3.691187739463626e-07,0.008121323823563727,3.369700199008468
3.791187739463642e-07,0.006451351655170888,3.358538107574943
3.891187739463658e-07,0.007453334956206288,3.354817410430444
3.991187739463606e-07,0.006785346088849456,3.377141593297485
4.091187739463622e-07,0.003779396185742345,3.362258804719451
4.191187739463638e-07,0.00611735722149232,3.380862290441993
4.291187739463654e-07,0.005115373920457528,3.380862290441985
4.391187739463602e-07,0.007119340522527114,3.36225880471946
4.491187739463618e-07,0.004781379486778049,3.369700199008468
4.591187739463634e-07,0.006451351655170888,3.351096713285926
4.69118773946365e-07,0.006785346088849,3.369700199008461
4.791187739463599e-07,0.005783362787814207,3.354817410430441
4.891187739463615e-07,0.006451351655170888,3.351096713285926
4.991187739463631e-07,0.004447385053099481,3.377141593297485
5.091187739463647e-07,0.006785346088849456,3.358538107574943
5.191187739463595e-07,0.00812132382356312,3.38458298758649
5.291187739463611e-07,0.005115373920456617,3.373420896152977
5.391187739463627e-07,0.005783362787813752,3.358538107574943
5.491187739463643e-07,0.005449368354135184,3.38830368473101
5.591187739463659e-07,0.007119340522528936,3.362258804719458
5.691187739463607e-07,0.009123307124599432,3.377141593297485
5.791187739463623e-07,0.008455318257242295,3.373420896152977
5.891187739463639e-07,0.007119340522528024,3.347376016141417
5.991187739463655e-07,0.006785346088850519,3.388303684730995
6.091187739463603e-07,0.009123307124599432,3.354817410430434
6.191187739463619e-07,0.006785346088849456,3.395745079020027
6.291187739463635e-07,0.008455318257242295,3.369700199008468
6.391187739463651e-07,0.007453334956205985,3.362258804719472
6.491187739463599e-07,0.006117357221492929,3.406907170453532
6.591187739463615e-07,0.006451351655170888,3.354817410430434
6.691187739463631e-07,0.008789312690920863,3.377141593297485
6.791187739463647e-07,0.007119340522528024,3.373420896152977
6.891187739463595e-07,0.007787329389884856,3.362258804719456
6.991187739463611e-07,0.006785346088849456,3.410627867598061
7.091187739463627e-07,0.008121323823563727,3.351096713285926
7.191187739463643e-07,0.008455318257242295,3.380862290441993
7.291187739463659e-07,0.005449368354135488,3.384582987586493
7.391187739463608e-07,0.00611735722149232,3.36597950186396
7.491187739463624e-07,0.006451351655170888,3.403186473309044
7.59118773946364e-07,0.004781379486778049,3.351096713285926
7.691187739463656e-07,0.007453334956205529,3.380862290441995
7.791187739463604e-07,0.005115373920456617,3.384582987586502
7.89118773946362e-07,0.005783362787813752,3.362258804719451
7.991187739463636e-07,0.007119340522528024,3.395745079020027
8.091187739463652e-07,0.006785346088850063,3.358538107574958
8.1911877394636e-07,0.00812132382356312,3.392024381875503
8.291187739463616e-07,0.008121323823563727,3.377141593297485
8.391187739463632e-07,0.007453334956206592,3.369700199008468
8.491187739463648e-07,0.006451351655170888,3.384582987586502
8.591187739463596e-07,0.008789312690919799,3.365979501863968
8.691187739463612e-07,0.009457301558278,3.38830368473101
8.791187739463628e-07,0.008455318257242295,3.399465776164535
8.891187739463644e-07,0.00778732938988516,3.354817410430434
8.991187739463592e-07,0.00945730155827724,3.403186473309022
9.091187739463608e-07,0.00611735722149232,3.369700199008468
9.191187739463624e-07,0.009123307124599432,3.399465776164535
9.29118773946364e-07,0.007119340522528024,3.358538107574943
9.391187739463656e-07,0.006785346088849911,3.369700199008478
9.491187739463604e-07,0.00778732938988516,3.392024381875518
9.59118773946362e-07,0.006785346088849456,3.343655318996909
9.691187739463636e-07,0.009457301558278,3.384582987586502
9.791187739463652e-07,0.007787329389885463,3.365979501863963
9.891187739463601e-07,0.008455318257241991,3.373420896152973
9.991187739463617e-07,0.009123307124599432,3.403186473309044
1.009118773946363e-06,0.005115373920456617,3.354817410430434
1.019118773946365e-06,0.008121323823563271,3.388303684731007
1.02911877394636e-06,0.00711934052252848,3.380862290441997
1.039118773946361e-06,0.005783362787813752,3.358538107574943
1.049118773946363e-06,0.006451351655170888,3.38830368473101
1.059118773946364e-06,0.006785346088849456,3.358538107574943
1.069118773946359e-06,0.007119340522527873,3.39574507902001
1.079118773946361e-06,0.005783362787813752,3.369700199008468
1.089118773946362e-06,0.00611735722149232,3.347376016141417
1.099118773946364e-06,0.006451351655170888,3.399465776164535
1.109118773946366e-06,0.005449368354136551,3.354817410430458
1.119118773946361e-06,0.008455318257242295,3.406907170453553
1.129118773946362e-06,0.006785346088849456,3.377141593297485
1.139118773946364e-06,0.007453334956206592,3.377141593297485
1.149118773946365e-06,0.006451351655171344,3.406907170453529
1.15911877394636e-06,0.007453334956206137,3.354817410430458
1.169118773946362e-06,0.01012529042563514,3.384582987586502
1.179118773946363e-06,0.008121323823563727,3.38830368473101
1.189118773946365e-06,0.007119340522528328,3.377141593297504
1.19911877394636e-06,0.007787329389884856,3.418069261887059
1.209118773946361e-06,0.008789312690920863,3.373420896152977
1.219118773946363e-06,0.01012529042563514,3.38830368473101
1.229118773946365e-06,0.009123307124599432,3.392024381875518
1.239118773946359e-06,0.008789312690921015,3.365979501863972
1.249118773946361e-06,0.008789312690920863,3.41434856474257
1.259118773946363e-06,0.009457301558278,3.36597950186396
1.269118773946364e-06,0.008121323823563727,3.418069261887078
1.279118773946366e-06,0.007787329389885767,3.380862290441988
1.289118773946361e-06,0.009123307124599432,3.369700199008468
1.299118773946362e-06,0.008455318257242295,3.384582987586502
1.309118773946364e-06,0.007453334956206592,3.373420896152977
1.319118773946365e-06,0.01012529042563331,3.399465776164529
1.32911877394636e-06,0.006117357221494143,3.384582987586509
1.339118773946362e-06,0.006451351655170888,3.369700199008468
1.349118773946363e-06,0.006451351655170888,3.421789959031586
1.359118773946365e-06,0.006451351655171192,3.365979501863976
1.36911877394636e-06,0.007119340522527721,3.403186473309027
1.379118773946361e-06,0.005449368354135184,3.38830368473101
1.389118773946363e-06,0.006785346088849456,3.380862290441993
1.399118773946365e-06,0.006785346088849456,3.403186473309044
1.409118773946359e-06,0.00645135165517104,3.37342089615299
1.419118773946361e-06,0.006451351655170888,3.395745079020027
1.429118773946363e-06,0.007119340522528024,3.38830368473101
1.439118773946364e-06,0.007119340522528024,3.384582987586502
1.449118773946366e-06,0.006451351655171648,3.399465776164522
1.459118773946361e-06,0.008121323823563727,3.369700199008468
1.469118773946362e-06,0.008121323823563727,3.429231353320603
1.479118773946364e-06,0.006785346088849456,3.395745079020027
1.489118773946365e-06,0.006451351655171648,3.388303684731022
1.49911877394636e-06,0.008121323823562968,3.414348564742558
1.509118773946362e-06,0.007453334956206592,3.377141593297485
1.519118773946363e-06,0.008455318257242295,3.399465776164535
1.529118773946365e-06,0.006451351655171952,3.388303684731008
1.53911877394636e-06,0.008789312690919799,3.384582987586504
1.549118773946361e-06,0.00611735722149232,3.406907170453553
1.559118773946363e-06,0.008455318257242295,3.377141593297485
1.569118773946365e-06,0.009123307124599432,3.403186473309044
1.579118773946359e-06,0.007787329389885767,3.392024381875523
1.589118773946361e-06,0.00611735722149232,3.369700199008468
1.599118773946363e-06,0.005449368354135184,3.418069261887078
1.609118773946364e-06,0.006785346088849456,3.373420896152977
1.619118773946366e-06,0.007787329389884856,3.399465776164535
1.629118773946361e-06,0.007119340522528024,3.399465776164535
1.639118773946362e-06,0.005449368354135184,3.384582987586502
1.649118773946364e-06,0.007453334956206592,3.418069261887078
1.659118773946365e-06,0.005783362787814815,3.388303684731027
1.66911877394636e-06,0.008121323823563727,3.425510656176095
1.679118773946362e-06,0.005783362787813752,3.38830368473101
1.689118773946364e-06,0.005115373920456617,3.377141593297485
1.699118773946365e-06,0.00645135165517104,3.414348564742549
1.70911877394636e-06,0.006785346088849304,3.369700199008488
1.719118773946362e-06,0.007453334956206592,3.395745079020027
1.729118773946363e-06,0.006451351655170888,3.384582987586502
1.739118773946365e-06,0.007119340522528024,3.392024381875518
1.74911877394636e-06,0.006117357221492776,3.414348564742559
1.759118773946361e-06,0.006785346088849456,3.362258804719451
1.769118773946363e-06,0.007119340522528024,3.380862290441993
1.779118773946364e-06,0.00611735722149232,3.399465776164535
1.789118773946359e-06,0.007119340522527569,3.373420896152989
1.799118773946361e-06,0.005783362787813752,3.38830368473101
1.809118773946362e-06,0.00611735722149232,3.36597950186396
1.819118773946364e-06,0.008789312690920863,3.392024381875518
1.829118773946366e-06,0.004447385053101,3.39574507902001
1.83911877394636e-06,0.00778732938988516,3.358538107574943
1.849118773946362e-06,0.005783362787813752,3.395745079020027
1.859118773946364e-06,0.00611735722149232,3.36597950186396
1.869118773946365e-06,0.006785346088849456,3.384582987586505
1.87911877394636e-06,0.006785346088849456,3.392024381875515
1.889118773946362e-06,0.006451351655170888,3.369700199008468
1.899118773946363e-06,0.00611735722149232,3.403186473309044
1.909118773946365e-06,0.006785346088849456,3.354817410430434
1.91911877394636e-06,0.007787329389884704,3.388303684730995
1.929118773946361e-06,0.006451351655170888,3.373420896152977
1.939118773946363e-06,0.006785346088849456,3.377141593297485
1.949118773946364e-06,0.00778732938988516,3.392024381875518
1.959118773946359e-06,0.006117357221493079,3.362258804719465
1.969118773946361e-06,0.007453334956206592,3.380862290441993
1.979118773946362e-06,0.006451351655170888,3.392024381875518
1.989118773946364e-06,0.007453334956206592,3.369700199008468
1.999118773946366e-06,0.00611735722149308,3.3920243818755
2.00911877394636e-06,0.00778732938988516,3.351096713285926
2.019118773946362e-06,0.006451351655170888,3.395745079020027
2.029118773946364e-06,0.006785346088849456,3.369700199008468
2.039118773946365e-06,0.006117357221492169,3.362258804719473
2.04911877394636e-06,0.005783362787813904,3.410627867598039
2.059118773946362e-06,0.007453334956206592,3.369700199008468
2.069118773946363e-06,0.008789312690920863,3.395745079020027
2.079118773946365e-06,0.006785346088850367,3.392024381875505
2.08911877394636e-06,0.008789312690919952,3.362258804719465
2.099118773946361e-06,0.007119340522528024,3.399465776164535
2.109118773946363e-06,0.008789312690920863,3.362258804719451
2.119118773946364e-06,0.008789312690920863,3.373420896152977
2.129118773946359e-06,0.009123307124599279,3.373420896152977
2.139118773946361e-06,0.008121323823563727,3.351096713285926
2.149118773946363e-06,0.007453334956206592,3.399465776164535
2.159118773946364e-06,0.009123307124599432,3.354817410430434
2.169118773946366e-06,0.009123307124599279,3.392024381875512
2.179118773946361e-06,0.008789312690920863,3.377141593297485
2.189118773946362e-06,0.008455318257242295,3.358538107574943
2.199118773946364e-06,0.008121323823563727,3.38830368473101
