traces_bank_current_trigger/sampling_freq_100MHz/ADD/ADD_2.csv

#Digilent WaveForms Oscilloscope Acquisition
#Device Name: Discovery2
#Serial Number: SN:210321B3D813
#Date Time: 2023-06-12 13:57:30.247
#Sample rate: 1e+08Hz
#Samples: 8192
#Trigger: Source: Channel 2 Type: Edge Condition: Rising Level: 2 V Hyst.: Auto HoldOff: 0 s
#Channel 1: Range: 5 mV/div Offset: 0 V Attenuation: 1 X Sample Mode: Average
#Channel 2: Range: 2 V/div Offset: 0 V Attenuation: 1 X Sample Mode: Average

Time (s),Channel 1 (V),Channel 2 (V)
-9.552540415704339e-07,0.008121323823563727,-0.008692808205203774
-9.452540415704323e-07,0.008121323823563727,0.03967625467340606
-9.352540415704307e-07,0.007787329389885008,0.0508383461069111
-9.252540415704359e-07,0.007453334956206744,0.006189980372850325
-9.152540415704343e-07,0.007453334956206592,0.05083834610693141
-9.052540415704327e-07,0.006451351655170888,0.00991067751733847
-8.952540415704311e-07,0.008789312690920863,0.03967625467340606
-8.852540415704363e-07,0.008455318257242448,0.02851416323988579
-8.752540415704347e-07,0.008121323823563727,-0.01613420249422067
-8.652540415704331e-07,0.008789312690920863,0.05083834610693141
-8.552540415704315e-07,0.008121323823563727,-0.008692808205203774
-8.452540415704299e-07,0.009457301558278152,0.02107276895086889
-8.352540415704351e-07,0.009791295991956567,0.03223486038438916
-8.252540415704335e-07,0.007453334956206592,-0.02357559678323757
-8.152540415704319e-07,0.008789312690920863,0.03967625467340606
-8.052540415704303e-07,0.00711934052252924,-0.01985489963870374
-7.952540415704355e-07,0.009791295991955353,0.03595555752887223
-7.852540415704339e-07,0.009123307124599432,0.01363137466184692
-7.752540415704323e-07,0.007453334956206592,-0.01613420249422067
-7.652540415704307e-07,0.009123307124598672,0.02851416323985872
-7.552540415704359e-07,0.007453334956207352,-0.01985489963870712
-7.452540415704343e-07,0.01112727372667084,0.002469283228321573
-7.352540415704327e-07,0.007453334956206592,0.01735207180635537
-7.252540415704311e-07,0.008455318257242295,-0.001251413916186876
-7.152540415704362e-07,0.01045928485931279,0.03967625467338745
-7.052540415704346e-07,0.00778732938988516,-0.004972111060695325
-6.95254041570433e-07,0.008789312690920863,0.01363137466184692
-6.852540415704314e-07,0.00778732938988516,0.03223486038438916
-6.752540415704298e-07,0.007787329389884553,-0.00125141391617334
-6.65254041570435e-07,0.006451351655170888,0.02851416323988071
-6.552540415704334e-07,0.006785346088849456,-0.01985489963872912
-6.452540415704318e-07,0.007119340522528024,0.02479346609537227
-6.352540415704302e-07,0.006785346088849759,0.03223486038436886
-6.252540415704354e-07,0.007453334956206288,-0.01241350534969192
-6.152540415704338e-07,0.006451351655170888,0.05083834610693141
-6.052540415704322e-07,0.00611735722149232,-0.03101699107225447
-5.952540415704306e-07,0.009123307124598521,-0.004972111060683481
-5.852540415704358e-07,0.007119340522528935,0.02107276895085197
-5.752540415704342e-07,0.00778732938988516,-0.01613420249422067
-5.652540415704326e-07,0.00778732938988516,0.04339695181791451
-5.55254041570431e-07,0.007119340522528024,-0.01241350534971222
-5.452540415704362e-07,0.008121323823563271,0.02479346609535535
-5.352540415704346e-07,0.006785346088849456,0.02107276895086382
-5.25254041570433e-07,0.006451351655170888,-0.01985489963872912
-5.152540415704314e-07,0.008121323823563727,0.03595555752889761
-5.052540415704298e-07,0.006451351655171648,-0.01241350534969869
-4.95254041570435e-07,0.008121323823563727,0.01735207180635537
-4.852540415704334e-07,0.006451351655170888,0.02851416323988071
-4.752540415704318e-07,0.007119340522528024,-0.01985489963872912
-4.652540415704302e-07,0.006785346088849911,0.03223486038436886
-4.552540415704353e-07,0.00778732938988516,-0.01241350534971222
-4.452540415704337e-07,0.00778732938988516,0.006189980372830022
-4.352540415704321e-07,0.00611735722149232,0.02107276895086382
-4.252540415704305e-07,0.007119340522528632,-0.0310169910722257
-4.152540415704357e-07,0.008455318257241688,0.0322348603843604
-4.052540415704341e-07,0.007453334956206592,-0.01985489963872912
-3.952540415704325e-07,0.007119340522528024,0.03223486038438916
-3.852540415704309e-07,0.007119340522528024,0.006189980372830022
-3.752540415704361e-07,0.00745333495620644,-0.008692808205197007
-3.652540415704345e-07,0.007453334956206592,0.03967625467340606
-3.552540415704329e-07,0.00778732938988516,-0.01613420249422067
-3.452540415704313e-07,0.009457301558278,0.02107276895086382
-3.352540415704297e-07,0.008455318257241688,0.03223486038437055
-3.252540415704349e-07,0.007119340522528024,-0.008692808205203774
-3.152540415704333e-07,0.008455318257242295,0.04339695181791451
-3.052540415704317e-07,0.006785346088849456,-0.008692808205203774
-2.952540415704301e-07,0.007787329389885463,0.01363137466185707
-2.852540415704353e-07,0.008455318257242295,0.03595555752889761
-2.752540415704337e-07,0.008121323823563727,-0.01241350534971222
-2.652540415704321e-07,0.009123307124599432,0.02479346609537227
-2.552540415704305e-07,0.008789312690921166,-0.008692808205193622
-2.452540415704357e-07,0.009457301558277696,0.01363137466183677
-2.352540415704341e-07,0.008121323823563727,0.01735207180635537
-2.252540415704325e-07,0.008455318257242295,-0.004972111060695325
-2.152540415704309e-07,0.008789312690920863,0.04339695181791451
-2.05254041570436e-07,0.006785346088850367,-0.004972111060673329
-1.952540415704344e-07,0.009457301558278,0.006189980372830022
-1.852540415704328e-07,0.006451351655170888,0.02479346609537227
-1.752540415704312e-07,0.007453334956206592,-0.004972111060695325
-1.652540415704364e-07,0.007453334956206592,0.02479346609535873
-1.552540415704348e-07,0.005449368354135184,0.00991067751733847
-1.452540415704332e-07,0.008121323823563727,0.02851416323988071
-1.352540415704316e-07,0.007119340522528024,0.02479346609537227
-1.2525404157043e-07,0.008121323823563271,-0.01613420249419529
-1.152540415704352e-07,0.007119340522528024,0.03967625467340606
-1.052540415704336e-07,0.006785346088849456,-0.01613420249422067
-9.525404157043201e-08,0.008455318257242295,0.01735207180635537
-8.525404157043041e-08,0.005783362787814967,0.01363137466184015
-7.525404157043559e-08,0.008455318257241079,-0.001251413916180109
-6.525404157043399e-08,0.008789312690920863,0.04711764896242296
-5.52540415704324e-08,0.006451351655170888,-0.008692808205203774
-4.52540415704308e-08,0.00745333495620644,0.009910677517348622
-3.525404157043598e-08,0.007119340522528176,0.03223486038437901
-2.525404157043438e-08,0.006451351655170888,-0.008692808205203774
-1.525404157043278e-08,0.007453334956206592,0.03595555752889761
-5.25404157043118e-09,0.00144143514999237,0.3038457519335059
4.745958429563642e-09,-0.00356848135518387,3.525969479076358
1.474595842956524e-08,0.01079327929299227,3.079485821736809
2.474595842956684e-08,0.009791295991956567,3.321331136129858
3.474595842956844e-08,0.01914314013495647,3.265520678962231
4.474595842957004e-08,0.007119340522529847,3.306448347551838
5.474595842956486e-08,0.01112727372667084,3.336213924707892
6.474595842956646e-08,0.004113390619420913,3.369700199008468
7.474595842956805e-08,0.006451351655170888,3.343655318996909
8.474595842956965e-08,-0.0005625314520775186,3.406907170453515
9.474595842956447e-08,0.002777412884705122,3.325051833274404
1.047459584295661e-07,0.001775429583670938,3.336213924707892
1.147459584295677e-07,0.006785346088849456,3.3399346218524
1.247459584295693e-07,0.007119340522529088,3.280403467540288
1.347459584295641e-07,0.009457301558276936,3.328772530418853
1.447459584295657e-07,0.005783362787813752,3.299006953262807
1.547459584295673e-07,0.01346523476242081,3.325051833274367
1.647459584295689e-07,0.008121323823563727,3.343655318996909
1.747459584295637e-07,0.00711934052252848,3.347376016141415
1.847459584295653e-07,0.005783362787813752,3.384582987586502
1.947459584295669e-07,0.005783362787813752,3.343655318996909
2.047459584295685e-07,0.005783362787813752,3.354817410430434
2.147459584295701e-07,0.006451351655170585,3.358538107574914
2.247459584295649e-07,0.005783362787813752,3.295286256118299
2.347459584295665e-07,0.009457301558278,3.377141593297485
2.447459584295681e-07,0.008455318257242295,3.313889741840841
2.547459584295697e-07,0.01045928485931279,3.347376016141417
2.647459584295645e-07,0.008455318257243206,3.347376016141417
2.747459584295661e-07,0.0104592848593137,3.328772530418875
2.847459584295677e-07,0.008789312690920863,3.377141593297485
2.947459584295693e-07,0.00778732938988516,3.343655318996926
3.047459584295642e-07,0.00778732938988516,3.380862290441976
3.147459584295658e-07,0.006451351655170888,3.373420896152977
3.247459584295674e-07,0.006451351655170888,3.328772530418875
3.34745958429569e-07,0.007453334956206592,3.406907170453553
3.447459584295638e-07,0.007119340522528176,3.343655318996938
3.547459584295654e-07,0.009123307124599432,3.358538107574943
3.64745958429567e-07,0.009791295991956567,3.373420896152977
3.747459584295686e-07,0.009791295991956567,3.332493227563384
3.847459584295702e-07,0.009123307124599888,3.395745079020004
3.94745958429565e-07,0.01012529042563514,3.343655318996909
4.047459584295666e-07,0.009457301558278,3.380862290441993
4.147459584295682e-07,0.008789312690920863,3.38830368473101
4.247459584295698e-07,0.008455318257242142,3.339934621852436
4.347459584295646e-07,0.00812132382356388,3.418069261887042
4.447459584295662e-07,0.007453334956206592,3.3399346218524
4.547459584295678e-07,0.01012529042563514,3.373420896152977
4.647459584295694e-07,0.008121323823564184,3.388303684730985
4.747459584295642e-07,0.009123307124598976,3.332493227563409
4.847459584295658e-07,0.008455318257242295,3.399465776164535
4.947459584295674e-07,0.00778732938988516,3.351096713285926
5.04745958429569e-07,0.009791295991956567,3.369700199008468
5.147459584295638e-07,0.009791295991956567,3.392024381875508
5.247459584295654e-07,0.007453334956206592,3.3399346218524
5.34745958429567e-07,0.008121323823563727,3.399465776164535
5.447459584295686e-07,0.005783362787813752,3.358538107574943
5.547459584295702e-07,0.00812132382356388,3.358538107574947
5.647459584295651e-07,0.008455318257242295,3.369700199008468
5.747459584295667e-07,0.007453334956206592,3.347376016141417
5.847459584295683e-07,0.008789312690920863,3.399465776164535
5.947459584295699e-07,0.009457301558278456,3.343655318996921
6.047459584295647e-07,0.0104592848593137,3.369700199008468
6.147459584295663e-07,0.009123307124599432,3.377141593297485
6.247459584295679e-07,0.009123307124599432,3.351096713285926
6.347459584295695e-07,0.009123307124599129,3.395745079020002
6.447459584295643e-07,0.008455318257242599,3.339934621852426
6.547459584295659e-07,0.009123307124599432,3.384582987586502
6.647459584295675e-07,0.008121323823563727,3.369700199008468
6.747459584295691e-07,0.00778732938988516,3.354817410430434
6.847459584295639e-07,0.008789312690920406,3.384582987586489
6.947459584295655e-07,0.007453334956206592,3.351096713285926
7.047459584295671e-07,0.009123307124599432,3.369700199008468
7.147459584295687e-07,0.006785346088849456,3.380862290441993
7.247459584295703e-07,0.006785346088850367,3.351096713285944
7.347459584295651e-07,0.008789312690920863,3.392024381875518
7.447459584295667e-07,0.00611735722149232,3.369700199008468
7.547459584295683e-07,0.009123307124599432,3.380862290441993
7.647459584295699e-07,0.006451351655170888,3.403186473309018
7.747459584295647e-07,0.006451351655170888,3.347376016141417
7.847459584295663e-07,0.006451351655170888,3.406907170453553
7.947459584295679e-07,0.005115373920456617,3.36597950186396
8.047459584295695e-07,0.009457301558276785,3.39202438187552
8.147459584295644e-07,0.006785346088850671,3.395745079020025
8.24745958429566e-07,0.006451351655170888,3.377141593297485
8.347459584295676e-07,0.007453334956206592,3.403186473309044
8.447459584295692e-07,0.00611735722149232,3.373420896152977
8.54745958429564e-07,0.008789312690919648,3.377141593297483
8.647459584295656e-07,0.006785346088849456,3.399465776164535
8.747459584295672e-07,0.007119340522528024,3.373420896152977
8.847459584295688e-07,0.009123307124599432,3.421789959031586
8.947459584295636e-07,0.008455318257242599,3.380862290442012
9.047459584295652e-07,0.008789312690920863,3.399465776164535
9.147459584295668e-07,0.009123307124599432,3.399465776164535
9.247459584295684e-07,0.007119340522528024,3.36597950186396
9.3474595842957e-07,0.009123307124598672,3.395745079020014
9.447459584295648e-07,0.007453334956206592,3.36597950186396
9.547459584295664e-07,0.006785346088849456,3.399465776164535
9.64745958429568e-07,0.008121323823563727,3.403186473309044
9.747459584295696e-07,0.008455318257242142,3.37342089615299
9.847459584295644e-07,0.00812132382356388,3.40318647330903
9.94745958429566e-07,0.007453334956206592,3.373420896152977
1.004745958429568e-06,0.009457301558278,3.406907170453553
1.014745958429569e-06,0.00711934052252848,3.403186473309023
1.024745958429564e-06,0.008121323823563271,3.358538107574963
1.034745958429566e-06,0.008121323823563727,3.432952050465111
1.044745958429567e-06,0.00611735722149232,3.36597950186396
1.054745958429569e-06,0.009123307124599432,3.403186473309044
1.064745958429564e-06,0.008121323823564184,3.395745079020031
1.074745958429565e-06,0.006785346088849456,3.384582987586502
1.084745958429567e-06,0.008121323823563727,3.425510656176095
1.094745958429568e-06,0.005783362787813752,3.395745079020027
1.10474595842957e-06,0.007787329389884248,3.421789959031578
1.114745958429565e-06,0.005783362787813752,3.403186473309044
1.124745958429566e-06,0.007453334956206592,3.369700199008468
1.134745958429568e-06,0.006785346088849456,3.43667274760962
1.14474595842957e-06,0.008121323823563575,3.362258804719472
1.154745958429564e-06,0.007787329389885311,3.406907170453532
1.164745958429566e-06,0.007453334956206592,3.399465776164535
1.174745958429568e-06,0.009791295991956567,3.36597950186396
1.184745958429569e-06,0.009123307124598976,3.425510656176071
1.194745958429564e-06,0.008121323823564184,3.373420896153
1.204745958429566e-06,0.01012529042563514,3.410627867598061
1.214745958429567e-06,0.008789312690920863,3.395745079020027
1.224745958429569e-06,0.009457301558278,3.377141593297485
1.234745958429564e-06,0.01045928485931325,3.436672747609593
1.244745958429565e-06,0.009123307124599432,3.373420896152977
1.254745958429567e-06,0.009123307124599432,3.395745079020027
1.264745958429569e-06,0.008121323823563727,3.418069261887078
1.27474595842957e-06,0.008455318257243055,3.354817410430463
1.284745958429565e-06,0.01012529042563514,3.418069261887078
1.294745958429567e-06,0.007453334956206592,3.369700199008468
1.304745958429568e-06,0.01012529042563514,3.403186473309044
1.31474595842957e-06,0.007787329389885463,3.414348564742546
1.324745958429565e-06,0.008455318257241991,3.362258804719475
1.334745958429566e-06,0.009457301558278,3.421789959031586
1.344745958429568e-06,0.008121323823563727,3.362258804719451
1.354745958429569e-06,0.009123307124598672,3.395745079020037
1.364745958429564e-06,0.007453334956207352,3.418069261887068
1.374745958429566e-06,0.00778732938988516,3.36597950186396
1.384745958429567e-06,0.008789312690920863,3.432952050465111
1.394745958429569e-06,0.006785346088849456,3.354817410430434
1.404745958429564e-06,0.008455318257241535,3.388303684730995
1.414745958429565e-06,0.00611735722149232,3.384582987586502
1.424745958429567e-06,0.005449368354135184,3.377141593297485
1.434745958429569e-06,0.007119340522528024,3.418069261887078
1.44474595842957e-06,0.006451351655171344,3.358538107574953
1.454745958429565e-06,0.007453334956206592,3.380862290441993
1.464745958429567e-06,0.007453334956206592,3.384582987586502
1.474745958429568e-06,0.007119340522528024,3.373420896152977
1.48474595842957e-06,0.008789312690920103,3.418069261887051
1.494745958429565e-06,0.007119340522528784,3.35853810757497
1.504745958429566e-06,0.008455318257242295,3.38830368473101
1.514745958429568e-06,0.00778732938988516,3.406907170453553
1.524745958429569e-06,0.007787329389885615,3.365979501863978
1.534745958429564e-06,0.008789312690920406,3.406907170453534
1.544745958429566e-06,0.006451351655170888,3.347376016141417
1.554745958429567e-06,0.008121323823563727,3.392024381875518
1.564745958429569e-06,0.008789312690920863,3.395745079020027
1.574745958429564e-06,0.006785346088850367,3.358538107574959
1.584745958429565e-06,0.009123307124599432,3.406907170453553
1.594745958429567e-06,0.006451351655170888,3.354817410430434
1.604745958429569e-06,0.009791295991956567,3.410627867598061
1.61474595842957e-06,0.008455318257241688,3.395745079020019
1.624745958429565e-06,0.007119340522528024,3.377141593297485
1.634745958429567e-06,0.008455318257242295,3.421789959031586
1.644745958429568e-06,0.00778732938988516,3.36597950186396
1.65474595842957e-06,0.006785346088849759,3.39946577616454
1.664745958429565e-06,0.007453334956206592,3.410627867598061
1.674745958429566e-06,0.008455318257242295,3.351096713285926
1.684745958429568e-06,0.008789312690920863,3.421789959031586
1.694745958429569e-06,0.00611735722149308,3.362258804719465
1.704745958429564e-06,0.0077873293898844,3.392024381875505
1.714745958429566e-06,0.008455318257242295,3.41434856474257
1.724745958429568e-06,0.008121323823563727,3.369700199008468
1.734745958429569e-06,0.009123307124599432,3.410627867598061
1.744745958429564e-06,0.007787329389885767,3.369700199008486
1.754745958429566e-06,0.009123307124599432,3.395745079020027
1.764745958429567e-06,0.008121323823563727,3.380862290441993
1.774745958429569e-06,0.008455318257242295,3.362258804719451
1.784745958429564e-06,0.009123307124599129,3.432952050465079
1.794745958429565e-06,0.00778732938988516,3.373420896152977
1.804745958429567e-06,0.009123307124599432,3.392024381875518
1.814745958429568e-06,0.007453334956206592,3.395745079020027
1.82474595842957e-06,0.007453334956207199,3.36225880471948
1.834745958429565e-06,0.008789312690920863,3.425510656176095
1.844745958429566e-06,0.008121323823563727,3.358538107574943
1.854745958429568e-06,0.008455318257242295,3.403186473309044
1.86474595842957e-06,0.008121323823564031,3.418069261887053
1.874745958429564e-06,0.008789312690920559,3.362258804719477
1.884745958429566e-06,0.009457301558278,3.429231353320603
1.894745958429568e-06,0.007453334956206592,3.36597950186396
1.904745958429569e-06,0.01012529042563514,3.395745079020027
1.914745958429564e-06,0.008121323823564638,3.40318647330904
1.924745958429566e-06,0.01012529042563514,3.369700199008468
1.934745958429567e-06,0.00778732938988516,3.403186473309044
1.944745958429569e-06,0.008789312690920863,3.369700199008468
1.954745958429564e-06,0.01079327929299136,3.392024381875508
1.964745958429565e-06,0.007453334956206592,3.403186473309044
1.974745958429567e-06,0.009457301558278,3.354817410430434
1.984745958429568e-06,0.009123307124599432,3.418069261887078
1.99474595842957e-06,0.009123307124599129,3.362258804719458
2.004745958429565e-06,0.008455318257242295,3.377141593297485
2.014745958429566e-06,0.008455318257242295,3.392024381875518
2.024745958429568e-06,0.006785346088849456,3.36597950186396
2.03474595842957e-06,0.007787329389884856,3.414348564742544
2.044745958429564e-06,0.007119340522528328,3.358538107574968
2.054745958429566e-06,0.009123307124599432,3.377141593297485
2.064745958429568e-06,0.008455318257242295,3.392024381875518
2.074745958429569e-06,0.007453334956206744,3.347376016141448
2.084745958429564e-06,0.007787329389885008,3.414348564742539
2.094745958429566e-06,0.00778732938988516,3.362258804719451
2.104745958429567e-06,0.008455318257242295,3.392024381875518
2.114745958429569e-06,0.008121323823563727,3.38830368473101
2.124745958429564e-06,0.006451351655171647,3.37714159329749
2.134745958429565e-06,0.009457301558278,3.406907170453553
2.144745958429567e-06,0.007119340522528024,3.354817410430434
2.154745958429568e-06,0.01112727372667084,3.392024381875518
2.16474595842957e-06,0.008455318257241688,3.406907170453527
2.174745958429565e-06,0.007119340522528024,3.351096713285926
2.184745958429566e-06,0.00778732938988516,3.410627867598061
2.194745958429568e-06,0.00778732938988516,3.362258804719451
2.20474595842957e-06,0.006785346088850063,3.399465776164532
