traces_bank_current_trigger/sampling_freq_100MHz/STR/STR_2.csv

#Digilent WaveForms Oscilloscope Acquisition
#Device Name: Discovery2
#Serial Number: SN:210321B3D813
#Date Time: 2023-06-19 09:52:26.499
#Sample rate: 1e+08Hz
#Samples: 8192
#Trigger: Source: Channel 2 Type: Edge Condition: Rising Level: 2 V Hyst.: Auto HoldOff: 0 s
#Channel 1: Range: 10 mV/div Offset: 0 V Attenuation: 1 X Sample Mode: Average
#Channel 2: Range: 5 V/div Offset: 0 V Attenuation: 1 X Sample Mode: Average

Time (s),Channel 1 (V),Channel 2 (V)
-9.55831295843516e-07,0.006451351655170888,-0.001251413916186876
-9.458312958435144e-07,0.007119340522528024,-0.008692808205203774
-9.358312958435128e-07,0.006451351655170433,0.02107276895085367
-9.25831295843518e-07,0.00544936835413564,-0.001251413916176725
-9.158312958435164e-07,0.00611735722149232,0.03223486038438916
-9.058312958435148e-07,0.005449368354135184,-0.001251413916186876
-8.958312958435132e-07,0.006785346088849456,0.00991067751733847
-8.858312958435184e-07,0.00645135165517104,0.00991067751733847
-8.758312958435168e-07,0.007453334956206592,-0.01241350534971222
-8.658312958435152e-07,0.00611735722149232,0.00991067751733847
-8.558312958435136e-07,0.005115373920456617,-0.004972111060695325
-8.45831295843512e-07,0.005783362787813448,0.01363137466184861
-8.358312958435172e-07,0.005115373920456617,0.01735207180635537
-8.258312958435156e-07,0.005783362787813752,-0.01241350534971222
-8.15831295843514e-07,0.005783362787813752,0.02107276895086382
-8.058312958435124e-07,0.006117357221492624,-0.008692808205190238
-7.958312958435175e-07,0.006785346088849152,0.02107276895085028
-7.858312958435159e-07,0.00611735722149232,0.01363137466184692
-7.758312958435143e-07,0.006785346088849456,0.006189980372830022
-7.658312958435127e-07,0.003445401752064993,0.03223486038437393
-7.558312958435179e-07,0.006117357221491105,-0.001251413916171645
-7.458312958435163e-07,0.007453334956206592,0.01363137466184692
-7.358312958435147e-07,0.00611735722149232,0.01735207180635537
-7.258312958435131e-07,0.005783362787813752,-0.008692808205203774
-7.158312958435183e-07,0.00511537392045692,0.03595555752887731
-7.058312958435167e-07,0.00611735722149232,-0.01241350534971222
-6.958312958435151e-07,0.00778732938988516,0.00991067751733847
-6.858312958435135e-07,0.006451351655170888,0.03223486038438916
-6.758312958435119e-07,0.006117357221491865,-0.0161342024941936
-6.658312958435171e-07,0.005115373920456617,0.04339695181791451
-6.558312958435155e-07,0.003779396185742345,-0.004972111060695325
-6.458312958435139e-07,0.008121323823563727,0.02479346609537227
-6.358312958435123e-07,0.00645135165517104,0.03223486038437055
-6.258312958435175e-07,0.006785346088849304,-0.008692808205185164
-6.158312958435159e-07,0.00611735722149232,0.04711764896242296
-6.058312958435143e-07,0.006451351655170888,0.002469283228321573
-5.958312958435127e-07,0.007119340522527569,0.0210727689508672
-5.858312958435179e-07,0.006117357221492776,0.02851416323987733
-5.758312958435163e-07,0.007119340522528024,-0.004972111060695325
-5.658312958435147e-07,0.006451351655170888,0.03223486038438916
-5.558312958435131e-07,0.006451351655170888,0.006189980372830022
-5.458312958435182e-07,0.009123307124598218,0.03223486038437732
-5.358312958435166e-07,0.007119340522528024,0.03223486038438916
-5.25831295843515e-07,0.00778732938988516,0.006189980372830022
-5.158312958435134e-07,0.006785346088849456,0.03595555752889761
-5.058312958435118e-07,0.006117357221492472,-0.008692808205193622
-4.95831295843517e-07,0.006451351655170888,0.01363137466184692
-4.858312958435154e-07,0.005783362787813752,0.04711764896242296
-4.758312958435138e-07,0.004447385053099481,0.00991067751733847
-4.658312958435122e-07,0.006117357221492472,0.03967625467339083
-4.558312958435174e-07,0.006451351655170888,0.006189980372830022
-4.458312958435158e-07,0.005449368354135184,0.01735207180635537
-4.358312958435142e-07,0.005115373920456617,0.02479346609537227
-4.258312958435126e-07,0.007119340522527569,-0.01613420249419529
-4.158312958435178e-07,0.006117357221492776,0.03967625467338068
-4.058312958435162e-07,0.00611735722149232,0.00991067751733847
-3.958312958435146e-07,0.004781379486778049,0.002469283228321573
-3.85831295843513e-07,0.00611735722149232,0.03967625467340606
-3.758312958435182e-07,0.006451351655170736,-0.01985489963870205
-3.658312958435166e-07,0.006785346088849456,0.03595555752889761
-3.55831295843515e-07,0.005449368354135184,-0.001251413916186876
-3.458312958435134e-07,0.006451351655170888,0.01363137466184692
-3.358312958435118e-07,0.005783362787813752,0.01363137466183677
-3.25831295843517e-07,0.005783362787813752,-0.008692808205203774
-3.158312958435154e-07,0.00611735722149232,0.03595555752889761
-3.058312958435138e-07,0.004781379486778049,-0.004972111060695325
-2.958312958435122e-07,0.006785346088849,0.013631374661852
-2.858312958435173e-07,0.005783362787813752,0.02479346609537227
-2.758312958435157e-07,0.005115373920456617,-0.01985489963872912
-2.658312958435141e-07,0.006451351655170888,0.01735207180635537
-2.558312958435125e-07,0.003445401752064993,-0.004972111060700401
-2.458312958435177e-07,0.006117357221491105,-0.0161342024942156
-2.358312958435161e-07,0.003779396185742345,0.002469283228321573
-2.258312958435145e-07,0.005115373920456617,-0.008692808205203774
-2.158312958435129e-07,0.005115373920456617,0.02107276895086382
-2.058312958435181e-07,0.005783362787813448,-0.00869280820519024
-1.958312958435165e-07,0.00611735722149232,-0.008692808205203774
-1.858312958435149e-07,0.005115373920456617,0.00991067751733847
-1.758312958435133e-07,0.00611735722149232,-0.02357559678323757
-1.658312958435185e-07,0.005783362787813904,0.01363137466183
-1.558312958435169e-07,0.003445401752063777,-0.03101699107225447
-1.458312958435153e-07,0.006451351655170888,-0.01241350534971222
-1.358312958435137e-07,0.005783362787813752,-0.008692808205203774
-1.258312958435121e-07,0.004447385053100241,-0.01985489963870374
-1.158312958435173e-07,0.00611735722149232,0.03595555752889761
-1.058312958435157e-07,0.004447385053099481,-0.02729629392774602
-9.583129584351407e-08,0.006451351655170888,-0.001251413916186876
-8.583129584351247e-08,0.006451351655170585,0.009910677517319859
-7.583129584351765e-08,0.005783362787814056,-0.03101699107223586
-6.583129584351605e-08,0.005449368354135184,0.03595555752889761
-5.583129584351446e-08,0.005115373920456617,-0.02357559678323757
-4.583129584351286e-08,0.004781379486778049,-0.001251413916185184
-3.583129584351803e-08,0.004781379486778049,0.002469283228319881
-2.583129584351644e-08,0.005115373920456617,-0.01241350534971222
-1.583129584351484e-08,0.004781379486778049,0.02107276895086382
-5.83129584351324e-09,0.0007734462826352341,0.22199041475432
4.168704156481582e-09,-0.007910408993003583,3.265520678960847
1.416870415648318e-08,0.008121323823563727,3.209710221794605
2.416870415648478e-08,0.01179526259402797,3.217151616083621
3.416870415648638e-08,0.01313124032874225,3.302727650407316
4.416870415648798e-08,0.005115373920458439,3.269241376106777
5.41687041564828e-08,0.009123307124599432,3.351096713285926
6.41687041564844e-08,0.005449368354135184,3.362258804719451
7.416870415648599e-08,0.002443418451028074,3.354817410430434
8.416870415648759e-08,-0.001230520319434806,3.384582987586473
9.416870415648241e-08,0.001775429583669571,3.321331136129887
1.04168704156484e-07,0.004447385053099481,3.31761043898535
1.141687041564856e-07,0.004113390619420913,3.321331136129858
1.241687041564872e-07,0.003779396185744927,3.26179998181775
1.34168704156482e-07,0.009457301558275417,3.321331136129831
1.441687041564836e-07,0.007453334956206592,3.280403467540265
1.541687041564852e-07,0.008789312690920863,3.336213924707892
1.641687041564868e-07,0.00611735722149232,3.332493227563384
1.741687041564816e-07,0.005783362787813904,3.328772530418877
1.841687041564832e-07,0.004781379486778049,3.380862290441993
1.941687041564848e-07,0.0004394518489566662,3.336213924707892
2.041687041564864e-07,0.002443418451028074,3.351096713285926
2.14168704156488e-07,0.003445401752064233,3.336213924707871
2.241687041564829e-07,0.004447385053099481,3.291565558973791
2.341687041564845e-07,0.005783362787813752,3.3399346218524
2.441687041564861e-07,0.00611735722149232,3.287844861829282
2.541687041564877e-07,0.008121323823562208,3.343655318996914
2.641687041564825e-07,0.004781379486779568,3.354817410430429
2.741687041564841e-07,0.005115373920456617,3.31761043898535
2.841687041564857e-07,0.005449368354135184,3.377141593297485
2.941687041564873e-07,0.003445401752064081,3.339934621852405
3.041687041564821e-07,0.004113390619420609,3.351096713285921
3.141687041564837e-07,0.002777412884706641,3.354817410430434
3.241687041564853e-07,0.003445401752063777,3.31761043898535
3.341687041564869e-07,0.004781379486778049,3.369700199008468
3.441687041564817e-07,0.004113390619421216,3.3324932275634
3.541687041564833e-07,0.007119340522528024,3.336213924707892
3.641687041564849e-07,0.005115373920456617,3.354817410430434
3.741687041564865e-07,0.006451351655170888,3.328772530418875
3.841687041564881e-07,0.005115373920456768,3.373420896152958
3.941687041564829e-07,0.005449368354135184,3.332493227563384
4.041687041564845e-07,0.005783362787813752,3.354817410430434
4.141687041564861e-07,0.003779396185742345,3.358538107574943
4.241687041564877e-07,0.005115373920457224,3.339934621852407
4.341687041564825e-07,0.00645135165517028,3.354817410430428
4.441687041564841e-07,0.005115373920456617,3.3399346218524
4.541687041564857e-07,0.006451351655170888,3.354817410430434
4.641687041564873e-07,0.0057833627878136,3.354817410430428
4.741687041564822e-07,0.005449368354135336,3.339934621852407
4.841687041564838e-07,0.006785346088849456,3.369700199008468
4.941687041564854e-07,0.005783362787813752,3.347376016141417
5.04168704156487e-07,0.006451351655170888,3.358538107574943
5.141687041564818e-07,0.005115373920457224,3.37342089615297
5.241687041564834e-07,0.005115373920456617,3.332493227563384
5.34168704156485e-07,0.00611735722149232,3.369700199008468
5.441687041564866e-07,0.004447385053099481,3.336213924707892
5.541687041564882e-07,0.007787329389884704,3.332493227563392
5.64168704156483e-07,0.006785346088849456,3.351096713285926
5.741687041564846e-07,0.007453334956206592,3.328772530418875
5.841687041564862e-07,0.006451351655170888,3.380862290441993
5.941687041564878e-07,0.006451351655171344,3.343655318996919
6.041687041564826e-07,0.007453334956206592,3.36597950186396
6.141687041564842e-07,0.006785346088849456,3.377141593297485
6.241687041564858e-07,0.006785346088849456,3.36597950186396
6.341687041564874e-07,0.007453334956206137,3.38830368473099
6.441687041564822e-07,0.006451351655171344,3.343655318996929
6.541687041564838e-07,0.008455318257242295,3.399465776164535
6.641687041564854e-07,0.007119340522528024,3.380862290441993
6.74168704156487e-07,0.00778732938988516,3.343655318996909
6.841687041564818e-07,0.007453334956206744,3.392024381875496
6.941687041564834e-07,0.004781379486778049,3.351096713285926
7.04168704156485e-07,0.006785346088849456,3.377141593297485
7.141687041564866e-07,0.006451351655170888,3.377141593297485
7.241687041564882e-07,0.005783362787814207,3.369700199008483
7.341687041564831e-07,0.006785346088849456,3.403186473309044
7.441687041564847e-07,0.004781379486778049,3.354817410430434
7.541687041564863e-07,0.004781379486778049,3.373420896152977
7.641687041564879e-07,0.005783362787814359,3.377141593297475
7.741687041564827e-07,0.007119340522528024,3.354817410430434
7.841687041564843e-07,0.005449368354135184,3.410627867598061
7.941687041564859e-07,0.005449368354135184,3.362258804719451
8.041687041564875e-07,0.006451351655169825,3.395745079020029
8.141687041564823e-07,0.004113390619421976,3.399465776164534
8.241687041564839e-07,0.005449368354135184,3.354817410430434
8.341687041564855e-07,0.005449368354135184,3.392024381875518
8.441687041564871e-07,0.004113390619420913,3.347376016141417
8.541687041564819e-07,0.007453334956205073,3.380862290441978
8.641687041564835e-07,0.005449368354135184,3.377141593297485
8.741687041564851e-07,0.00611735722149232,3.358538107574943
8.841687041564867e-07,0.008455318257242295,3.395745079020027
8.941687041564815e-07,0.007119340522528632,3.351096713285946
9.041687041564831e-07,0.008455318257242295,3.373420896152977
9.141687041564847e-07,0.007453334956206592,3.369700199008468
9.241687041564863e-07,0.008121323823563727,3.332493227563384
9.341687041564879e-07,0.008789312690919799,3.392024381875502
9.441687041564827e-07,0.006451351655170888,3.354817410430434
9.541687041564843e-07,0.009457301558278,3.369700199008468
9.641687041564859e-07,0.006785346088849456,3.403186473309044
9.741687041564875e-07,0.005115373920458135,3.347376016141444
9.841687041564824e-07,0.008455318257240777,3.406907170453525
9.94168704156484e-07,0.006451351655170888,3.347376016141417
1.004168704156486e-06,0.009123307124599432,3.377141593297485
1.014168704156487e-06,0.006117357221492776,3.38086229044198
1.024168704156482e-06,0.007119340522527569,3.351096713285939
1.034168704156484e-06,0.008455318257242295,3.41434856474257
1.044168704156485e-06,0.007119340522528024,3.358538107574943
1.054168704156487e-06,0.007453334956206592,3.384582987586502
1.064168704156482e-06,0.006451351655171344,3.384582987586502
1.074168704156483e-06,0.008789312690920863,3.343655318996909
1.084168704156485e-06,0.006451351655170888,3.410627867598061
1.094168704156486e-06,0.007119340522528024,3.332493227563384
1.104168704156488e-06,0.007119340522528024,3.380862290441991
1.114168704156483e-06,0.007119340522528024,3.377141593297485
1.124168704156484e-06,0.009457301558278,3.358538107574943
1.134168704156486e-06,0.006451351655170888,3.392024381875518
1.144168704156488e-06,0.004781379486779264,3.365979501863964
1.154168704156482e-06,0.007453334956205377,3.37714159329748
1.164168704156484e-06,0.009457301558278,3.392024381875518
1.174168704156486e-06,0.008121323823563727,3.373420896152977
1.184168704156487e-06,0.01012529042563377,3.403186473309029
1.194168704156482e-06,0.007119340522529391,3.369700199008483
1.204168704156484e-06,0.01012529042563514,3.369700199008468
1.214168704156485e-06,0.009123307124599432,3.384582987586502
1.224168704156487e-06,0.00778732938988516,3.354817410430434
1.234168704156482e-06,0.009123307124598825,3.410627867598035
1.244168704156483e-06,0.005783362787813752,3.354817410430434
1.254168704156485e-06,0.009123307124599432,3.377141593297485
1.264168704156486e-06,0.00778732938988516,3.377141593297485
1.274168704156488e-06,0.006451351655170585,3.351096713285949
1.284168704156483e-06,0.005783362787813752,3.403186473309044
1.294168704156484e-06,0.004781379486778049,3.369700199008468
1.304168704156486e-06,0.00778732938988516,3.384582987586502
1.314168704156488e-06,0.005115373920456465,3.395745079020012
1.324168704156482e-06,0.004781379486778201,3.362258804719466
1.334168704156484e-06,0.006451351655170888,3.395745079020027
1.344168704156486e-06,0.004447385053099481,3.369700199008468
1.354168704156487e-06,0.00444738505309933,3.403186473309032
1.364168704156482e-06,0.004113390619421065,3.377141593297497
1.374168704156484e-06,0.003111407318385209,3.354817410430434
1.384168704156485e-06,0.004781379486778049,3.41434856474257
1.394168704156487e-06,0.002109424017349506,3.358538107574943
1.404168704156482e-06,0.004781379486776834,3.403186473309023
1.414168704156483e-06,0.003779396185742345,3.395745079020027
1.424168704156485e-06,0.002777412884706641,3.373420896152977
1.434168704156487e-06,0.003445401752063777,3.421789959031586
1.444168704156488e-06,0.003111407318385665,3.358538107574959
1.454168704156483e-06,0.004113390619420913,3.395745079020027
1.464168704156485e-06,0.003111407318385209,3.41434856474257
1.474168704156486e-06,0.005115373920456617,3.369700199008468
1.484168704156488e-06,0.005449368354134729,3.421789959031563
1.494168704156483e-06,0.004447385053099937,3.369700199008491
1.504168704156484e-06,0.005783362787813752,3.392024381875518
1.514168704156486e-06,0.005115373920456617,3.395745079020027
1.524168704156487e-06,0.006117357221492472,3.377141593297504
1.534168704156482e-06,0.006451351655170736,3.418069261887059
1.544168704156484e-06,0.005783362787813752,3.373420896152977
1.554168704156485e-06,0.007119340522528024,3.38830368473101
1.564168704156487e-06,0.005783362787813752,3.380862290441993
1.574168704156482e-06,0.00511537392045692,3.388303684731007
1.584168704156483e-06,0.006451351655170888,3.406907170453553
1.594168704156485e-06,0.005115373920456617,3.358538107574943
1.604168704156487e-06,0.00778732938988516,3.410627867598061
1.614168704156488e-06,0.005449368354135791,3.399465776164522
1.624168704156483e-06,0.006785346088849456,3.369700199008468
1.634168704156485e-06,0.00611735722149232,3.418069261887078
1.644168704156486e-06,0.005115373920456617,3.362258804719451
1.654168704156488e-06,0.006785346088849,3.399465776164532
1.664168704156483e-06,0.005783362787813752,3.392024381875518
1.674168704156484e-06,0.005115373920456617,3.362258804719451
1.684168704156486e-06,0.005449368354135184,3.41434856474257
1.694168704156487e-06,0.004113390619422583,3.369700199008483
1.704168704156482e-06,0.007787329389883489,3.403186473309029
1.714168704156484e-06,0.005449368354135184,3.395745079020027
1.724168704156485e-06,0.006451351655170888,3.36597950186396
1.734168704156487e-06,0.006451351655170888,3.421789959031586
1.744168704156482e-06,0.004781379486778809,3.362258804719478
1.754168704156483e-06,0.00778732938988516,3.395745079020027
1.764168704156485e-06,0.006451351655170888,3.38830368473101
1.774168704156487e-06,0.006451351655170888,3.36597950186396
1.784168704156481e-06,0.006451351655170888,3.418069261887054
1.794168704156483e-06,0.004447385053099481,3.36597950186396
1.804168704156485e-06,0.009123307124599432,3.384582987586502
1.814168704156486e-06,0.004447385053099481,3.406907170453553
1.824168704156488e-06,0.004113390619421976,3.3771415932975
1.834168704156483e-06,0.006451351655170888,3.410627867598061
1.844168704156484e-06,0.004447385053099481,3.362258804719451
1.854168704156486e-06,0.007119340522528024,3.384582987586502
1.864168704156487e-06,0.00544936835413564,3.388303684730998
1.874168704156482e-06,0.006451351655170433,3.362258804719463
1.884168704156484e-06,0.005783362787813752,3.429231353320603
1.894168704156486e-06,0.005449368354135184,3.373420896152977
1.904168704156487e-06,0.00778732938988516,3.399465776164535
1.914168704156482e-06,0.006117357221493079,3.395745079020029
1.924168704156484e-06,0.007453334956206592,3.358538107574943
1.934168704156485e-06,0.008121323823563727,3.406907170453553
1.944168704156487e-06,0.007119340522528024,3.380862290441993
1.954168704156482e-06,0.008789312690920103,3.395745079020021
1.964168704156483e-06,0.007119340522528024,3.399465776164535
1.974168704156485e-06,0.006785346088849456,3.362258804719451
1.984168704156486e-06,0.007453334956206592,3.403186473309044
1.994168704156488e-06,0.006117357221493384,3.373420896152983
2.004168704156483e-06,0.008455318257242295,3.38830368473101
2.014168704156484e-06,0.006785346088849456,3.406907170453553
2.024168704156486e-06,0.007119340522528024,3.354817410430434
2.034168704156488e-06,0.006785346088849152,3.414348564742538
2.044168704156482e-06,0.006117357221492624,3.343655318996941
2.054168704156484e-06,0.00778732938988516,3.38830368473101
2.064168704156486e-06,0.006785346088849456,3.403186473309044
2.074168704156487e-06,0.006451351655170888,3.365979501863982
2.084168704156482e-06,0.006451351655170888,3.414348564742547
2.094168704156484e-06,0.007119340522528024,3.369700199008468
2.104168704156485e-06,0.007119340522528024,3.384582987586502
2.114168704156487e-06,0.006785346088849456,3.406907170453553
2.124168704156482e-06,0.007787329389884704,3.380862290442005
2.134168704156483e-06,0.009123307124599432,3.41434856474257
2.144168704156485e-06,0.006451351655170888,3.351096713285926
2.154168704156486e-06,0.00611735722149232,3.380862290441993
2.164168704156488e-06,0.006785346088849,3.392024381875498
2.174168704156483e-06,0.005783362787813752,3.347376016141417
2.184168704156484e-06,0.00611735722149232,3.41434856474257
2.194168704156486e-06,0.004781379486778049,3.358538107574943
