traces_bank_current_trigger/sampling_freq_100MHz/STR/STR_3.csv

#Digilent WaveForms Oscilloscope Acquisition
#Device Name: Discovery2
#Serial Number: SN:210321B3D813
#Date Time: 2023-06-19 09:57:24.870
#Sample rate: 1e+08Hz
#Samples: 8192
#Trigger: Source: Channel 2 Type: Edge Condition: Rising Level: 2 V Hyst.: Auto HoldOff: 0 s
#Channel 1: Range: 10 mV/div Offset: 0 V Attenuation: 1 X Sample Mode: Average
#Channel 2: Range: 5 V/div Offset: 0 V Attenuation: 1 X Sample Mode: Average

Time (s),Channel 1 (V),Channel 2 (V)
-9.547630619684072e-07,0.005115373920456617,0.01735207180635537
-9.447630619684056e-07,0.00778732938988516,0.02479346609537227
-9.34763061968404e-07,0.006451351655171495,0.04711764896239927
-9.247630619684091e-07,0.007787329389884553,-0.004972111060671636
-9.147630619684075e-07,0.006785346088849456,0.03595555752889761
-9.047630619684059e-07,0.007453334956206592,0.00991067751733847
-8.947630619684043e-07,0.008121323823563727,0.006189980372830022
-8.847630619684095e-07,0.008455318257242142,0.03223486038437732
-8.747630619684079e-07,0.006785346088849456,-0.001251413916186876
-8.647630619684063e-07,0.00611735722149232,0.05455904325143986
-8.547630619684047e-07,0.00778732938988516,-0.001251413916186876
-8.447630619684031e-07,0.009123307124598825,0.01363137466185707
-8.347630619684083e-07,0.00778732938988516,0.03595555752889761
-8.247630619684067e-07,0.006451351655170888,-0.01613420249422067
-8.147630619684051e-07,0.006785346088849456,0.03595555752889761
-8.047630619684035e-07,0.00611735722149232,0.009910677517336779
-7.947630619684087e-07,0.00611735722149232,0.006189980372831713
-7.847630619684071e-07,0.006451351655170888,0.03967625467340606
-7.747630619684055e-07,0.00778732938988516,-0.004972111060695325
-7.647630619684039e-07,0.006451351655170585,0.03223486038437732
-7.547630619684091e-07,0.005783362787814056,0.006189980372841866
-7.447630619684075e-07,0.007453334956206592,0.006189980372830022
-7.347630619684059e-07,0.00611735722149232,0.04711764896242296
-7.247630619684043e-07,0.006785346088849456,-0.004972111060695325
-7.147630619684094e-07,0.00645135165517104,0.03223486038437225
-7.047630619684079e-07,0.006451351655170888,0.002469283228321573
-6.947630619684063e-07,0.006785346088849456,0.002469283228321573
-6.847630619684047e-07,0.007119340522528024,0.04339695181791451
-6.747630619684031e-07,0.005115373920457224,-0.01241350534968854
-6.647630619684082e-07,0.006451351655170888,0.03967625467340606
-6.547630619684066e-07,0.003779396185742345,0.01363137466184692
-6.44763061968405e-07,0.007119340522528024,0.01735207180635537
-6.347630619684034e-07,0.005115373920456768,0.02851416323986379
-6.247630619684086e-07,0.005449368354135033,-0.008692808205186857
-6.14763061968407e-07,0.005449368354135184,0.01363137466184692
-6.047630619684054e-07,0.00611735722149232,0.02107276895086382
-5.947630619684038e-07,0.006451351655170888,0.006189980372843558
-5.84763061968409e-07,0.006451351655170888,0.03595555752888407
-5.747630619684074e-07,0.007453334956206592,0.002469283228321573
-5.647630619684058e-07,0.005783362787813752,0.02479346609537227
-5.547630619684042e-07,0.005115373920456617,0.02107276895086382
-5.447630619684094e-07,0.006785346088848697,0.02107276895086382
-5.347630619684078e-07,0.005449368354135184,0.02851416323988071
-5.247630619684062e-07,0.007453334956206592,-0.01241350534971222
-5.147630619684046e-07,0.005783362787813752,0.03595555752889761
-5.04763061968403e-07,0.004447385053100848,-0.008692808205202083
-4.947630619684082e-07,0.007453334956206592,-0.004972111060695325
-4.847630619684066e-07,0.004113390619420913,0.00991067751733847
-4.74763061968405e-07,0.004781379486778049,0.01735207180635537
-4.647630619684034e-07,0.006451351655170281,0.03595555752888407
-4.547630619684086e-07,0.005115373920456617,0.006189980372830022
-4.44763061968407e-07,0.007119340522528024,0.006189980372830022
-4.347630619684054e-07,0.007119340522528024,0.02107276895086382
-4.247630619684038e-07,0.005449368354135944,-0.004972111060678405
-4.147630619684089e-07,0.007119340522527265,0.03223486038437225
-4.047630619684073e-07,0.004113390619420913,0.002469283228321573
-3.947630619684057e-07,0.00611735722149232,0.00991067751733847
-3.847630619684041e-07,0.004447385053099481,0.03595555752889761
-3.747630619684093e-07,0.005449368354134729,-0.004972111060676715
-3.647630619684077e-07,0.007119340522528024,0.02479346609537227
-3.547630619684061e-07,0.00611735722149232,0.01363137466184692
-3.447630619684045e-07,0.005783362787813752,0.00991067751733847
-3.347630619684029e-07,0.008455318257241384,0.01363137466183338
-3.247630619684081e-07,0.006451351655170888,-0.01613420249422067
-3.147630619684065e-07,0.00778732938988516,0.02851416323988071
-3.047630619684049e-07,0.004781379486778049,-0.01613420249422067
-2.947630619684033e-07,0.00745333495620644,-0.001251413916169956
-2.847630619684085e-07,0.007119340522528024,0.03595555752889761
-2.747630619684069e-07,0.006785346088849456,-0.01241350534971222
-2.647630619684053e-07,0.005783362787813752,0.03223486038438916
-2.547630619684037e-07,0.004781379486779264,0.009910677517333395
-2.447630619684089e-07,0.007453334956205377,-0.0012514139161818
-2.347630619684073e-07,0.006785346088849456,0.02107276895086382
-2.247630619684057e-07,0.006451351655170888,0.006189980372830022
-2.147630619684041e-07,0.006785346088849456,0.03967625467340606
-2.047630619684092e-07,0.005115373920457376,0.00246928322833849
-1.947630619684077e-07,0.007119340522528024,-0.001251413916186876
-1.847630619684061e-07,0.00611735722149232,0.01735207180635537
-1.747630619684045e-07,0.005449368354135184,0.006189980372830022
-1.647630619684096e-07,0.0057833627878136,0.02479346609536381
-1.54763061968408e-07,0.004113390619420913,0.006189980372830022
-1.447630619684064e-07,0.00611735722149232,0.002469283228321573
-1.347630619684048e-07,0.00611735722149232,0.01735207180635537
-1.247630619684032e-07,0.004447385053100241,-0.01241350534969869
-1.147630619684084e-07,0.00611735722149232,0.01735207180635537
-1.047630619684068e-07,0.005115373920456617,0.002469283228321573
-9.476306196840522e-08,0.005449368354135184,-0.01985489963872912
-8.476306196840362e-08,0.003445401752064081,0.02107276895085028
-7.47630619684088e-08,0.004113390619420609,-0.00869280820519024
-6.47630619684072e-08,0.003779396185742345,0.02479346609537227
-5.47630619684056e-08,0.003779396185742345,0.00991067751733847
-4.476306196840401e-08,0.004447385053099481,0.002469283228338492
-3.476306196840918e-08,0.004447385053099481,0.03967625467338914
-2.476306196840758e-08,0.002777412884706641,0.006189980372830022
-1.476306196840599e-08,0.004447385053099481,0.02479346609537227
-4.763061968404388e-09,-0.006240436824614691,0.5382496720375383
5.236938031590434e-09,0.0007734462826320451,3.600383421966599
1.523693803159203e-08,0.001775429583670938,3.090647913170334
2.523693803159363e-08,0.01313124032874225,3.280403467540265
3.523693803159523e-08,0.01313124032874225,3.287844861829282
4.523693803159683e-08,0.007787329389884096,3.291565558973821
5.523693803159165e-08,0.005449368354135184,3.358538107574943
6.523693803159325e-08,0.005783362787813752,3.354817410430434
7.523693803159485e-08,0.001107440716313802,3.380862290441993
8.523693803159644e-08,-0.001564514753113982,3.358538107574936
9.523693803159127e-08,0.000105457415277339,3.343655318996916
1.052369380315929e-07,0.004113390619420913,3.302727650407316
1.152369380315945e-07,0.003445401752063777,3.343655318996909
1.252369380315961e-07,0.003445401752065752,3.295286256118316
1.352369380315909e-07,0.007787329389883186,3.332493227563367
1.452369380315925e-07,0.00778732938988516,3.313889741840841
1.552369380315941e-07,0.006451351655170888,3.3399346218524
1.652369380315957e-07,0.004447385053099481,3.373420896152977
1.752369380315905e-07,0.005115373920456313,3.336213924707909
1.852369380315921e-07,0.004113390619420913,3.392024381875518
1.952369380315937e-07,-0.0002285370184004695,3.362258804719451
2.052369380315953e-07,0.0004394518489566662,3.347376016141417
2.152369380315969e-07,0.002443418451028681,3.373420896152953
2.252369380315917e-07,0.003779396185742345,3.321331136129858
2.352369380315933e-07,0.005783362787813752,3.354817410430434
2.452369380315949e-07,0.005115373920456617,3.354817410430434
2.552369380315965e-07,0.007787329389884553,3.336213924707912
2.652369380315913e-07,0.006451351655171496,3.380862290441973
2.752369380315929e-07,0.003779396185742345,3.358538107574943
2.852369380315945e-07,0.003111407318385209,3.399465776164535
2.952369380315961e-07,0.002443418451028833,3.36970019900847
3.052369380315909e-07,0.004113390619420154,3.373420896152975
3.152369380315925e-07,0.003111407318385209,3.380862290441993
3.252369380315941e-07,0.004113390619420913,3.347376016141417
3.352369380315957e-07,0.004113390619420913,3.377141593297485
3.452369380315906e-07,0.003111407318385665,3.336213924707911
3.552369380315922e-07,0.005449368354135184,3.358538107574943
3.652369380315938e-07,0.007119340522528024,3.380862290441993
3.752369380315954e-07,0.005449368354135184,3.347376016141417
3.85236938031597e-07,0.005115373920456161,3.403186473309034
3.952369380315918e-07,0.004113390619420913,3.380862290441993
4.052369380315934e-07,0.005449368354135184,3.362258804719451
4.15236938031595e-07,0.003779396185742345,3.395745079020027
4.252369380315966e-07,0.003779396185742953,3.339934621852427
4.352369380315914e-07,0.005115373920456009,3.399465776164508
4.45236938031593e-07,0.003779396185742345,3.373420896152977
4.552369380315946e-07,0.005783362787813752,3.347376016141417
4.652369380315962e-07,0.005115373920457224,3.395745079020015
4.75236938031591e-07,0.00645135165517028,3.36970019900848
4.852369380315926e-07,0.006451351655170888,3.399465776164535
4.952369380315942e-07,0.004781379486778049,3.373420896152977
5.052369380315958e-07,0.006451351655170888,3.395745079020027
5.152369380315906e-07,0.004447385053100392,3.39202438187552
5.252369380315922e-07,0.004113390619420913,3.358538107574943
5.352369380315938e-07,0.005449368354135184,3.384582987586502
5.452369380315954e-07,0.004447385053099481,3.362258804719451
5.55236938031597e-07,0.007787329389883945,3.351096713285948
5.652369380315918e-07,0.005115373920456617,3.399465776164535
5.752369380315934e-07,0.005783362787813752,3.3399346218524
5.85236938031595e-07,0.007453334956206592,3.399465776164535
5.952369380315966e-07,0.004781379486779264,3.373420896152975
6.052369380315915e-07,0.007453334956206592,3.369700199008468
6.152369380315931e-07,0.005449368354135184,3.380862290441993
6.252369380315947e-07,0.006451351655170888,3.362258804719451
6.352369380315963e-07,0.007119340522527569,3.392024381875508
6.452369380315911e-07,0.006117357221492776,3.369700199008478
6.552369380315927e-07,0.00778732938988516,3.369700199008468
6.652369380315943e-07,0.006785346088849456,3.395745079020027
6.752369380315959e-07,0.00611735722149232,3.36597950186396
6.852369380315907e-07,0.007453334956205985,3.41062786759804
6.952369380315923e-07,0.005783362787813752,3.369700199008468
7.052369380315939e-07,0.006785346088849456,3.362258804719451
7.152369380315955e-07,0.006785346088849456,3.38830368473101
7.252369380315971e-07,0.005115373920456465,3.358538107574961
7.352369380315919e-07,0.004781379486778049,3.399465776164535
7.452369380315935e-07,0.004781379486778049,3.38830368473101
7.552369380315951e-07,0.007119340522528024,3.362258804719451
7.652369380315967e-07,0.005783362787813752,3.39946577616452
7.752369380315915e-07,0.005783362787813752,3.36597950186396
7.852369380315931e-07,0.005783362787813752,3.395745079020027
7.952369380315947e-07,0.005783362787813752,3.358538107574943
8.052369380315963e-07,0.006451351655171344,3.380862290441997
8.152369380315911e-07,0.007453334956206137,3.388303684731007
8.252369380315927e-07,0.00611735722149232,3.351096713285926
8.352369380315943e-07,0.007119340522528024,3.38830368473101
8.452369380315959e-07,0.005449368354135184,3.354817410430434
8.552369380315908e-07,0.006785346088848848,3.369700199008461
8.652369380315924e-07,0.00778732938988516,3.392024381875518
8.75236938031594e-07,0.007453334956206592,3.36597950186396
8.852369380315956e-07,0.008455318257242295,3.384582987586502
8.952369380315904e-07,0.007119340522528632,3.351096713285941
9.05236938031592e-07,0.009457301558278,3.380862290441993
9.152369380315936e-07,0.006451351655170888,3.380862290441993
9.252369380315952e-07,0.008121323823563727,3.354817410430434
9.352369380315968e-07,0.007453334956205377,3.418069261887054
9.452369380315916e-07,0.004781379486778049,3.36597950186396
9.552369380315932e-07,0.008121323823563727,3.362258804719451
9.652369380315948e-07,0.006451351655170888,3.384582987586502
9.752369380315964e-07,0.006117357221492928,3.362258804719466
9.852369380315912e-07,0.007453334956205985,3.395745079020012
9.952369380315928e-07,0.005783362787813752,3.358538107574943
1.005236938031594e-06,0.008455318257242295,3.36597950186396
1.015236938031596e-06,0.006451351655169825,3.38458298758649
1.025236938031591e-06,0.004113390619421976,3.358538107574955
1.035236938031592e-06,0.006451351655170888,3.392024381875518
1.045236938031594e-06,0.004447385053099481,3.362258804719451
1.055236938031596e-06,0.006451351655170888,3.373420896152977
1.06523693803159e-06,0.005115373920457224,3.399465776164524
1.075236938031592e-06,0.005115373920456617,3.336213924707892
1.085236938031594e-06,0.007119340522528024,3.38830368473101
1.095236938031595e-06,0.005115373920456617,3.358538107574943
1.105236938031597e-06,0.005783362787813752,3.373420896152981
1.115236938031592e-06,0.005783362787813752,3.384582987586502
1.125236938031593e-06,0.005449368354135184,3.358538107574943
1.135236938031595e-06,0.006785346088849456,3.395745079020027
1.145236938031596e-06,0.005115373920457528,3.362258804719455
1.155236938031591e-06,0.007119340522527114,3.369700199008464
1.165236938031593e-06,0.006785346088849456,3.384582987586502
1.175236938031594e-06,0.006785346088849456,3.351096713285926
1.185236938031596e-06,0.007119340522527721,3.403186473309027
1.195236938031591e-06,0.006451351655171192,3.365979501863976
1.205236938031592e-06,0.009457301558278,3.392024381875518
1.215236938031594e-06,0.008455318257242295,3.384582987586502
1.225236938031596e-06,0.006451351655170888,3.347376016141417
1.235236938031591e-06,0.007453334956206137,3.399465776164512
1.245236938031592e-06,0.005783362787813752,3.362258804719451
1.255236938031594e-06,0.006785346088849456,3.373420896152977
1.265236938031595e-06,0.008121323823563727,3.392024381875518
1.275236938031597e-06,0.005115373920457376,3.347376016141443
1.285236938031592e-06,0.006785346088849456,3.403186473309044
1.295236938031593e-06,0.004113390619420913,3.36597950186396
1.305236938031595e-06,0.006785346088849456,3.373420896152977
1.315236938031597e-06,0.00611735722149232,3.380862290441975
1.325236938031591e-06,0.00611735722149232,3.339934621852419
1.335236938031593e-06,0.006451351655170888,3.392024381875518
1.345236938031595e-06,0.004447385053099481,3.351096713285926
1.355236938031596e-06,0.004781379486777594,3.36970019900847
1.365236938031591e-06,0.0037793961857428,3.373420896152975
1.375236938031593e-06,0.004781379486778049,3.354817410430434
1.385236938031594e-06,0.004447385053099481,3.410627867598061
1.395236938031596e-06,0.003111407318385209,3.36597950186396
1.405236938031591e-06,0.004113390619420457,3.36597950186396
1.415236938031592e-06,0.004113390619420913,3.38830368473101
1.425236938031594e-06,0.004447385053099481,3.351096713285926
1.435236938031595e-06,0.004113390619420913,3.410627867598061
1.445236938031597e-06,0.004781379486778656,3.351096713285932
1.455236938031592e-06,0.00611735722149232,3.36597950186396
1.465236938031593e-06,0.004447385053099481,3.392024381875518
1.475236938031595e-06,0.003445401752063777,3.347376016141417
1.485236938031597e-06,0.004447385053099633,3.392024381875503
1.495236938031591e-06,0.004781379486777897,3.358538107574958
1.505236938031593e-06,0.005783362787813752,3.369700199008468
1.515236938031595e-06,0.006451351655170888,3.36597950186396
1.525236938031596e-06,0.006785346088849304,3.365979501863972
1.535236938031591e-06,0.00645135165517104,3.392024381875506
1.545236938031593e-06,0.005449368354135184,3.358538107574943
1.555236938031594e-06,0.006451351655170888,3.362258804719451
1.565236938031596e-06,0.00611735722149232,3.384582987586502
1.575236938031591e-06,0.00611735722149232,3.339934621852421
1.585236938031592e-06,0.007119340522528024,3.384582987586502
1.595236938031594e-06,0.004781379486778049,3.362258804719451
1.605236938031595e-06,0.005783362787813752,3.354817410430434
1.615236938031597e-06,0.005115373920457224,3.392024381875496
1.625236938031592e-06,0.006451351655170888,3.343655318996909
1.635236938031593e-06,0.006785346088849456,3.399465776164535
1.645236938031595e-06,0.005115373920456617,3.36597950186396
1.655236938031597e-06,0.007119340522527721,3.377141593297497
1.665236938031591e-06,0.006451351655170888,3.403186473309044
1.675236938031593e-06,0.006451351655170888,3.354817410430434
1.685236938031595e-06,0.006785346088849456,3.399465776164535
1.695236938031596e-06,0.00511537392045768,3.343655318996924
1.705236938031591e-06,0.007453334956205529,3.37714159329747
1.715236938031593e-06,0.006451351655170888,3.38830368473101
1.725236938031594e-06,0.00611735722149232,3.347376016141417
1.735236938031596e-06,0.00611735722149232,3.384582987586502
1.745236938031591e-06,0.006451351655170736,3.354817410430448
1.755236938031592e-06,0.009123307124599432,3.351096713285926
1.765236938031594e-06,0.009123307124599432,3.380862290441993
1.775236938031596e-06,0.008121323823563727,3.347376016141417
1.78523693803159e-06,0.008455318257242142,3.373420896152965
1.795236938031592e-06,0.007119340522528024,3.351096713285926
1.805236938031594e-06,0.008455318257242295,3.343655318996909
1.815236938031595e-06,0.00778732938988516,3.373420896152977
1.825236938031597e-06,0.006451351655171192,3.336213924707912
1.835236938031592e-06,0.007119340522528024,3.380862290441993
1.845236938031593e-06,0.005449368354135184,3.347376016141417
1.855236938031595e-06,0.007453334956206592,3.36597950186396
1.865236938031596e-06,0.00812132382356312,3.362258804719451
1.875236938031591e-06,0.006785346088850064,3.362258804719451
1.885236938031593e-06,0.008455318257242295,3.377141593297485
1.895236938031594e-06,0.007453334956206592,3.362258804719451
1.905236938031596e-06,0.008789312690920863,3.354817410430434
1.915236938031591e-06,0.008789312690920863,3.377141593297475
1.925236938031592e-06,0.00778732938988516,3.343655318996909
1.935236938031594e-06,0.00778732938988516,3.38830368473101
1.945236938031596e-06,0.007119340522528024,3.354817410430434
1.95523693803159e-06,0.009123307124598521,3.369700199008461
1.965236938031592e-06,0.008789312690920863,3.384582987586502
1.975236938031594e-06,0.00778732938988516,3.3399346218524
1.985236938031595e-06,0.006451351655170888,3.395745079020027
1.995236938031597e-06,0.006785346088849759,3.362258804719449
2.005236938031592e-06,0.007453334956206592,3.358538107574943
2.015236938031593e-06,0.007453334956206592,3.377141593297485
2.025236938031595e-06,0.008121323823563727,3.347376016141417
2.035236938031596e-06,0.007453334956206288,3.399465776164519
2.045236938031591e-06,0.006785346088849759,3.362258804719468
2.055236938031593e-06,0.008455318257242295,3.369700199008468
2.065236938031594e-06,0.008121323823563727,3.380862290441993
2.075236938031596e-06,0.006117357221493384,3.328772530418904
2.085236938031591e-06,0.008455318257241232,3.39202438187549
2.095236938031592e-06,0.007119340522528024,3.369700199008468
2.105236938031594e-06,0.008121323823563727,3.373420896152977
2.115236938031596e-06,0.009123307124599432,3.406907170453553
2.12523693803159e-06,0.007453334956207352,3.336213924707924
2.135236938031592e-06,0.008789312690920863,3.395745079020027
2.145236938031594e-06,0.007119340522528024,3.354817410430434
2.155236938031595e-06,0.009123307124599432,3.36597950186396
2.165236938031597e-06,0.008455318257242295,3.380862290441983
2.175236938031592e-06,0.008455318257242295,3.358538107574943
2.185236938031593e-06,0.008789312690920863,3.392024381875518
2.195236938031595e-06,0.008121323823563727,3.351096713285926
