traces_bank_current_trigger/sampling_freq_100MHz/STR/STR_8.csv

#Digilent WaveForms Oscilloscope Acquisition
#Device Name: Discovery2
#Serial Number: SN:210321B3D813
#Date Time: 2023-06-19 10:22:44.461
#Sample rate: 1e+08Hz
#Samples: 8192
#Trigger: Source: Channel 2 Type: Edge Condition: Rising Level: 2 V Hyst.: Auto HoldOff: 0 s
#Channel 1: Range: 10 mV/div Offset: 0 V Attenuation: 1 X Sample Mode: Average
#Channel 2: Range: 5 V/div Offset: 0 V Attenuation: 1 X Sample Mode: Average

Time (s),Channel 1 (V),Channel 2 (V)
-9.539742086752607e-07,0.008121323823563727,0.04339695181791451
-9.439742086752591e-07,0.009791295991956567,0.01363137466184692
-9.339742086752575e-07,0.006785346088850216,0.06200043754043476
-9.239742086752627e-07,0.008455318257241535,0.01363137466186892
-9.139742086752611e-07,0.009457301558278,0.04711764896242296
-9.039742086752595e-07,0.00611735722149232,0.02479346609537227
-8.939742086752579e-07,0.009123307124599432,0.006189980372830022
-8.839742086752631e-07,0.008789312690921015,0.04711764896240435
-8.739742086752615e-07,0.008455318257242295,0.002469283228321573
-8.639742086752599e-07,0.009457301558278,0.04711764896242296
-8.539742086752583e-07,0.00778732938988516,0.01735207180635537
-8.439742086752567e-07,0.009123307124599736,0.02851416323988241
-8.339742086752619e-07,0.009791295991956567,0.03223486038438916
-8.239742086752603e-07,0.01012529042563514,0.01363137466184692
-8.139742086752587e-07,0.008455318257242295,0.05827974039594831
-8.039742086752571e-07,0.008789312690921319,0.02107276895085874
-7.939742086752623e-07,0.009791295991956111,0.009910677517343546
-7.839742086752607e-07,0.0104592848593137,0.04711764896242296
-7.739742086752591e-07,0.009457301558278,0.02107276895086382
-7.639742086752575e-07,0.009791295991955504,0.03595555752889253
-7.539742086752626e-07,0.007453334956207655,0.02479346609537734
-7.43974208675261e-07,0.009123307124599432,0.01735207180635537
-7.339742086752594e-07,0.01112727372667084,0.05083834610693141
-7.239742086752579e-07,0.00778732938988516,-0.004972111060695325
-7.13974208675263e-07,0.008455318257241991,0.04339695181789251
-7.039742086752614e-07,0.008121323823563727,0.00991067751733847
-6.939742086752598e-07,0.009791295991956567,0.002469283228321573
-6.839742086752582e-07,0.008455318257242295,0.02479346609537227
-6.739742086752566e-07,0.008789312690920863,-0.0012514139161818
-6.639742086752618e-07,0.008789312690920863,0.00991067751733847
-6.539742086752602e-07,0.00778732938988516,0.01363137466184692
-6.439742086752586e-07,0.009791295991956567,0.01363137466184692
-6.33974208675257e-07,0.009123307124598825,0.02479346609534858
-6.239742086752622e-07,0.007787329389885767,-0.02729629392772233
-6.139742086752606e-07,0.009123307124599432,0.02851416323988071
-6.03974208675259e-07,0.008121323823563727,-0.008692808205203774
-5.939742086752574e-07,0.008789312690920103,-0.001251413916168264
-5.839742086752626e-07,0.007119340522528784,0.03967625467338745
-5.73974208675261e-07,0.008455318257242295,-0.004972111060695325
-5.639742086752594e-07,0.008121323823563727,0.04339695181791451
-5.539742086752578e-07,0.007119340522528024,0.01363137466184692
-5.43974208675263e-07,0.008455318257241688,-0.008692808205193622
-5.339742086752614e-07,0.008121323823563727,0.02479346609537227
-5.239742086752598e-07,0.007119340522528024,-0.02729629392774602
-5.139742086752582e-07,0.00778732938988516,0.02107276895086382
-5.039742086752566e-07,0.00611735722149308,0.006189980372821561
-4.939742086752617e-07,0.00778732938988516,-0.01241350534971222
-4.839742086752601e-07,0.008121323823563727,0.02107276895086382
-4.739742086752585e-07,0.007119340522528024,-0.01985489963872912
-4.63974208675257e-07,0.007119340522527265,0.03223486038436886
-4.539742086752621e-07,0.005449368354135184,-0.01241350534971222
-4.439742086752605e-07,0.007119340522528024,0.002469283228321573
-4.339742086752589e-07,0.00778732938988516,0.03967625467340606
-4.239742086752573e-07,0.006451351655170888,-0.01613420249419698
-4.139742086752625e-07,0.006451351655170888,0.03595555752887392
-4.039742086752609e-07,0.005783362787813752,0.01363137466184692
-3.939742086752593e-07,0.008121323823563727,-0.01241350534971222
-3.839742086752577e-07,0.007453334956206592,0.01363137466184692
-3.739742086752629e-07,0.007787329389885008,-0.008692808205193622
-3.639742086752613e-07,0.007119340522528024,0.01735207180635537
-3.539742086752597e-07,0.007119340522528024,0.006189980372830022
-3.439742086752581e-07,0.008789312690920863,-0.01985489963872912
-3.339742086752565e-07,0.008455318257241535,0.02851416323986041
-3.239742086752617e-07,0.006785346088849456,-0.01613420249422067
-3.139742086752601e-07,0.007453334956206592,0.02851416323988071
-3.039742086752585e-07,0.006451351655170888,-0.01613420249422067
-2.939742086752569e-07,0.007787329389885008,-0.008692808205195314
-2.839742086752621e-07,0.007453334956206592,0.00991067751733847
-2.739742086752605e-07,0.007453334956206592,-0.02357559678323757
-2.639742086752589e-07,0.006785346088849456,0.02107276895086382
-2.539742086752573e-07,0.005783362787815422,-0.004972111060693633
-2.439742086752624e-07,0.009457301558276329,-0.001251413916188568
-2.339742086752608e-07,0.006785346088849456,0.03223486038438916
-2.239742086752592e-07,0.006785346088849456,-0.01241350534971222
-2.139742086752577e-07,0.005783362787813752,0.00991067751733847
-2.039742086752628e-07,0.006785346088849,-0.01613420249420883
-1.939742086752612e-07,0.007453334956206592,-0.01985489963872912
-1.839742086752596e-07,0.007119340522528024,0.006189980372830022
-1.73974208675258e-07,0.005449368354135184,-0.03845838536127136
-1.639742086752632e-07,0.006451351655170433,0.01363137466182323
-1.539742086752616e-07,0.005115373920456617,-0.001251413916186876
-1.4397420867526e-07,0.007119340522528024,-0.01613420249422067
-1.339742086752584e-07,0.00778732938988516,0.02479346609537227
-1.239742086752568e-07,0.00611735722149232,-0.03101699107223586
-1.13974208675262e-07,0.00611735722149232,0.00991067751733847
-1.039742086752604e-07,0.00611735722149232,-0.004972111060695325
-9.39742086752588e-08,0.005449368354135184,-0.01241350534971222
-8.39742086752572e-08,0.006785346088849152,0.009910677517326626
-7.397420867526238e-08,0.006117357221492624,-0.01613420249420883
-6.397420867526078e-08,0.00611735722149232,0.01363137466184692
-5.397420867525918e-08,0.004113390619420913,-0.004972111060695325
-4.397420867525758e-08,0.007119340522527569,-0.02729629392772571
-3.397420867526276e-08,0.006117357221492776,0.01735207180633506
-2.397420867526116e-08,0.00611735722149232,-0.02729629392774602
-1.397420867525957e-08,0.006451351655170888,0.00991067751733847
-3.974208675257968e-09,-0.005572447957257556,0.735446620696486
6.025791324736855e-09,0.008789312690914331,3.90920128496075
1.602579132473845e-08,0.0007734462826352341,2.893450964511386
2.602579132474005e-08,0.01613719023184936,3.392024381875518
3.602579132474165e-08,0.01313124032874225,3.243196496095181
4.602579132474325e-08,0.01112727372666658,3.299006953262834
5.602579132473807e-08,0.001775429583670938,3.358538107574943
6.602579132473967e-08,0.006451351655170888,3.325051833274367
7.602579132474127e-08,0.0007734462826352341,3.354817410430434
8.602579132474286e-08,0.001441435149990699,3.336213924707895
9.602579132473769e-08,-0.002232503620470207,3.343655318996905
1.060257913247393e-07,0.006451351655170888,3.280403467540265
1.160257913247409e-07,0.004447385053099481,3.358538107574943
1.260257913247425e-07,0.005783362787815119,3.272962073251279
1.360257913247373e-07,0.008789312690919496,3.33993462185237
1.460257913247389e-07,0.009791295991956567,3.306448347551824
1.560257913247405e-07,0.00778732938988516,3.343655318996909
1.660257913247421e-07,0.005449368354135184,3.362258804719451
1.760257913247369e-07,0.004781379486778353,3.332493227563397
1.860257913247385e-07,0.005783362787813752,3.373420896152977
1.960257913247401e-07,0.0004394518489566662,3.354817410430434
2.060257913247417e-07,0.003111407318385209,3.31761043898535
2.160257913247433e-07,0.004447385053099026,3.358538107574915
2.260257913247381e-07,0.003445401752063777,3.299006953262807
2.360257913247397e-07,0.007119340522528024,3.351096713285926
2.460257913247413e-07,0.004447385053099481,3.328772530418875
2.560257913247429e-07,0.009123307124598521,3.317610438985368
2.660257913247378e-07,0.007119340522528935,3.358538107574924
2.760257913247394e-07,0.004447385053099481,3.325051833274367
2.860257913247409e-07,0.006785346088849456,3.36597950186396
2.960257913247425e-07,0.002443418451028681,3.347376016141414
3.060257913247374e-07,0.003779396185741737,3.339934621852404
3.16025791324739e-07,0.003445401752063777,3.373420896152977
3.260257913247406e-07,0.002443418451028074,3.31761043898535
3.360257913247422e-07,0.005783362787813752,3.351096713285926
3.46025791324737e-07,0.004781379486778504,3.332493227563392
3.560257913247386e-07,0.006785346088849456,3.336213924707892
3.660257913247402e-07,0.007119340522528024,3.351096713285926
3.760257913247418e-07,0.00611735722149232,3.332493227563384
3.860257913247434e-07,0.006117357221492169,3.388303684730992
3.960257913247382e-07,0.005783362787813752,3.347376016141417
4.060257913247398e-07,0.00611735722149232,3.36597950186396
4.160257913247414e-07,0.005115373920456617,3.373420896152977
4.26025791324743e-07,0.006117357221493384,3.339934621852415
4.360257913247378e-07,0.008455318257241232,3.373420896152961
4.460257913247394e-07,0.006451351655170888,3.343655318996909
4.56025791324741e-07,0.00778732938988516,3.3399346218524
4.660257913247426e-07,0.008121323823562664,3.377141593297466
4.760257913247374e-07,0.005783362787814815,3.336213924707911
4.86025791324739e-07,0.008455318257242295,3.380862290441993
4.960257913247406e-07,0.004113390619420913,3.369700199008468
5.060257913247422e-07,0.006451351655170888,3.351096713285926
5.160257913247371e-07,0.007453334956206137,3.395745079020007
5.260257913247387e-07,0.005115373920456617,3.343655318996909
5.360257913247403e-07,0.006785346088849456,3.36597950186396
5.460257913247418e-07,0.004113390619420913,3.36597950186396
5.560257913247434e-07,0.00645135165517104,3.343655318996928
5.660257913247383e-07,0.006785346088849456,3.384582987586502
5.760257913247399e-07,0.00611735722149232,3.325051833274367
5.860257913247415e-07,0.01012529042563514,3.392024381875518
5.960257913247431e-07,0.006785346088850519,3.354817410430432
6.060257913247379e-07,0.009123307124599432,3.351096713285926
6.160257913247395e-07,0.008455318257242295,3.38830368473101
6.260257913247411e-07,0.006451351655170888,3.351096713285926
6.360257913247427e-07,0.008121323823563424,3.37342089615297
6.460257913247375e-07,0.007453334956206896,3.358538107574949
6.560257913247391e-07,0.008121323823563727,3.347376016141417
6.660257913247407e-07,0.009457301558278,3.380862290441993
6.760257913247423e-07,0.006785346088849456,3.347376016141417
6.860257913247371e-07,0.008455318257241535,3.399465776164512
6.960257913247387e-07,0.005449368354135184,3.362258804719451
7.060257913247403e-07,0.008455318257242295,3.3399346218524
7.160257913247419e-07,0.006451351655170888,3.392024381875518
7.260257913247435e-07,0.005783362787814056,3.351096713285946
7.360257913247383e-07,0.006451351655170888,3.395745079020027
7.460257913247399e-07,0.005449368354135184,3.373420896152977
7.560257913247415e-07,0.007453334956206592,3.354817410430434
7.660257913247431e-07,0.006451351655170128,3.39946577616452
7.76025791324738e-07,0.004781379486778049,3.36597950186396
7.860257913247396e-07,0.006451351655170888,3.38830368473101
7.960257913247411e-07,0.006451351655170888,3.358538107574943
8.060257913247427e-07,0.008121323823562664,3.358538107574959
8.160257913247376e-07,0.005783362787814815,3.39574507902001
8.260257913247392e-07,0.006785346088849456,3.343655318996909
8.360257913247408e-07,0.007119340522528024,3.38830368473101
8.460257913247424e-07,0.007453334956206592,3.377141593297485
8.560257913247372e-07,0.009791295991955504,3.369700199008471
8.660257913247388e-07,0.01012529042563514,3.380862290441993
8.760257913247404e-07,0.008121323823563727,3.351096713285926
8.86025791324742e-07,0.009791295991956567,3.380862290441993
8.960257913247368e-07,0.009123307124599736,3.380862290441993
9.060257913247384e-07,0.01112727372667084,3.373420896152977
9.1602579132474e-07,0.01079327929299227,3.403186473309044
9.260257913247416e-07,0.008455318257242295,3.36597950186396
9.360257913247432e-07,0.01012529042563422,3.395745079020012
9.46025791324738e-07,0.008121323823563727,3.362258804719451
9.560257913247396e-07,0.01012529042563514,3.369700199008468
9.660257913247412e-07,0.009123307124599432,3.410627867598061
9.760257913247428e-07,0.007453334956207352,3.339934621852424
9.860257913247376e-07,0.009123307124598672,3.392024381875495
9.960257913247392e-07,0.008121323823563727,3.36597950186396
1.006025791324741e-06,0.009457301558278,3.373420896152977
1.016025791324742e-06,0.008121323823563727,3.414348564742554
1.026025791324737e-06,0.008121323823563727,3.380862290442008
1.036025791324739e-06,0.008455318257242295,3.395745079020027
1.04602579132474e-06,0.008121323823563727,3.392024381875518
1.056025791324742e-06,0.008789312690920863,3.38830368473101
1.066025791324737e-06,0.008455318257242448,3.399465776164531
1.076025791324738e-06,0.00778732938988516,3.362258804719451
1.08602579132474e-06,0.00778732938988516,3.421789959031586
1.096025791324742e-06,0.006785346088849456,3.384582987586502
1.106025791324743e-06,0.007787329389884856,3.392024381875529
1.116025791324738e-06,0.007119340522528024,3.41434856474257
1.12602579132474e-06,0.007119340522528024,3.377141593297485
1.136025791324741e-06,0.007119340522528024,3.403186473309044
1.146025791324743e-06,0.007119340522529088,3.395745079020029
1.156025791324738e-06,0.009457301558276936,3.399465776164534
1.166025791324739e-06,0.009791295991956567,3.421789959031586
1.176025791324741e-06,0.008789312690920863,3.373420896152977
1.186025791324742e-06,0.01079327929299166,3.429231353320581
1.196025791324737e-06,0.009457301558278607,3.380862290442015
1.206025791324739e-06,0.009791295991956567,3.399465776164535
1.216025791324741e-06,0.01079327929299227,3.395745079020027
1.226025791324742e-06,0.01012529042563514,3.380862290441993
1.236025791324737e-06,0.00979129599195672,3.395745079020021
1.246025791324739e-06,0.008789312690920863,3.392024381875518
1.25602579132474e-06,0.009457301558278,3.399465776164535
1.266025791324742e-06,0.009123307124599432,3.395745079020027
1.276025791324743e-06,0.00711934052252924,3.388303684731019
1.286025791324738e-06,0.009791295991956567,3.406907170453553
1.29602579132474e-06,0.006451351655170888,3.392024381875518
1.306025791324741e-06,0.008455318257242295,3.380862290441993
1.316025791324743e-06,0.007453334956206592,3.418069261887053
1.326025791324738e-06,0.007453334956206592,3.362258804719477
1.336025791324739e-06,0.007119340522528024,3.406907170453553
1.346025791324741e-06,0.006785346088849456,3.373420896152977
1.356025791324743e-06,0.007453334956205832,3.37342089615299
1.366025791324737e-06,0.005783362787814512,3.40318647330903
1.376025791324739e-06,0.007453334956206592,3.362258804719451
1.386025791324741e-06,0.005115373920456617,3.399465776164535
1.396025791324742e-06,0.004781379486778049,3.377141593297485
1.406025791324737e-06,0.006785346088848544,3.362258804719458
1.416025791324739e-06,0.004447385053099481,3.399465776164535
1.42602579132474e-06,0.004447385053099481,3.358538107574943
1.436025791324742e-06,0.00611735722149232,3.406907170453553
1.446025791324743e-06,0.00511537392045768,3.37342089615297
1.456025791324738e-06,0.007453334956206592,3.358538107574943
1.46602579132474e-06,0.005115373920456617,3.41434856474257
1.476025791324741e-06,0.005449368354135184,3.347376016141417
1.486025791324743e-06,0.006117357221492017,3.395745079020012
1.496025791324738e-06,0.005449368354135488,3.362258804719466
1.506025791324739e-06,0.007453334956206592,3.377141593297485
1.516025791324741e-06,0.007453334956206592,3.384582987586502
1.526025791324743e-06,0.008121323823564031,3.351096713285939
1.536025791324737e-06,0.008789312690920559,3.38086229044198
1.546025791324739e-06,0.006785346088849456,3.373420896152977
1.556025791324741e-06,0.00778732938988516,3.377141593297485
1.566025791324742e-06,0.00778732938988516,3.38830368473101
1.576025791324737e-06,0.007119340522528328,3.358538107574956
1.586025791324739e-06,0.007119340522528024,3.399465776164535
1.59602579132474e-06,0.00611735722149232,3.38830368473101
1.606025791324742e-06,0.006785346088849456,3.369700199008468
1.616025791324743e-06,0.00745333495620568,3.403186473309017
1.626025791324738e-06,0.005449368354135184,3.343655318996909
1.63602579132474e-06,0.006785346088849456,3.38830368473101
1.646025791324741e-06,0.004781379486778049,3.373420896152977
1.656025791324743e-06,0.00645135165517104,3.369700199008483
1.666025791324738e-06,0.006785346088849456,3.403186473309044
1.67602579132474e-06,0.005783362787813752,3.351096713285926
1.686025791324741e-06,0.00778732938988516,3.392024381875518
1.696025791324743e-06,0.006117357221492776,3.377141593297487
1.706025791324738e-06,0.007119340522527569,3.380862290441991
1.716025791324739e-06,0.008121323823563727,3.410627867598061
1.726025791324741e-06,0.00611735722149232,3.36597950186396
1.736025791324742e-06,0.008121323823563727,3.399465776164535
1.746025791324737e-06,0.005449368354136399,3.384582987586509
1.756025791324739e-06,0.007453334956206592,3.362258804719451
1.76602579132474e-06,0.006785346088849456,3.418069261887078
1.776025791324742e-06,0.007453334956206592,3.369700199008468
1.786025791324737e-06,0.008121323823563424,3.392024381875508
1.796025791324738e-06,0.00611735722149232,3.377141593297485
1.80602579132474e-06,0.006451351655170888,3.369700199008468
1.816025791324742e-06,0.008789312690920863,3.392024381875518
1.826025791324743e-06,0.00645135165517104,3.380862290442005
1.836025791324738e-06,0.006785346088849456,3.406907170453553
1.84602579132474e-06,0.005449368354135184,3.377141593297485
1.856025791324741e-06,0.008121323823563727,3.377141593297485
1.866025791324743e-06,0.0077873293898844,3.388303684731002
1.876025791324738e-06,0.006117357221493079,3.369700199008476
1.886025791324739e-06,0.008455318257242295,3.395745079020027
1.896025791324741e-06,0.007119340522528024,3.36597950186396
1.906025791324742e-06,0.00778732938988516,3.373420896152977
1.916025791324737e-06,0.007453334956206744,3.39202438187551
1.926025791324739e-06,0.006451351655170888,3.354817410430434
1.93602579132474e-06,0.006785346088849456,3.392024381875518
1.946025791324742e-06,0.006451351655170888,3.373420896152977
1.956025791324737e-06,0.009457301558276633,3.358538107574949
1.966025791324738e-06,0.005449368354135184,3.395745079020027
1.97602579132474e-06,0.008789312690920863,3.347376016141417
1.986025791324742e-06,0.006785346088849456,3.403186473309044
1.996025791324743e-06,0.006451351655171495,3.365979501863949
2.006025791324738e-06,0.00778732938988516,3.343655318996909
2.01602579132474e-06,0.00778732938988516,3.38830368473101
2.026025791324741e-06,0.00611735722149232,3.332493227563384
2.036025791324743e-06,0.007787329389884553,3.38086229044198
2.046025791324738e-06,0.006451351655171496,3.351096713285939
2.056025791324739e-06,0.007453334956206592,3.351096713285926
2.066025791324741e-06,0.00778732938988516,3.373420896152977
2.076025791324742e-06,0.00711934052252848,3.343655318996922
2.086025791324737e-06,0.008121323823563271,3.373420896152963
2.096025791324739e-06,0.007453334956206592,3.354817410430434
2.10602579132474e-06,0.008121323823563727,3.373420896152977
2.116025791324742e-06,0.008455318257242295,3.380862290441993
2.126025791324737e-06,0.007119340522528632,3.351096713285939
2.136025791324738e-06,0.008121323823563727,3.38830368473101
2.14602579132474e-06,0.008121323823563727,3.36597950186396
2.156025791324742e-06,0.008455318257242295,3.358538107574943
2.166025791324743e-06,0.007787329389884704,3.388303684730992
2.176025791324738e-06,0.006785346088849456,3.347376016141417
2.18602579132474e-06,0.007453334956206592,3.392024381875518
2.196025791324741e-06,0.005115373920456617,3.369700199008468
2.206025791324743e-06,0.00711934052252848,3.365979501863975
