traces_bank_current_trigger/sampling_freq_100MHz/STR/STR_1.csv

#Digilent WaveForms Oscilloscope Acquisition
#Device Name: Discovery2
#Serial Number: SN:210321B3D813
#Date Time: 2023-06-19 09:46:42.394
#Sample rate: 1e+08Hz
#Samples: 8192
#Trigger: Source: Channel 2 Type: Edge Condition: Rising Level: 2 V Hyst.: Auto HoldOff: 0 s
#Channel 1: Range: 10 mV/div Offset: 0 V Attenuation: 1 X Sample Mode: Average
#Channel 2: Range: 5 V/div Offset: 0 V Attenuation: 1 X Sample Mode: Average

Time (s),Channel 1 (V),Channel 2 (V)
-9.535399449035761e-07,0.006785346088849456,0.002469283228321573
-9.435399449035745e-07,0.00778732938988516,-0.01985489963872912
-9.335399449035729e-07,0.008455318257241384,-0.001251413916195336
-9.235399449035781e-07,0.0064513516551718,-0.01985489963872066
-9.135399449035765e-07,0.007453334956206592,-0.004972111060695325
-9.035399449035749e-07,0.00611735722149232,0.002469283228321573
-8.935399449035733e-07,0.008121323823563727,-0.02729629392774602
-8.835399449035785e-07,0.00711934052252848,-0.004972111060705477
-8.735399449035769e-07,0.007119340522528024,-0.008692808205203774
-8.635399449035753e-07,0.007119340522528024,-0.01241350534971222
-8.535399449035737e-07,0.006785346088849456,0.01735207180635537
-8.435399449035721e-07,0.006785346088849304,-0.01241350534970207
-8.335399449035773e-07,0.006451351655170888,0.00991067751733847
-8.235399449035757e-07,0.006451351655170888,-0.01241350534971222
-8.135399449035741e-07,0.007453334956206592,-0.01241350534971222
-8.035399449035725e-07,0.007453334956206744,-0.0124135053497173
-7.935399449035776e-07,0.007787329389885008,-0.02357559678323249
-7.83539944903576e-07,0.008121323823563727,0.006189980372830022
-7.735399449035744e-07,0.007119340522528024,-0.01985489963872912
-7.635399449035728e-07,0.007787329389884553,0.00618998037283679
-7.53539944903578e-07,0.006451351655171496,0.02107276895085705
-7.435399449035764e-07,0.006785346088849456,-0.01241350534971222
-7.335399449035748e-07,0.008121323823563727,0.02479346609537227
-7.235399449035732e-07,0.006785346088849456,-0.01241350534971222
-7.135399449035784e-07,0.007787329389884704,0.01735207180634183
-7.035399449035768e-07,0.007119340522528024,0.002469283228321573
-6.935399449035752e-07,0.004781379486778049,-0.01985489963872912
-6.835399449035736e-07,0.007453334956206592,0.01735207180635537
-6.73539944903572e-07,0.007119340522528176,-0.01613420249420714
-6.635399449035772e-07,0.007453334956206592,0.01363137466184692
-6.535399449035756e-07,0.005449368354135184,0.00991067751733847
-6.43539944903574e-07,0.007119340522528024,0.006189980372830022
-6.335399449035724e-07,0.007119340522527265,0.01735207180634352
-6.235399449035776e-07,0.005449368354135944,-0.008692808205191929
-6.13539944903576e-07,0.006785346088849456,0.006189980372830022
-6.035399449035744e-07,0.005449368354135184,0.02479346609537227
-5.935399449035728e-07,0.00645135165517104,-0.02357559678322065
-5.83539944903578e-07,0.006785346088849304,0.01363137466183
-5.735399449035764e-07,0.00611735722149232,-0.001251413916186876
-5.635399449035748e-07,0.005783362787813752,0.01363137466184692
-5.535399449035732e-07,0.00611735722149232,0.01363137466184692
-5.435399449035783e-07,0.006785346088849152,-0.01241350534970038
-5.335399449035767e-07,0.007119340522528024,0.03967625467340606
-5.235399449035751e-07,0.006451351655170888,-0.01241350534971222
-5.135399449035735e-07,0.00611735722149232,0.03595555752889761
-5.035399449035719e-07,0.006117357221491713,0.0173520718063486
-4.935399449035771e-07,0.004781379486778049,0.002469283228321573
-4.835399449035755e-07,0.006785346088849456,0.02851416323988071
-4.735399449035739e-07,0.006785346088849456,-0.01613420249422067
-4.635399449035723e-07,0.006117357221491561,0.01735207180635537
-4.535399449035775e-07,0.004447385053099481,0.01735207180635537
-4.435399449035759e-07,0.005449368354135184,-0.01241350534971222
-4.335399449035743e-07,0.006785346088849456,0.00991067751733847
-4.235399449035727e-07,0.004447385053099785,-0.01241350534970207
-4.135399449035779e-07,0.005115373920456313,0.009910677517328319
-4.035399449035763e-07,0.004113390619420913,0.02479346609537227
-3.935399449035747e-07,0.005115373920456617,-0.01985489963872912
-3.835399449035731e-07,0.00611735722149232,0.03223486038438916
-3.735399449035783e-07,0.004447385053100241,0.002469283228335107
-3.635399449035767e-07,0.00778732938988516,-0.001251413916186876
-3.535399449035751e-07,0.003779396185742345,0.01363137466184692
-3.435399449035735e-07,0.006785346088849456,-0.03473768821676292
-3.335399449035719e-07,0.006117357221492169,0.03595555752888407
-3.235399449035771e-07,0.005783362787813752,0.006189980372830022
-3.135399449035755e-07,0.004781379486778049,0.02107276895086382
-3.035399449035739e-07,0.004781379486778049,0.02851416323988071
-2.935399449035723e-07,0.006451351655171192,-0.02357559678321727
-2.835399449035774e-07,0.007119340522528024,0.02107276895086382
-2.735399449035758e-07,0.005783362787813752,-0.01241350534971222
-2.635399449035742e-07,0.005449368354135184,0.006189980372830022
-2.535399449035726e-07,0.006451351655170433,0.01735207180635199
-2.435399449035778e-07,0.00544936835413564,0.009910677517341853
-2.335399449035762e-07,0.008121323823563727,0.02107276895086382
-2.235399449035746e-07,0.005783362787813752,0.00991067751733847
-2.13539944903573e-07,0.00778732938988516,0.02851416323988071
-2.035399449035782e-07,0.006785346088849911,0.02851416323988071
-1.935399449035766e-07,0.006451351655170888,0.002469283228321573
-1.83539944903575e-07,0.00778732938988516,0.03967625467340606
-1.735399449035734e-07,0.004781379486778049,0.002469283228321573
-1.635399449035786e-07,0.005115373920456465,0.02107276895085536
-1.53539944903577e-07,0.007453334956206592,0.03223486038438916
-1.435399449035754e-07,0.006785346088849456,-0.004972111060695325
-1.335399449035738e-07,0.008121323823563727,0.03967625467340606
-1.235399449035722e-07,0.008789312690920559,0.006189980372840173
-1.135399449035774e-07,0.008121323823563727,0.02851416323988071
-1.035399449035758e-07,0.00778732938988516,0.03223486038438916
-9.353994490357418e-08,0.006451351655170888,0.006189980372830022
-8.353994490357258e-08,0.00945730155827648,0.02851416323987564
-7.353994490357776e-08,0.006117357221493839,0.01735207180636044
-6.353994490357616e-08,0.009123307124599432,0.02851416323988071
-5.353994490357456e-08,0.005783362787813752,0.02479346609537227
-4.353994490357297e-08,0.008789312690919799,-0.001251413916176724
-3.353994490357814e-08,0.006451351655171952,0.02107276895085367
-2.353994490357655e-08,0.00611735722149232,0.01735207180635537
-1.353994490357495e-08,0.008121323823563727,0.02107276895086382
-3.539944903573349e-09,-0.009914375595078939,1.040543786546179
6.460055096421473e-09,0.01246325146137493,3.741769913458084
1.646005509642307e-08,0.001107440716313802,3.019954667424674
2.646005509642467e-08,0.01546920136449222,3.306448347551824
3.646005509642627e-08,0.01346523476242081,3.310169044696333
4.646005509642787e-08,0.01413322362977248,3.284124164684813
5.646005509642269e-08,0.002109424017349506,3.369700199008468
6.646005509642429e-08,0.00778732938988516,3.369700199008468
7.646005509642589e-08,0.003111407318385209,3.395745079020027
8.646005509642748e-08,0.003111407318383994,3.351096713285932
9.646005509642231e-08,0.0004394518489578814,3.365979501863953
1.064600550964239e-07,0.004781379486778049,3.287844861829282
1.164600550964255e-07,0.00611735722149232,3.347376016141417
1.264600550964271e-07,0.006785346088849608,3.272962073251265
1.364600550964219e-07,0.007119340522527873,3.310169044696316
1.464600550964235e-07,0.01012529042563514,3.328772530418875
1.564600550964251e-07,0.007453334956206592,3.325051833274367
1.664600550964267e-07,0.007119340522528024,3.358538107574943
1.764600550964215e-07,0.004447385053100696,3.347376016141422
1.864600550964231e-07,0.004447385053099481,3.369700199008468
1.964600550964247e-07,0.004447385053099481,3.373420896152977
2.064600550964263e-07,0.002443418451028074,3.325051833274367
2.164600550964279e-07,0.005449368354134424,3.358538107574917
2.264600550964228e-07,0.003779396185742345,3.302727650407316
2.364600550964244e-07,0.007119340522528024,3.31761043898535
2.46460055096426e-07,0.008455318257242295,3.325051833274367
2.564600550964276e-07,0.006451351655171952,3.325051833274383
2.664600550964224e-07,0.008789312690919799,3.362258804719434
2.76460055096424e-07,0.003445401752063777,3.354817410430434
2.864600550964256e-07,0.005449368354135184,3.377141593297485
2.964600550964272e-07,0.003111407318385513,3.365979501863946
3.06460055096422e-07,0.003779396185742042,3.336213924707905
3.164600550964236e-07,0.003445401752063777,3.358538107574943
3.264600550964252e-07,0.003779396185742345,3.313889741840841
3.364600550964268e-07,0.005449368354135184,3.343655318996909
3.464600550964216e-07,0.004447385053099937,3.332493227563389
3.564600550964232e-07,0.006785346088849456,3.299006953262807
3.664600550964248e-07,0.00611735722149232,3.369700199008468
3.764600550964264e-07,0.00611735722149232,3.3399346218524
3.86460055096428e-07,0.006785346088848392,3.354817410430443
3.964600550964228e-07,0.004447385053099481,3.373420896152977
4.064600550964244e-07,0.00611735722149232,3.3399346218524
4.16460055096426e-07,0.007119340522528024,3.373420896152977
4.264600550964276e-07,0.005115373920457224,3.347376016141419
4.364600550964224e-07,0.00645135165517028,3.351096713285924
4.46460055096424e-07,0.00611735722149232,3.362258804719451
4.564600550964256e-07,0.007453334956206592,3.328772530418875
4.664600550964272e-07,0.008121323823563575,3.369700199008461
4.764600550964221e-07,0.007787329389885311,3.354817410430441
4.864600550964237e-07,0.007453334956206592,3.369700199008468
4.964600550964253e-07,0.005783362787813752,3.380862290441993
5.064600550964269e-07,0.006785346088849456,3.358538107574943
5.164600550964217e-07,0.007119340522527873,3.37342089615297
5.264600550964233e-07,0.00611735722149232,3.354817410430434
5.364600550964249e-07,0.00611735722149232,3.362258804719451
5.464600550964265e-07,0.006451351655170888,3.36597950186396
5.564600550964281e-07,0.007453334956207047,3.351096713285929
5.664600550964229e-07,0.008455318257242295,3.358538107574943
5.764600550964245e-07,0.004781379486778049,3.343655318996909
5.864600550964261e-07,0.007453334956206592,3.362258804719451
5.964600550964277e-07,0.00645135165517104,3.373420896152965
6.064600550964225e-07,0.006785346088849456,3.347376016141417
6.164600550964241e-07,0.008455318257242295,3.384582987586502
6.264600550964257e-07,0.005449368354135184,3.354817410430434
6.364600550964273e-07,0.007453334956206137,3.354817410430443
6.464600550964221e-07,0.006451351655171344,3.373420896152968
6.564600550964237e-07,0.005783362787813752,3.343655318996909
6.664600550964253e-07,0.00778732938988516,3.384582987586502
6.764600550964269e-07,0.005783362787813752,3.354817410430434
6.864600550964217e-07,0.006451351655170585,3.362258804719448
6.964600550964233e-07,0.005783362787813752,3.369700199008468
7.064600550964249e-07,0.005115373920456617,3.3399346218524
7.164600550964265e-07,0.004781379486778049,3.392024381875518
7.264600550964281e-07,0.003779396185743408,3.369700199008476
7.36460055096423e-07,0.00611735722149232,3.38830368473101
7.464600550964246e-07,0.003779396185742345,3.380862290441993
7.564600550964262e-07,0.004781379486778049,3.351096713285926
7.664600550964277e-07,0.005115373920455705,3.388303684730998
7.764600550964226e-07,0.003111407318385209,3.362258804719451
7.864600550964242e-07,0.004113390619420913,3.38830368473101
7.964600550964258e-07,0.004447385053099481,3.362258804719451
8.064600550964274e-07,0.004781379486778656,3.365979501863963
8.164600550964222e-07,0.006117357221491712,3.373420896152973
8.264600550964238e-07,0.004447385053099481,3.373420896152977
8.364600550964254e-07,0.006451351655170888,3.384582987586502
8.46460055096427e-07,0.004447385053099481,3.373420896152977
8.564600550964218e-07,0.005783362787813145,3.354817410430443
8.664600550964234e-07,0.007453334956206592,3.395745079020027
8.76460055096425e-07,0.006451351655170888,3.362258804719451
8.864600550964266e-07,0.007453334956206592,3.362258804719451
8.964600550964214e-07,0.006785346088849759,3.365979501863958
9.06460055096423e-07,0.009123307124599432,3.362258804719451
9.164600550964246e-07,0.006451351655170888,3.384582987586502
9.264600550964262e-07,0.00611735722149232,3.354817410430434
9.364600550964278e-07,0.006451351655171192,3.380862290441997
9.464600550964226e-07,0.007119340522528024,3.38830368473101
9.564600550964242e-07,0.007119340522528024,3.377141593297485
9.664600550964258e-07,0.006785346088849456,3.392024381875518
9.764600550964274e-07,0.006451351655170585,3.36597950186397
9.864600550964223e-07,0.005783362787814056,3.388303684731
9.964600550964239e-07,0.006451351655170888,3.380862290441993
1.006460055096425e-06,0.004781379486778049,3.358538107574943
1.016460055096427e-06,0.007119340522526657,3.392024381875502
1.026460055096422e-06,0.00411339061942228,3.354817410430451
1.036460055096423e-06,0.00611735722149232,3.395745079020027
1.046460055096425e-06,0.004781379486778049,3.354817410430434
1.056460055096427e-06,0.00611735722149232,3.36597950186396
1.066460055096421e-06,0.006451351655170736,3.37714159329748
1.076460055096423e-06,0.00611735722149232,3.362258804719451
1.086460055096425e-06,0.007453334956206592,3.380862290441993
1.096460055096426e-06,0.004447385053099481,3.380862290441993
1.106460055096428e-06,0.005783362787814207,3.354817410430451
1.116460055096423e-06,0.006785346088849456,3.392024381875518
1.126460055096424e-06,0.004447385053099481,3.358538107574943
1.136460055096426e-06,0.005783362787813752,3.377141593297485
1.146460055096427e-06,0.004781379486778809,3.369700199008463
1.156460055096422e-06,0.006451351655170129,3.358538107574947
1.166460055096424e-06,0.00778732938988516,3.395745079020027
1.176460055096426e-06,0.005783362787813752,3.369700199008468
1.186460055096427e-06,0.007453334956206592,3.392024381875517
1.196460055096422e-06,0.007453334956206592,3.388303684731012
1.206460055096424e-06,0.00778732938988516,3.373420896152977
1.216460055096425e-06,0.007453334956206592,3.384582987586502
1.226460055096427e-06,0.00778732938988516,3.36597950186396
1.236460055096422e-06,0.008121323823563575,3.37714159329748
1.246460055096423e-06,0.006451351655170888,3.380862290441993
1.256460055096425e-06,0.008455318257242295,3.358538107574943
1.266460055096426e-06,0.007119340522528024,3.38830368473101
1.276460055096428e-06,0.006451351655171495,3.380862290442003
1.286460055096423e-06,0.00778732938988516,3.403186473309044
1.296460055096424e-06,0.005449368354135184,3.38830368473101
1.306460055096426e-06,0.006451351655170888,3.36597950186396
1.316460055096428e-06,0.006451351655170433,3.410627867598047
1.326460055096422e-06,0.00544936835413564,3.380862290442006
1.336460055096424e-06,0.004113390619420913,3.380862290441993
1.346460055096426e-06,0.005115373920456617,3.399465776164535
1.356460055096427e-06,0.004113390619421824,3.362258804719463
1.366460055096422e-06,0.006117357221491409,3.388303684730998
1.376460055096424e-06,0.004781379486778049,3.36597950186396
1.386460055096425e-06,0.007119340522528024,3.362258804719451
1.396460055096427e-06,0.004447385053099481,3.384582987586502
1.406460055096422e-06,0.005449368354134729,3.354817410430448
1.416460055096423e-06,0.002777412884706641,3.399465776164535
1.426460055096425e-06,0.002777412884706641,3.362258804719451
1.436460055096426e-06,0.004447385053099481,3.38830368473101
1.446460055096428e-06,0.002777412884707705,3.369700199008463
1.456460055096423e-06,0.005115373920456617,3.358538107574943
1.466460055096424e-06,0.006785346088849456,3.384582987586502
1.476460055096426e-06,0.00611735722149232,3.347376016141417
1.486460055096428e-06,0.006451351655169673,3.369700199008478
1.496460055096422e-06,0.00377939618574356,3.392024381875508
1.506460055096424e-06,0.005115373920456617,3.369700199008468
1.516460055096426e-06,0.004447385053099481,3.399465776164535
1.526460055096427e-06,0.004447385053100088,3.380862290441991
1.536460055096422e-06,0.005783362787813145,3.377141593297487
1.546460055096424e-06,0.004447385053099481,3.380862290441993
1.556460055096425e-06,0.006785346088849456,3.351096713285926
1.566460055096427e-06,0.007453334956206592,3.377141593297485
1.576460055096422e-06,0.007787329389885008,3.351096713285938
1.586460055096423e-06,0.008121323823563727,3.377141593297485
1.596460055096425e-06,0.005115373920456617,3.384582987586502
1.606460055096426e-06,0.008121323823563727,3.373420896152977
1.616460055096428e-06,0.006785346088848392,3.403186473309035
1.626460055096423e-06,0.004447385053099481,3.384582987586502
1.636460055096425e-06,0.006451351655170888,3.377141593297485
1.646460055096426e-06,0.005449368354135184,3.38830368473101
1.656460055096428e-06,0.005115373920457832,3.343655318996924
1.666460055096423e-06,0.00778732938988516,3.377141593297485
1.676460055096424e-06,0.006451351655170888,3.343655318996909
1.686460055096426e-06,0.007453334956206592,3.377141593297485
1.696460055096427e-06,0.006451351655171344,3.369700199008464
1.706460055096422e-06,0.007453334956206137,3.362258804719455
1.716460055096424e-06,0.00778732938988516,3.392024381875518
1.726460055096425e-06,0.006451351655170888,3.358538107574943
1.736460055096427e-06,0.005449368354135184,3.377141593297485
1.746460055096422e-06,0.004113390619421521,3.384582987586498
1.756460055096423e-06,0.00778732938988516,3.362258804719451
1.766460055096425e-06,0.006451351655170888,3.373420896152977
1.776460055096427e-06,0.006451351655170888,3.351096713285926
1.786460055096421e-06,0.008789312690919799,3.358538107574939
1.796460055096423e-06,0.007453334956206592,3.384582987586502
1.806460055096425e-06,0.008121323823563727,3.332493227563384
1.816460055096426e-06,0.008121323823563727,3.392024381875518
1.826460055096428e-06,0.00645135165517104,3.351096713285941
1.836460055096423e-06,0.006785346088849456,3.384582987586502
1.846460055096424e-06,0.006451351655170888,3.377141593297485
1.856460055096426e-06,0.009123307124599432,3.362258804719451
1.866460055096427e-06,0.00645135165517104,3.384582987586487
1.876460055096422e-06,0.006785346088849304,3.351096713285941
1.886460055096424e-06,0.00778732938988516,3.392024381875518
1.896460055096425e-06,0.005783362787813752,3.373420896152977
1.906460055096427e-06,0.006785346088849456,3.358538107574943
1.916460055096422e-06,0.007453334956206288,3.37342089615297
1.926460055096423e-06,0.00778732938988516,3.343655318996909
1.936460055096425e-06,0.008121323823563727,3.373420896152977
1.946460055096427e-06,0.006451351655170888,3.373420896152977
1.956460055096421e-06,0.006785346088849304,3.343655318996922
1.966460055096423e-06,0.008121323823563727,3.380862290441993
1.976460055096425e-06,0.006451351655170888,3.343655318996909
1.986460055096426e-06,0.006785346088849456,3.369700199008468
1.996460055096428e-06,0.006451351655170736,3.362258804719448
2.006460055096423e-06,0.00611735722149232,3.354817410430434
2.016460055096424e-06,0.00611735722149232,3.377141593297485
2.026460055096426e-06,0.005783362787813752,3.351096713285926
2.036460055096427e-06,0.006117357221492017,3.3845829875865
2.046460055096422e-06,0.005449368354135488,3.380862290441995
2.056460055096424e-06,0.005449368354135184,3.347376016141417
2.066460055096425e-06,0.00611735722149232,3.373420896152977
2.076460055096427e-06,0.004447385053100088,3.362258804719453
2.086460055096422e-06,0.005783362787813145,3.365979501863958
2.096460055096423e-06,0.005115373920456617,3.369700199008468
2.106460055096425e-06,0.007453334956206592,3.336213924707892
2.116460055096427e-06,0.008789312690920863,3.377141593297485
2.126460055096422e-06,0.006117357221493536,3.347376016141431
2.136460055096423e-06,0.007119340522528024,3.369700199008468
2.146460055096425e-06,0.006785346088849456,3.377141593297485
2.156460055096426e-06,0.005449368354135184,3.343655318996909
2.166460055096428e-06,0.006785346088849152,3.384582987586487
2.176460055096423e-06,0.00611735722149232,3.351096713285926
2.186460055096424e-06,0.007119340522528024,3.377141593297485
2.196460055096426e-06,0.004781379486778049,3.373420896152977
