traces_bank_current_trigger/sampling_freq_100MHz/ADDi/ADDi_4.csv

#Digilent WaveForms Oscilloscope Acquisition
#Device Name: Discovery2
#Serial Number: SN:210321B3D813
#Date Time: 2023-06-13 10:33:59.936
#Sample rate: 1e+08Hz
#Samples: 8192
#Trigger: Source: Channel 2 Type: Edge Condition: Rising Level: 2 V Hyst.: Auto HoldOff: 0 s
#Channel 1: Range: 5 mV/div Offset: 0 V Attenuation: 1 X Sample Mode: Average
#Channel 2: Range: 2 V/div Offset: 0 V Attenuation: 1 X Sample Mode: Average

Time (s),Channel 1 (V),Channel 2 (V)
-9.539570164348926e-07,0.006785346088849456,0.01363137466184692
-9.43957016434891e-07,0.00778732938988516,-0.001251413916186876
-9.339570164348894e-07,0.008455318257241384,0.03967625467338406
-9.239570164348946e-07,0.0064513516551718,-0.008692808205181778
-9.13957016434893e-07,0.004781379486778049,0.01735207180635537
-9.039570164348914e-07,0.005783362787813752,0.01363137466184692
-8.939570164348898e-07,0.008455318257242295,-0.004972111060695325
-8.839570164348949e-07,0.0064513516551718,0.03967625467338576
-8.739570164348933e-07,0.006451351655170888,-0.01613420249422067
-8.639570164348917e-07,0.006451351655170888,0.03595555752889761
-8.539570164348901e-07,0.004113390619420913,0.01735207180635537
-8.439570164348885e-07,0.005783362787814207,-0.01613420249420037
-8.339570164348937e-07,0.006785346088849456,0.02851416323988071
-8.239570164348921e-07,0.00611735722149232,0.002469283228321573
-8.139570164348905e-07,0.00611735722149232,0.01735207180635537
-8.039570164348889e-07,0.004781379486778504,-0.008692808205200389
-7.939570164348941e-07,0.005783362787813297,-0.00125141391619026
-7.839570164348925e-07,0.006451351655170888,0.01735207180635537
-7.739570164348909e-07,0.005115373920456617,-0.008692808205203774
-7.639570164348893e-07,0.005115373920456465,0.02479346609537396
-7.539570164348945e-07,0.004781379486778201,0.02851416323987902
-7.439570164348929e-07,0.006785346088849456,-0.01613420249422067
-7.339570164348913e-07,0.008121323823563727,0.03223486038438916
-7.239570164348897e-07,0.005783362787813752,-0.01613420249422067
-7.139570164348949e-07,0.006117357221492169,0.0210727689508469
-7.039570164348933e-07,0.005115373920456617,0.002469283228321573
-6.939570164348917e-07,0.006451351655170888,-0.001251413916186876
-6.839570164348901e-07,0.006451351655170888,0.02851416323988071
-6.739570164348885e-07,0.005115373920456768,-0.001251413916175032
-6.639570164348937e-07,0.005449368354135184,0.02479346609537227
-6.539570164348921e-07,0.005115373920456617,0.02107276895086382
-6.439570164348905e-07,0.005449368354135184,-0.03101699107225447
-6.339570164348889e-07,0.00611735722149232,0.03595555752888238
-6.23957016434894e-07,0.00611735722149232,0.002469283228336804
-6.139570164348924e-07,0.004447385053099481,0.03223486038438916
-6.039570164348908e-07,0.004447385053099481,0.006189980372830022
-5.939570164348892e-07,0.004781379486779264,0.006189980372830022
-5.839570164348944e-07,0.007453334956205377,0.006189980372830022
-5.739570164348928e-07,0.004113390619420913,0.006189980372830022
-5.639570164348912e-07,0.006451351655170888,0.02851416323988071
-5.539570164348896e-07,0.005783362787813752,0.00991067751733847
-5.439570164348948e-07,0.007453334956205832,-0.01241350534970207
-5.339570164348932e-07,0.00611735722149232,0.03223486038438916
-5.239570164348916e-07,0.005783362787813752,0.00991067751733847
-5.1395701643489e-07,0.005449368354135184,0.03223486038438916
-5.039570164348884e-07,0.006117357221492472,0.01735207180634691
-4.939570164348936e-07,0.006451351655170888,-0.001251413916186876
-4.83957016434892e-07,0.006451351655170888,0.04339695181791451
-4.739570164348904e-07,0.005449368354135184,-0.01613420249422067
-4.639570164348888e-07,0.006117357221492017,0.03595555752889423
-4.53957016434894e-07,0.005449368354135184,0.02851416323988071
-4.439570164348924e-07,0.00611735722149232,-0.001251413916186876
-4.339570164348908e-07,0.005449368354135184,0.03595555752889761
-4.239570164348892e-07,0.005449368354135336,-0.004972111060671637
-4.139570164348944e-07,0.0057833627878136,0.04711764896239927
-4.039570164348928e-07,0.005449368354135184,0.01735207180635537
-3.939570164348912e-07,0.006451351655170888,-0.01613420249422067
-3.839570164348896e-07,0.005449368354135184,0.03967625467340606
-3.739570164348947e-07,0.0057833627878136,-0.001251413916168266
-3.639570164348931e-07,0.00611735722149232,0.03595555752889761
-3.539570164348915e-07,0.00611735722149232,0.006189980372830022
-3.439570164348899e-07,0.007453334956206592,-0.004972111060695325
-3.339570164348883e-07,0.005783362787813904,0.0322348603843807
-3.239570164348935e-07,0.00611735722149232,0.01363137466184692
-3.139570164348919e-07,0.003779396185742345,0.02851416323988071
-3.039570164348903e-07,0.005449368354135184,0.01363137466184692
-2.939570164348887e-07,0.007119340522527873,-0.008692808205181778
-2.839570164348939e-07,0.006785346088849456,0.03967625467340606
-2.739570164348923e-07,0.005783362787813752,-0.004972111060695325
-2.639570164348907e-07,0.005783362787813752,0.03223486038438916
-2.539570164348891e-07,0.006785346088849152,0.02479346609536042
-2.439570164348943e-07,0.006117357221492624,-0.001251413916175032
-2.339570164348927e-07,0.007453334956206592,0.03595555752889761
-2.239570164348911e-07,0.006785346088849456,-0.008692808205203774
-2.139570164348895e-07,0.005783362787813752,0.01735207180635537
-2.039570164348947e-07,0.004781379486778504,0.02851416323987564
-1.939570164348931e-07,0.006785346088849456,-0.001251413916186876
-1.839570164348915e-07,0.00611735722149232,0.04339695181791451
-1.739570164348899e-07,0.005783362787813752,-0.008692808205203774
-1.639570164348951e-07,0.005449368354135336,0.01363137466183677
-1.539570164348935e-07,0.004781379486778049,0.02479346609537227
-1.439570164348919e-07,0.007453334956206592,0.01363137466184692
-1.339570164348903e-07,0.007453334956206592,0.02479346609537227
-1.239570164348887e-07,0.005783362787814207,-0.01613420249419868
-1.139570164348938e-07,0.006785346088849456,0.03223486038438916
-1.039570164348922e-07,0.007453334956206592,0.02479346609537227
-9.395701643489065e-08,0.005783362787813752,-0.01613420249422067
-8.395701643488905e-08,0.007119340522527569,0.01735207180635367
-7.395701643489423e-08,0.006117357221492776,0.01363137466184861
-6.395701643489263e-08,0.004781379486778049,0.02479346609537227
-5.395701643489103e-08,0.005115373920456617,-0.001251413916186876
-4.395701643488943e-08,0.004447385053099937,0.006189980372848633
-3.395701643489461e-08,0.005449368354134729,0.04711764896240435
-2.395701643489301e-08,0.005115373920456617,-0.004972111060695325
-1.395701643489141e-08,0.006451351655170888,0.01735207180635537
-3.957016434889815e-09,-0.00657443125829326,0.8321847464537058
6.042983565105007e-09,0.005115373920451302,3.77525618775855
1.60429835651066e-08,0.004113390619420913,2.997630484557623
2.60429835651082e-08,0.007119340522528024,3.31761043898535
3.60429835651098e-08,0.01379922919609938,3.313889741840841
4.60429835651114e-08,0.009457301558276329,3.287844861829322
5.604298356510622e-08,0.005783362787813752,3.377141593297485
6.604298356510782e-08,0.001775429583670938,3.351096713285926
7.604298356510942e-08,0.003111407318385209,3.406907170453553
8.604298356511102e-08,0.000773446282635386,3.354817410430458
9.604298356510584e-08,0.00110744071631365,3.406907170453529
1.060429835651074e-07,0.0001054574152780984,3.299006953262807
1.16042983565109e-07,0.003779396185742345,3.36597950186396
1.260429835651106e-07,0.005783362787813752,3.261799981817755
1.360429835651055e-07,0.005783362787813752,3.332493227563352
1.460429835651071e-07,0.004447385053099481,3.302727650407316
1.560429835651087e-07,0.007119340522528024,3.343655318996909
1.660429835651103e-07,0.008121323823563727,3.3399346218524
1.760429835651051e-07,0.005783362787814815,3.354817410430428
1.860429835651067e-07,0.001107440716313802,3.36597950186396
1.960429835651083e-07,0.001775429583670938,3.399465776164535
2.060429835651099e-07,0.003111407318385209,3.3399346218524
2.160429835651115e-07,0.002777412884706489,3.388303684730975
2.260429835651063e-07,0.002443418451028074,3.310169044696333
2.360429835651079e-07,0.005783362787813752,3.377141593297485
2.460429835651095e-07,0.003779396185742345,3.31761043898535
2.560429835651111e-07,0.007453334956205832,3.343655318996921
2.660429835651059e-07,0.005783362787814512,3.369700199008456
2.760429835651075e-07,0.003779396185742345,3.325051833274367
2.860429835651091e-07,0.00611735722149232,3.380862290441993
2.960429835651107e-07,0.003779396185742345,3.384582987586492
3.060429835651055e-07,0.003779396185742345,3.362258804719461
3.160429835651071e-07,0.003445401752063777,3.403186473309044
3.260429835651087e-07,0.00144143514999237,3.336213924707892
3.360429835651103e-07,0.004447385053099481,3.36597950186396
3.460429835651051e-07,0.004113390619421065,3.328772530418892
3.560429835651067e-07,0.008121323823563727,3.336213924707892
3.660429835651083e-07,0.006785346088849456,3.347376016141417
3.760429835651099e-07,0.007453334956206592,3.3399346218524
3.860429835651115e-07,0.006451351655170888,3.384582987586495
3.960429835651064e-07,0.006451351655170888,3.369700199008468
4.06042983565108e-07,0.006785346088849456,3.351096713285926
4.160429835651096e-07,0.008121323823563727,3.399465776164535
4.260429835651111e-07,0.00611735722149232,3.343655318996924
4.36042983565106e-07,0.00611735722149232,3.37714159329747
4.460429835651076e-07,0.004781379486778049,3.354817410430434
4.560429835651092e-07,0.007119340522528024,3.354817410430434
4.660429835651108e-07,0.005783362787814359,3.369700199008453
4.760429835651056e-07,0.007119340522527417,3.336213924707907
4.860429835651072e-07,0.00778732938988516,3.36597950186396
4.960429835651088e-07,0.005783362787813752,3.358538107574943
5.060429835651104e-07,0.007453334956206592,3.369700199008468
5.160429835651052e-07,0.006451351655171344,3.392024381875508
5.260429835651068e-07,0.004781379486778049,3.3399346218524
5.360429835651084e-07,0.005449368354135184,3.395745079020027
5.4604298356511e-07,0.004781379486778049,3.377141593297485
5.560429835651116e-07,0.007787329389884704,3.347376016141434
5.660429835651064e-07,0.006785346088849456,3.384582987586502
5.76042983565108e-07,0.007119340522528024,3.354817410430434
5.860429835651096e-07,0.00778732938988516,3.373420896152977
5.960429835651112e-07,0.007119340522528784,3.377141593297476
6.06042983565106e-07,0.008789312690920863,3.358538107574943
6.160429835651076e-07,0.009457301558278,3.380862290441993
6.260429835651092e-07,0.008455318257242295,3.347376016141417
6.360429835651108e-07,0.008789312690919799,3.395745079020017
6.460429835651057e-07,0.006451351655171952,3.373420896152987
6.560429835651073e-07,0.009123307124599432,3.373420896152977
6.660429835651089e-07,0.008789312690920863,3.377141593297485
6.760429835651105e-07,0.00778732938988516,3.354817410430434
6.860429835651053e-07,0.008121323823563575,3.392024381875502
6.960429835651069e-07,0.006785346088849456,3.373420896152977
7.060429835651085e-07,0.008455318257242295,3.362258804719451
7.160429835651101e-07,0.00778732938988516,3.395745079020027
7.260429835651117e-07,0.005449368354136399,3.347376016141427
7.360429835651065e-07,0.008121323823563727,3.369700199008468
7.460429835651081e-07,0.005783362787813752,3.380862290441993
7.560429835651097e-07,0.00611735722149232,3.362258804719451
7.660429835651113e-07,0.008789312690919496,3.395745079020007
7.760429835651061e-07,0.005783362787813752,3.351096713285926
7.860429835651077e-07,0.006451351655170888,3.384582987586502
7.960429835651093e-07,0.005115373920456617,3.373420896152977
8.060429835651109e-07,0.006785346088849304,3.347376016141434
8.160429835651057e-07,0.00645135165517104,3.384582987586485
8.260429835651073e-07,0.004781379486778049,3.358538107574943
8.360429835651089e-07,0.006451351655170888,3.380862290441993
8.460429835651105e-07,0.005783362787813752,3.377141593297485
8.560429835651053e-07,0.008121323823562664,3.377141593297485
8.660429835651069e-07,0.008789312690920863,3.380862290441993
8.760429835651085e-07,0.008455318257242295,3.354817410430434
8.860429835651101e-07,0.006785346088849456,3.38830368473101
8.96042983565105e-07,0.008455318257241535,3.373420896152983
9.060429835651066e-07,0.008789312690920863,3.358538107574943
9.160429835651082e-07,0.008121323823563727,3.392024381875518
9.260429835651098e-07,0.009457301558278,3.351096713285926
9.360429835651113e-07,0.008789312690920406,3.395745079020017
9.460429835651062e-07,0.00778732938988516,3.373420896152977
9.560429835651078e-07,0.007453334956206592,3.36597950186396
9.660429835651094e-07,0.008455318257242295,3.403186473309044
9.76042983565111e-07,0.007119340522528176,3.347376016141436
9.860429835651058e-07,0.00745333495620644,3.388303684730992
9.960429835651074e-07,0.006451351655170888,3.380862290441993
1.006042983565109e-06,0.00778732938988516,3.36597950186396
1.016042983565111e-06,0.01012529042563362,3.403186473309025
1.026042983565105e-06,0.006785346088850975,3.36225880471947
1.036042983565107e-06,0.007119340522528024,3.392024381875518
1.046042983565109e-06,0.007119340522528024,3.373420896152977
1.05604298356511e-06,0.007119340522528024,3.358538107574943
1.066042983565105e-06,0.008789312690920103,3.392024381875503
1.076042983565107e-06,0.009791295991956567,3.36597950186396
1.086042983565108e-06,0.008121323823563727,3.421789959031586
1.09604298356511e-06,0.007119340522528024,3.369700199008468
1.106042983565111e-06,0.008789312690920863,3.369700199008488
1.116042983565106e-06,0.008789312690920863,3.41434856474257
1.126042983565108e-06,0.009457301558278,3.377141593297485
1.136042983565109e-06,0.009457301558278,3.38830368473101
1.146042983565111e-06,0.008121323823565094,3.399465776164517
1.156042983565106e-06,0.01112727372666947,3.358538107574961
1.166042983565107e-06,0.01146126816034941,3.399465776164535
1.176042983565109e-06,0.008455318257242295,3.369700199008468
1.186042983565111e-06,0.0104592848593134,3.395745079020021
1.196042983565105e-06,0.009791295991956871,3.380862290442
1.206042983565107e-06,0.009791295991956567,3.38830368473101
1.216042983565109e-06,0.01112727372667084,3.406907170453553
1.22604298356511e-06,0.01079327929299227,3.362258804719451
1.236042983565105e-06,0.01045928485931386,3.403186473309025
1.246042983565107e-06,0.009123307124599432,3.392024381875518
1.256042983565108e-06,0.009791295991956567,3.380862290441993
1.26604298356511e-06,0.009791295991956567,3.421789959031586
1.276042983565111e-06,0.009457301558277393,3.369700199008485
1.286042983565106e-06,0.008121323823563727,3.406907170453553
1.296042983565108e-06,0.009457301558278,3.373420896152977
1.30604298356511e-06,0.009123307124599432,3.392024381875518
1.316042983565111e-06,0.009457301558276785,3.395745079020027
1.326042983565106e-06,0.006785346088850671,3.395745079020027
1.336042983565108e-06,0.008455318257242295,3.399465776164535
1.346042983565109e-06,0.00778732938988516,3.369700199008468
1.356042983565111e-06,0.007453334956206744,3.384582987586507
1.366042983565106e-06,0.007787329389885008,3.395745079020022
1.376042983565107e-06,0.00611735722149232,3.377141593297485
1.386042983565109e-06,0.006451351655170888,3.399465776164535
1.39604298356511e-06,0.005783362787813752,3.395745079020027
1.406042983565105e-06,0.005783362787813752,3.362258804719466
1.416042983565107e-06,0.007119340522528024,3.403186473309044
1.426042983565108e-06,0.005783362787813752,3.354817410430434
1.43604298356511e-06,0.005115373920456617,3.395745079020027
1.446042983565112e-06,0.006117357221492169,3.392024381875503
1.456042983565106e-06,0.005783362787813752,3.358538107574943
1.466042983565108e-06,0.007119340522528024,3.403186473309044
1.47604298356511e-06,0.00611735722149232,3.369700199008468
1.486042983565111e-06,0.006117357221491409,3.40318647330904
1.496042983565106e-06,0.004113390619421824,3.395745079020031
1.506042983565108e-06,0.00778732938988516,3.373420896152977
1.516042983565109e-06,0.00778732938988516,3.399465776164535
1.526042983565111e-06,0.007787329389885463,3.36970019900848
1.536042983565106e-06,0.008455318257241991,3.395745079020015
1.546042983565107e-06,0.006785346088849456,3.384582987586502
1.556042983565109e-06,0.00778732938988516,3.384582987586502
1.56604298356511e-06,0.007453334956206592,3.410627867598061
1.576042983565105e-06,0.007787329389885008,3.362258804719473
1.586042983565107e-06,0.009123307124599432,3.392024381875518
1.596042983565108e-06,0.00611735722149232,3.380862290441993
1.60604298356511e-06,0.007453334956206592,3.362258804719451
1.616042983565112e-06,0.008121323823562968,3.395745079020014
1.626042983565106e-06,0.006451351655170888,3.36597950186396
1.636042983565108e-06,0.008121323823563727,3.403186473309044
1.64604298356511e-06,0.006785346088849456,3.377141593297485
1.656042983565111e-06,0.008455318257242448,3.377141593297497
1.666042983565106e-06,0.008789312690920863,3.403186473309044
1.676042983565108e-06,0.00778732938988516,3.343655318996909
1.686042983565109e-06,0.00778732938988516,3.384582987586502
1.696042983565111e-06,0.007787329389886223,3.358538107574951
1.706042983565106e-06,0.01012529042563407,3.377141593297476
1.716042983565107e-06,0.009123307124599432,3.38830368473101
1.726042983565109e-06,0.008789312690920863,3.354817410430434
1.73604298356511e-06,0.01012529042563514,3.395745079020027
1.746042983565105e-06,0.007787329389886223,3.377141593297493
1.756042983565107e-06,0.008455318257242295,3.373420896152977
1.766042983565108e-06,0.008789312690920863,3.403186473309044
1.77604298356511e-06,0.006451351655170888,3.369700199008468
1.786042983565105e-06,0.009457301558276633,3.380862290441988
1.796042983565107e-06,0.007453334956206592,3.38830368473101
1.806042983565108e-06,0.008789312690920863,3.377141593297485
1.81604298356511e-06,0.008455318257242295,3.403186473309044
1.826042983565111e-06,0.007787329389885767,3.347376016141439
1.836042983565106e-06,0.009123307124599432,3.395745079020027
1.846042983565108e-06,0.00611735722149232,3.362258804719451
1.856042983565109e-06,0.009123307124599432,3.369700199008468
1.866042983565111e-06,0.009123307124598672,3.392024381875508
1.876042983565106e-06,0.007453334956207352,3.369700199008478
1.886042983565107e-06,0.006785346088849456,3.403186473309044
1.896042983565109e-06,0.00778732938988516,3.369700199008468
1.906042983565111e-06,0.009123307124599432,3.373420896152977
1.916042983565105e-06,0.009123307124599432,3.395745079020017
1.926042983565107e-06,0.006451351655170888,3.358538107574943
1.936042983565109e-06,0.00778732938988516,3.392024381875518
1.94604298356511e-06,0.00611735722149232,3.380862290441993
1.956042983565105e-06,0.008789312690919648,3.358538107574953
1.966042983565107e-06,0.008789312690920863,3.380862290441993
1.976042983565108e-06,0.008121323823563727,3.358538107574943
1.98604298356511e-06,0.008121323823563727,3.384582987586502
1.996042983565111e-06,0.006117357221492928,3.373420896152977
2.006042983565106e-06,0.007453334956206592,3.373420896152977
2.016042983565108e-06,0.00611735722149232,3.38830368473101
2.026042983565109e-06,0.005115373920456617,3.354817410430434
2.036042983565111e-06,0.007119340522526961,3.3920243818755
2.046042983565106e-06,0.004781379486779112,3.351096713285944
2.056042983565107e-06,0.007453334956206592,3.358538107574943
2.066042983565109e-06,0.005449368354135184,3.399465776164535
2.076042983565111e-06,0.005115373920457072,3.343655318996931
2.086042983565105e-06,0.006117357221491865,3.392024381875496
2.096042983565107e-06,0.006451351655170888,3.369700199008468
2.106042983565109e-06,0.006785346088849456,3.362258804719451
2.11604298356511e-06,0.007119340522528024,3.380862290441993
2.126042983565105e-06,0.007119340522528024,3.365979501863966
2.136042983565107e-06,0.00778732938988516,3.392024381875518
2.146042983565108e-06,0.005783362787813752,3.369700199008468
2.15604298356511e-06,0.008789312690920863,3.354817410430434
2.166042983565111e-06,0.006451351655170585,3.384582987586483
2.176042983565106e-06,0.005783362787813752,3.343655318996909
2.186042983565108e-06,0.007453334956206592,3.373420896152977
2.196042983565109e-06,0.005449368354135184,3.369700199008468
2.206042983565111e-06,0.006785346088849,3.358538107574959
