traces_bank_current_trigger/sampling_freq_100MHz/ADDi/ADDi_5.csv

#Digilent WaveForms Oscilloscope Acquisition
#Device Name: Discovery2
#Serial Number: SN:210321B3D813
#Date Time: 2023-06-13 10:39:08.858
#Sample rate: 1e+08Hz
#Samples: 8192
#Trigger: Source: Channel 2 Type: Edge Condition: Rising Level: 2 V Hyst.: Auto HoldOff: 0 s
#Channel 1: Range: 5 mV/div Offset: 0 V Attenuation: 1 X Sample Mode: Average
#Channel 2: Range: 2 V/div Offset: 0 V Attenuation: 1 X Sample Mode: Average

Time (s),Channel 1 (V),Channel 2 (V)
-9.546555819477418e-07,0.00778732938988516,-0.004972111060695325
-9.446555819477402e-07,0.008455318257242295,-0.008692808205203774
-9.346555819477386e-07,0.008121323823563575,0.03223486038437393
-9.246555819477438e-07,0.007787329389885311,-0.001251413916171645
-9.146555819477422e-07,0.009123307124599432,0.03967625467340606
-9.046555819477406e-07,0.007119340522528024,-0.02357559678323757
-8.94655581947739e-07,0.008789312690920863,-0.01241350534971222
-8.846555819477442e-07,0.009123307124599279,0.04339695181788913
-8.746555819477426e-07,0.006785346088849456,-0.01241350534971222
-8.64655581947741e-07,0.009791295991956567,0.05083834610693141
-8.546555819477394e-07,0.00778732938988516,-0.001251413916186876
-8.446555819477378e-07,0.008455318257242448,0.009910677517346931
-8.34655581947743e-07,0.008789312690920863,0.02851416323988071
-8.246555819477414e-07,0.008455318257242295,-0.01241350534971222
-8.146555819477398e-07,0.007453334956206592,0.01735207180635537
-8.046555819477382e-07,0.007453334956206744,0.002469283228321573
-7.946555819477434e-07,0.007787329389885008,0.002469283228321573
-7.846555819477418e-07,0.008121323823563727,0.03967625467340606
-7.746555819477402e-07,0.006785346088849456,-0.01613420249422067
-7.646555819477386e-07,0.007119340522528176,0.01363137466184184
-7.546555819477438e-07,0.00745333495620644,0.002469283228326648
-7.446555819477422e-07,0.00778732938988516,0.002469283228321573
-7.346555819477406e-07,0.006451351655170888,0.02107276895086382
-7.24655581947739e-07,0.008121323823563727,-0.01613420249422067
-7.146555819477441e-07,0.007453334956206896,0.03223486038436717
-7.046555819477425e-07,0.004113390619420913,-0.004972111060695325
-6.946555819477409e-07,0.007119340522528024,0.00991067751733847
-6.846555819477393e-07,0.007453334956206592,0.01735207180635537
-6.746555819477377e-07,0.006451351655171495,-0.01985489963870205
-6.646555819477429e-07,0.00778732938988516,0.03967625467340606
-6.546555819477413e-07,0.005449368354135184,0.002469283228321573
-6.446555819477397e-07,0.00611735722149232,0.01363137466184692
-6.346555819477381e-07,0.006785346088848696,0.02851416323986887
-6.246555819477433e-07,0.005115373920457376,0.002469283228333417
-6.146555819477417e-07,0.006451351655170888,0.02851416323988071
-6.046555819477401e-07,0.005115373920456617,-0.001251413916186876
-5.946555819477385e-07,0.008455318257241384,0.013631374661852
-5.846555819477437e-07,0.0064513516551718,0.02479346609536719
-5.746555819477421e-07,0.00611735722149232,-0.001251413916186876
-5.646555819477405e-07,0.005449368354135184,0.03967625467340606
-5.546555819477389e-07,0.006451351655170888,0.006189980372830022
-5.446555819477441e-07,0.007119340522527721,0.02107276895085705
-5.346555819477425e-07,0.006785346088849456,0.02479346609537227
-5.246555819477409e-07,0.005115373920456617,-0.01613420249422067
-5.146555819477393e-07,0.00611735722149232,0.04711764896242296
-5.046555819477377e-07,0.005783362787813752,0.009910677517333395
-4.946555819477429e-07,0.005783362787813752,-0.001251413916186876
-4.846555819477413e-07,0.005449368354135184,0.02851416323988071
-4.746555819477397e-07,0.005115373920456617,0.002469283228321573
-4.646555819477381e-07,0.006117357221491409,0.02851416323987226
-4.546555819477432e-07,0.004113390619420913,0.00991067751733847
-4.446555819477416e-07,0.003779396185742345,-0.004972111060695325
-4.3465558194774e-07,0.007453334956206592,0.04339695181791451
-4.246555819477384e-07,0.005115373920456768,-0.008692808205190238
-4.146555819477436e-07,0.005449368354135033,0.02107276895085028
-4.04655581947742e-07,0.004781379486778049,0.006189980372830022
-3.946555819477404e-07,0.006785346088849456,0.01735207180635537
-3.846555819477388e-07,0.005783362787813752,0.02851416323988071
-3.74655581947744e-07,0.005783362787813752,0.009910677517346929
-3.646555819477424e-07,0.005449368354135184,0.04711764896242296
-3.546555819477408e-07,0.005449368354135184,0.01363137466184692
-3.446555819477392e-07,0.006451351655170888,0.01363137466184692
-3.346555819477376e-07,0.006117357221492472,0.02479346609535535
-3.246555819477428e-07,0.006451351655170888,-0.01241350534971222
-3.146555819477412e-07,0.007119340522528024,0.03223486038438916
-3.046555819477396e-07,0.005783362787813752,0.002469283228321573
-2.94655581947738e-07,0.007453334956205985,0.006189980372838482
-2.846555819477432e-07,0.00611735722149232,0.02479346609537227
-2.746555819477416e-07,0.004113390619420913,-0.01613420249422067
-2.6465558194774e-07,0.006785346088849456,0.02479346609537227
-2.546555819477384e-07,0.00611735722149232,0.002469283228319881
-2.446555819477436e-07,0.00611735722149232,-0.001251413916185184
-2.34655581947742e-07,0.007453334956206592,0.02479346609537227
-2.246555819477404e-07,0.004781379486778049,-0.001251413916186876
-2.146555819477388e-07,0.006451351655170888,0.03595555752889761
-2.046555819477439e-07,0.004781379486778809,-0.001251413916169959
-1.946555819477423e-07,0.00778732938988516,-0.008692808205203774
-1.846555819477407e-07,0.00611735722149232,0.02479346609537227
-1.746555819477391e-07,0.005783362787813752,-0.01613420249422067
-1.646555819477443e-07,0.006451351655170585,0.03223486038436717
-1.546555819477427e-07,0.005783362787813752,0.00991067751733847
-1.446555819477411e-07,0.007119340522528024,-0.01613420249422067
-1.346555819477395e-07,0.006451351655170888,0.02479346609537227
-1.246555819477379e-07,0.006117357221492472,-0.0124135053496953
-1.146555819477431e-07,0.006451351655170888,0.02479346609537227
-1.046555819477415e-07,0.005115373920456617,-0.01613420249422067
-9.465558194773991e-08,0.007119340522528024,0.00991067751733847
-8.465558194773831e-08,0.005115373920456617,0.01735207180634691
-7.465558194774349e-08,0.005115373920456617,-0.001251413916178418
-6.465558194774189e-08,0.005783362787813752,0.03223486038438916
-5.465558194774029e-08,0.005449368354135184,-0.001251413916186876
-4.465558194773869e-08,0.006117357221492169,0.0136313746618503
-3.465558194774387e-08,0.005783362787813904,0.02107276895086043
-2.465558194774227e-08,0.004447385053099481,-0.008692808205203774
-1.465558194774068e-08,0.005783362787813752,0.04711764896242296
-4.655581947739078e-09,-0.005238453523578988,0.5382496720375383
5.344418052255745e-09,-0.000562531452081164,3.671076667712227
1.534441805225734e-08,0.00611735722149232,3.034837456002708
2.534441805225894e-08,0.005449368354135184,3.313889741840841
3.534441805226054e-08,0.01680517909920649,3.276682770395757
4.534441805226214e-08,0.006451351655170888,3.291565558973823
5.534441805225696e-08,0.006451351655170888,3.362258804719451
6.534441805225856e-08,0.0004394518489566662,3.373420896152977
7.534441805226016e-08,0.004447385053099481,3.373420896152977
8.534441805226175e-08,-0.0002285370184003177,3.39202438187551
9.534441805225658e-08,0.0001054574152779465,3.373420896152985
1.053444180522582e-07,-0.0005625314520790374,3.336213924707892
1.153444180522598e-07,0.003111407318385209,3.354817410430434
1.253444180522614e-07,0.004113390619421976,3.280403467540296
1.353444180522562e-07,0.006451351655169825,3.347376016141387
1.453444180522578e-07,0.003779396185742345,3.306448347551824
1.553444180522594e-07,0.009791295991956567,3.373420896152977
1.65344418052261e-07,0.006785346088849456,3.347376016141417
1.753444180522558e-07,0.005115373920457376,3.358538107574938
1.853444180522574e-07,0.002777412884706641,3.377141593297485
1.95344418052259e-07,0.00144143514999237,3.369700199008468
2.053444180522606e-07,0.0007734462826352341,3.373420896152977
2.153444180522622e-07,0.002443418451027314,3.395745079019988
2.25344418052257e-07,0.0007734462826352341,3.310169044696333
2.353444180522586e-07,0.004113390619420913,3.354817410430434
2.453444180522602e-07,0.003445401752063777,3.325051833274367
2.553444180522618e-07,0.007787329389883489,3.343655318996917
2.653444180522566e-07,0.004113390619422583,3.362258804719443
2.753444180522582e-07,0.004447385053099481,3.358538107574943
2.853444180522598e-07,0.004781379486778049,3.384582987586502
2.953444180522614e-07,0.004781379486778201,3.369700199008473
3.053444180522563e-07,0.005115373920456465,3.380862290441988
3.153444180522579e-07,0.003779396185742345,3.406907170453553
3.253444180522595e-07,0.002777412884706641,3.3399346218524
3.353444180522611e-07,0.004447385053099481,3.406907170453553
3.453444180522559e-07,0.004447385053099481,3.358538107574965
3.553444180522575e-07,0.006451351655170888,3.347376016141417
3.653444180522591e-07,0.006785346088849456,3.373420896152977
3.753444180522607e-07,0.006451351655170888,3.336213924707892
3.853444180522623e-07,0.007119340522526506,3.388303684731002
3.953444180522571e-07,0.003779396185742345,3.369700199008468
4.053444180522587e-07,0.006451351655170888,3.384582987586502
4.153444180522603e-07,0.005449368354135184,3.395745079020027
4.253444180522619e-07,0.005449368354134729,3.351096713285949
4.353444180522567e-07,0.004447385053099937,3.40318647330902
4.453444180522583e-07,0.005783362787813752,3.351096713285926
4.553444180522599e-07,0.007453334956206592,3.369700199008468
4.653444180522615e-07,0.006451351655170128,3.373420896152966
4.753444180522563e-07,0.004781379486778809,3.351096713285936
4.853444180522579e-07,0.007119340522528024,3.384582987586502
4.953444180522595e-07,0.005115373920456617,3.347376016141417
5.053444180522611e-07,0.007119340522528024,3.36597950186396
5.153444180522559e-07,0.004781379486779112,3.380862290441986
5.253444180522575e-07,0.006785346088849456,3.347376016141417
5.353444180522591e-07,0.006785346088849456,3.406907170453553
5.453444180522607e-07,0.002443418451028074,3.362258804719451
5.553444180522623e-07,0.007453334956204921,3.392024381875506
5.653444180522572e-07,0.003779396185742345,3.36597950186396
5.753444180522588e-07,0.006451351655170888,3.332493227563384
5.853444180522604e-07,0.006785346088849456,3.380862290441993
5.95344418052262e-07,0.004781379486779112,3.362258804719449
6.053444180522568e-07,0.007119340522528024,3.358538107574943
6.153444180522584e-07,0.00778732938988516,3.392024381875518
6.2534441805226e-07,0.003779396185742345,3.354817410430434
6.353444180522616e-07,0.00812132382356236,3.395745079020015
6.453444180522564e-07,0.005115373920457984,3.36970019900848
6.55344418052258e-07,0.00611735722149232,3.358538107574943
6.653444180522596e-07,0.007119340522528024,3.392024381875518
6.753444180522612e-07,0.005115373920456617,3.343655318996909
6.85344418052256e-07,0.005783362787813448,3.395745079020004
6.953444180522576e-07,0.003779396185742345,3.347376016141417
7.053444180522592e-07,0.00611735722149232,3.358538107574943
7.153444180522608e-07,0.005449368354135184,3.38830368473101
7.253444180522624e-07,0.006117357221490954,3.347376016141443
7.353444180522572e-07,0.003111407318385209,3.403186473309044
7.453444180522588e-07,0.003779396185742345,3.36597950186396
7.553444180522604e-07,0.006451351655170888,3.369700199008468
7.65344418052262e-07,0.004781379486777289,3.380862290441983
7.753444180522568e-07,0.003111407318385209,3.358538107574943
7.853444180522584e-07,0.004447385053099481,3.395745079020027
7.9534441805226e-07,0.004113390619420913,3.358538107574943
8.053444180522616e-07,0.004113390619421673,3.354817410430453
8.153444180522565e-07,0.005783362787812992,3.395745079020009
8.253444180522581e-07,0.005783362787813752,3.3399346218524
8.353444180522597e-07,0.005449368354135184,3.377141593297485
8.453444180522613e-07,0.004781379486778049,3.358538107574943
8.553444180522561e-07,0.005783362787813297,3.369700199008463
8.653444180522577e-07,0.00611735722149232,3.38830368473101
8.753444180522593e-07,0.005783362787813752,3.347376016141417
8.853444180522609e-07,0.006785346088849456,3.395745079020027
8.953444180522557e-07,0.00478137948677896,3.365979501863973
9.053444180522573e-07,0.006451351655170888,3.354817410430434
9.153444180522589e-07,0.005449368354135184,3.377141593297485
9.253444180522605e-07,0.005783362787813752,3.351096713285926
9.353444180522621e-07,0.005783362787813904,3.37714159329748
9.453444180522569e-07,0.00611735722149232,3.36597950186396
9.553444180522585e-07,0.007119340522528024,3.358538107574943
9.653444180522601e-07,0.005783362787813752,3.403186473309044
9.753444180522617e-07,0.006117357221492017,3.351096713285946
9.853444180522565e-07,0.005449368354135488,3.395745079020007
9.953444180522581e-07,0.004113390619420913,3.373420896152977
1.00534441805226e-06,0.006451351655170888,3.36597950186396
1.015344418052261e-06,0.006117357221491865,3.388303684730988
1.025344418052256e-06,0.005115373920457072,3.339934621852422
1.035344418052258e-06,0.005783362787813752,3.395745079020027
1.045344418052259e-06,0.005783362787813752,3.328772530418875
1.055344418052261e-06,0.006451351655170888,3.373420896152977
1.065344418052256e-06,0.005115373920457224,3.384582987586497
1.075344418052257e-06,0.004781379486778049,3.354817410430434
1.085344418052259e-06,0.005783362787813752,3.395745079020027
1.095344418052261e-06,0.003779396185742345,3.358538107574943
1.105344418052262e-06,0.007787329389883337,3.377141593297488
1.115344418052257e-06,0.003779396185742345,3.384582987586502
1.125344418052259e-06,0.004447385053099481,3.347376016141417
1.13534441805226e-06,0.004447385053099481,3.377141593297485
1.145344418052262e-06,0.005783362787814207,3.365979501863958
1.155344418052257e-06,0.006785346088849,3.362258804719453
1.165344418052258e-06,0.006451351655170888,3.377141593297485
1.17534441805226e-06,0.005449368354135184,3.358538107574943
1.185344418052261e-06,0.006451351655170888,3.38458298758649
1.195344418052256e-06,0.006451351655170888,3.358538107574955
1.205344418052258e-06,0.008121323823563727,3.380862290441993
1.215344418052259e-06,0.006785346088849456,3.392024381875518
1.225344418052261e-06,0.005783362787813752,3.343655318996909
1.235344418052256e-06,0.007787329389884249,3.39946577616451
1.245344418052257e-06,0.006451351655170888,3.354817410430434
1.255344418052259e-06,0.00778732938988516,3.354817410430434
1.265344418052261e-06,0.007119340522528024,3.392024381875518
1.275344418052262e-06,0.006117357221492624,3.347376016141436
1.285344418052257e-06,0.006785346088849456,3.38830368473101
1.295344418052259e-06,0.005449368354135184,3.362258804719451
1.30534441805226e-06,0.007453334956206592,3.351096713285926
1.315344418052262e-06,0.007787329389884096,3.384582987586487
1.325344418052257e-06,0.005449368354136248,3.351096713285941
1.335344418052258e-06,0.007119340522528024,3.38830368473101
1.34534441805226e-06,0.005449368354135184,3.373420896152977
1.355344418052261e-06,0.00611735722149232,3.343655318996921
1.365344418052256e-06,0.00611735722149232,3.369700199008456
1.375344418052258e-06,0.004781379486778049,3.3399346218524
1.385344418052259e-06,0.005449368354135184,3.399465776164535
1.395344418052261e-06,0.003445401752063777,3.343655318996909
1.405344418052256e-06,0.005115373920455857,3.358538107574936
1.415344418052257e-06,0.004447385053099481,3.369700199008468
1.425344418052259e-06,0.004447385053099481,3.3399346218524
1.435344418052261e-06,0.005449368354135184,3.392024381875518
1.445344418052262e-06,0.005115373920457376,3.362258804719449
1.455344418052257e-06,0.006785346088849456,3.358538107574943
1.465344418052259e-06,0.006451351655170888,3.399465776164535
1.47534441805226e-06,0.004781379486778049,3.347376016141417
1.485344418052262e-06,0.006117357221491561,3.395745079020009
1.495344418052257e-06,0.004447385053100241,3.354817410430453
1.505344418052258e-06,0.007453334956206592,3.373420896152977
1.51534441805226e-06,0.007119340522528024,3.384582987586502
1.525344418052262e-06,0.00611735722149232,3.354817410430455
1.535344418052256e-06,0.00611735722149232,3.399465776164515
1.545344418052258e-06,0.006451351655170888,3.351096713285926
1.55534441805226e-06,0.007119340522528024,3.384582987586502
1.565344418052261e-06,0.006451351655170888,3.38830368473101
1.575344418052256e-06,0.006117357221492472,3.347376016141436
1.585344418052258e-06,0.00611735722149232,3.380862290441993
1.595344418052259e-06,0.005783362787813752,3.354817410430434
1.605344418052261e-06,0.005783362787813752,3.369700199008468
1.615344418052262e-06,0.005783362787813448,3.39574507902001
1.625344418052257e-06,0.005115373920456617,3.358538107574943
1.635344418052259e-06,0.006451351655170888,3.373420896152977
1.64534441805226e-06,0.00611735722149232,3.358538107574943
1.655344418052262e-06,0.005783362787813904,3.373420896152977
1.665344418052257e-06,0.00611735722149232,3.373420896152977
1.675344418052258e-06,0.005783362787813752,3.347376016141417
1.68534441805226e-06,0.006785346088849456,3.395745079020027
1.695344418052262e-06,0.006117357221492776,3.358538107574946
1.705344418052256e-06,0.007119340522527569,3.365979501863956
1.715344418052258e-06,0.006785346088849456,3.399465776164535
1.72534441805226e-06,0.005783362787813752,3.354817410430434
1.735344418052261e-06,0.00611735722149232,3.384582987586502
1.745344418052256e-06,0.00611735722149232,3.358538107574955
1.755344418052258e-06,0.006785346088849456,3.373420896152977
1.765344418052259e-06,0.006451351655170888,3.399465776164535
1.775344418052261e-06,0.006785346088849456,3.347376016141417
1.785344418052256e-06,0.005783362787814207,3.406907170453525
1.795344418052257e-06,0.005115373920456617,3.369700199008468
1.805344418052259e-06,0.005783362787813752,3.373420896152977
1.81534441805226e-06,0.00611735722149232,3.38830368473101
1.825344418052262e-06,0.00511537392045768,3.339934621852426
1.835344418052257e-06,0.007453334956206592,3.395745079020027
1.845344418052258e-06,0.005449368354135184,3.347376016141417
1.85534441805226e-06,0.007119340522528024,3.373420896152977
1.865344418052262e-06,0.005783362787814664,3.380862290441985
1.875344418052256e-06,0.007787329389884249,3.36225880471946
1.885344418052258e-06,0.007119340522528024,3.395745079020027
1.89534441805226e-06,0.007119340522528024,3.358538107574943
1.905344418052261e-06,0.00778732938988516,3.373420896152977
1.915344418052256e-06,0.006451351655171496,3.395745079020017
1.925344418052258e-06,0.006785346088849456,3.343655318996909
1.935344418052259e-06,0.008455318257242295,3.403186473309044
1.945344418052261e-06,0.005783362787813752,3.373420896152977
1.955344418052256e-06,0.008455318257241079,3.365979501863963
1.965344418052257e-06,0.005783362787813752,3.384582987586502
1.975344418052259e-06,0.008789312690920863,3.358538107574943
1.985344418052261e-06,0.007453334956206592,3.384582987586502
1.995344418052262e-06,0.003779396185743408,3.369700199008464
2.005344418052257e-06,0.00611735722149232,3.362258804719451
2.015344418052259e-06,0.00611735722149232,3.384582987586502
2.02534441805226e-06,0.005115373920456617,3.358538107574943
2.035344418052262e-06,0.004113390619421673,3.414348564742556
2.045344418052257e-06,0.005783362787812992,3.384582987586515
2.055344418052258e-06,0.006785346088849456,3.369700199008468
2.06534441805226e-06,0.00611735722149232,3.399465776164535
2.075344418052261e-06,0.00444738505309933,3.358538107574966
2.085344418052256e-06,0.004113390619421065,3.410627867598037
2.095344418052258e-06,0.004781379486778049,3.343655318996909
2.105344418052259e-06,0.007119340522528024,3.377141593297485
2.115344418052261e-06,0.005449368354135184,3.38830368473101
2.125344418052256e-06,0.004447385053099937,3.36597950186397
2.135344418052257e-06,0.005783362787813752,3.406907170453553
2.145344418052259e-06,0.005449368354135184,3.358538107574943
2.155344418052261e-06,0.006451351655170888,3.38830368473101
2.165344418052262e-06,0.005449368354135336,3.395745079020007
2.175344418052257e-06,0.005783362787813752,3.351096713285926
2.185344418052259e-06,0.005115373920456617,3.399465776164535
2.19534441805226e-06,0.004781379486778049,3.343655318996909
