traces_bank_current_trigger/sampling_freq_100MHz/ADDi/ADDi_1.csv

#Digilent WaveForms Oscilloscope Acquisition
#Device Name: Discovery2
#Serial Number: SN:210321B3D813
#Date Time: 2023-06-13 10:18:53.232
#Sample rate: 1e+08Hz
#Samples: 8192
#Trigger: Source: Channel 2 Type: Edge Condition: Rising Level: 2 V Hyst.: Auto HoldOff: 0 s
#Channel 1: Range: 5 mV/div Offset: 0 V Attenuation: 1 X Sample Mode: Average
#Channel 2: Range: 2 V/div Offset: 0 V Attenuation: 1 X Sample Mode: Average

Time (s),Channel 1 (V),Channel 2 (V)
-9.586644951140033e-07,0.006451351655170888,-0.02729629392774602
-9.486644951140017e-07,0.004781379486778049,0.01363137466184692
-9.386644951140001e-07,0.006451351655170281,0.01363137466184015
-9.286644951140053e-07,0.005115373920457224,-0.001251413916180109
-9.186644951140037e-07,0.003445401752063777,0.01363137466184692
-9.086644951140021e-07,0.003445401752063777,-0.01241350534971222
-8.986644951140005e-07,0.00611735722149232,0.03223486038438916
-8.886644951140057e-07,0.004447385053100241,-0.01613420249419868
-8.786644951140041e-07,0.006785346088849456,0.002469283228321573
-8.686644951140025e-07,0.003779396185742345,0.002469283228321573
-8.586644951140009e-07,0.003779396185742345,-0.02729629392774602
-8.486644951139993e-07,0.005115373920456465,0.02479346609535873
-8.386644951140045e-07,0.004781379486778049,-0.004972111060695325
-8.286644951140029e-07,0.00611735722149232,0.006189980372830022
-8.186644951140013e-07,0.004781379486778049,0.02479346609537227
-8.086644951139997e-07,0.004781379486777897,-0.0198548996387122
-7.986644951140048e-07,0.004447385053099633,0.01735207180633845
-7.886644951140032e-07,0.005115373920456617,-0.004972111060695325
-7.786644951140016e-07,0.004781379486778049,0.006189980372830022
-7.68664495114e-07,0.005449368354133666,0.02107276895085028
-7.586644951140052e-07,0.002109424017351025,-0.00869280820519024
-7.486644951140036e-07,0.004781379486778049,0.03223486038438916
-7.38664495114002e-07,0.003111407318385209,-0.008692808205203774
-7.286644951140004e-07,0.00611735722149232,0.01363137466184692
-7.186644951140056e-07,0.003779396185743408,0.01735207180635367
-7.08664495114004e-07,0.005115373920456617,-0.01241350534971222
-6.986644951140024e-07,0.005115373920456617,0.02479346609537227
-6.886644951140008e-07,0.004113390619420913,-0.01241350534971222
-6.786644951139992e-07,0.004781379486778049,0.01363137466185369
-6.686644951140044e-07,0.004781379486778049,0.02851416323988071
-6.586644951140028e-07,0.003111407318385209,-0.008692808205203774
-6.486644951140012e-07,0.004781379486778049,0.04339695181791451
-6.386644951139996e-07,0.003111407318386728,0.00991067751733847
-6.286644951140048e-07,0.006451351655169369,0.00991067751733847
-6.186644951140032e-07,0.004113390619420913,0.01735207180635537
-6.086644951140016e-07,0.004447385053099481,-0.001251413916186876
-5.98664495114e-07,0.005115373920456161,0.03595555752888238
-5.886644951140052e-07,0.004113390619421368,0.002469283228336804
-5.786644951140036e-07,0.005449368354135184,0.002469283228321573
-5.68664495114002e-07,0.004447385053099481,0.03967625467340606
-5.586644951140004e-07,0.005783362787813752,-0.01985489963872912
-5.486644951140055e-07,0.005783362787813752,0.03595555752887223
-5.386644951140039e-07,0.005449368354135184,-0.001251413916186876
-5.286644951140023e-07,0.006451351655170888,0.006189980372830022
-5.186644951140007e-07,0.007119340522528024,0.02107276895086382
-5.086644951139992e-07,0.006785346088849,-0.008692808205180086
-4.986644951140043e-07,0.005783362787813752,0.04339695181791451
-4.886644951140027e-07,0.006451351655170888,-0.004972111060695325
-4.786644951140011e-07,0.006785346088849456,-0.001251413916186876
-4.686644951139995e-07,0.005115373920456617,0.03223486038436717
-4.586644951140047e-07,0.005115373920456617,-0.01613420249422067
-4.486644951140031e-07,0.005449368354135184,0.05083834610693141
-4.386644951140015e-07,0.004447385053099481,-0.01241350534971222
-4.286644951139999e-07,0.006785346088848696,-0.004972111060685173
-4.186644951140051e-07,0.005115373920457376,0.01735207180634522
-4.086644951140035e-07,0.005783362787813752,-0.01985489963872912
-3.986644951140019e-07,0.005783362787813752,0.01735207180635537
-3.886644951140003e-07,0.005115373920456617,-0.004972111060695325
-3.786644951140055e-07,0.006117357221491865,0.01363137466183846
-3.686644951140039e-07,0.006451351655170888,-0.001251413916186876
-3.586644951140023e-07,0.005783362787813752,-0.01985489963872912
-3.486644951140007e-07,0.007453334956206592,0.03595555752889761
-3.386644951139991e-07,0.005449368354135791,-0.02357559678322234
-3.286644951140043e-07,0.006785346088849456,0.00991067751733847
-3.186644951140027e-07,0.00611735722149232,0.02107276895086382
-3.086644951140011e-07,0.005783362787813752,-0.02357559678323757
-2.986644951139995e-07,0.005449368354135488,0.03223486038437732
-2.886644951140046e-07,0.00611735722149232,0.006189980372830022
-2.78664495114003e-07,0.007119340522528024,0.002469283228321573
-2.686644951140014e-07,0.00611735722149232,0.02851416323988071
-2.586644951139998e-07,0.00411339061942228,-0.00497211106067333
-2.48664495114005e-07,0.007119340522526657,0.04339695181789251
-2.386644951140034e-07,0.006451351655170888,-0.01241350534971222
-2.286644951140018e-07,0.006785346088849456,0.006189980372830022
-2.186644951140002e-07,0.007119340522528024,0.01735207180635537
-2.086644951140054e-07,0.005783362787814359,-0.02357559678321896
-1.986644951140038e-07,0.006785346088849456,0.02479346609537227
-1.886644951140022e-07,0.006785346088849456,-0.01985489963872912
-1.786644951140006e-07,0.00611735722149232,0.002469283228321573
-1.686644951140058e-07,0.00611735722149232,0.00618998037282833
-1.586644951140042e-07,0.004781379486778049,-0.01985489963872912
-1.486644951140026e-07,0.005783362787813752,0.01735207180635537
-1.38664495114001e-07,0.005449368354135184,-0.02357559678323757
-1.286644951139994e-07,0.007119340522527569,-0.008692808205195314
-1.186644951140046e-07,0.00611735722149232,0.00991067751733847
-1.08664495114003e-07,0.005115373920456617,-0.02729629392774602
-9.866449511400138e-08,0.00611735722149232,0.01735207180635537
-8.866449511399978e-08,0.004781379486778049,-0.01241350534970884
-7.866449511400496e-08,0.004781379486778049,-0.004972111060698709
-6.866449511400336e-08,0.005783362787813752,0.03595555752889761
-5.866449511400176e-08,0.005449368354135184,-0.02357559678323757
-4.866449511400017e-08,0.004447385053099178,0.035955557528879
-3.866449511400534e-08,0.003779396185742649,-0.004972111060676715
-2.866449511400375e-08,0.003779396185742345,0.01363137466184692
-1.866449511400215e-08,0.004781379486778049,0.01363137466184692
-8.664495114000549e-09,0.004113390619420913,0.01735207180635537
1.335504885994273e-09,-0.01559228096760563,2.301860118533504
1.133550488599587e-08,0.01446721806345652,3.540852267655857
2.133550488599747e-08,0.005449368354135184,3.101810004603859
3.133550488599907e-08,0.01079327929299227,3.272962073251248
4.133550488600067e-08,0.003445401752067271,3.302727650407306
5.133550488599549e-08,0.01112727372667084,3.280403467540265
6.133550488599709e-08,0.003111407318385209,3.392024381875518
7.133550488599868e-08,0.003111407318385209,3.310169044696333
8.133550488600028e-08,-0.003234486921506365,3.444114141898561
9.133550488599511e-08,-0.0005625314520802524,3.276682770395833
1.013355048859967e-07,-0.001230520319436173,3.410627867598061
1.113355048859983e-07,0.001775429583670938,3.272962073251248
1.213355048859999e-07,0.0004394518489587926,3.343655318996875
1.313355048859947e-07,0.00511537392045449,3.269241376106774
1.413355048859963e-07,0.004781379486778049,3.310169044696333
1.513355048859979e-07,0.007119340522528024,3.310169044696333
1.613355048859995e-07,0.00144143514999237,3.347376016141417
1.713355048859943e-07,0.005115373920454946,3.32133113612987
1.813355048859959e-07,0.001775429583670938,3.392024381875518
1.913355048859975e-07,0.002443418451028074,3.328772530418875
2.013355048859991e-07,-0.001564514753114741,3.403186473309044
2.113355048860007e-07,0.0007734462826346266,3.321331136129881
2.213355048859956e-07,-0.0005625314520790374,3.369700199008468
2.313355048859972e-07,0.003445401752063777,3.321331136129858
2.413355048859988e-07,0.003111407318385209,3.313889741840841
2.513355048860003e-07,0.004447385053099178,3.3436553189969
2.613355048859952e-07,0.003779396185742649,3.325051833274375
2.713355048859968e-07,0.004781379486778049,3.325051833274367
2.813355048859984e-07,0.005783362787813752,3.380862290441993
2.91335504886e-07,0.002777412884706641,3.321331136129896
3.013355048859948e-07,0.002777412884706641,3.403186473309006
3.113355048859964e-07,-0.0002285370184004695,3.336213924707892
3.21335504885998e-07,0.003111407318385209,3.347376016141417
3.313355048859996e-07,0.001107440716313802,3.351096713285926
3.413355048859944e-07,0.004447385053097963,3.306448347551845
3.51335504885996e-07,0.003779396185742345,3.347376016141417
3.613355048859976e-07,0.005783362787813752,3.306448347551824
3.713355048859992e-07,0.00611735722149232,3.325051833274367
3.813355048860008e-07,0.005449368354134577,3.351096713285902
3.913355048859956e-07,0.004113390619420913,3.299006953262807
4.013355048859972e-07,0.005783362787813752,3.373420896152977
4.113355048859988e-07,0.005115373920456617,3.336213924707892
4.213355048860004e-07,0.00511537392045692,3.351096713285936
4.313355048859952e-07,0.005783362787813448,3.373420896152966
4.413355048859968e-07,0.003111407318385209,3.325051833274367
4.513355048859984e-07,0.003779396185742345,3.36597950186396
4.61335504886e-07,0.004447385053100393,3.336213924707892
4.713355048859949e-07,0.006451351655169977,3.336213924707892
4.813355048859965e-07,0.004447385053099481,3.351096713285926
4.913355048859981e-07,0.007119340522528024,3.321331136129858
5.013355048859996e-07,0.004113390619420913,3.36597950186396
5.113355048859945e-07,0.004781379486777745,3.336213924707905
5.213355048859961e-07,0.00611735722149232,3.351096713285926
5.313355048859977e-07,0.004781379486778049,3.362258804719451
5.413355048859993e-07,0.005115373920456617,3.328772530418875
5.513355048860009e-07,0.004781379486778353,3.377141593297472
5.613355048859957e-07,0.005449368354135184,3.347376016141417
5.713355048859973e-07,0.005449368354135184,3.343655318996909
5.813355048859989e-07,0.005783362787813752,3.36597950186396
5.913355048860005e-07,0.006451351655171344,3.325051833274385
6.013355048859953e-07,0.007453334956206592,3.36597950186396
6.113355048859969e-07,0.006451351655170888,3.351096713285926
6.213355048859985e-07,0.007119340522528024,3.354817410430434
6.313355048860001e-07,0.006785346088849759,3.377141593297466
6.413355048859949e-07,0.007453334956206288,3.336213924707911
6.513355048859965e-07,0.005115373920456617,3.38830368473101
6.613355048859981e-07,0.00611735722149232,3.354817410430434
6.713355048859997e-07,0.008789312690920863,3.351096713285926
6.813355048859945e-07,0.005115373920458287,3.369700199008459
6.913355048859961e-07,0.00611735722149232,3.328772530418875
7.013355048859977e-07,0.006785346088849456,3.384582987586502
7.113355048859993e-07,0.00611735722149232,3.354817410430434
7.213355048860009e-07,0.006785346088848849,3.354817410430448
7.313355048859958e-07,0.005449368354135184,3.384582987586502
7.413355048859974e-07,0.004781379486778049,3.328772530418875
7.51335504885999e-07,0.005449368354135184,3.392024381875518
7.613355048860005e-07,0.004447385053100393,3.354817410430438
7.713355048859954e-07,0.006451351655170888,3.362258804719451
7.81335504885997e-07,0.007119340522528024,3.38830368473101
7.913355048859986e-07,0.004781379486778049,3.351096713285926
8.013355048860002e-07,0.005449368354135033,3.392024381875506
8.11335504885995e-07,0.005115373920456768,3.365979501863972
8.213355048859966e-07,0.007119340522528024,3.351096713285926
8.313355048859982e-07,0.007453334956206592,3.384582987586502
8.413355048859998e-07,0.005115373920456617,3.332493227563384
8.513355048859946e-07,0.006117357221491865,3.399465776164505
8.613355048859962e-07,0.00611735722149232,3.358538107574943
8.713355048859978e-07,0.008789312690920863,3.377141593297485
8.813355048859994e-07,0.00778732938988516,3.384582987586502
8.913355048859942e-07,0.008121323823563575,3.362258804719461
9.013355048859958e-07,0.008121323823563727,3.395745079020027
9.113355048859974e-07,0.007119340522528024,3.354817410430434
9.21335504885999e-07,0.008455318257242295,3.36597950186396
9.313355048860006e-07,0.007453334956206137,3.384582987586489
9.413355048859954e-07,0.006451351655170888,3.354817410430434
9.51335504885997e-07,0.008121323823563727,3.399465776164535
9.613355048859986e-07,0.006785346088849456,3.377141593297485
9.713355048860002e-07,0.008121323823563727,3.369700199008478
9.813355048859951e-07,0.008121323823563727,3.392024381875508
9.913355048859967e-07,0.006451351655170888,3.362258804719451
1.001335504885998e-06,0.00611735722149232,3.395745079020027
1.011335504886e-06,0.006785346088849911,3.36970019900847
1.021335504885995e-06,0.007787329389884704,3.373420896152975
1.031335504885996e-06,0.007119340522528024,3.380862290441993
1.041335504885998e-06,0.00611735722149232,3.369700199008468
1.051335504885999e-06,0.006785346088849456,3.38830368473101
1.061335504885994e-06,0.005783362787814207,3.362258804719463
1.071335504885996e-06,0.008121323823563727,3.380862290441993
1.081335504885997e-06,0.008455318257242295,3.380862290441993
1.091335504885999e-06,0.006785346088849456,3.351096713285926
1.101335504886001e-06,0.006117357221492472,3.388303684731
1.111335504885996e-06,0.006451351655170888,3.36597950186396
1.121335504885997e-06,0.007453334956206592,3.380862290441993
1.131335504885999e-06,0.006451351655170888,3.377141593297485
1.141335504886e-06,0.006785346088849608,3.343655318996934
1.151335504885995e-06,0.007119340522527873,3.39946577616451
1.161335504885997e-06,0.00611735722149232,3.354817410430434
1.171335504885998e-06,0.008121323823563727,3.351096713285926
1.181335504886e-06,0.007119340522527417,3.384582987586489
1.191335504885995e-06,0.005783362787814359,3.354817410430448
1.201335504885996e-06,0.00778732938988516,3.395745079020027
1.211335504885998e-06,0.007119340522528024,3.351096713285926
1.221335504886e-06,0.009123307124599432,3.36597950186396
1.231335504885994e-06,0.007119340522528935,3.380862290441986
1.241335504885996e-06,0.006451351655170888,3.347376016141417
1.251335504885998e-06,0.005783362787813752,3.392024381875518
1.261335504885999e-06,0.006451351655170888,3.373420896152977
1.271335504886001e-06,0.005449368354135791,3.373420896152985
1.281335504885996e-06,0.006785346088849456,3.392024381875518
1.291335504885997e-06,0.005449368354135184,3.369700199008468
1.301335504885999e-06,0.005783362787813752,3.399465776164535
1.311335504886e-06,0.003779396185742801,3.369700199008475
1.321335504885995e-06,0.004781379486777594,3.384582987586495
1.331335504885997e-06,0.004781379486778049,3.377141593297485
1.341335504885998e-06,0.003445401752063777,3.351096713285926
1.351335504886e-06,0.004113390619420761,3.40690717045353
1.361335504885995e-06,0.003779396185742497,3.358538107574965
1.371335504885996e-06,0.003445401752063777,3.384582987586502
1.381335504885998e-06,0.004113390619420913,3.399465776164535
1.391335504886e-06,0.003445401752063777,3.354817410430434
1.401335504885994e-06,0.003445401752063777,3.395745079020009
1.411335504885996e-06,0.003445401752063777,3.369700199008468
1.421335504885998e-06,0.005115373920456617,3.369700199008468
1.431335504885999e-06,0.003111407318385209,3.410627867598061
1.441335504886001e-06,0.004447385053098721,3.354817410430451
1.451335504885996e-06,0.002777412884706641,3.392024381875518
1.461335504885997e-06,0.003111407318385209,3.354817410430434
1.471335504885999e-06,0.004781379486778049,3.373420896152977
1.481335504886e-06,0.002777412884707401,3.388303684730998
1.491335504885995e-06,0.004447385053098721,3.362258804719463
1.501335504885997e-06,0.003779396185742345,3.395745079020027
1.511335504885998e-06,0.003111407318385209,3.373420896152977
1.521335504886e-06,0.006451351655170433,3.373420896152989
1.531335504885995e-06,0.00544936835413564,3.399465776164524
1.541335504885996e-06,0.005783362787813752,3.354817410430434
1.551335504885998e-06,0.00611735722149232,3.406907170453553
1.561335504886e-06,0.004781379486778049,3.362258804719451
1.571335504885994e-06,0.005783362787813297,3.373420896152972
1.581335504885996e-06,0.004447385053099481,3.38830368473101
1.591335504885998e-06,0.003779396185742345,3.347376016141417
1.601335504885999e-06,0.005449368354135184,3.380862290441993
1.611335504886001e-06,0.003779396185743104,3.362258804719455
1.621335504885996e-06,0.005449368354135184,3.369700199008468
1.631335504885997e-06,0.003779396185742345,3.38830368473101
1.641335504885999e-06,0.003779396185742345,3.354817410430434
1.651335504886e-06,0.004781379486777897,3.388303684730997
1.661335504885995e-06,0.004447385053099481,3.358538107574943
1.671335504885997e-06,0.003111407318385209,3.384582987586502
1.681335504885999e-06,0.00611735722149232,3.392024381875518
1.691335504886e-06,0.003445401752064385,3.336213924707919
1.701335504885995e-06,0.004781379486777442,3.39574507902
1.711335504885997e-06,0.003445401752063777,3.36597950186396
1.721335504885998e-06,0.004781379486778049,3.354817410430434
1.731335504886e-06,0.004113390619420913,3.384582987586502
1.741335504885995e-06,0.005449368354134577,3.358538107574955
1.751335504885996e-06,0.00611735722149232,3.36597950186396
1.761335504885998e-06,0.005115373920456617,3.369700199008468
1.771335504885999e-06,0.004113390619420913,3.362258804719451
1.781335504885994e-06,0.004781379486777745,3.377141593297478
1.791335504885996e-06,0.003111407318385209,3.332493227563384
1.801335504885997e-06,0.005449368354135184,3.399465776164535
1.811335504885999e-06,0.004447385053099481,3.362258804719451
1.821335504886001e-06,0.005115373920456617,3.36597950186397
1.831335504885995e-06,0.005115373920456617,3.38830368473101
1.841335504885997e-06,0.004447385053099481,3.328772530418875
1.851335504885999e-06,0.005449368354135184,3.399465776164535
1.861335504886e-06,0.006785346088849152,3.33993462185241
1.871335504885995e-06,0.006117357221492624,3.362258804719441
1.881335504885997e-06,0.004781379486778049,3.380862290441993
1.891335504885998e-06,0.004447385053099481,3.336213924707892
1.901335504886e-06,0.00611735722149232,3.403186473309044
1.911335504885995e-06,0.003445401752064993,3.354817410430456
1.921335504885996e-06,0.006451351655170888,3.36597950186396
1.931335504885998e-06,0.005783362787813752,3.36597950186396
1.941335504885999e-06,0.004781379486778049,3.332493227563384
1.951335504885994e-06,0.006117357221491712,3.377141593297464
1.961335504885996e-06,0.004447385053099481,3.358538107574943
1.971335504885997e-06,0.005115373920456617,3.358538107574943
1.981335504885999e-06,0.004781379486778049,3.369700199008468
1.991335504886001e-06,0.004447385053099937,3.317610438985377
2.001335504885995e-06,0.005449368354135184,3.377141593297485
2.011335504885997e-06,0.003111407318385209,3.354817410430434
2.021335504885999e-06,0.005449368354135184,3.351096713285926
2.031335504886e-06,0.005449368354135336,3.373420896152954
2.041335504885995e-06,0.0057833627878136,3.325051833274389
2.051335504885997e-06,0.00611735722149232,3.373420896152977
2.061335504885998e-06,0.003779396185742345,3.343655318996909
2.071335504886e-06,0.005783362787813448,3.362258804719458
2.081335504885995e-06,0.00511537392045692,3.377141593297478
2.091335504885996e-06,0.005449368354135184,3.336213924707892
2.101335504885998e-06,0.005783362787813752,3.395745079020027
2.111335504885999e-06,0.005115373920456617,3.336213924707892
2.121335504885994e-06,0.006785346088848697,3.354817410430426
2.131335504885996e-06,0.005449368354135184,3.380862290441993
2.141335504885998e-06,0.005783362787813752,3.351096713285926
2.151335504885999e-06,0.004447385053099481,3.38830368473101
2.161335504886001e-06,0.00411339061942152,3.343655318996917
2.171335504885996e-06,0.005449368354135184,3.362258804719451
2.181335504885997e-06,0.005783362787813752,3.384582987586502
2.191335504885999e-06,0.004447385053099481,3.3399346218524
