traces_bank_current_trigger/time_analysis/unitary_test/LDR_200.csv

#Digilent WaveForms Oscilloscope Acquisition
#Device Name: Discovery2
#Serial Number: SN:210321B3D813
#Date Time: 2023-06-15 11:40:56.658
#Sample rate: 1e+08Hz
#Samples: 4096
#Trigger: Source: Channel 2 Type: Edge Condition: Rising Level: 2 V Hyst.: Auto HoldOff: 0 s
#Channel 1: Range: 5 mV/div Offset: 0 V Attenuation: 1 X Sample Mode: Average
#Channel 2: Range: 2 V/div Offset: 0 V Attenuation: 1 X Sample Mode: Average

Time (s),Channel 1 (V),Channel 2 (V)
-2.477079889807162e-06,0.01012529042563514,0.02479346609537227
-2.46707988980716e-06,0.008121323823563347,0.04711764896241365
-2.457079889807162e-06,0.006451351655170888,0.006189980372830022
-2.447079889807161e-06,0.006451351655170888,0.05083834610693141
-2.437079889807162e-06,0.007119340522528024,0.01735207180635537
-2.427079889807161e-06,0.008789312690920863,0.01363137466184692
-2.417079889807163e-06,0.006785346088849456,0.05083834610693141
-2.407079889807161e-06,0.006451351655170888,-0.001251413916186876
-2.397079889807163e-06,0.008121323823563347,0.03223486038438155
-2.387079889807161e-06,0.00611735722149232,0.006189980372830022
-2.377079889807163e-06,0.008789312690920256,0.006189980372830022
-2.367079889807161e-06,0.008789312690920863,0.03595555752889761
-2.357079889807163e-06,0.008455318257242371,-0.01241350534970122
-2.347079889807162e-06,0.009457301558278,0.03967625467340606
-2.33707988980716e-06,0.008789312690921166,0.006189980372829176
-2.327079889807162e-06,0.01012529042563514,0.002469283228321573
-2.31707988980716e-06,0.01012529042563483,0.03223486038437817
-2.307079889807162e-06,0.008789312690920863,-0.01613420249422067
-2.29707988980716e-06,0.008121323823564031,0.03223486038438408
-2.287079889807162e-06,0.009457301558278,0.00991067751733847
-2.277079889807161e-06,0.009791295991956567,0.002469283228321573
-2.267079889807162e-06,0.008789312690920863,0.03967625467340606
-2.257079889807161e-06,0.009457301558278,-0.01613420249422067
-2.247079889807163e-06,0.009123307124599432,0.02479346609537227
-2.237079889807161e-06,0.00778732938988516,0.01363137466184692
-2.227079889807163e-06,0.008789312690920863,0.006189980372830022
-2.217079889807161e-06,0.007453334956206592,0.03223486038438916
-2.207079889807163e-06,0.007453334956206592,-0.01613420249420967
-2.197079889807161e-06,0.00778732938988516,0.03595555752889761
-2.187079889807163e-06,0.0061173572214927,0.00618998037283679
-2.177079889807161e-06,0.009123307124599432,0.002469283228321573
-2.16707988980716e-06,0.007787329389884856,0.04711764896240857
-2.157079889807162e-06,0.006451351655170888,-0.01613420249422067
-2.14707988980716e-06,0.006117357221492549,0.0396762546733993
-2.137079889807162e-06,0.007119340522528024,0.00991067751733847
-2.12707988980716e-06,0.007119340522527796,-0.004972111060686865
-2.117079889807162e-06,0.00611735722149232,0.03223486038438916
-2.10707988980716e-06,0.006451351655170888,-0.01613420249422067
-2.097079889807162e-06,0.005449368354135184,0.02851416323988071
-2.087079889807161e-06,0.006785346088849456,0.006189980372830022
-2.077079889807162e-06,0.007453334956206592,-0.008692808205203774
-2.067079889807161e-06,0.007453334956206592,0.04339695181791451
-2.057079889807163e-06,0.006451351655170888,0.002469283228321573
-2.047079889807161e-06,0.00778732938988516,0.03595555752889761
-2.037079889807163e-06,0.005783362787814208,0.013631374661852
-2.027079889807161e-06,0.008121323823563727,0.00991067751733847
-2.017079889807163e-06,0.006451351655171268,0.03595555752889169
-2.007079889807161e-06,0.007119340522528024,-0.004972111060695325
-1.997079889807163e-06,0.007453334956206516,0.04711764896241111
-1.987079889807162e-06,0.007119340522528024,0.01363137466184692
-1.97707988980716e-06,0.0081213238235635,0.002469283228329186
-1.967079889807162e-06,0.007119340522528024,0.03595555752889761
-1.95707988980716e-06,0.006451351655170964,-0.004972111060689403
-1.947079889807162e-06,0.006785346088849456,0.02107276895086382
-1.93707988980716e-06,0.006117357221492776,0.01363137466184353
-1.927079889807162e-06,0.008121323823563727,-0.001251413916186876
-1.917079889807161e-06,0.006451351655170888,0.03223486038438916
-1.907079889807162e-06,0.006785346088849456,-0.01241350534971222
-1.897079889807161e-06,0.009123307124599432,0.03223486038438916
-1.887079889807163e-06,0.00611735722149232,0.00991067751733847
-1.877079889807161e-06,0.006785346088849456,0.006189980372830022
-1.867079889807163e-06,0.008455318257241915,0.02479346609536804
-1.857079889807161e-06,0.007453334956206592,-0.001251413916186876
-1.847079889807163e-06,0.008455318257242068,0.01735207180635114
-1.837079889807161e-06,0.008789312690920863,-0.008692808205203774
-1.827079889807163e-06,0.00979129599195634,0.009910677517334241
-1.817079889807162e-06,0.007453334956206592,0.03223486038438916
-1.80707988980716e-06,0.008121323823564031,-0.01985489963871982
-1.797079889807162e-06,0.009457301558278,0.02107276895086382
-1.78707988980716e-06,0.00812132382356388,0.006189980372830022
-1.777079889807162e-06,0.008789312690920863,0.006189980372830022
-1.76707988980716e-06,0.008789312690920863,0.03595555752888407
-1.757079889807162e-06,0.008789312690920863,-0.02357559678323757
-1.747079889807161e-06,0.008789312690920863,0.03595555752889761
-1.737079889807162e-06,0.009791295991956567,0.006189980372830022
-1.727079889807161e-06,0.008789312690920863,0.002469283228321573
-1.717079889807163e-06,0.006785346088849456,0.05083834610693141
-1.707079889807161e-06,0.00778732938988516,-0.03473768821676292
-1.697079889807163e-06,0.009123307124599432,0.02479346609537227
-1.687079889807161e-06,0.00778732938988516,0.002469283228321573
-1.677079889807163e-06,0.008455318257242142,0.002469283228321573
-1.667079889807161e-06,0.008789312690920863,0.01735207180635537
-1.657079889807163e-06,0.00812132382356388,-0.02357559678322826
-1.647079889807161e-06,0.007453334956206592,0.02107276895086382
-1.63707988980716e-06,0.008789312690921015,-0.001251413916187722
-1.627079889807162e-06,0.009457301558278,-0.004972111060695325
-1.61707988980716e-06,0.009457301558277847,0.0247934660953655
-1.607079889807162e-06,0.008789312690920863,-0.004972111060695325
-1.59707988980716e-06,0.008121323823564031,0.03967625467340014
-1.587079889807162e-06,0.009457301558278,0.01363137466184692
-1.57707988980716e-06,0.008789312690920863,0.002469283228321573
-1.567079889807162e-06,0.008455318257242295,0.03223486038438916
-1.557079889807161e-06,0.01012529042563514,-0.004972111060695325
-1.547079889807162e-06,0.00778732938988516,0.04339695181791451
-1.537079889807161e-06,0.008455318257242295,0.01735207180635537
-1.527079889807163e-06,0.00778732938988516,0.01363137466184692
-1.517079889807161e-06,0.00778732938988516,0.03967625467340606
-1.507079889807163e-06,0.007453334956206668,-0.001251413916177571
-1.497079889807161e-06,0.009123307124599432,0.04711764896242296
-1.487079889807163e-06,0.008121323823563955,0.03595555752890015
-1.477079889807161e-06,0.008789312690920863,0.01363137466184692
-1.467079889807163e-06,0.007453334956206896,0.04711764896241535
-1.457079889807162e-06,0.007119340522528024,0.006189980372830022
-1.44707988980716e-06,0.007787329389885236,0.05083834610692549
-1.437079889807162e-06,0.008121323823563727,0.02479346609537227
-1.42707988980716e-06,0.008121323823563955,0.01735207180636298
-1.417079889807162e-06,0.009123307124599432,0.05083834610693141
-1.40707988980716e-06,0.00945730155827838,0.01735207180636129
-1.397079889807162e-06,0.01112727372667084,0.04339695181791451
-1.387079889807161e-06,0.008789312690920863,0.03595555752889761
-1.377079889807162e-06,0.009123307124599432,0.02851416323988071
-1.367079889807161e-06,0.008121323823563727,0.03967625467340606
-1.357079889807163e-06,0.006785346088849456,0.002469283228321573
-1.347079889807161e-06,0.007453334956206592,0.03223486038438916
-1.337079889807163e-06,0.006451351655171116,0.04711764896241957
-1.327079889807161e-06,0.008789312690920863,0.01363137466184692
-1.317079889807163e-06,0.007787329389885388,0.05827974039593815
-1.307079889807161e-06,0.00778732938988516,-0.001251413916186876
-1.297079889807163e-06,0.008789312690920635,0.05083834610691956
-1.287079889807162e-06,0.006451351655170888,0.03223486038438916
-1.27707988980716e-06,0.009123307124599052,0.01735207180636552
-1.267079889807162e-06,0.007453334956206592,0.06200043754045675
-1.25707988980716e-06,0.007119340522527948,0.006189980372841865
-1.247079889807162e-06,0.006785346088849456,0.05827974039594831
-1.23707988980716e-06,0.005783362787814359,0.02107276895086297
-1.227079889807162e-06,0.008455318257242295,0.01735207180635537
-1.217079889807161e-06,0.007119340522528024,0.05827974039594831
-1.207079889807162e-06,0.007119340522528024,-0.001251413916186876
-1.197079889807161e-06,0.00778732938988516,0.05455904325143986
-1.187079889807163e-06,0.00778732938988516,0.03223486038438916
-1.177079889807161e-06,0.009123307124599432,0.01363137466184692
-1.167079889807163e-06,0.007453334956206592,0.05083834610693141
-1.157079889807161e-06,0.006451351655170888,0.00991067751733847
-1.147079889807163e-06,0.008789312690920332,0.06200043754044491
-1.137079889807161e-06,0.00611735722149232,0.03967625467340606
-1.127079889807163e-06,0.008789312690920256,0.03595555752889846
-1.117079889807161e-06,0.007119340522528024,0.05827974039594831
-1.107079889807163e-06,0.006785346088849532,0.009910677517349469
-1.097079889807162e-06,0.008455318257242295,0.04711764896242296
-1.08707988980716e-06,0.00645135165517104,0.03595555752889592
-1.077079889807162e-06,0.007119340522528024,0.02851416323988071
-1.06707988980716e-06,0.007119340522527948,0.0471176489624145
-1.057079889807162e-06,0.006785346088849456,0.00991067751733847
-1.04707988980716e-06,0.008789312690920863,0.06200043754045675
-1.037079889807162e-06,0.006451351655170888,0.04711764896242296
-1.027079889807161e-06,0.006451351655170888,0.04711764896242296
-1.017079889807162e-06,0.007453334956206592,0.05083834610693141
-1.007079889807161e-06,0.005115373920456617,0.006189980372830022
-9.970798898071626e-07,0.008455318257242295,0.04711764896242296
-9.87079889807161e-07,0.005449368354135184,0.03967625467340606
-9.770798898071628e-07,0.007787329389884628,0.01363137466185284
-9.670798898071612e-07,0.00611735722149232,0.05083834610693141
-9.57079889807163e-07,0.006451351655170812,-0.004972111060682634
-9.470798898071614e-07,0.006785346088849456,0.04711764896242296
-9.370798898071632e-07,0.006451351655170964,0.03595555752890015
-9.270798898071616e-07,0.007119340522528024,0.01363137466184692
-9.1707988980716e-07,0.007119340522527873,0.05455904325142886
-9.070798898071618e-07,0.006451351655170888,0.006189980372830022
-8.970798898071602e-07,0.006785346088849456,0.04339695181791112
-8.87079889807162e-07,0.006785346088849456,0.02851416323988071
-8.770798898071604e-07,0.007453334956206364,0.01363137466185115
-8.670798898071622e-07,0.006451351655170888,0.03223486038438916
-8.570798898071606e-07,0.007119340522528024,0.006189980372830022
-8.470798898071624e-07,0.009457301558278,0.05827974039594831
-8.370798898071608e-07,0.007119340522528024,0.02851416323988071
-8.270798898071626e-07,0.00778732938988516,-0.004972111060695325
-8.17079889807161e-07,0.008121323823563727,0.04711764896242296
-8.070798898071628e-07,0.006785346088849759,-0.008692808205191083
-7.970798898071612e-07,0.008455318257242295,0.05083834610693141
-7.870798898071629e-07,0.007787329389885311,0.02107276895087059
-7.770798898071613e-07,0.007119340522528024,0.00991067751733847
-7.670798898071631e-07,0.0081213238235635,0.03967625467339929
-7.570798898071615e-07,0.008121323823563727,-0.02729629392774602
-7.470798898071599e-07,0.008455318257241915,0.03967625467340014
-7.370798898071617e-07,0.006785346088849456,0.01363137466184692
-7.270798898071601e-07,0.008789312690920939,0.006189980372837635
-7.170798898071619e-07,0.009123307124599432,0.03967625467340606
-7.070798898071603e-07,0.007119340522528556,-0.0012514139161818
-6.970798898071621e-07,0.009457301558278,0.02107276895086382
-6.870798898071605e-07,0.00778732938988516,-0.004972111060695325
-6.770798898071623e-07,0.00778732938988516,0.01363137466184692
-6.670798898071607e-07,0.008455318257242295,0.03223486038438916
-6.570798898071625e-07,0.007119340522528024,-0.01241350534971222
-6.470798898071609e-07,0.008455318257242295,0.03595555752889761
-6.370798898071627e-07,0.009123307124599432,0.01363137466184692
-6.270798898071611e-07,0.008455318257242295,0.00991067751733847
-6.170798898071629e-07,0.009457301558277773,0.03967625467339929
-6.070798898071613e-07,0.008121323823563727,-0.004972111060695325
-5.970798898071631e-07,0.007453334956206744,0.03967625467339591
-5.870798898071615e-07,0.008789312690920863,0.02479346609537227
-5.770798898071633e-07,0.00979129599195634,0.01363137466184946
-5.670798898071617e-07,0.009123307124599432,0.05083834610693141
-5.570798898071601e-07,0.008789312690920635,-0.004972111060687711
-5.470798898071619e-07,0.00778732938988516,0.02851416323988071
-5.370798898071603e-07,0.007119340522528176,0.006189980372830867
-5.27079889807162e-07,0.00778732938988516,0.00991067751733847
-5.170798898071604e-07,0.008455318257242295,0.04339695181791451
-5.070798898071622e-07,0.008789312690920863,-0.01613420249422067
-4.970798898071606e-07,0.008789312690920863,0.02851416323988071
-4.870798898071624e-07,0.007119340522528024,0.01363137466184692
-4.770798898071608e-07,0.008455318257242295,0.002469283228321573
-4.670798898071626e-07,0.008455318257242295,0.01735207180635537
-4.57079889807161e-07,0.007453334956206592,-0.004972111060695325
-4.470798898071628e-07,0.007453334956206592,0.0285141632398731
-4.370798898071612e-07,0.008121323823563727,0.00991067751733847
-4.27079889807163e-07,0.007119340522528252,0.006189980372830868
-4.170798898071614e-07,0.008789312690920863,0.03223486038438916
-4.070798898071632e-07,0.007453334956206896,0.009910677517343546
-3.970798898071616e-07,0.007453334956206592,0.01735207180635537
-3.8707988980716e-07,0.007453334956206972,0.009910677517334241
-3.770798898071618e-07,0.009123307124599432,-0.008692808205203774
-3.670798898071602e-07,0.007453334956206364,0.02479346609536381
-3.57079889807162e-07,0.006451351655170888,-0.01241350534971222
-3.470798898071604e-07,0.0101252904256343,0.02851416323987649
-3.370798898071622e-07,0.006451351655170888,0.00991067751733847
-3.270798898071606e-07,0.007119340522528024,0.006189980372830022
-3.170798898071624e-07,0.008789312690920863,0.03223486038438916
-3.070798898071608e-07,0.006785346088849456,-0.01241350534971222
-2.970798898071626e-07,0.007119340522528024,0.02479346609537227
-2.87079889807161e-07,0.00778732938988516,0.006189980372830022
-2.770798898071627e-07,0.007453334956206668,-0.004972111060692787
-2.670798898071611e-07,0.00778732938988516,0.04711764896242296
-2.570798898071629e-07,0.005783362787814208,0.002469283228331724
-2.470798898071613e-07,0.007453334956206592,0.03223486038438916
-2.370798898071631e-07,0.006451351655171116,0.01363137466185115
-2.270798898071615e-07,0.007119340522528024,-0.004972111060695325
-2.170798898071599e-07,0.007119340522528024,0.03223486038437478
-2.070798898071617e-07,0.007119340522528024,-0.03101699107225447
-1.970798898071601e-07,0.006451351655170508,0.02851416323987564
-1.870798898071619e-07,0.004781379486778049,0.006189980372830022
-1.770798898071603e-07,0.00645135165517104,-0.01985489963871812
-1.670798898071621e-07,0.007119340522528024,0.02851416323988071
-1.570798898071605e-07,0.005449368354135184,-0.01613420249422067
-1.470798898071623e-07,0.008121323823563727,0.01735207180635537
-1.370798898071607e-07,0.006451351655170888,0.01735207180635537
-1.270798898071625e-07,0.008121323823563727,-0.008692808205203774
-1.170798898071609e-07,0.006785346088849456,0.01735207180635537
-1.070798898071627e-07,0.007453334956206592,-0.01241350534971222
-9.707988980716108e-08,0.00778732938988516,0.02851416323988071
-8.707988980716287e-08,0.006451351655171192,0.002469283228327495
-7.707988980716127e-08,0.006451351655170888,-0.01613420249422067
-6.707988980716306e-08,0.006117357221492397,0.03595555752888577
-5.707988980716147e-08,0.006785346088849456,-0.008692808205203774
-4.707988980716326e-08,0.008455318257241915,0.03223486038437986
-3.707988980716166e-08,0.004113390619420913,0.01363137466184692
-2.707988980716006e-08,0.006117357221492017,0.009910677517346931
-1.707988980716185e-08,0.004781379486778049,0.04711764896242296
-7.07988980716025e-09,0.005783362787809119,0.08432462040812164
2.92011019283796e-09,-0.01459029766657889,2.785550747320642
1.292011019283956e-08,0.01446721806345424,3.414348564742514
2.292011019283777e-08,0.004447385053099481,3.17250325034952
3.292011019283937e-08,0.01513520693081365,3.310169044696333
4.292011019283758e-08,0.001775429583670938,3.31761043898535
5.292011019283918e-08,0.01246325146138511,3.343655318996909
6.292011019283739e-08,0.00144143514999237,3.403186473309044
7.292011019283898e-08,0.004113390619420913,3.351096713285926
8.292011019283719e-08,-0.003568481355184402,3.440393444754108
9.292011019283879e-08,0.0004394518489566662,3.310169044696333
1.02920110192837e-07,0.0007734462826351582,3.399465776164515
1.129201101928386e-07,0.001107440716313802,3.302727650407316
1.229201101928368e-07,0.002109424017349278,3.325051833274362
1.329201101928384e-07,0.006785346088849456,3.328772530418875
1.4292011019284e-07,0.005115373920457224,3.306448347551834
1.529201101928382e-07,0.00778732938988516,3.347376016141417
1.629201101928398e-07,0.004781379486778277,3.373420896152972
1.72920110192838e-07,0.005783362787813752,3.354817410430434
1.829201101928396e-07,0.005449368354134349,3.421789959031567
1.929201101928378e-07,0.001775429583670938,3.336213924707892
2.029201101928394e-07,0.00144143514999237,3.38830368473101
2.129201101928376e-07,0.0007734462826352341,3.347376016141417
2.229201101928392e-07,0.004113390619420913,3.3399346218524
2.329201101928375e-07,0.005449368354135184,3.336213924707892
2.429201101928391e-07,0.006451351655170888,3.31761043898535
2.529201101928373e-07,0.00511537392045692,3.351096713285918
2.629201101928389e-07,0.005115373920456617,3.358538107574943
2.729201101928371e-07,0.005449368354135108,3.343655318996912
2.829201101928387e-07,0.004113390619420913,3.403186473309044
2.929201101928369e-07,0.001441435149992977,3.351096713285938
3.029201101928385e-07,0.003111407318385209,3.392024381875518
3.129201101928401e-07,0.001775429583670862,3.362258804719448
3.229201101928383e-07,0.00144143514999237,3.347376016141417
3.329201101928399e-07,0.003445401752064005,3.362258804719441
3.429201101928381e-07,0.004447385053099481,3.31761043898535
3.529201101928397e-07,0.005449368354135033,3.373420896152967
3.629201101928379e-07,0.004781379486778049,3.332493227563384
3.729201101928395e-07,0.004781379486778049,3.347376016141417
3.829201101928377e-07,0.007453334956206592,3.395745079020027
3.929201101928393e-07,0.003111407318385209,3.343655318996909
4.029201101928375e-07,0.005449368354135184,3.377141593297485
4.129201101928391e-07,0.004447385053099481,3.354817410430434
4.229201101928373e-07,0.005449368354135184,3.358538107574943
4.329201101928389e-07,0.005783362787813752,3.377141593297485
4.429201101928371e-07,0.006451351655170736,3.343655318996916
4.529201101928387e-07,0.007453334956206592,3.384582987586502
4.629201101928369e-07,0.005783362787814132,3.354817410430441
4.729201101928385e-07,0.008121323823563727,3.351096713285926
4.829201101928368e-07,0.007787329389885236,3.373420896152972
4.929201101928384e-07,0.007119340522528024,3.332493227563384
5.029201101928399e-07,0.008121323823563197,3.380862290441988
5.129201101928382e-07,0.005783362787813752,3.358538107574943
5.229201101928398e-07,0.005449368354135412,3.351096713285934
5.32920110192838e-07,0.006451351655170888,3.38830368473101
5.429201101928396e-07,0.0051153739204573,3.325051833274378
5.529201101928378e-07,0.008121323823563727,3.373420896152977
5.629201101928394e-07,0.005449368354135184,3.347376016141417
5.729201101928376e-07,0.00778732938988516,3.332493227563384
5.829201101928392e-07,0.00778732938988516,3.377141593297485
5.929201101928374e-07,0.006451351655170888,3.325051833274367
