traces_bank_current_trigger/time_analysis/unitary_test/LDR_960.csv

#Digilent WaveForms Oscilloscope Acquisition
#Device Name: Discovery2
#Serial Number: SN:210321B3D813
#Date Time: 2023-06-15 11:55:29.488
#Sample rate: 1e+08Hz
#Samples: 4096
#Trigger: Source: Channel 2 Type: Edge Condition: Rising Level: 2 V Hyst.: Auto HoldOff: 0 s
#Channel 1: Range: 5 mV/div Offset: 0 V Attenuation: 1 X Sample Mode: Average
#Channel 2: Range: 2 V/div Offset: 0 V Attenuation: 1 X Sample Mode: Average

Time (s),Channel 1 (V),Channel 2 (V)
-2.474864546525323e-06,0.005783362787813752,-0.008692808205203774
-2.464864546525321e-06,0.00645135165517066,0.0322348603843824
-2.454864546525323e-06,0.005449368354135184,0.002469283228321573
-2.444864546525321e-06,0.008455318257242295,-0.01241350534971222
-2.434864546525323e-06,0.005783362787813752,0.02479346609537227
-2.424864546525322e-06,0.00611735722149232,-0.01985489963872912
-2.414864546525323e-06,0.007119340522528024,0.02479346609537227
-2.404864546525322e-06,0.006451351655170888,0.01363137466184692
-2.394864546525324e-06,0.007787329389884856,0.002469283228324111
-2.384864546525322e-06,0.00778732938988516,0.02107276895086382
-2.374864546525324e-06,0.0061173572214927,-0.01613420249421221
-2.364864546525322e-06,0.008455318257242295,0.03595555752889761
-2.354864546525324e-06,0.006451351655171344,-0.00497211106068602
-2.344864546525322e-06,0.009457301558278,0.01363137466184692
-2.334864546525321e-06,0.006785346088849532,0.03223486038437732
-2.324864546525323e-06,0.007119340522528024,-0.01985489963872912
-2.314864546525321e-06,0.007453334956206212,0.03223486038438408
-2.304864546525323e-06,0.005783362787813752,0.00991067751733847
-2.294864546525321e-06,0.007119340522527948,-0.004972111060686019
-2.284864546525323e-06,0.006785346088849456,0.03595555752889761
-2.274864546525321e-06,0.006451351655170888,-0.01613420249422067
-2.264864546525323e-06,0.006451351655170888,0.02107276895086382
-2.254864546525322e-06,0.003779396185742345,-0.001251413916186876
-2.244864546525323e-06,0.008789312690920863,0.00991067751733847
-2.234864546525322e-06,0.005783362787813752,0.03967625467340606
-2.224864546525323e-06,0.008121323823563727,-0.008692808205203774
-2.214864546525322e-06,0.006451351655170888,0.01363137466184692
-2.204864546525324e-06,0.004113390619421444,0.02107276895086212
-2.194864546525322e-06,0.006451351655170888,0.00991067751733847
-2.184864546525324e-06,0.004447385053099938,0.03967625467339929
-2.174864546525322e-06,0.005783362787813752,-0.02357559678323757
-2.164864546525321e-06,0.005449368354135108,0.03595555752889085
-2.154864546525322e-06,0.005115373920456617,0.006189980372830022
-2.144864546525321e-06,0.005783362787813372,-0.008692808205195314
-2.134864546525323e-06,0.004113390619420913,0.02851416323988071
-2.124864546525321e-06,0.003445401752064157,-0.01613420249421221
-2.114864546525323e-06,0.005115373920456617,0.02107276895086382
-2.104864546525321e-06,0.004781379486778049,0.002469283228321573
-2.094864546525323e-06,0.005115373920456617,-0.008692808205203774
-2.084864546525321e-06,0.005783362787813752,0.04339695181791451
-2.074864546525323e-06,0.004781379486778049,-0.01613420249422067
-2.064864546525322e-06,0.004447385053099481,0.01735207180635537
-2.054864546525323e-06,0.003779396185742345,-0.01241350534971222
-2.044864546525322e-06,0.006451351655170888,0.00991067751733847
-2.034864546525324e-06,0.008121323823563347,0.002469283228323265
-2.024864546525322e-06,0.005783362787813752,-0.02357559678323757
-2.014864546525324e-06,0.007787329389884703,0.04711764896240688
-2.004864546525322e-06,0.005449368354135184,0.002469283228321573
-1.994864546525324e-06,0.007119340522527644,0.002469283228321573
-1.984864546525322e-06,0.006785346088849456,0.03223486038438916
-1.974864546525321e-06,0.007119340522528024,-0.004972111060685173
-1.964864546525323e-06,0.007119340522528024,0.03967625467340606
-1.954864546525321e-06,0.006451351655171116,-0.008692808205201236
-1.944864546525323e-06,0.007453334956206592,0.002469283228321573
-1.934864546525321e-06,0.006117357221492397,0.0285141632398731
-1.924864546525323e-06,0.006451351655170888,-0.004972111060695325
-1.914864546525321e-06,0.005449368354135184,0.02479346609537227
-1.904864546525323e-06,0.005449368354135184,-0.001251413916186876
-1.894864546525322e-06,0.006785346088849456,0.01363137466184692
-1.884864546525323e-06,0.00611735722149232,0.02107276895086382
-1.874864546525322e-06,0.005783362787813752,0.002469283228321573
-1.864864546525324e-06,0.006451351655170736,0.03595555752889
-1.854864546525322e-06,0.005449368354135184,0.006189980372830022
-1.844864546525324e-06,0.00645135165517066,0.01363137466184523
-1.834864546525322e-06,0.007119340522528024,0.02851416323988071
-1.824864546525324e-06,0.005783362787814056,-0.01613420249421052
-1.814864546525322e-06,0.006785346088849456,0.05083834610693141
-1.804864546525321e-06,0.005115373920457224,0.01363137466184353
-1.794864546525323e-06,0.00778732938988516,-0.001251413916186876
-1.784864546525321e-06,0.005783362787814056,0.02479346609536465
-1.774864546525323e-06,0.007119340522528024,-0.008692808205203774
-1.764864546525321e-06,0.007119340522528024,0.02479346609536804
-1.754864546525323e-06,0.007119340522528024,0.006189980372830022
-1.744864546525321e-06,0.00778732938988516,0.00991067751733847
-1.734864546525323e-06,0.007453334956206592,0.03595555752889761
-1.724864546525321e-06,0.006785346088849456,0.00991067751733847
-1.714864546525323e-06,0.008121323823563727,0.03967625467340606
-1.704864546525322e-06,0.006451351655170888,-0.004972111060695325
-1.694864546525323e-06,0.007453334956206592,-0.001251413916186876
-1.684864546525322e-06,0.007453334956206592,0.01363137466184692
-1.674864546525324e-06,0.007119340522528101,-0.01985489963872151
-1.664864546525322e-06,0.00778732938988516,0.03967625467340606
-1.654864546525324e-06,0.006785346088849684,-0.01241350534970038
-1.644864546525322e-06,0.009457301558278,0.00991067751733847
-1.634864546525321e-06,0.005783362787814435,0.03223486038437901
-1.624864546525322e-06,0.008789312690920863,-0.01241350534971222
-1.614864546525321e-06,0.008455318257241915,0.03967625467339506
-1.604864546525323e-06,0.006785346088849456,-0.008692808205203774
-1.594864546525321e-06,0.008121323823563424,0.0210727689508672
-1.584864546525323e-06,0.006785346088849456,0.03595555752889761
-1.574864546525321e-06,0.00778732938988516,0.002469283228321573
-1.564864546525323e-06,0.008789312690920863,0.03967625467340606
-1.554864546525321e-06,0.006785346088849456,0.006189980372830022
-1.544864546525323e-06,0.008121323823563727,0.002469283228321573
-1.534864546525322e-06,0.006451351655170888,0.02479346609537227
-1.524864546525323e-06,0.006451351655170888,-0.01985489963872912
-1.514864546525322e-06,0.007453334956206592,0.02107276895086382
-1.504864546525324e-06,0.005783362787814132,-0.004972111060689403
-1.494864546525322e-06,0.008789312690920863,0.006189980372830022
-1.484864546525324e-06,0.007453334956206896,0.02479346609536804
-1.474864546525322e-06,0.00611735722149232,-0.008692808205203774
-1.464864546525324e-06,0.008455318257241762,0.03595555752888746
-1.454864546525322e-06,0.007453334956206592,0.002469283228321573
-1.444864546525321e-06,0.009123307124599279,0.0099106775173427
-1.434864546525323e-06,0.008455318257242295,0.02851416323988071
-1.424864546525321e-06,0.007453334956206744,-0.01241350534969953
-1.414864546525323e-06,0.008121323823563727,0.04339695181791451
-1.404864546525321e-06,0.006785346088849759,-0.004972111060691095
-1.394864546525323e-06,0.008121323823563727,0.01363137466184692
-1.384864546525321e-06,0.006451351655170888,0.03223486038438916
-1.374864546525323e-06,0.005115373920456617,-0.001251413916186876
-1.364864546525322e-06,0.007119340522528024,0.00991067751733847
-1.354864546525323e-06,0.006451351655170888,0.00991067751733847
-1.344864546525322e-06,0.007453334956206592,-0.004972111060695325
-1.334864546525324e-06,0.007119340522528101,0.03595555752888831
-1.324864546525322e-06,0.006785346088849456,-0.01241350534971222
-1.314864546525324e-06,0.007119340522527948,0.02851416323987141
-1.304864546525322e-06,0.00611735722149232,0.006189980372830022
-1.294864546525324e-06,0.007453334956206288,0.01363137466184523
-1.284864546525322e-06,0.005449368354135184,0.01735207180635537
-1.274864546525321e-06,0.005783362787813904,-0.004972111060686019
-1.264864546525323e-06,0.006451351655170888,0.03595555752889761
-1.254864546525321e-06,0.007119340522527873,0.006189980372832559
-1.244864546525323e-06,0.006451351655170888,0.01735207180635537
-1.234864546525321e-06,0.00578336278781398,0.0285141632398731
-1.224864546525323e-06,0.006785346088849456,-0.004972111060695325
-1.214864546525321e-06,0.005449368354135184,0.03595555752889761
-1.204864546525323e-06,0.00611735722149232,-0.001251413916186876
-1.194864546525321e-06,0.00611735722149232,0.006189980372830022
-1.184864546525323e-06,0.007453334956206592,0.04339695181791451
-1.174864546525322e-06,0.006785346088849456,-0.01241350534971222
-1.164864546525323e-06,0.00611735722149232,0.04711764896242296
-1.154864546525322e-06,0.006451351655170888,-0.001251413916186876
-1.144864546525324e-06,0.008121323823563347,-0.004972111060694479
-1.134864546525322e-06,0.007119340522528024,0.04339695181791451
-1.124864546525324e-06,0.007119340522528024,-0.01241350534969953
-1.114864546525322e-06,0.007453334956206592,0.03967625467340606
-1.104864546525324e-06,0.006451351655171116,0.02107276895086805
-1.094864546525322e-06,0.009123307124599432,-0.001251413916186876
-1.084864546525321e-06,0.008121323823563955,0.02851416323987226
-1.074864546525323e-06,0.009123307124599432,-0.008692808205203774
-1.064864546525321e-06,0.008455318257242219,0.04711764896241111
-1.054864546525323e-06,0.008121323823563727,-0.004972111060695325
-1.044864546525321e-06,0.01012529042563514,0.002469283228321573
-1.034864546525323e-06,0.00778732938988516,0.02479346609537227
-1.024864546525321e-06,0.008121323823563727,-0.004972111060695325
-1.014864546525323e-06,0.008121323823563727,0.03595555752889761
-1.004864546525322e-06,0.006785346088849456,0.002469283228321573
-9.948645465253234e-07,0.009123307124599432,0.006189980372830022
-9.848645465253218e-07,0.008789312690920863,0.03223486038438916
-9.748645465253236e-07,0.00812132382356388,-0.01985489963871728
-9.64864546525322e-07,0.008121323823563727,0.04711764896242296
-9.548645465253238e-07,0.007787329389885236,0.002469283228331724
-9.448645465253222e-07,0.009791295991956567,0.006189980372830022
-9.34864546525324e-07,0.008455318257242599,0.03967625467339845
-9.248645465253224e-07,0.008121323823563727,0.002469283228321573
-9.148645465253208e-07,0.008455318257242142,0.04711764896241365
-9.048645465253226e-07,0.00778732938988516,0.006189980372830022
-8.94864546525321e-07,0.007453334956206744,0.00618998037283679
-8.848645465253228e-07,0.008121323823563727,0.03595555752889761
-8.748645465253212e-07,0.006451351655171648,-0.004972111060684327
-8.64864546525323e-07,0.009791295991956567,0.04339695181791451
-8.548645465253214e-07,0.004781379486778049,-0.008692808205203774
-8.448645465253231e-07,0.008121323823563727,0.00991067751733847
-8.348645465253215e-07,0.007119340522528024,0.03967625467340606
-8.248645465253233e-07,0.00778732938988516,0.01735207180635537
-8.148645465253217e-07,0.008455318257242295,0.04711764896242296
-8.048645465253235e-07,0.00745333495620682,0.01735207180636214
-7.948645465253219e-07,0.007453334956206592,0.00991067751733847
-7.848645465253237e-07,0.008455318257242068,0.0433969518179069
-7.748645465253221e-07,0.007453334956206592,-0.001251413916186876
-7.648645465253239e-07,0.008789312690920559,0.03595555752888915
-7.548645465253223e-07,0.006451351655170888,0.00991067751733847
-7.448645465253207e-07,0.008121323823563651,0.009910677517343546
-7.348645465253225e-07,0.00778732938988516,0.03223486038438916
-7.248645465253209e-07,0.005449368354135564,-0.008692808205190238
-7.148645465253227e-07,0.007119340522528024,0.05083834610693141
-7.048645465253211e-07,0.006451351655171192,0.009910677517341008
-6.948645465253229e-07,0.00778732938988516,0.02107276895086382
-6.848645465253213e-07,0.006451351655170888,0.03223486038438916
-6.748645465253231e-07,0.00611735722149232,-0.001251413916186876
-6.648645465253215e-07,0.00778732938988516,0.03595555752889761
-6.548645465253233e-07,0.006451351655170888,0.006189980372830022
-6.448645465253217e-07,0.00778732938988516,0.02479346609537227
-6.348645465253235e-07,0.007119340522528024,0.03595555752889761
-6.248645465253219e-07,0.006451351655170888,-0.01985489963872912
-6.148645465253237e-07,0.006117357221492397,0.05455904325142294
-6.048645465253221e-07,0.00611735722149232,0.006189980372830022
-5.948645465253238e-07,0.007453334956206288,0.02107276895086043
-5.848645465253222e-07,0.006785346088849456,0.02479346609537227
-5.74864546525324e-07,0.006785346088849456,-0.004972111060688556
-5.648645465253224e-07,0.006451351655170888,0.03967625467340606
-5.548645465253208e-07,0.006451351655171495,0.002469283228319881
-5.448645465253226e-07,0.009123307124599432,-0.004972111060695325
-5.34864546525321e-07,0.006451351655171344,0.02851416323987226
-5.248645465253228e-07,0.008455318257242295,-0.008692808205203774
-5.148645465253212e-07,0.007453334956206592,0.04339695181791451
-5.04864546525323e-07,0.006785346088849456,-0.001251413916186876
-4.948645465253214e-07,0.007453334956206592,0.01363137466184692
-4.848645465253232e-07,0.006451351655170888,0.03967625467340606
-4.748645465253216e-07,0.005783362787813752,-0.008692808205203774
-4.648645465253234e-07,0.005449368354135184,0.05827974039594831
-4.548645465253218e-07,0.005783362787813752,-0.01241350534971222
-4.448645465253236e-07,0.006785346088849228,0.002469283228318188
-4.34864546525322e-07,0.006451351655170888,0.03223486038438916
-4.248645465253238e-07,0.006451351655170888,-0.01241350534970207
-4.148645465253222e-07,0.00611735722149232,0.03967625467340606
-4.04864546525324e-07,0.00611735722149232,0.006189980372837633
-3.948645465253224e-07,0.007119340522528024,0.00991067751733847
-3.848645465253208e-07,0.004781379486778581,0.03223486038437986
-3.748645465253226e-07,0.007119340522528024,-0.008692808205203774
-3.64864546525321e-07,0.006117357221492852,0.0545590432514297
-3.548645465253228e-07,0.008455318257242295,0.00991067751733847
-3.448645465253212e-07,0.00645135165517104,0.0247934660953765
-3.348645465253229e-07,0.007119340522528024,0.04339695181791451
-3.248645465253213e-07,0.006451351655170888,0.00991067751733847
-3.148645465253231e-07,0.007119340522528024,0.05455904325143986
-3.048645465253215e-07,0.00611735722149232,-0.01241350534971222
-2.948645465253233e-07,0.00778732938988516,0.01363137466184692
-2.848645465253217e-07,0.005783362787813752,0.04711764896242296
-2.748645465253235e-07,0.008121323823563197,-0.008692808205191083
-2.648645465253219e-07,0.00778732938988516,0.05455904325143986
-2.548645465253237e-07,0.006451351655171192,0.002469283228333417
-2.448645465253221e-07,0.008455318257242295,0.03223486038438916
-2.348645465253239e-07,0.006451351655171344,0.03595555752889677
-2.248645465253223e-07,0.006785346088849456,-0.001251413916186876
-2.148645465253207e-07,0.007787329389885083,0.0508383461069221
-2.048645465253225e-07,0.007453334956206592,0.00991067751733847
-1.948645465253209e-07,0.007119340522527796,0.03595555752889677
-1.848645465253227e-07,0.00611735722149232,0.03223486038438916
-1.748645465253211e-07,0.005449368354135033,-0.00125141391617757
-1.648645465253229e-07,0.004781379486778049,0.03967625467340606
-1.548645465253213e-07,0.006451351655170888,0.02479346609537227
-1.448645465253231e-07,0.00611735722149232,0.002469283228321573
-1.348645465253215e-07,0.007119340522528024,0.03967625467340606
-1.248645465253233e-07,0.005115373920456617,-0.01241350534971222
-1.148645465253217e-07,0.008455318257242295,0.04711764896242296
-1.048645465253235e-07,0.00611735722149232,-0.004972111060695325
-9.486454652532186e-08,0.007119340522528024,0.00991067751733847
-8.486454652532365e-08,0.006117357221492549,0.01735207180635367
-7.486454652532205e-08,0.006451351655170888,-0.01241350534971222
-6.486454652532384e-08,0.007787329389884856,0.03595555752888661
-5.486454652532224e-08,0.005449368354135184,0.02851416323988071
-4.486454652532403e-08,0.005449368354135184,-0.004972111060687713
-3.486454652532243e-08,0.008121323823563727,0.04339695181791451
-2.486454652532083e-08,0.005783362787813904,-0.008692808205191084
-1.486454652532262e-08,0.006451351655170888,0.04711764896242296
-4.864546525321025e-09,-0.001898509186792777,0.4601150320035791
5.135453474677186e-09,0.0004394518489566662,3.618986907690534
1.513545347467878e-08,0.007119340522528784,3.090647913170384
2.513545347467699e-08,0.0104592848593137,3.310169044696333
3.513545347467859e-08,0.01680517909920649,3.299006953262807
4.51354534746768e-08,0.009123307124599432,3.284124164684774
5.51354534746784e-08,0.00778732938988516,3.377141593297485
6.513545347467661e-08,0.00611735722149232,3.369700199008468
7.513545347467821e-08,0.00611735722149232,3.358538107574943
8.513545347467642e-08,0.002109424017350417,3.369700199008465
9.513545347467802e-08,0.0007734462826352341,3.328772530418875
1.051354534746762e-07,0.002443418451027694,3.33621392470789
1.151354534746778e-07,0.007119340522528024,3.336213924707892
1.25135453474676e-07,0.007119340522528024,3.299006953262816
1.351354534746776e-07,0.009791295991956567,3.332493227563384
1.451354534746792e-07,0.008455318257243131,3.299006953262815
1.551354534746774e-07,0.01212925702770654,3.332493227563384
1.65135453474679e-07,0.00645135165517104,3.358538107574941
1.751354534746773e-07,0.007119340522528024,3.351096713285926
1.851354534746789e-07,0.004447385053099633,3.384582987586494
1.951354534746771e-07,0.005115373920456617,3.351096713285926
2.051354534746787e-07,0.004113390619420913,3.358538107574943
2.151354534746769e-07,0.004113390619420913,3.351096713285926
2.251354534746785e-07,0.006451351655170888,3.306448347551824
2.351354534746767e-07,0.008789312690920863,3.332493227563384
2.451354534746783e-07,0.007453334956206592,3.313889741840841
2.551354534746765e-07,0.009123307124599052,3.336213924707887
2.651354534746781e-07,0.009123307124599432,3.358538107574943
2.751354534746763e-07,0.006451351655171496,3.332493227563389
2.851354534746779e-07,0.007453334956206592,3.406907170453553
2.951354534746761e-07,0.003445401752064689,3.358538107574954
3.051354534746777e-07,0.004781379486778049,3.373420896152977
3.151354534746793e-07,0.004113390619420913,3.365979501863952
3.251354534746775e-07,0.004113390619420913,3.332493227563384
3.351354534746791e-07,0.006117357221492169,3.347376016141415
3.451354534746773e-07,0.005449368354135184,3.336213924707892
3.551354534746789e-07,0.007119340522528252,3.354817410430439
3.651354534746771e-07,0.008121323823563727,3.377141593297485
3.751354534746787e-07,0.007119340522528024,3.328772530418875
3.851354534746769e-07,0.008121323823563727,3.395745079020027
3.951354534746785e-07,0.005449368354135184,3.351096713285926
4.051354534746767e-07,0.007453334956206592,3.377141593297485
4.151354534746783e-07,0.005783362787813752,3.38830368473101
4.251354534746766e-07,0.007119340522528024,3.343655318996909
4.351354534746782e-07,0.00611735722149232,3.384582987586502
4.451354534746764e-07,0.006785346088849304,3.351096713285933
4.55135453474678e-07,0.007453334956206592,3.351096713285926
4.651354534746762e-07,0.009457301558277544,3.384582987586494
4.751354534746778e-07,0.00778732938988516,3.347376016141417
4.85135453474676e-07,0.008455318257242142,3.406907170453539
4.951354534746776e-07,0.005783362787813752,3.358538107574943
5.051354534746792e-07,0.00745333495620606,3.384582987586506
5.151354534746774e-07,0.005115373920456617,3.403186473309044
5.25135453474679e-07,0.007453334956206288,3.351096713285934
5.351354534746772e-07,0.00611735722149232,3.38830368473101
5.451354534746788e-07,0.007119340522528252,3.358538107574942
5.55135453474677e-07,0.008121323823563727,3.354817410430434
5.651354534746786e-07,0.008455318257242295,3.384582987586502
5.751354534746768e-07,0.008455318257242295,3.362258804719451
5.851354534746784e-07,0.0104592848593137,3.403186473309044
