traces_bank_current_trigger/time_analysis/unitary_test/LDR_220.csv

#Digilent WaveForms Oscilloscope Acquisition
#Device Name: Discovery2
#Serial Number: SN:210321B3D813
#Date Time: 2023-06-15 11:43:14.282
#Sample rate: 1e+08Hz
#Samples: 4096
#Trigger: Source: Channel 2 Type: Edge Condition: Rising Level: 2 V Hyst.: Auto HoldOff: 0 s
#Channel 1: Range: 5 mV/div Offset: 0 V Attenuation: 1 X Sample Mode: Average
#Channel 2: Range: 2 V/div Offset: 0 V Attenuation: 1 X Sample Mode: Average

Time (s),Channel 1 (V),Channel 2 (V)
-2.475361803084223e-06,0.007453334956206592,-0.01613420249422067
-2.465361803084221e-06,0.008789312690920786,0.03595555752888831
-2.455361803084223e-06,0.008455318257242295,-0.004972111060695325
-2.445361803084221e-06,0.009123307124599432,0.00991067751733847
-2.435361803084223e-06,0.008789312690920863,0.03223486038438916
-2.425361803084221e-06,0.008121323823563727,-0.01613420249422067
-2.415361803084223e-06,0.008789312690920863,0.04339695181791451
-2.405361803084222e-06,0.00778732938988516,-0.001251413916186876
-2.395361803084223e-06,0.0104592848593131,0.002469283228320727
-2.385361803084222e-06,0.008789312690920863,0.03595555752889761
-2.375361803084224e-06,0.007453334956206896,-0.01985489963871643
-2.365361803084222e-06,0.008455318257242295,0.02851416323988071
-2.355361803084224e-06,0.009457301558277773,-0.004972111060687713
-2.345361803084222e-06,0.008455318257242295,0.02107276895086382
-2.335361803084221e-06,0.008121323823563804,0.03595555752888661
-2.325361803084222e-06,0.008455318257242295,-0.01241350534971222
-2.315361803084221e-06,0.008455318257242142,0.03595555752888831
-2.305361803084223e-06,0.00778732938988516,-0.004972111060695325
-2.295361803084221e-06,0.01045928485931363,0.002469283228327495
-2.285361803084223e-06,0.01012529042563514,0.02851416323988071
-2.275361803084221e-06,0.009123307124599432,-0.004972111060695325
-2.265361803084223e-06,0.007119340522528024,0.03967625467340606
-2.255361803084221e-06,0.006451351655170888,-0.01241350534971222
-2.245361803084223e-06,0.00778732938988516,0.006189980372830022
-2.235361803084222e-06,0.007453334956206592,0.01363137466184692
-2.225361803084223e-06,0.005783362787813752,0.002469283228321573
-2.215361803084222e-06,0.00611735722149232,0.03967625467340606
-2.205361803084224e-06,0.006785346088849304,-0.004972111060685173
-2.195361803084222e-06,0.006451351655170888,0.006189980372830022
-2.185361803084224e-06,0.006451351655170888,0.009910677517337624
-2.175361803084222e-06,0.007453334956206592,-0.01241350534971222
-2.165361803084221e-06,0.007119340522527113,0.02851416323987733
-2.155361803084222e-06,0.003111407318385209,0.01363137466184692
-2.145361803084221e-06,0.00745333495620606,0.002469283228327495
-2.135361803084223e-06,0.005115373920456617,0.02851416323988071
-2.125361803084221e-06,0.006117357221492244,-0.001251413916179262
-2.115361803084223e-06,0.005783362787813752,0.03223486038438916
-2.105361803084221e-06,0.005783362787813752,-0.01241350534971222
-2.095361803084223e-06,0.005783362787813752,0.02479346609537227
-2.085361803084221e-06,0.006785346088849456,0.03223486038438916
-2.075361803084223e-06,0.005449368354135184,-0.01241350534971222
-2.065361803084222e-06,0.005783362787813752,0.04339695181791451
-2.055361803084223e-06,0.007119340522528024,0.002469283228321573
-2.045361803084222e-06,0.008455318257242295,0.02107276895086382
-2.035361803084224e-06,0.008121323823563804,0.03595555752889423
-2.025361803084222e-06,0.007453334956206592,-0.008692808205203774
-2.015361803084224e-06,0.009123307124599052,0.05083834610691787
-2.005361803084222e-06,0.007453334956206592,0.01363137466184692
-1.995361803084224e-06,0.008121323823563575,0.01735207180635452
-1.985361803084222e-06,0.008455318257242295,0.02107276895086382
-1.975361803084221e-06,0.005783362787814207,-0.001251413916179262
-1.965361803084222e-06,0.00778732938988516,0.03223486038438916
-1.955361803084221e-06,0.006785346088849684,0.01735207180635537
-1.945361803084223e-06,0.00778732938988516,0.01735207180635537
-1.935361803084221e-06,0.006451351655171116,0.04711764896241196
-1.925361803084223e-06,0.007453334956206592,-0.001251413916186876
-1.915361803084221e-06,0.007453334956206592,0.05083834610693141
-1.905361803084223e-06,0.006451351655170888,0.01363137466184692
-1.895361803084221e-06,0.008455318257242295,0.02479346609537227
-1.885361803084223e-06,0.00611735722149232,0.03595555752889761
-1.875361803084222e-06,0.006451351655170888,0.006189980372830022
-1.865361803084223e-06,0.007453334956206364,0.05083834610692126
-1.855361803084222e-06,0.006451351655170888,0.02107276895086382
-1.845361803084224e-06,0.007787329389884856,0.03967625467340183
-1.835361803084222e-06,0.00778732938988516,0.04339695181791451
-1.825361803084224e-06,0.006785346088849684,0.01363137466185369
-1.815361803084222e-06,0.006451351655170888,0.04711764896242296
-1.805361803084221e-06,0.00611735722149308,0.009910677517345238
-1.795361803084222e-06,0.009457301558278,0.03967625467340606
-1.785361803084221e-06,0.008455318257242295,0.05083834610692041
-1.775361803084223e-06,0.008455318257242295,0.002469283228321573
-1.765361803084221e-06,0.0081213238235635,0.0620004375404483
-1.755361803084223e-06,0.007119340522528024,0.02479346609537227
-1.745361803084221e-06,0.006785346088849456,0.02479346609537227
-1.735361803084223e-06,0.008455318257242295,0.03223486038438916
-1.725361803084221e-06,0.007453334956206592,0.01363137466184692
-1.715361803084223e-06,0.007119340522528024,0.05455904325143986
-1.705361803084222e-06,0.00778732938988516,0.002469283228321573
-1.695361803084223e-06,0.00778732938988516,0.04339695181791451
-1.685361803084222e-06,0.008121323823563727,0.03595555752889761
-1.675361803084224e-06,0.006451351655171268,0.002469283228329185
-1.665361803084222e-06,0.007453334956206592,0.05083834610693141
-1.655361803084224e-06,0.006451351655171116,0.02479346609537819
-1.645361803084222e-06,0.008789312690920863,0.02479346609537227
-1.635361803084221e-06,0.008455318257241915,0.0508383461069238
-1.625361803084222e-06,0.006785346088849456,0.01735207180635537
-1.615361803084221e-06,0.009457301558277469,0.06200043754044914
-1.605361803084223e-06,0.007119340522528024,0.02851416323988071
-1.595361803084221e-06,0.00878931269092071,0.03967625467340775
-1.585361803084223e-06,0.008121323823563727,0.04711764896242296
-1.575361803084221e-06,0.006451351655170888,-0.004972111060695325
-1.565361803084223e-06,0.006451351655170888,0.07316252897398209
-1.555361803084221e-06,0.005449368354135184,0.02479346609537227
-1.545361803084223e-06,0.007119340522528024,0.02851416323988071
-1.535361803084222e-06,0.005783362787813752,0.05083834610693141
-1.525361803084223e-06,0.00611735722149232,0.01735207180635537
-1.515361803084222e-06,0.00611735722149232,0.06572113468496521
-1.505361803084224e-06,0.005449368354135336,0.02479346609538157
-1.495361803084222e-06,0.00778732938988516,0.02851416323988071
-1.485361803084224e-06,0.00778732938988516,0.05455904325143393
-1.475361803084222e-06,0.00778732938988516,0.02107276895086382
-1.465361803084224e-06,0.008121323823563651,0.06944183182946265
-1.455361803084222e-06,0.006451351655170888,0.02479346609537227
-1.445361803084221e-06,0.009123307124599585,0.0285141632398841
-1.435361803084222e-06,0.009791295991956567,0.04339695181791451
-1.425361803084221e-06,0.0104592848593134,0.002469283228330879
-1.415361803084223e-06,0.009123307124599432,0.04339695181791451
-1.405361803084221e-06,0.007787329389885615,0.01363137466184946
-1.395361803084223e-06,0.009791295991956567,0.02479346609537227
-1.385361803084221e-06,0.009123307124599432,0.04339695181791451
-1.375361803084223e-06,0.008455318257242295,0.00991067751733847
-1.365361803084221e-06,0.009457301558278,0.05827974039594831
-1.355361803084223e-06,0.00778732938988516,0.006189980372830022
-1.345361803084222e-06,0.009123307124599432,0.02479346609537227
-1.335361803084223e-06,0.007119340522528481,0.02851416323987987
-1.325361803084222e-06,0.008789312690920863,-0.001251413916186876
-1.315361803084224e-06,0.00812132382356388,0.05083834610691956
-1.305361803084222e-06,0.005783362787813752,-0.004972111060695325
-1.295361803084224e-06,0.008455318257241688,0.01735207180635029
-1.285361803084222e-06,0.007453334956206592,0.04339695181791451
-1.275361803084221e-06,0.007119340522528176,-0.0124135053496953
-1.265361803084222e-06,0.00778732938988516,0.06200043754045675
-1.255361803084221e-06,0.006785346088849836,0.002469283228325803
-1.245361803084223e-06,0.008455318257242295,0.02107276895086382
-1.235361803084221e-06,0.005783362787813904,0.03967625467339506
-1.225361803084223e-06,0.006451351655170888,-0.008692808205203774
-1.215361803084221e-06,0.007453334956206592,0.03595555752889761
-1.205361803084223e-06,0.004781379486778049,-0.008692808205203774
-1.195361803084221e-06,0.008121323823563727,0.02107276895086382
-1.185361803084223e-06,0.006451351655170888,0.03595555752889761
-1.175361803084222e-06,0.006785346088849456,0.002469283228321573
-1.165361803084223e-06,0.008455318257242295,0.02851416323988071
-1.155361803084222e-06,0.005449368354135184,-0.01613420249422067
-1.145361803084224e-06,0.00812132382356312,0.01363137466184015
-1.135361803084222e-06,0.007119340522528024,0.01735207180635537
-1.125361803084224e-06,0.007119340522528024,-0.01985489963872066
-1.115361803084222e-06,0.006785346088849456,0.02851416323988071
-1.105361803084224e-06,0.005115373920456997,0.002469283228327495
-1.095361803084222e-06,0.0104592848593137,0.02479346609537227
-1.085361803084221e-06,0.006451351655171344,0.02851416323987564
-1.075361803084223e-06,0.008455318257242295,0.006189980372830022
-1.065361803084221e-06,0.007787329389885388,0.05083834610691872
-1.055361803084223e-06,0.008789312690920863,-0.004972111060695325
-1.045361803084221e-06,0.008455318257242295,0.00991067751733847
-1.035361803084223e-06,0.008789312690920863,0.04711764896242296
-1.025361803084221e-06,0.008121323823563727,-0.01241350534971222
-1.015361803084223e-06,0.00778732938988516,0.03967625467340606
-1.005361803084222e-06,0.00778732938988516,-0.008692808205203774
-9.953618030842233e-07,0.008789312690920863,0.00991067751733847
-9.853618030842217e-07,0.007453334956206592,0.02851416323988071
-9.753618030842235e-07,0.008121323823563575,-0.01985489963871812
-9.653618030842219e-07,0.008789312690920863,0.04339695181791451
-9.553618030842237e-07,0.008789312690920863,-0.01613420249420713
-9.453618030842221e-07,0.00778732938988516,0.02107276895086382
-9.353618030842239e-07,0.007119340522528176,0.01735207180635621
-9.253618030842223e-07,0.008121323823563727,-0.001251413916186876
-9.153618030842207e-07,0.007453334956206364,0.03595555752889085
-9.053618030842225e-07,0.006451351655170888,0.006189980372830022
-8.953618030842209e-07,0.007787329389885236,0.02107276895086889
-8.853618030842227e-07,0.008121323823563727,0.04339695181791451
-8.753618030842211e-07,0.006785346088849988,-0.001251413916175878
-8.653618030842229e-07,0.009123307124599432,0.04711764896242296
-8.553618030842213e-07,0.007119340522528024,0.00991067751733847
-8.45361803084223e-07,0.008121323823563727,0.03223486038438916
-8.353618030842215e-07,0.006451351655170888,0.03967625467340606
-8.253618030842232e-07,0.008121323823563727,-0.004972111060695325
-8.153618030842216e-07,0.008121323823563727,0.05827974039594831
-8.053618030842234e-07,0.006785346088849759,-0.00869280820518855
-7.953618030842218e-07,0.008455318257242295,0.006189980372830022
-7.853618030842236e-07,0.005115373920457376,0.02851416323987564
-7.75361803084222e-07,0.006451351655170888,0.002469283228321573
-7.653618030842238e-07,0.00678534608884938,0.04711764896241281
-7.553618030842222e-07,0.006451351655170888,0.006189980372830022
-7.453618030842206e-07,0.008121323823562891,0.0173520718063596
-7.353618030842224e-07,0.004447385053099481,0.03595555752889761
-7.253618030842208e-07,0.00578336278781398,-0.008692808205188546
-7.153618030842226e-07,0.006785346088849456,0.05827974039594831
-7.05361803084221e-07,0.006785346088849228,-0.01241350534970546
-6.953618030842228e-07,0.005783362787813752,0.01735207180635537
-6.853618030842212e-07,0.008121323823563727,0.01363137466184692
-6.75361803084223e-07,0.005783362787813752,0.00991067751733847
-6.653618030842214e-07,0.007119340522528024,0.03967625467340606
-6.553618030842232e-07,0.004113390619420913,-0.001251413916186876
-6.453618030842216e-07,0.007453334956206592,0.03223486038438916
-6.353618030842234e-07,0.005449368354135184,0.03595555752889761
-6.253618030842218e-07,0.00611735722149232,-0.01241350534971222
-6.153618030842236e-07,0.005115373920456845,0.02479346609536381
-6.05361803084222e-07,0.00611735722149232,0.002469283228321573
-5.953618030842237e-07,0.008121323823563271,0.02107276895085959
-5.853618030842222e-07,0.005115373920456617,0.03223486038438916
-5.753618030842239e-07,0.006451351655170585,-0.001251413916179264
-5.653618030842223e-07,0.005783362787813752,0.02851416323988071
-5.553618030842207e-07,0.005449368354135716,0.009910677517339317
-5.453618030842225e-07,0.00778732938988516,0.01363137466184692
-5.353618030842209e-07,0.006117357221492472,0.0396762546733993
-5.253618030842227e-07,0.006785346088849456,0.00991067751733847
-5.153618030842211e-07,0.006451351655170888,0.05083834610693141
-5.053618030842229e-07,0.006451351655170888,-0.01241350534971222
-4.953618030842213e-07,0.006785346088849456,0.01735207180635537
-4.853618030842231e-07,0.007119340522528024,0.03223486038438916
-4.753618030842215e-07,0.004781379486778049,0.00991067751733847
-4.653618030842233e-07,0.006785346088849456,0.03967625467340606
-4.553618030842217e-07,0.006451351655170888,-0.001251413916186876
-4.453618030842235e-07,0.008455318257241839,0.02479346609536634
-4.353618030842219e-07,0.00611735722149232,0.03223486038438916
-4.253618030842237e-07,0.005115373920456845,0.002469283228328342
-4.153618030842221e-07,0.007119340522528024,0.03967625467340606
-4.053618030842239e-07,0.006117357221492549,0.01735207180636044
-3.953618030842223e-07,0.006785346088849456,0.02479346609537227
-3.853618030842207e-07,0.006451351655170964,0.0322348603843824
-3.753618030842225e-07,0.006785346088849456,0.002469283228321573
-3.653618030842209e-07,0.008455318257241991,0.04711764896241196
-3.553618030842227e-07,0.007119340522528024,-0.001251413916186876
-3.453618030842211e-07,0.009123307124599129,0.02851416323988241
-3.353618030842229e-07,0.00778732938988516,0.03595555752889761
-3.253618030842213e-07,0.008455318257242295,-0.01241350534971222
-3.15361803084223e-07,0.008121323823563727,0.04711764896242296
-3.053618030842214e-07,0.007119340522528024,-0.008692808205203774
-2.953618030842232e-07,0.008789312690920863,0.006189980372830022
-2.853618030842216e-07,0.007119340522528024,0.00991067751733847
-2.753618030842234e-07,0.007119340522528024,-0.004972111060691941
-2.653618030842218e-07,0.009457301558278,0.03595555752889761
-2.553618030842236e-07,0.007453334956207048,-0.001251413916178418
-2.45361803084222e-07,0.008455318257242295,0.01363137466184692
-2.353618030842238e-07,0.008121323823563804,0.02851416323987733
-2.253618030842222e-07,0.008789312690920863,-0.004972111060695325
-2.153618030842206e-07,0.007787329389884932,0.05455904325142547
-2.053618030842224e-07,0.006785346088849456,-0.008692808205203774
-1.953618030842208e-07,0.008789312690920635,0.02479346609537311
-1.853618030842226e-07,0.00778732938988516,0.02851416323988071
-1.75361803084221e-07,0.006785346088849759,0.002469283228327495
-1.653618030842228e-07,0.008121323823563727,0.02851416323988071
-1.553618030842212e-07,0.006451351655170888,-0.01985489963872912
-1.45361803084223e-07,0.007119340522528024,0.02107276895086382
-1.353618030842214e-07,0.006451351655170888,0.02479346609537227
-1.253618030842232e-07,0.008789312690920863,0.002469283228321573
-1.153618030842216e-07,0.007453334956206592,0.02851416323988071
-1.053618030842234e-07,0.004447385053099481,-0.01241350534971222
-9.536180308422176e-08,0.01012529042563514,0.01363137466184692
-8.536180308422355e-08,0.007787329389885691,0.03595555752889254
-7.536180308422195e-08,0.006785346088849456,-0.02357559678323757
-6.536180308422374e-08,0.008121323823563424,0.05083834610691449
-5.536180308422214e-08,0.00778732938988516,0.01735207180635537
-4.536180308422393e-08,0.006785346088849684,-0.001251413916182647
-3.536180308422233e-08,0.005449368354135184,0.03967625467340606
-2.536180308422074e-08,0.007119340522528252,0.002469283228330879
-1.536180308422253e-08,0.008121323823563727,0.04339695181791451
-5.361803084220928e-09,-0.0005625314520794931,0.3150078433677445
4.638196915777282e-09,-0.002566498054150445,3.451555536187654
1.463819691577888e-08,0.008121323823563955,3.153899764627003
2.463819691577709e-08,0.009123307124599432,3.265520678962231
3.463819691577869e-08,0.01847515126759933,3.302727650407316
4.46381969157769e-08,0.00611735722149232,3.295286256118299
5.46381969157785e-08,0.009457301558278,3.354817410430434
6.463819691577671e-08,0.003445401752063777,3.377141593297485
7.463819691577831e-08,0.005115373920456617,3.369700199008468
8.463819691577652e-08,0.000105457415279237,3.369700199008468
9.463819691577811e-08,-0.001230520319436173,3.3399346218524
1.046381969157763e-07,0.003111407318384222,3.332493227563385
1.146381969157779e-07,0.00611735722149232,3.3399346218524
1.246381969157761e-07,0.003779396185742877,3.280403467540279
1.346381969157777e-07,0.008455318257242295,3.31761043898535
1.446381969157793e-07,0.006785346088850216,3.30644834755183
1.546381969157775e-07,0.01012529042563514,3.332493227563384
1.646381969157791e-07,0.005449368354135108,3.365979501863952
1.746381969157773e-07,0.005115373920456617,3.332493227563384
1.846381969157789e-07,0.003111407318385437,3.388303684731001
1.946381969157772e-07,0.004113390619420913,3.347376016141417
2.046381969157788e-07,0.002777412884706641,3.362258804719451
2.14638196915777e-07,0.002109424017349506,3.362258804719451
2.246381969157786e-07,0.003779396185742345,3.31761043898535
2.346381969157768e-07,0.007453334956206592,3.354817410430434
2.446381969157784e-07,0.004781379486778049,3.280403467540265
2.546381969157766e-07,0.006785346088849,3.332493227563372
2.646381969157782e-07,0.007453334956206592,3.36597950186396
2.746381969157764e-07,0.006451351655171116,3.336213924707899
2.84638196915778e-07,0.004781379486778049,3.380862290441993
2.946381969157762e-07,0.003445401752064081,3.351096713285932
3.046381969157778e-07,0.003111407318385209,3.358538107574943
3.146381969157794e-07,0.004781379486777745,3.362258804719443
3.246381969157776e-07,0.003445401752063777,3.325051833274367
3.346381969157792e-07,0.005115373920456693,3.392024381875502
3.446381969157774e-07,0.005449368354135184,3.31761043898535
3.54638196915779e-07,0.007119340522527948,3.362258804719449
3.646381969157772e-07,0.006785346088849456,3.351096713285926
3.746381969157788e-07,0.00778732938988516,3.332493227563384
3.84638196915777e-07,0.00611735722149232,3.399465776164535
3.946381969157786e-07,0.005783362787813752,3.343655318996909
4.046381969157768e-07,0.008789312690920863,3.384582987586502
4.146381969157784e-07,0.004447385053099481,3.380862290441993
4.246381969157766e-07,0.005449368354135184,3.351096713285926
4.346381969157782e-07,0.006451351655170888,3.36597950186396
4.446381969157765e-07,0.004781379486778429,3.328772530418883
4.546381969157781e-07,0.006785346088849456,3.36597950186396
4.646381969157763e-07,0.00745333495620644,3.373420896152975
4.746381969157779e-07,0.006785346088849456,3.321331136129858
4.846381969157761e-07,0.006451351655170964,3.39574507902001
4.946381969157777e-07,0.005449368354135184,3.336213924707892
5.046381969157793e-07,0.007119340522527644,3.377141593297489
5.146381969157775e-07,0.005449368354135184,3.395745079020027
5.246381969157791e-07,0.006117357221492397,3.354817410430444
5.346381969157773e-07,0.006451351655170888,3.395745079020027
5.446381969157789e-07,0.004113390619421673,3.343655318996917
5.546381969157771e-07,0.007453334956206592,3.380862290441993
5.646381969157787e-07,0.007453334956206592,3.373420896152977
5.746381969157769e-07,0.007453334956206592,3.3399346218524
5.846381969157785e-07,0.008455318257242295,3.384582987586502
