traces_bank_current_trigger/time_analysis/unitary_test/LDR_0.csv

#Digilent WaveForms Oscilloscope Acquisition
#Device Name: Discovery2
#Serial Number: SN:210321B3D813
#Date Time: 2023-06-15 11:33:54.076
#Sample rate: 1e+08Hz
#Samples: 4096
#Trigger: Source: Channel 2 Type: Edge Condition: Rising Level: 2 V Hyst.: Auto HoldOff: 0 s
#Channel 1: Range: 5 mV/div Offset: 0 V Attenuation: 1 X Sample Mode: Average
#Channel 2: Range: 2 V/div Offset: 0 V Attenuation: 1 X Sample Mode: Average

Time (s),Channel 1 (V),Channel 2 (V)
-2.475666266506602e-06,0.006785346088849456,0.00991067751733847
-2.4656662665066e-06,0.008789312690920332,0.03595555752889
-2.455666266506602e-06,0.006451351655170888,0.002469283228321573
-2.445666266506601e-06,0.00778732938988516,0.03223486038438916
-2.435666266506602e-06,0.008121323823563727,0.04711764896242296
-2.425666266506601e-06,0.006451351655170888,0.006189980372830022
-2.415666266506603e-06,0.00778732938988516,0.05455904325143986
-2.405666266506601e-06,0.006451351655170888,0.006189980372830022
-2.395666266506603e-06,0.009791295991955808,0.03595555752889085
-2.385666266506601e-06,0.006451351655170888,0.03595555752889761
-2.375666266506603e-06,0.007119340522527873,0.013631374661852
-2.365666266506601e-06,0.008455318257242295,0.06944183182947365
-2.355666266506603e-06,0.007119340522528328,-0.001251413916170799
-2.345666266506602e-06,0.008121323823563727,0.03967625467340606
-2.3356662665066e-06,0.008789312690920635,0.03595555752889085
-2.325666266506602e-06,0.00778732938988516,0.006189980372830022
-2.3156662665066e-06,0.008455318257241535,0.03967625467339845
-2.305666266506602e-06,0.005115373920456617,0.006189980372830022
-2.2956662665066e-06,0.009791295991956037,0.01735207180636214
-2.285666266506602e-06,0.007453334956206592,0.04711764896242296
-2.275666266506601e-06,0.00778732938988516,-0.001251413916186876
-2.265666266506602e-06,0.00778732938988516,0.03967625467340606
-2.255666266506601e-06,0.00611735722149232,0.006189980372830022
-2.245666266506603e-06,0.008121323823563727,0.02851416323988071
-2.235666266506601e-06,0.007119340522528024,0.02851416323988071
-2.225666266506603e-06,0.006785346088849456,-0.004972111060695325
-2.215666266506601e-06,0.007453334956206592,0.05827974039594831
-2.205666266506603e-06,0.006785346088849608,0.006189980372841866
-2.195666266506601e-06,0.006785346088849456,0.02479346609537227
-2.185666266506603e-06,0.00745333495620644,0.03595555752889507
-2.175666266506602e-06,0.005115373920456617,-0.01613420249422067
-2.1656662665066e-06,0.005115373920456617,0.03967625467339506
-2.155666266506602e-06,0.005115373920456617,-0.008692808205203774
-2.1456662665066e-06,0.006785346088849456,0.002469283228324957
-2.135666266506602e-06,0.006785346088849456,0.01735207180635537
-2.1256662665066e-06,0.004113390619421216,-0.004972111060685173
-2.115666266506602e-06,0.005449368354135184,0.03967625467340606
-2.1056662665066e-06,0.004113390619420913,-0.008692808205203774
-2.095666266506602e-06,0.004781379486778049,0.02479346609537227
-2.085666266506601e-06,0.003779396185742345,0.02851416323988071
-2.075666266506602e-06,0.005783362787813752,0.00991067751733847
-2.065666266506601e-06,0.005783362787813752,0.04711764896242296
-2.055666266506603e-06,0.005783362787813752,-0.01241350534971222
-2.045666266506601e-06,0.008455318257242295,0.02107276895086382
-2.035666266506603e-06,0.006451351655171344,0.03967625467340183
-2.025666266506601e-06,0.00611735722149232,0.002469283228321573
-2.015666266506603e-06,0.00611735722149232,0.04711764896241281
-2.005666266506601e-06,0.00778732938988516,-0.01613420249422067
-1.995666266506603e-06,0.00778732938988516,0.03595555752888577
-1.985666266506602e-06,0.00611735722149232,0.01363137466184692
-1.9756662665066e-06,0.007453334956206592,0.006189980372832559
-1.965666266506602e-06,0.007453334956206592,0.01735207180635537
-1.9556662665066e-06,0.006117357221493004,0.006189980372830867
-1.945666266506602e-06,0.009123307124599432,0.00991067751733847
-1.9356662665066e-06,0.00645135165517104,0.01735207180634945
-1.925666266506602e-06,0.007119340522528024,-0.008692808205203774
-1.915666266506601e-06,0.008455318257242295,0.03595555752889761
-1.905666266506602e-06,0.005449368354135184,-0.008692808205203774
-1.895666266506601e-06,0.008789312690920863,0.01735207180635537
-1.885666266506603e-06,0.006785346088849456,0.02479346609537227
-1.875666266506601e-06,0.006451351655170888,-0.004972111060695325
-1.865666266506603e-06,0.007453334956206364,0.0247934660953655
-1.855666266506601e-06,0.006785346088849456,-0.001251413916186876
-1.845666266506603e-06,0.006785346088849456,0.009910677517335932
-1.835666266506601e-06,0.007119340522528024,0.05083834610693141
-1.825666266506603e-06,0.007453334956206516,-0.001251413916175032
-1.815666266506602e-06,0.006785346088849456,0.03595555752889761
-1.8056662665066e-06,0.008789312690920559,-0.004972111060694479
-1.795666266506602e-06,0.007453334956206592,-0.001251413916186876
-1.7856662665066e-06,0.006451351655170964,0.0285141632398731
-1.775666266506602e-06,0.006785346088849456,-0.004972111060695325
-1.7656662665066e-06,0.007453334956206212,0.05827974039593477
-1.755666266506602e-06,0.005783362787813752,-0.001251413916186876
-1.745666266506601e-06,0.009123307124599432,0.01735207180635537
-1.735666266506602e-06,0.008121323823563727,0.02851416323988071
-1.725666266506601e-06,0.007453334956206592,-0.01241350534971222
-1.715666266506603e-06,0.006451351655170888,0.04339695181791451
-1.705666266506601e-06,0.005115373920456617,0.002469283228321573
-1.695666266506603e-06,0.007119340522528024,0.01363137466184692
-1.685666266506601e-06,0.005115373920456617,0.01363137466184692
-1.675666266506603e-06,0.006117357221492092,0.009910677517339317
-1.665666266506601e-06,0.008121323823563727,0.04339695181791451
-1.655666266506603e-06,0.006117357221492776,-0.01241350534969953
-1.645666266506602e-06,0.007119340522528024,0.00991067751733847
-1.6356662665066e-06,0.007119340522527644,0.009910677517330857
-1.625666266506602e-06,0.005449368354135184,-0.02357559678323757
-1.6156662665066e-06,0.007119340522527796,0.03967625467339083
-1.605666266506602e-06,0.00611735722149232,-0.02729629392774602
-1.5956662665066e-06,0.008121323823563347,0.01735207180635537
-1.585666266506602e-06,0.006451351655170888,0.01735207180635537
-1.5756662665066e-06,0.00778732938988516,-0.008692808205203774
-1.565666266506602e-06,0.008789312690920863,0.04711764896242296
-1.555666266506601e-06,0.005449368354135184,0.006189980372830022
-1.545666266506602e-06,0.006451351655170888,0.03223486038438916
-1.535666266506601e-06,0.00611735722149232,0.02107276895086382
-1.525666266506603e-06,0.007119340522528024,-0.008692808205203774
-1.515666266506601e-06,0.007119340522528024,0.03223486038438916
-1.505666266506603e-06,0.007119340522528024,0.006189980372835944
-1.495666266506601e-06,0.008121323823563727,0.006189980372830022
-1.485666266506603e-06,0.005449368354135791,0.02851416323987564
-1.475666266506601e-06,0.006785346088849456,-0.004972111060695325
-1.465666266506603e-06,0.007787329389884932,0.0247934660953655
-1.455666266506602e-06,0.006451351655170888,0.00991067751733847
-1.4456662665066e-06,0.008789312690920635,-0.001251413916183492
-1.435666266506602e-06,0.00778732938988516,0.01363137466184692
-1.4256662665066e-06,0.007453334956206592,-0.004972111060686865
-1.415666266506602e-06,0.007453334956206592,0.03223486038438916
-1.4056662665066e-06,0.007787329389885083,-0.0124135053497063
-1.395666266506602e-06,0.007453334956206592,0.01363137466184692
-1.385666266506601e-06,0.006451351655170888,0.02107276895086382
-1.375666266506602e-06,0.006451351655170888,-0.008692808205203774
-1.365666266506601e-06,0.008455318257242295,0.02479346609537227
-1.355666266506603e-06,0.007453334956206592,-0.01985489963872912
-1.345666266506601e-06,0.008455318257242295,0.01735207180635537
-1.335666266506603e-06,0.006785346088849836,0.006189980372832559
-1.325666266506601e-06,0.006785346088849456,-0.03101699107225447
-1.315666266506603e-06,0.00745333495620644,0.03595555752888239
-1.305666266506601e-06,0.006451351655170888,-0.01241350534971222
-1.295666266506603e-06,0.005783362787813904,-0.004972111060697017
-1.285666266506602e-06,0.00611735722149232,-0.001251413916186876
-1.2756662665066e-06,0.005115373920457604,-0.02729629392773333
-1.265666266506602e-06,0.009457301558278,0.02851416323988071
-1.2556662665066e-06,0.006117357221492549,-0.0198548996387232
-1.245666266506602e-06,0.007119340522528024,0.006189980372830022
-1.2356662665066e-06,0.006451351655170812,-0.004972111060696171
-1.225666266506602e-06,0.00611735722149232,-0.008692808205203774
-1.215666266506601e-06,0.006451351655170888,0.02479346609537227
-1.205666266506602e-06,0.007119340522528024,-0.004972111060695325
-1.195666266506601e-06,0.00611735722149232,0.006189980372830022
-1.185666266506603e-06,0.007453334956206592,0.01735207180635537
-1.175666266506601e-06,0.006451351655170888,-0.02357559678323757
-1.165666266506603e-06,0.007453334956206592,0.04339695181791451
-1.155666266506601e-06,0.00778732938988516,-0.02729629392774602
-1.145666266506603e-06,0.005783362787814208,0.00618998037282241
-1.135666266506601e-06,0.007119340522528024,0.02107276895086382
-1.125666266506603e-06,0.00645135165517104,-0.01613420249421221
-1.115666266506602e-06,0.00778732938988516,0.05455904325143986
-1.105666266506603e-06,0.008121323823563651,0.01363137466185622
-1.095666266506602e-06,0.009123307124599432,0.01735207180635537
-1.0856662665066e-06,0.007453334956206364,0.03595555752888577
-1.075666266506602e-06,0.006451351655170888,-0.01613420249422067
-1.0656662665066e-06,0.007453334956206137,0.04339695181790436
-1.055666266506602e-06,0.005449368354135184,-0.001251413916186876
-1.0456662665066e-06,0.008455318257242295,0.01363137466184692
-1.035666266506602e-06,0.006785346088849456,0.01735207180635537
-1.025666266506601e-06,0.008789312690920863,-0.02357559678323757
-1.015666266506602e-06,0.00778732938988516,0.01735207180635537
-1.005666266506601e-06,0.00778732938988516,-0.01613420249422067
-9.956662665066027e-07,0.009123307124599432,0.006189980372830022
-9.856662665066011e-07,0.008121323823563727,0.02107276895086382
-9.756662665066028e-07,0.007787329389885236,-0.01985489963871982
-9.656662665066012e-07,0.008455318257242295,0.03223486038438916
-9.55666266506603e-07,0.006785346088849836,-0.01985489963871728
-9.456662665066014e-07,0.008789312690920863,0.002469283228321573
-9.356662665066032e-07,0.007787329389885388,0.03223486038438239
-9.256662665066016e-07,0.006451351655170888,-0.001251413916186876
-9.156662665066e-07,0.007453334956206288,0.01735207180634606
-9.056662665066018e-07,0.00611735722149232,-0.02357559678323757
-8.956662665066002e-07,0.008789312690920483,0.02851416323987817
-8.85666266506602e-07,0.007119340522528024,0.01735207180635537
-8.756662665066004e-07,0.00778732938988516,-0.0235755967832215
-8.656662665066022e-07,0.00778732938988516,0.04711764896242296
-8.556662665066006e-07,0.006785346088849456,-0.01985489963872912
-8.456662665066024e-07,0.008789312690920863,0.006189980372830022
-8.356662665066008e-07,0.008121323823563727,0.02851416323988071
-8.256662665066026e-07,0.006451351655170888,-0.01613420249422067
-8.15666266506601e-07,0.006785346088849456,0.03595555752889761
-8.056662665066028e-07,0.006451351655170964,-0.001251413916178418
-7.956662665066012e-07,0.00778732938988516,-0.008692808205203774
-7.85666266506603e-07,0.009123307124599129,0.03595555752888746
-7.756662665066014e-07,0.006451351655170888,-0.008692808205203774
-7.656662665066032e-07,0.007453334956206364,0.03967625467339506
-7.556662665066016e-07,0.006451351655170888,-0.004972111060695325
-7.456662665066e-07,0.008121323823563727,0.0136313746618503
-7.356662665066018e-07,0.008121323823563727,0.02851416323988071
-7.256662665066002e-07,0.008121323823563727,-0.004972111060682636
-7.156662665066019e-07,0.008121323823563727,0.05083834610693141
-7.056662665066003e-07,0.008121323823563271,-0.01985489963871982
-6.956662665066021e-07,0.00611735722149232,0.02107276895086382
-6.856662665066005e-07,0.007119340522528024,0.01363137466184692
-6.756662665066023e-07,0.006785346088849456,-0.01613420249422067
-6.656662665066007e-07,0.007119340522528024,0.04339695181791451
-6.556662665066025e-07,0.005449368354135184,-0.01241350534971222
-6.456662665066009e-07,0.00778732938988516,0.03223486038438916
-6.356662665066027e-07,0.006451351655170888,0.01735207180635537
-6.256662665066011e-07,0.003779396185742345,-0.004972111060695325
-6.156662665066029e-07,0.007453334956205757,0.04711764896241111
-6.056662665066013e-07,0.006451351655170888,-0.004972111060695325
-5.956662665066031e-07,0.007119340522527873,0.006189980372827484
-5.856662665066015e-07,0.006451351655170888,0.01735207180635537
-5.756662665066033e-07,0.006451351655170888,0.006189980372832559
-5.656662665066017e-07,0.007119340522528024,0.04339695181791451
-5.556662665066001e-07,0.0061173572214927,-0.0012514139161818
-5.456662665066019e-07,0.00778732938988516,0.02107276895086382
-5.356662665066003e-07,0.005783362787813676,0.03223486038437732
-5.256662665066021e-07,0.005449368354135184,-0.01985489963872912
-5.156662665066005e-07,0.006785346088849456,0.05827974039594831
-5.056662665066023e-07,0.00778732938988516,-0.02729629392774602
-4.956662665066007e-07,0.006451351655170888,0.02107276895086382
-4.856662665066025e-07,0.005449368354135184,0.02479346609537227
-4.756662665066009e-07,0.005115373920456617,-0.01241350534971222
-4.656662665066026e-07,0.005783362787813752,0.03595555752889761
-4.55666266506601e-07,0.005449368354135184,-0.01241350534971222
-4.456662665066028e-07,0.006117357221492169,0.013631374661841
-4.356662665066012e-07,0.004781379486778049,0.04339695181791451
-4.25666266506603e-07,0.004781379486778049,-0.01613420249420713
-4.156662665066014e-07,0.00611735722149232,0.05083834610693141
-4.056662665066032e-07,0.005115373920456845,-0.004972111060682634
-3.956662665066016e-07,0.008121323823563727,0.02479346609537227
-3.856662665066e-07,0.006117357221492549,0.03595555752888577
-3.756662665066018e-07,0.007119340522528024,-0.01613420249422067
-3.656662665066002e-07,0.006451351655170736,0.07316252897396094
-3.55666266506602e-07,0.005783362787813752,-0.01985489963872912
-3.456662665066004e-07,0.007787329389884628,0.03595555752889677
-3.356662665066022e-07,0.005449368354135184,0.03223486038438916
-3.256662665066006e-07,0.006451351655170888,-0.008692808205203774
-3.156662665066024e-07,0.007453334956206592,0.05455904325143986
-3.056662665066008e-07,0.006785346088849456,-0.001251413916186876
-2.956662665066026e-07,0.006451351655170888,0.03223486038438916
-2.85666266506601e-07,0.008455318257242295,0.02479346609537227
-2.756662665066028e-07,0.00745333495620682,-0.008692808205196162
-2.656662665066012e-07,0.007119340522528024,0.04339695181791451
-2.55666266506603e-07,0.007453334956206516,0.00618998037283848
-2.456662665066014e-07,0.008789312690920863,0.01363137466184692
-2.356662665066032e-07,0.007119340522528404,0.04339695181790774
-2.256662665066016e-07,0.008455318257242295,0.006189980372830022
-2.156662665066e-07,0.007119340522528024,0.03967625467340098
-2.056662665066017e-07,0.007119340522528024,0.01735207180635537
-1.956662665066001e-07,0.007119340522527873,0.03223486038438916
-1.856662665066019e-07,0.006451351655170888,0.03223486038438916
-1.756662665066003e-07,0.006785346088849532,0.01363137466185792
-1.656662665066021e-07,0.007119340522528024,0.06200043754045675
-1.556662665066005e-07,0.005115373920456617,0.002469283228321573
-1.456662665066023e-07,0.007119340522528024,0.02851416323988071
-1.356662665066007e-07,0.005783362787813752,0.03595555752889761
-1.256662665066025e-07,0.005115373920456617,0.00991067751733847
-1.156662665066009e-07,0.006451351655170888,0.03595555752889761
-1.056662665066027e-07,0.00611735722149232,0.01363137466184692
-9.56662665066011e-08,0.006451351655170888,0.01735207180635537
-8.566626650660289e-08,0.00678534608884938,0.03223486038438578
-7.56662665066013e-08,0.006451351655170888,0.002469283228321573
-6.566626650660309e-08,0.004113390619421444,0.05083834610692041
-5.566626650660149e-08,0.005783362787813752,-0.01241350534971222
-4.566626650660328e-08,0.005115373920456768,0.0173520718063486
-3.566626650660168e-08,0.004781379486778049,0.04711764896242296
-2.566626650660008e-08,0.003111407318385665,0.006189980372840173
-1.566626650660187e-08,0.005115373920456617,0.05083834610693141
-5.666266506600272e-09,0.000105457415275972,0.240593900477567
4.333733493397938e-09,-0.009246386727721802,3.3399346218524
1.433373349339954e-08,0.008455318257241991,3.202268827505599
2.433373349339775e-08,0.007119340522528024,3.250637890384198
3.433373349339934e-08,0.01513520693081365,3.302727650407316
4.433373349339755e-08,0.002109424017349506,3.284124164684774
5.433373349339915e-08,0.009791295991956567,3.354817410430434
6.433373349339736e-08,0.001775429583670938,3.392024381875518
7.433373349339896e-08,0.004113390619420913,3.3399346218524
8.433373349339717e-08,-0.00156451475311345,3.410627867598045
9.433373349339877e-08,-0.0005625314520790374,3.328772530418875
1.04333733493397e-07,0.0007734462826349303,3.354817410430428
1.143337334933986e-07,0.004447385053099481,3.31761043898535
1.243337334933968e-07,0.003111407318385513,3.299006953262812
1.343337334933984e-07,0.005449368354135184,3.336213924707892
1.443337334934e-07,0.00711934052252848,3.302727650407327
1.543337334933982e-07,0.009123307124599432,3.351096713285926
1.643337334933998e-07,0.004781379486777745,3.373420896152969
1.74333733493398e-07,0.003445401752063777,3.3399346218524
1.843337334933996e-07,0.001441435149991914,3.388303684730999
1.943337334933978e-07,-0.0005625314520790374,3.3399346218524
2.043337334933994e-07,0.002777412884706641,3.369700199008468
2.143337334933976e-07,0.0007734462826352341,3.347376016141417
2.243337334933992e-07,0.002443418451028074,3.321331136129858
2.343337334933974e-07,0.00611735722149232,3.358538107574943
2.44333733493399e-07,0.006451351655170888,3.299006953262807
2.543337334933972e-07,0.005449368354135412,3.37342089615296
2.643337334933988e-07,0.00611735722149232,3.347376016141417
2.74333733493397e-07,0.003779396185742877,3.34365531899691
2.843337334933986e-07,0.004447385053099481,3.395745079020027
2.943337334933969e-07,0.001441435149993053,3.339934621852413
3.043337334933985e-07,0.002777412884706641,3.395745079020027
3.143337334934001e-07,0.002109424017349658,3.373420896152969
3.243337334933983e-07,0.002777412884706641,3.3399346218524
3.343337334933999e-07,0.003445401752063853,3.38086229044198
3.443337334933981e-07,0.003779396185742345,3.325051833274367
3.543337334933997e-07,0.006117357221492472,3.373420896152975
3.643337334933979e-07,0.006785346088849456,3.36597950186396
3.743337334933995e-07,0.005449368354135184,3.332493227563384
3.843337334933977e-07,0.006451351655170888,3.395745079020027
3.943337334933993e-07,0.005449368354135184,3.328772530418875
4.043337334933975e-07,0.004447385053099481,3.392024381875518
4.143337334933991e-07,0.004113390619420913,3.377141593297485
4.243337334933973e-07,0.006451351655170888,3.347376016141417
4.343337334933989e-07,0.005115373920456617,3.403186473309044
4.443337334933971e-07,0.005449368354135108,3.339934621852414
4.543337334933987e-07,0.006785346088849456,3.369700199008468
4.643337334933969e-07,0.003111407318386045,3.373420896152976
4.743337334933985e-07,0.00778732938988516,3.343655318996909
4.843337334933967e-07,0.005449368354135716,3.380862290441985
4.943337334933983e-07,0.004781379486778049,3.354817410430434
5.043337334933999e-07,0.006117357221492092,3.380862290441991
5.143337334933981e-07,0.005115373920456617,3.373420896152977
5.243337334933997e-07,0.004781379486778125,3.354817410430446
5.343337334933979e-07,0.005115373920456617,3.406907170453553
5.443337334933995e-07,0.004447385053099937,3.358538107574949
5.543337334933978e-07,0.006451351655170888,3.38830368473101
5.643337334933994e-07,0.003779396185742345,3.373420896152977
5.743337334933976e-07,0.004781379486778049,3.3399346218524
5.843337334933992e-07,0.00611735722149232,3.410627867598061
5.943337334933974e-07,0.005115373920456617,3.351096713285926
