traces_bank_current_trigger/sampling_freq_100MHz/PUSH/push_4.csv

#Digilent WaveForms Oscilloscope Acquisition
#Device Name: Discovery2
#Serial Number: SN:210321B3D813
#Date Time: 2023-07-18 13:32:27.595
#Sample rate: 1e+08Hz
#Samples: 8192
#Trigger: Source: Channel 2 Type: Edge Condition: Rising Level: 2 V Hyst.: Auto HoldOff: 0 s
#Channel 1: Range: 10 mV/div Offset: 0 V Attenuation: 1 X Sample Mode: Average
#Channel 2: Range: 5 V/div Offset: 0 V Attenuation: 1 X Sample Mode: Average

Time (s),Channel 1 (V),Channel 2 (V)
-9.544582814445836e-07,0.005449368354135184,-0.004972111060695325
-9.44458281444582e-07,0.00611735722149232,-0.02357559678323757
-9.344582814445804e-07,0.005449368354135033,0.02107276895084351
-9.244582814445855e-07,0.005115373920456768,-0.02357559678321727
-9.144582814445839e-07,0.00611735722149232,0.002469283228321573
-9.044582814445823e-07,0.005115373920456617,0.01735207180635537
-8.944582814445807e-07,0.00611735722149232,-0.01985489963872912
-8.844582814445859e-07,0.00611735722149232,0.02479346609535196
-8.744582814445843e-07,0.005783362787813752,-0.03101699107225447
-8.644582814445827e-07,0.006451351655170888,0.006189980372830022
-8.544582814445811e-07,0.005449368354135184,-0.001251413916186876
-8.444582814445795e-07,0.007119340522528024,-0.01985489963871051
-8.344582814445847e-07,0.007119340522528024,0.02107276895086382
-8.244582814445831e-07,0.006785346088849456,-0.01241350534971222
-8.144582814445815e-07,0.006451351655170888,0.00991067751733847
-8.044582814445799e-07,0.005449368354136551,0.009910677517335086
-7.944582814445851e-07,0.008455318257240928,0.002469283228324956
-7.844582814445835e-07,0.007119340522528024,0.02851416323988071
-7.744582814445819e-07,0.005783362787813752,-0.001251413916186876
-7.644582814445803e-07,0.00645135165517104,0.0322348603843824
-7.544582814445855e-07,0.006785346088849304,0.01735207180636213
-7.444582814445839e-07,0.007119340522528024,-0.004972111060695325
-7.344582814445823e-07,0.00778732938988516,0.02479346609537227
-7.244582814445807e-07,0.006785346088849456,0.002469283228321573
-7.144582814445859e-07,0.006785346088849456,0.02479346609536211
-7.044582814445843e-07,0.007453334956206592,0.006189980372830022
-6.944582814445827e-07,0.007119340522528024,0.01363137466184692
-6.844582814445811e-07,0.004781379486778049,0.02851416323988071
-6.744582814445795e-07,0.006785346088849152,-0.01985489963870205
-6.644582814445846e-07,0.00611735722149232,0.03967625467340606
-6.54458281444583e-07,0.005115373920456617,-0.001251413916186876
-6.444582814445814e-07,0.007453334956206592,-0.004972111060695325
-6.344582814445798e-07,0.006785346088849759,0.05083834610690603
-6.24458281444585e-07,0.007453334956206288,-0.004972111060669943
-6.144582814445834e-07,0.005115373920456617,0.03595555752889761
-6.044582814445818e-07,0.005115373920456617,0.01735207180635537
-5.944582814445802e-07,0.006785346088848696,-0.004972111060671637
-5.844582814445854e-07,0.005115373920457376,0.04711764896239927
-5.744582814445838e-07,0.006785346088849456,-0.004972111060695325
-5.644582814445822e-07,0.00611735722149232,0.02851416323988071
-5.544582814445806e-07,0.005449368354135184,-0.004972111060695325
-5.444582814445858e-07,0.006117357221492017,0.002469283228318189
-5.344582814445842e-07,0.007453334956206592,0.03967625467340606
-5.244582814445826e-07,0.006451351655170888,-0.008692808205203774
-5.14458281444581e-07,0.005449368354135184,0.03595555752889761
-5.044582814445794e-07,0.00645135165517104,0.02107276895085536
-4.944582814445846e-07,0.006785346088849456,0.002469283228321573
-4.84458281444583e-07,0.005783362787813752,0.02107276895086382
-4.744582814445814e-07,0.005449368354135184,0.006189980372830022
-4.644582814445798e-07,0.005783362787814056,0.03967625467338914
-4.54458281444585e-07,0.006451351655170888,0.002469283228321573
-4.444582814445834e-07,0.005115373920456617,0.002469283228321573
-4.344582814445818e-07,0.00611735722149232,0.02479346609537227
-4.244582814445802e-07,0.006117357221492017,0.009910677517348622
-4.144582814445853e-07,0.005449368354135488,0.03223486038437901
-4.044582814445837e-07,0.005783362787813752,0.02851416323988071
-3.944582814445821e-07,0.008121323823563727,0.02107276895086382
-3.844582814445805e-07,0.005783362787813752,0.02851416323988071
-3.744582814445857e-07,0.005449368354135336,0.009910677517346929
-3.644582814445841e-07,0.006451351655170888,0.02479346609537227
-3.544582814445825e-07,0.00611735722149232,0.01363137466184692
-3.444582814445809e-07,0.00611735722149232,0.01363137466184692
-3.344582814445793e-07,0.00745333495620644,0.05455904325141617
-3.244582814445845e-07,0.007119340522528024,0.002469283228321573
-3.144582814445829e-07,0.005449368354135184,0.05455904325143986
-3.044582814445813e-07,0.004781379486778049,0.01363137466184692
-2.944582814445797e-07,0.006451351655170888,0.02851416323989087
-2.844582814445849e-07,0.006451351655170888,0.05083834610693141
-2.744582814445833e-07,0.00611735722149232,0.006189980372830022
-2.644582814445817e-07,0.00611735722149232,0.03967625467340606
-2.544582814445801e-07,0.006451351655170433,0.02851416323988579
-2.444582814445853e-07,0.00544936835413564,0.03967625467340098
-2.344582814445837e-07,0.007453334956206592,0.03595555752889761
-2.244582814445821e-07,0.00611735722149232,0.002469283228321573
-2.144582814445805e-07,0.006451351655170888,0.03967625467340606
-2.044582814445857e-07,0.006117357221492472,0.02107276895087228
-1.944582814445841e-07,0.005449368354135184,0.002469283228321573
-1.844582814445825e-07,0.00611735722149232,0.03223486038438916
-1.744582814445809e-07,0.00611735722149232,0.002469283228321573
-1.64458281444586e-07,0.005449368354135488,0.03223486038437563
-1.544582814445844e-07,0.005783362787813752,0.002469283228321573
-1.444582814445828e-07,0.00611735722149232,0.01735207180635537
-1.344582814445812e-07,0.005783362787813752,0.03223486038438916
-1.244582814445796e-07,0.007119340522527569,-0.001251413916168264
-1.144582814445848e-07,0.00611735722149232,0.03967625467340606
-1.044582814445832e-07,0.007119340522528024,-0.001251413916186876
-9.445828144458163e-08,0.005783362787813752,0.006189980372830022
-8.445828144458003e-08,0.00611735722149308,0.01735207180635029
-7.44582814445852e-08,0.0077873293898844,0.006189980372835097
-6.445828144458361e-08,0.006785346088849456,0.03595555752889761
-5.445828144458201e-08,0.005783362787813752,0.01735207180635537
-4.445828144458041e-08,0.005449368354135033,-0.001251413916168264
-3.445828144458559e-08,0.005115373920456768,0.03967625467338745
-2.445828144458399e-08,0.004781379486778049,0.01363137466184692
-1.445828144458239e-08,0.006785346088849456,0.02851416323988071
-4.458281444580793e-09,-0.00490445908990042,0.6647533749508254
5.541718555414029e-09,0.0004394518489542355,3.652473181989752
1.554171855541563e-08,0.006451351655170888,3.045999547436233
2.554171855541723e-08,0.008455318257242295,3.272962073251248
3.554171855541882e-08,0.01179526259402797,3.26924137610674
4.554171855542042e-08,0.009123307124598976,3.310169044696356
5.554171855541524e-08,0.008121323823563727,3.362258804719451
6.554171855541684e-08,0.002109424017349506,3.395745079020027
7.554171855541844e-08,0.003111407318385209,3.380862290441993
8.554171855542004e-08,0.0007734462826355379,3.384582987586483
9.554171855541486e-08,0.001441435149992066,3.343655318996928
1.055417185554165e-07,0.001775429583670938,3.295286256118299
1.155417185554181e-07,0.00611735722149232,3.336213924707892
1.255417185554197e-07,0.006451351655171344,3.265520678962255
1.355417185554145e-07,0.007453334956206137,3.317610438985326
1.455417185554161e-07,0.00611735722149232,3.313889741840841
1.555417185554177e-07,0.007453334956206592,3.3399346218524
1.655417185554193e-07,0.005115373920456617,3.369700199008468
1.755417185554141e-07,0.005115373920456617,3.347376016141427
1.855417185554157e-07,0.002443418451028074,3.395745079020027
1.955417185554173e-07,0.004113390619420913,3.369700199008468
2.055417185554189e-07,0.004781379486778049,3.358538107574943
2.155417185554205e-07,0.002109424017350721,3.369700199008449
2.255417185554153e-07,0.004781379486778049,3.328772530418875
2.355417185554169e-07,0.007453334956206592,3.343655318996909
2.455417185554185e-07,0.005783362787813752,3.313889741840841
2.555417185554201e-07,0.00745333495620644,3.332493227563392
2.655417185554149e-07,0.007119340522528176,3.351096713285917
2.755417185554165e-07,0.005449368354135184,3.336213924707892
2.855417185554181e-07,0.005115373920456617,3.399465776164535
2.955417185554197e-07,0.004447385053099178,3.37342089615298
3.055417185554145e-07,0.003779396185742649,3.38086229044199
3.155417185554161e-07,0.005449368354135184,3.373420896152977
3.255417185554177e-07,0.004113390619420913,3.3399346218524
3.355417185554193e-07,0.00778732938988516,3.369700199008468
3.455417185554142e-07,0.004447385053101,3.343655318996921
3.555417185554158e-07,0.008121323823563727,3.347376016141417
3.655417185554174e-07,0.008455318257242295,3.369700199008468
3.75541718555419e-07,0.007453334956206592,3.336213924707892
3.855417185554206e-07,0.007787329389884856,3.39202438187551
3.955417185554154e-07,0.007119340522528024,3.373420896152977
4.05541718555417e-07,0.007119340522528024,3.380862290441993
4.155417185554186e-07,0.00778732938988516,3.403186473309044
4.255417185554202e-07,0.006451351655171192,3.343655318996926
4.35541718555415e-07,0.007119340522527721,3.380862290441976
4.455417185554166e-07,0.008789312690920863,3.343655318996909
4.555417185554182e-07,0.009791295991956567,3.362258804719451
4.655417185554198e-07,0.009123307124599279,3.377141593297472
4.755417185554146e-07,0.008789312690921015,3.347376016141431
4.855417185554162e-07,0.009457301558278,3.38830368473101
4.955417185554178e-07,0.006785346088849456,3.36597950186396
5.055417185554194e-07,0.009791295991956567,3.373420896152977
5.155417185554142e-07,0.0104592848593134,3.388303684731004
5.255417185554158e-07,0.008455318257242295,3.369700199008468
5.355417185554174e-07,0.009791295991956567,3.406907170453553
5.45541718555419e-07,0.008789312690920863,3.377141593297485
5.555417185554206e-07,0.01279724589506337,3.351096713285939
5.655417185554154e-07,0.01212925702770654,3.380862290441993
5.75541718555417e-07,0.01012529042563514,3.358538107574943
5.855417185554186e-07,0.01112727372667084,3.373420896152977
5.955417185554202e-07,0.0104592848593137,3.358538107574944
6.055417185554151e-07,0.0104592848593137,3.362258804719451
6.155417185554167e-07,0.01146126816034941,3.384582987586502
6.255417185554183e-07,0.009123307124599432,3.347376016141417
6.355417185554199e-07,0.01045928485931264,3.403186473309023
6.455417185554147e-07,0.008121323823564791,3.358538107574963
6.555417185554163e-07,0.01012529042563514,3.362258804719451
6.655417185554179e-07,0.009457301558278,3.384582987586502
6.755417185554195e-07,0.008455318257242295,3.351096713285926
6.855417185554143e-07,0.00812132382356388,3.395745079020007
6.955417185554159e-07,0.00778732938988516,3.36597950186396
7.055417185554175e-07,0.009457301558278,3.373420896152977
7.155417185554191e-07,0.008121323823563727,3.392024381875518
7.255417185554207e-07,0.008789312690921319,3.358538107574958
7.355417185554155e-07,0.009791295991956567,3.392024381875518
7.455417185554171e-07,0.006785346088849456,3.377141593297485
7.555417185554187e-07,0.008789312690920863,3.38830368473101
7.655417185554203e-07,0.00745333495620644,3.380862290441976
7.755417185554151e-07,0.007119340522528024,3.343655318996909
7.855417185554167e-07,0.007119340522528024,3.362258804719451
7.955417185554183e-07,0.008455318257242295,3.36597950186396
8.055417185554199e-07,0.008455318257241839,3.354817410430448
8.155417185554147e-07,0.007453334956207047,3.384582987586489
8.255417185554163e-07,0.008455318257242295,3.369700199008468
8.355417185554179e-07,0.008455318257242295,3.38830368473101
8.455417185554195e-07,0.007119340522528024,3.373420896152977
8.555417185554144e-07,0.00745333495620644,3.362258804719456
8.65541718555416e-07,0.008121323823563727,3.392024381875518
8.755417185554176e-07,0.007453334956206592,3.343655318996909
8.855417185554192e-07,0.007453334956206592,3.384582987586502
8.95541718555414e-07,0.007453334956206592,3.369700199008475
9.055417185554156e-07,0.006451351655170888,3.369700199008468
9.155417185554172e-07,0.006785346088849456,3.384582987586502
9.255417185554188e-07,0.007119340522528024,3.362258804719451
9.355417185554204e-07,0.007787329389884096,3.384582987586493
9.455417185554152e-07,0.005449368354135184,3.36597950186396
9.555417185554168e-07,0.008121323823563727,3.362258804719451
9.655417185554184e-07,0.007119340522528024,3.395745079020027
9.7554171855542e-07,0.006451351655171495,3.362258804719456
9.855417185554148e-07,0.007787329389884553,3.373420896152972
9.955417185554164e-07,0.007453334956206592,3.369700199008468
1.005541718555418e-06,0.007453334956206592,3.362258804719451
1.01554171855542e-06,0.009123307124598521,3.384582987586483
1.025541718555414e-06,0.007119340522528935,3.343655318996928
1.035541718555416e-06,0.008121323823563727,3.377141593297485
1.045541718555418e-06,0.006451351655170888,3.369700199008468
1.055541718555419e-06,0.006785346088849456,3.36597950186396
1.065541718555414e-06,0.009123307124598369,3.388303684731
1.075541718555416e-06,0.007119340522528024,3.362258804719451
1.085541718555417e-06,0.006785346088849456,3.377141593297485
1.095541718555419e-06,0.006785346088849456,3.36597950186396
1.10554171855542e-06,0.008455318257241991,3.339934621852421
1.115541718555415e-06,0.00778732938988516,3.384582987586502
1.125541718555417e-06,0.007453334956206592,3.343655318996909
1.135541718555418e-06,0.006785346088849456,3.384582987586502
1.14554171855542e-06,0.008455318257242448,3.354817410430441
1.155541718555415e-06,0.00878931269092071,3.369700199008461
1.165541718555416e-06,0.007119340522528024,3.38830368473101
1.175541718555418e-06,0.008121323823563727,3.354817410430434
1.18554171855542e-06,0.00711934052252848,3.380862290441986
1.195541718555414e-06,0.008121323823563271,3.365979501863966
1.205541718555416e-06,0.00778732938988516,3.358538107574943
1.215541718555418e-06,0.008789312690920863,3.380862290441993
1.225541718555419e-06,0.00778732938988516,3.3399346218524
1.235541718555414e-06,0.008455318257241991,3.392024381875495
1.245541718555416e-06,0.008455318257242295,3.369700199008468
1.255541718555417e-06,0.008455318257242295,3.373420896152977
1.265541718555419e-06,0.008121323823563727,3.421789959031586
1.275541718555421e-06,0.007453334956207352,3.369700199008491
1.285541718555415e-06,0.009123307124599432,3.421789959031586
1.295541718555417e-06,0.00778732938988516,3.36597950186396
1.305541718555419e-06,0.008121323823563727,3.373420896152977
1.31554171855542e-06,0.009123307124598369,3.399465776164513
1.325541718555415e-06,0.006785346088850519,3.351096713285948
1.335541718555417e-06,0.008121323823563727,3.392024381875518
1.345541718555418e-06,0.00778732938988516,3.38830368473101
1.35554171855542e-06,0.008789312690920863,3.377141593297498
1.365541718555415e-06,0.008789312690920863,3.406907170453539
1.375541718555416e-06,0.008789312690920863,3.358538107574943
1.385541718555418e-06,0.009123307124599432,3.399465776164535
1.395541718555419e-06,0.008121323823563727,3.38830368473101
1.405541718555414e-06,0.01012529042563422,3.380862290441997
1.415541718555416e-06,0.01079327929299227,3.403186473309044
1.425541718555417e-06,0.01012529042563514,3.369700199008468
1.435541718555419e-06,0.008455318257242295,3.395745079020027
1.445541718555421e-06,0.009123307124600039,3.388303684731012
1.455541718555415e-06,0.0104592848593137,3.392024381875518
1.465541718555417e-06,0.009457301558278,3.399465776164535
1.475541718555419e-06,0.009791295991956567,3.369700199008468
1.48554171855542e-06,0.009457301558277089,3.399465776164529
1.495541718555415e-06,0.007453334956207503,3.384582987586509
1.505541718555417e-06,0.0104592848593137,3.369700199008468
1.515541718555418e-06,0.008455318257242295,3.410627867598061
1.52554171855542e-06,0.009457301558277544,3.362258804719472
1.535541718555415e-06,0.008455318257242751,3.406907170453532
1.545541718555416e-06,0.008789312690920863,3.384582987586502
1.555541718555418e-06,0.00778732938988516,3.38830368473101
1.565541718555419e-06,0.009123307124599432,3.399465776164535
1.575541718555414e-06,0.008455318257242599,3.362258804719468
1.585541718555416e-06,0.008121323823563727,3.392024381875518
1.595541718555417e-06,0.009791295991956567,3.380862290441993
1.605541718555419e-06,0.009457301558278,3.362258804719451
1.615541718555421e-06,0.008455318257242599,3.403186473309035
1.625541718555415e-06,0.009123307124599432,3.384582987586502
1.635541718555417e-06,0.008455318257242295,3.395745079020027
1.645541718555419e-06,0.007119340522528024,3.395745079020027
1.65554171855542e-06,0.008789312690920103,3.369700199008486
1.665541718555415e-06,0.007119340522528024,3.410627867598061
1.675541718555417e-06,0.006451351655170888,3.343655318996909
1.685541718555418e-06,0.007119340522528024,3.403186473309044
1.69554171855542e-06,0.006117357221493232,3.395745079020015
1.705541718555415e-06,0.008121323823562817,3.36970019900848
1.715541718555416e-06,0.008455318257242295,3.410627867598061
1.725541718555418e-06,0.007119340522528024,3.362258804719451
1.735541718555419e-06,0.008121323823563727,3.410627867598061
1.745541718555414e-06,0.006785346088850064,3.395745079020034
1.755541718555416e-06,0.007119340522528024,3.395745079020027
1.765541718555418e-06,0.008789312690920863,3.418069261887078
1.775541718555419e-06,0.008789312690920863,3.384582987586502
1.785541718555414e-06,0.008455318257242448,3.414348564742556
1.795541718555416e-06,0.008121323823563727,3.38830368473101
1.805541718555417e-06,0.00778732938988516,3.403186473309044
1.815541718555419e-06,0.006785346088849456,3.41434856474257
1.82554171855542e-06,0.007787329389885615,3.384582987586521
1.835541718555415e-06,0.008789312690920863,3.425510656176095
1.845541718555417e-06,0.00778732938988516,3.403186473309044
1.855541718555418e-06,0.008455318257242295,3.406907170453553
1.86554171855542e-06,0.006451351655171495,3.429231353320586
1.875541718555415e-06,0.007787329389884553,3.392024381875535
1.885541718555416e-06,0.00778732938988516,3.410627867598061
1.895541718555418e-06,0.008789312690920863,3.410627867598061
1.90554171855542e-06,0.008455318257242295,3.399465776164535
1.915541718555414e-06,0.009123307124599129,3.42923135332059
1.925541718555416e-06,0.009123307124599432,3.369700199008468
1.935541718555418e-06,0.008455318257242295,3.429231353320603
1.945541718555419e-06,0.007453334956206592,3.395745079020027
1.955541718555414e-06,0.008121323823563424,3.380862290442
1.965541718555416e-06,0.006785346088849456,3.41434856474257
1.975541718555417e-06,0.008121323823563727,3.395745079020027
1.985541718555419e-06,0.008455318257242295,3.410627867598061
1.99554171855542e-06,0.008789312690920256,3.399465776164531
2.005541718555415e-06,0.007453334956206592,3.38830368473101
2.015541718555417e-06,0.00778732938988516,3.410627867598061
2.025541718555418e-06,0.008455318257242295,3.373420896152977
2.03554171855542e-06,0.008121323823563575,3.403186473309044
2.045541718555415e-06,0.007787329389885311,3.403186473309044
2.055541718555416e-06,0.008789312690920863,3.380862290441993
2.065541718555418e-06,0.006451351655170888,3.399465776164535
2.07554171855542e-06,0.006785346088849911,3.3771415932975
2.085541718555414e-06,0.007787329389884704,3.410627867598046
2.095541718555416e-06,0.006451351655170888,3.380862290441993
2.105541718555418e-06,0.006451351655170888,3.373420896152977
2.115541718555419e-06,0.00778732938988516,3.406907170453553
2.125541718555414e-06,0.006785346088849911,3.369700199008485
2.135541718555416e-06,0.006451351655170888,3.403186473309044
2.145541718555417e-06,0.007453334956206592,3.392024381875518
2.155541718555419e-06,0.006785346088849456,3.380862290441993
2.16554171855542e-06,0.00745333495620644,3.410627867598046
2.175541718555415e-06,0.007119340522528024,3.377141593297485
2.185541718555417e-06,0.007453334956206592,3.410627867598061
2.195541718555418e-06,0.008455318257242295,3.395745079020027
2.20554171855542e-06,0.008121323823563575,3.373420896152993
