traces_bank_current_trigger/sampling_freq_100MHz/PUSH/push_2.csv

#Digilent WaveForms Oscilloscope Acquisition
#Device Name: Discovery2
#Serial Number: SN:210321B3D813
#Date Time: 2023-07-18 13:20:59.723
#Sample rate: 1e+08Hz
#Samples: 8192
#Trigger: Source: Channel 2 Type: Edge Condition: Rising Level: 2 V Hyst.: Auto HoldOff: 0 s
#Channel 1: Range: 10 mV/div Offset: 0 V Attenuation: 1 X Sample Mode: Average
#Channel 2: Range: 5 V/div Offset: 0 V Attenuation: 1 X Sample Mode: Average

Time (s),Channel 1 (V),Channel 2 (V)
-9.571648044692704e-07,0.009457301558278,0.01363137466184692
-9.471648044692688e-07,0.008455318257242295,0.04711764896242296
-9.371648044692672e-07,0.008455318257242902,0.01735207180635029
-9.271648044692724e-07,0.00979129599195596,0.006189980372835097
-9.171648044692708e-07,0.008455318257242295,0.03223486038438916
-9.071648044692692e-07,0.008455318257242295,0.002469283228321573
-8.971648044692676e-07,0.008789312690920863,0.03223486038438916
-8.871648044692727e-07,0.006785346088850367,0.009910677517348622
-8.771648044692711e-07,0.008789312690920863,0.002469283228321573
-8.671648044692695e-07,0.008789312690920863,0.02479346609537227
-8.571648044692679e-07,0.007119340522528024,-0.001251413916186876
-8.471648044692663e-07,0.008455318257242142,0.01735207180636044
-8.371648044692715e-07,0.008121323823563727,0.02851416323988071
-8.271648044692699e-07,0.008455318257242295,-0.008692808205203774
-8.171648044692683e-07,0.008455318257242295,0.02479346609537227
-8.071648044692667e-07,0.009123307124598672,-0.008692808205190238
-7.971648044692719e-07,0.007453334956207352,0.02107276895085028
-7.871648044692703e-07,0.009123307124599432,0.02107276895086382
-7.771648044692687e-07,0.007453334956206592,-0.02357559678323757
-7.671648044692671e-07,0.00945730155827648,0.03595555752888238
-7.571648044692723e-07,0.006117357221493839,0.002469283228336804
-7.471648044692707e-07,0.007453334956206592,0.01735207180635537
-7.371648044692691e-07,0.007453334956206592,0.02479346609537227
-7.271648044692675e-07,0.00778732938988516,-0.02729629392774602
-7.171648044692727e-07,0.00778732938988516,0.01735207180633506
-7.071648044692711e-07,0.006451351655170888,-0.01985489963872912
-6.971648044692695e-07,0.006785346088849456,0.03223486038438916
-6.871648044692679e-07,0.006451351655170888,-0.001251413916186876
-6.771648044692663e-07,0.008121323823562817,0.002469283228326648
-6.671648044692715e-07,0.00611735722149232,0.01363137466184692
-6.571648044692699e-07,0.006451351655170888,-0.001251413916186876
-6.471648044692683e-07,0.004781379486778049,0.01735207180635537
-6.371648044692667e-07,0.00611735722149308,0.009910677517336779
-6.271648044692718e-07,0.0077873293898844,0.006189980372831713
-6.171648044692702e-07,0.007453334956206592,0.02107276895086382
-6.071648044692686e-07,0.00611735722149232,-0.008692808205203774
-5.97164804469267e-07,0.00645135165517104,0.02851416323987226
-5.871648044692722e-07,0.006785346088849304,0.009910677517346929
-5.771648044692706e-07,0.007119340522528024,0.006189980372830022
-5.67164804469269e-07,0.006785346088849456,0.05083834610693141
-5.571648044692674e-07,0.007119340522528024,0.002469283228321573
-5.471648044692726e-07,0.005449368354135944,0.04711764896240266
-5.37164804469271e-07,0.006785346088849456,0.01363137466184692
-5.271648044692694e-07,0.00778732938988516,0.02107276895086382
-5.171648044692678e-07,0.00778732938988516,0.04339695181791451
-5.071648044692662e-07,0.007453334956206137,-0.01613420249419868
-4.971648044692714e-07,0.006451351655170888,0.03223486038438916
-4.871648044692698e-07,0.007453334956206592,0.01735207180635537
-4.771648044692682e-07,0.006451351655170888,0.01735207180635537
-4.671648044692666e-07,0.007119340522527569,0.04711764896240604
-4.571648044692718e-07,0.00611735722149232,0.00991067751733847
-4.471648044692702e-07,0.006785346088849456,0.03595555752889761
-4.371648044692686e-07,0.005783362787813752,0.03595555752889761
-4.27164804469267e-07,0.007453334956205985,0.002469283228341876
-4.171648044692722e-07,0.006117357221492929,0.04711764896240266
-4.071648044692706e-07,0.006451351655170888,0.006189980372830022
-3.97164804469269e-07,0.008121323823563727,0.03223486038438916
-3.871648044692674e-07,0.007119340522528024,0.02479346609537227
-3.771648044692725e-07,0.008121323823563271,-0.001251413916175032
-3.671648044692709e-07,0.007119340522528024,0.05083834610693141
-3.571648044692693e-07,0.007453334956206592,-0.001251413916186876
-3.471648044692677e-07,0.008455318257242295,0.02479346609537227
-3.371648044692661e-07,0.008789312690921015,0.01735207180634522
-3.271648044692713e-07,0.009123307124599432,-0.004972111060695325
-3.171648044692697e-07,0.007453334956206592,0.04339695181791451
-3.071648044692681e-07,0.008121323823563727,-0.01241350534971222
-2.971648044692665e-07,0.01045928485931279,0.03595555752888238
-2.871648044692717e-07,0.008455318257242295,0.002469283228321573
-2.771648044692701e-07,0.009123307124599432,0.006189980372830022
-2.671648044692685e-07,0.006785346088849456,0.03223486038438916
-2.571648044692669e-07,0.00711934052252848,-0.004972111060680098
-2.471648044692721e-07,0.008121323823563271,0.02851416323986548
-2.371648044692705e-07,0.005783362787813752,0.02851416323988071
-2.271648044692689e-07,0.008121323823563727,0.01735207180635537
-2.171648044692673e-07,0.007453334956206592,0.03223486038438916
-2.071648044692725e-07,0.005783362787814512,0.006189980372841866
-1.971648044692709e-07,0.006785346088849456,0.03595555752889761
-1.871648044692693e-07,0.007119340522528024,0.02107276895086382
-1.771648044692677e-07,0.005783362787813752,-0.01613420249422067
-1.671648044692729e-07,0.008789312690919496,0.04339695181788744
-1.571648044692713e-07,0.00778732938988516,-0.01241350534971222
-1.471648044692697e-07,0.008789312690920863,0.02107276895086382
-1.371648044692681e-07,0.009791295991956567,0.01363137466184692
-1.271648044692665e-07,0.007787329389884553,0.01363137466187061
-1.171648044692716e-07,0.006451351655170888,0.06572113468496521
-1.0716480446927e-07,0.007453334956206592,0.00991067751733847
-9.716480446926844e-08,0.006785346088849456,0.03595555752889761
-8.716480446926684e-08,0.006785346088849304,0.0210727689508469
-7.716480446927202e-08,0.00645135165517104,-0.01613420249420375
-6.716480446927042e-08,0.009123307124599432,0.02107276895086382
-5.716480446926883e-08,0.007453334956206592,-0.02729629392774602
-4.716480446926723e-08,0.008121323823562968,-0.00125141391617334
-3.716480446927241e-08,0.006451351655171647,0.02851416323986718
-2.716480446927081e-08,0.00611735722149232,0.002469283228321573
-1.716480446926921e-08,0.004781379486778049,0.02479346609537227
-7.16480446926761e-09,0.003779396185742345,0.08804531755201589
2.835195530727212e-09,-0.01091635889610796,2.752064473018854
1.283519553072881e-08,0.008789312690920863,3.36597950186396
2.283519553073041e-08,0.008789312690920863,3.131575581759927
3.283519553073201e-08,0.01580319579817079,3.235755101806164
4.283519553073361e-08,0.008455318257243206,3.280403467540272
5.283519553072843e-08,0.0104592848593137,3.295286256118299
6.283519553073003e-08,0.004447385053099481,3.399465776164535
7.283519553073162e-08,0.004781379486778049,3.347376016141417
8.283519553073322e-08,-0.001564514753113526,3.444114141898569
9.283519553072804e-08,0.001107440716312587,3.295286256118366
1.028351955307296e-07,0.002109424017349506,3.380862290441993
1.128351955307312e-07,0.004113390619420913,3.246917193239689
1.228351955307328e-07,0.003111407318388551,3.295286256118286
1.328351955307277e-07,0.01045928485931036,3.265520678962245
1.428351955307293e-07,0.007453334956206592,3.291565558973791
1.528351955307309e-07,0.01112727372667084,3.272962073251248
1.628351955307325e-07,0.005783362787813752,3.3399346218524
1.728351955307273e-07,0.008789312690919496,3.291565558973813
1.828351955307289e-07,0.005449368354135184,3.38830368473101
1.928351955307305e-07,0.005783362787813752,3.332493227563384
2.028351955307321e-07,0.002443418451028074,3.38830368473101
2.128351955307337e-07,0.002777412884706793,3.35109671328591
2.228351955307285e-07,0.003111407318385209,3.31761043898535
2.328351955307301e-07,0.005115373920456617,3.31761043898535
2.428351955307317e-07,0.006785346088849456,3.291565558973791
2.528351955307333e-07,0.007787329389884704,3.284124164684789
2.628351955307281e-07,0.006785346088849911,3.317610438985334
2.728351955307297e-07,0.006451351655170888,3.284124164684774
2.828351955307313e-07,0.005115373920456617,3.377141593297485
2.928351955307329e-07,0.005449368354133817,3.332493227563399
3.028351955307277e-07,0.002443418451029441,3.365979501863944
3.128351955307293e-07,0.003445401752063777,3.336213924707892
3.228351955307309e-07,0.004113390619420913,3.325051833274367
3.328351955307325e-07,0.004447385053099481,3.3399346218524
3.428351955307273e-07,0.005115373920456313,3.306448347551839
3.528351955307289e-07,0.00611735722149232,3.332493227563384
3.628351955307305e-07,0.00611735722149232,3.325051833274367
3.728351955307321e-07,0.006785346088849456,3.310169044696333
3.828351955307337e-07,0.006785346088849759,3.373420896152951
3.928351955307286e-07,0.007453334956206592,3.31761043898535
4.028351955307302e-07,0.006451351655170888,3.380862290441993
4.128351955307318e-07,0.006451351655170888,3.3399346218524
4.228351955307334e-07,0.006117357221492472,3.328772530418887
4.328351955307282e-07,0.006451351655170736,3.354817410430422
4.428351955307298e-07,0.00611735722149232,3.325051833274367
4.528351955307314e-07,0.00778732938988516,3.358538107574943
4.62835195530733e-07,0.007119340522528176,3.33621392470789
4.728351955307278e-07,0.00745333495620644,3.332493227563385
4.828351955307294e-07,0.00778732938988516,3.362258804719451
4.92835195530731e-07,0.006451351655170888,3.313889741840841
5.028351955307326e-07,0.008121323823563727,3.373420896152977
5.128351955307274e-07,0.007787329389885311,3.365979501863963
5.22835195530729e-07,0.009123307124599432,3.336213924707892
5.328351955307306e-07,0.006785346088849456,3.369700199008468
5.428351955307322e-07,0.007119340522528024,3.336213924707892
5.528351955307338e-07,0.009123307124599129,3.36597950186396
5.628351955307286e-07,0.008455318257242295,3.36597950186396
5.728351955307302e-07,0.01212925702770654,3.321331136129858
5.828351955307318e-07,0.008455318257242295,3.369700199008468
5.928351955307334e-07,0.009791295991956111,3.328772530418895
6.028351955307282e-07,0.008789312690920863,3.373420896152977
6.128351955307298e-07,0.008455318257242295,3.347376016141417
6.228351955307314e-07,0.007119340522528024,3.3399346218524
6.32835195530733e-07,0.00812132382356312,3.380862290441966
6.428351955307279e-07,0.006785346088850064,3.321331136129885
6.528351955307295e-07,0.008455318257242295,3.380862290441993
6.628351955307311e-07,0.007119340522528024,3.3399346218524
6.728351955307327e-07,0.008455318257242295,3.343655318996909
6.828351955307275e-07,0.006117357221493384,3.373420896152963
6.928351955307291e-07,0.006785346088849456,3.328772530418875
7.028351955307307e-07,0.008121323823563727,3.369700199008468
7.128351955307323e-07,0.006451351655170888,3.347376016141417
7.228351955307339e-07,0.009123307124597912,3.347376016141434
7.328351955307287e-07,0.005783362787813752,3.384582987586502
7.428351955307303e-07,0.005783362787813752,3.325051833274367
7.528351955307319e-07,0.01012529042563514,3.373420896152977
7.628351955307335e-07,0.008121323823563271,3.365979501863953
7.728351955307283e-07,0.007119340522528024,3.351096713285926
7.828351955307299e-07,0.008789312690920863,3.380862290441993
7.928351955307315e-07,0.006785346088849456,3.328772530418875
8.028351955307331e-07,0.007453334956206744,3.388303684730995
8.128351955307279e-07,0.007787329389885008,3.354817410430449
8.228351955307295e-07,0.006451351655170888,3.362258804719451
8.328351955307311e-07,0.008121323823563727,3.373420896152977
8.428351955307327e-07,0.006785346088849456,3.347376016141417
8.528351955307275e-07,0.007787329389884704,3.369700199008458
8.628351955307291e-07,0.008121323823563727,3.369700199008468
8.728351955307307e-07,0.006785346088849456,3.362258804719451
8.828351955307323e-07,0.007119340522528024,3.38830368473101
8.928351955307272e-07,0.006117357221492776,3.358538107574956
9.028351955307288e-07,0.006451351655170888,3.384582987586502
9.128351955307304e-07,0.006451351655170888,3.362258804719451
9.22835195530732e-07,0.007453334956206592,3.369700199008468
9.328351955307336e-07,0.007453334956206592,3.395745079020007
9.428351955307284e-07,0.007453334956206592,3.351096713285926
9.5283519553073e-07,0.005449368354135184,3.373420896152977
9.628351955307316e-07,0.007119340522528024,3.358538107574943
9.728351955307332e-07,0.00645135165517104,3.369700199008473
9.82835195530728e-07,0.006785346088849304,3.380862290441988
9.928351955307296e-07,0.006451351655170888,3.351096713285926
1.002835195530731e-06,0.006785346088849456,3.395745079020027
1.012835195530733e-06,0.006117357221493839,3.365979501863964
1.022835195530728e-06,0.009457301558276482,3.37714159329748
1.032835195530729e-06,0.007453334956206592,3.395745079020027
1.042835195530731e-06,0.007453334956206592,3.351096713285926
1.052835195530732e-06,0.008121323823563727,3.392024381875518
1.062835195530727e-06,0.00711934052252848,3.380862290441998
1.072835195530729e-06,0.008455318257242295,3.369700199008468
1.08283519553073e-06,0.00778732938988516,3.406907170453553
1.092835195530732e-06,0.006785346088849456,3.347376016141417
1.102835195530734e-06,0.007787329389885311,3.395745079020021
1.112835195530728e-06,0.008121323823563727,3.380862290441993
1.12283519553073e-06,0.007119340522528024,3.377141593297485
1.132835195530732e-06,0.007119340522528024,3.406907170453553
1.142835195530733e-06,0.007787329389885615,3.347376016141439
1.152835195530728e-06,0.008789312690920406,3.395745079020005
1.16283519553073e-06,0.007453334956206592,3.38830368473101
1.172835195530731e-06,0.00778732938988516,3.377141593297485
1.182835195530733e-06,0.009123307124598218,3.395745079020004
1.192835195530728e-06,0.006451351655172103,3.343655318996932
1.202835195530729e-06,0.008455318257242295,3.392024381875518
1.212835195530731e-06,0.006785346088849456,3.362258804719451
1.222835195530732e-06,0.009123307124599432,3.358538107574943
1.232835195530727e-06,0.008455318257242599,3.403186473309023
1.242835195530729e-06,0.007453334956206592,3.343655318996909
1.25283519553073e-06,0.008455318257242295,3.384582987586502
1.262835195530732e-06,0.007453334956206592,3.373420896152977
1.272835195530734e-06,0.009123307124598976,3.354817410430453
1.282835195530729e-06,0.008121323823563727,3.395745079020027
1.29283519553073e-06,0.008455318257242295,3.351096713285926
1.302835195530732e-06,0.01012529042563514,3.38830368473101
1.312835195530733e-06,0.007787329389885615,3.392024381875505
1.322835195530728e-06,0.008789312690920406,3.362258804719465
1.33283519553073e-06,0.008789312690920863,3.403186473309044
1.342835195530731e-06,0.006451351655170888,3.36597950186396
1.352835195530733e-06,0.008455318257242142,3.392024381875515
1.362835195530728e-06,0.00812132382356388,3.384582987586505
1.372835195530729e-06,0.01012529042563514,3.380862290441993
1.382835195530731e-06,0.008121323823563727,3.406907170453553
1.392835195530733e-06,0.00778732938988516,3.351096713285926
1.402835195530727e-06,0.008455318257241991,3.395745079020007
1.412835195530729e-06,0.008789312690920863,3.38830368473101
1.422835195530731e-06,0.009123307124599432,3.369700199008468
1.432835195530732e-06,0.009791295991956567,3.392024381875518
1.442835195530734e-06,0.007787329389886071,3.377141593297497
1.452835195530729e-06,0.009791295991956567,3.403186473309044
1.46283519553073e-06,0.008455318257242295,3.392024381875518
1.472835195530732e-06,0.008455318257242295,3.369700199008468
1.482835195530733e-06,0.009123307124599129,3.388303684730998
1.492835195530728e-06,0.008455318257242599,3.362258804719463
1.50283519553073e-06,0.01012529042563514,3.418069261887078
1.512835195530731e-06,0.008789312690920863,3.384582987586502
1.522835195530733e-06,0.00878931269092147,3.362258804719465
1.532835195530728e-06,0.01012529042563453,3.392024381875505
1.542835195530729e-06,0.008121323823563727,3.36597950186396
1.552835195530731e-06,0.009791295991956567,3.399465776164535
1.562835195530733e-06,0.01012529042563514,3.380862290441993
1.572835195530727e-06,0.00979129599195672,3.37342089615298
1.582835195530729e-06,0.009791295991956567,3.395745079020027
1.592835195530731e-06,0.007119340522528024,3.380862290441993
1.602835195530732e-06,0.0104592848593137,3.395745079020027
1.612835195530734e-06,0.008789312690921015,3.380862290441991
1.622835195530729e-06,0.009123307124599432,3.377141593297485
1.63283519553073e-06,0.01012529042563514,3.392024381875518
1.642835195530732e-06,0.006451351655170888,3.36597950186396
1.652835195530733e-06,0.01012529042563438,3.399465776164535
1.662835195530728e-06,0.008455318257242295,3.399465776164535
1.67283519553073e-06,0.01079327929299227,3.377141593297485
1.682835195530731e-06,0.008121323823563727,3.421789959031586
1.692835195530733e-06,0.009123307124599129,3.377141593297495
1.702835195530728e-06,0.008455318257242599,3.399465776164525
1.712835195530729e-06,0.0104592848593137,3.373420896152977
1.722835195530731e-06,0.008455318257242295,3.369700199008468
1.732835195530733e-06,0.00778732938988516,3.395745079020027
1.742835195530727e-06,0.008121323823563575,3.373420896152987
1.752835195530729e-06,0.008789312690920863,3.418069261887078
1.762835195530731e-06,0.008789312690920863,3.38830368473101
1.772835195530732e-06,0.008455318257242295,3.384582987586502
1.782835195530727e-06,0.009457301558277544,3.418069261887063
1.792835195530729e-06,0.006451351655170888,3.354817410430434
1.80283519553073e-06,0.007453334956206592,3.392024381875518
1.812835195530732e-06,0.009791295991956567,3.392024381875518
1.822835195530734e-06,0.008121323823563727,3.365979501863978
1.832835195530728e-06,0.008121323823563727,3.406907170453553
1.84283519553073e-06,0.007119340522528024,3.351096713285926
1.852835195530732e-06,0.01012529042563514,3.377141593297485
1.862835195530733e-06,0.007453334956207199,3.380862290441986
1.872835195530728e-06,0.008789312690920256,3.365979501863966
1.88283519553073e-06,0.00611735722149232,3.403186473309044
1.892835195530731e-06,0.00778732938988516,3.354817410430434
1.902835195530733e-06,0.008455318257242295,3.392024381875518
1.912835195530728e-06,0.007453334956207047,3.373420896152985
1.922835195530729e-06,0.008455318257242295,3.347376016141417
1.932835195530731e-06,0.00778732938988516,3.384582987586502
1.942835195530732e-06,0.00778732938988516,3.354817410430434
1.952835195530727e-06,0.008121323823563575,3.392024381875502
1.962835195530729e-06,0.008455318257242295,3.373420896152977
1.97283519553073e-06,0.00778732938988516,3.354817410430434
1.982835195530732e-06,0.008455318257242295,3.38830368473101
1.992835195530734e-06,0.006785346088850063,3.365979501863973
2.002835195530728e-06,0.008121323823563727,3.395745079020027
2.01283519553073e-06,0.007119340522528024,3.373420896152977
2.022835195530732e-06,0.00778732938988516,3.36597950186396
2.032835195530733e-06,0.008789312690920256,3.384582987586493
2.042835195530728e-06,0.007453334956207199,3.365979501863968
2.05283519553073e-06,0.009791295991956567,3.38830368473101
2.062835195530731e-06,0.008121323823563727,3.377141593297485
2.072835195530733e-06,0.00878931269092071,3.369700199008483
2.082835195530728e-06,0.008455318257242448,3.403186473309029
2.092835195530729e-06,0.008121323823563727,3.36597950186396
2.102835195530731e-06,0.00778732938988516,3.392024381875518
2.112835195530732e-06,0.008789312690920863,3.384582987586502
2.122835195530727e-06,0.008121323823564031,3.365979501863968
2.132835195530729e-06,0.009123307124599432,3.418069261887078
2.14283519553073e-06,0.007119340522528024,3.380862290441993
2.152835195530732e-06,0.008455318257242295,3.418069261887078
2.162835195530734e-06,0.00778732938988592,3.392024381875508
2.172835195530728e-06,0.009457301558278,3.369700199008468
2.18283519553073e-06,0.008789312690920863,3.41434856474257
2.192835195530732e-06,0.006785346088849456,3.384582987586502
2.202835195530733e-06,0.006451351655171952,3.410627867598047
