traces_bank_current_trigger/sampling_freq_100MHz/PUSH/push_1.csv

#Digilent WaveForms Oscilloscope Acquisition
#Device Name: Discovery2
#Serial Number: SN:210321B3D813
#Date Time: 2023-07-18 13:15:10.791
#Sample rate: 1e+08Hz
#Samples: 8192
#Trigger: Source: Channel 2 Type: Edge Condition: Rising Level: 2 V Hyst.: Auto HoldOff: 0 s
#Channel 1: Range: 10 mV/div Offset: 0 V Attenuation: 1 X Sample Mode: Average
#Channel 2: Range: 5 V/div Offset: 0 V Attenuation: 1 X Sample Mode: Average

Time (s),Channel 1 (V),Channel 2 (V)
-9.542681258549923e-07,0.00778732938988516,-0.001251413916186876
-9.442681258549907e-07,0.00611735722149232,-0.008692808205203774
-9.342681258549891e-07,0.008789312690920406,0.01735207180633845
-9.242681258549943e-07,0.007787329389885615,-0.0198548996387122
-9.142681258549927e-07,0.007119340522528024,0.002469283228321573
-9.042681258549911e-07,0.00611735722149232,0.00991067751733847
-8.942681258549895e-07,0.008121323823563727,0.002469283228321573
-8.842681258549947e-07,0.009123307124598976,0.02107276895085536
-8.742681258549931e-07,0.008455318257242295,0.006189980372830022
-8.642681258549915e-07,0.009123307124599432,0.02107276895086382
-8.542681258549899e-07,0.007453334956206592,0.02479346609537227
-8.442681258549883e-07,0.008121323823563575,-0.008692808205197007
-8.342681258549935e-07,0.00778732938988516,0.006189980372830022
-8.242681258549919e-07,0.009123307124599432,0.002469283228321573
-8.142681258549903e-07,0.007453334956206592,0.01363137466184692
-8.042681258549887e-07,0.008455318257242295,0.009910677517335086
-7.942681258549938e-07,0.008455318257242295,0.002469283228324956
-7.842681258549922e-07,0.01012529042563514,0.03223486038438916
-7.742681258549906e-07,0.007119340522528024,0.002469283228321573
-7.642681258549891e-07,0.007453334956206896,0.01735207180634691
-7.542681258549942e-07,0.008121323823563424,-0.001251413916178418
-7.442681258549926e-07,0.008121323823563727,-0.01241350534971222
-7.34268125854991e-07,0.00778732938988516,0.006189980372830022
-7.242681258549894e-07,0.007453334956206592,-0.004972111060695325
-7.142681258549946e-07,0.007453334956206592,0.002469283228318189
-7.04268125854993e-07,0.008121323823563727,0.006189980372830022
-6.942681258549914e-07,0.007453334956206592,-0.01613420249422067
-6.842681258549898e-07,0.006785346088849456,0.01363137466184692
-6.742681258549882e-07,0.00812132382356312,-0.008692808205195314
-6.642681258549934e-07,0.006785346088849456,0.00991067751733847
-6.542681258549918e-07,0.006451351655170888,0.00991067751733847
-6.442681258549902e-07,0.006785346088849456,-0.01613420249422067
-6.342681258549886e-07,0.006451351655171648,0.009910677517328319
-6.242681258549938e-07,0.008121323823562968,-0.01241350534970207
-6.142681258549922e-07,0.008121323823563727,0.006189980372830022
-6.042681258549906e-07,0.007453334956206592,-0.004972111060695325
-5.94268125854989e-07,0.008121323823564335,-0.004972111060683481
-5.842681258549942e-07,0.009457301558277393,0.02107276895085197
-5.742681258549926e-07,0.008789312690920863,-0.01985489963872912
-5.64268125854991e-07,0.008121323823563727,0.01735207180635537
-5.542681258549894e-07,0.005449368354135184,0.01735207180635537
-5.442681258549945e-07,0.009123307124597762,-0.0198548996387122
-5.342681258549929e-07,0.00778732938988516,0.00991067751733847
-5.242681258549913e-07,0.008789312690920863,-0.01613420249422067
-5.142681258549897e-07,0.00778732938988516,0.006189980372830022
-5.042681258549882e-07,0.007453334956206744,-0.001251413916193644
-4.942681258549933e-07,0.00778732938988516,-0.01613420249422067
-4.842681258549917e-07,0.007453334956206592,0.01735207180635537
-4.742681258549901e-07,0.007453334956206592,-0.01241350534971222
-4.642681258549885e-07,0.008455318257241232,0.0173520718063486
-4.542681258549937e-07,0.00611735722149232,0.002469283228321573
-4.442681258549921e-07,0.006451351655170888,-0.01613420249422067
-4.342681258549905e-07,0.006451351655170888,0.006189980372830022
-4.242681258549889e-07,0.005783362787814207,-0.01241350534970715
-4.142681258549941e-07,0.006785346088849,-0.001251413916191952
-4.042681258549925e-07,0.004781379486778049,0.002469283228321573
-3.942681258549909e-07,0.007119340522528024,-0.01241350534971222
-3.842681258549893e-07,0.007453334956206592,0.01735207180635537
-3.742681258549945e-07,0.007119340522528176,-0.0198548996387122
-3.642681258549929e-07,0.008455318257242295,0.01363137466184692
-3.542681258549913e-07,0.007119340522528024,0.002469283228321573
-3.442681258549897e-07,0.008121323823563727,-0.01241350534971222
-3.342681258549881e-07,0.009457301558277393,0.002469283228319881
-3.242681258549933e-07,0.008121323823563727,-0.001251413916186876
-3.142681258549917e-07,0.007119340522528024,0.03223486038438916
-3.042681258549901e-07,0.007119340522528024,0.02107276895086382
-2.942681258549885e-07,0.007453334956207352,-0.01241350534970038
-2.842681258549936e-07,0.009123307124599432,0.01363137466184692
-2.74268125854992e-07,0.006785346088849456,-0.008692808205203774
-2.642681258549904e-07,0.007453334956206592,0.002469283228321573
-2.542681258549889e-07,0.006785346088850975,0.01735207180634522
-2.44268125854994e-07,0.01012529042563362,-0.004972111060685173
-2.342681258549924e-07,0.007119340522528024,0.02107276895086382
-2.242681258549908e-07,0.009123307124599432,0.00991067751733847
-2.142681258549892e-07,0.007453334956206592,0.02851416323988071
-2.042681258549944e-07,0.006451351655171344,0.01735207180636044
-1.942681258549928e-07,0.007453334956206592,0.006189980372830022
-1.842681258549912e-07,0.008789312690920863,0.01735207180635537
-1.742681258549896e-07,0.005449368354135184,0.01735207180635537
-1.642681258549948e-07,0.006117357221492017,0.009910677517341853
-1.542681258549932e-07,0.007453334956206592,0.01363137466184692
-1.442681258549916e-07,0.008121323823563727,-0.01241350534971222
-1.3426812585499e-07,0.005115373920456617,0.02851416323988071
-1.242681258549884e-07,0.006117357221492624,0.006189980372835097
-1.142681258549936e-07,0.006785346088849456,0.01735207180635537
-1.04268125854992e-07,0.007119340522528024,0.002469283228321573
-9.426812585499038e-08,0.007119340522528024,-0.008692808205203774
-8.426812585498878e-08,0.006117357221492776,0.01735207180634183
-7.426812585499396e-08,0.007119340522527569,-0.01241350534969869
-6.426812585499236e-08,0.006451351655170888,0.01735207180635537
-5.426812585499077e-08,0.00611735722149232,0.00991067751733847
-4.426812585498917e-08,0.006451351655171344,-0.01613420249420206
-3.426812585499435e-08,0.007453334956206137,0.02479346609535366
-2.426812585499275e-08,0.005115373920456617,-0.01241350534971222
-1.426812585499115e-08,0.005783362787813752,0.00991067751733847
-4.26812585498955e-09,-0.003902475788864716,0.8359054435982141
5.731874145005272e-09,0.002109424017346772,3.555735056232654
1.573187414500687e-08,0.009123307124599432,3.090647913170334
2.573187414500847e-08,0.01146126816034941,3.224593010372638
3.573187414501007e-08,0.01379922919609938,3.284124164684774
4.573187414501167e-08,0.01112727372666977,3.284124164684807
5.573187414500649e-08,0.008789312690920863,3.358538107574943
6.573187414500809e-08,0.005449368354135184,3.36597950186396
7.573187414500968e-08,0.003779396185742345,3.399465776164535
8.573187414501128e-08,0.004113390619420609,3.373420896152968
9.57318741450061e-08,0.003445401752064081,3.354817410430443
1.057318741450077e-07,0.003779396185742345,3.302727650407316
1.157318741450093e-07,0.008121323823563727,3.332493227563384
1.257318741450109e-07,0.007787329389885463,3.250637890384233
1.357318741450057e-07,0.008455318257241991,3.328772530418839
1.457318741450073e-07,0.008121323823563727,3.302727650407316
1.557318741450089e-07,0.01079327929299227,3.31761043898535
1.657318741450105e-07,0.008789312690920863,3.358538107574943
1.757318741450053e-07,0.007787329389885615,3.365979501863956
1.857318741450069e-07,0.005783362787813752,3.380862290441993
1.957318741450085e-07,0.004781379486778049,3.369700199008468
2.057318741450101e-07,0.004781379486778049,3.362258804719451
2.157318741450117e-07,0.005115373920456465,3.377141593297458
2.257318741450066e-07,0.004781379486778049,3.31761043898535
2.357318741450082e-07,0.00778732938988516,3.3399346218524
2.457318741450098e-07,0.00778732938988516,3.321331136129858
2.557318741450113e-07,0.009457301558276936,3.339934621852414
2.657318741450062e-07,0.007119340522529088,3.369700199008455
2.757318741450078e-07,0.008121323823563727,3.358538107574943
2.857318741450094e-07,0.006451351655170888,3.399465776164535
2.95731874145011e-07,0.006117357221492017,3.377141593297483
3.057318741450058e-07,0.005449368354135488,3.373420896152978
3.157318741450074e-07,0.003779396185742345,3.395745079020027
3.25731874145009e-07,0.006451351655170888,3.362258804719451
3.357318741450106e-07,0.005783362787813752,3.358538107574943
3.457318741450054e-07,0.006451351655170585,3.37342089615297
3.55731874145007e-07,0.009791295991956567,3.343655318996909
3.657318741450086e-07,0.006451351655170888,3.354817410430434
3.757318741450102e-07,0.009123307124599432,3.358538107574943
3.857318741450118e-07,0.006785346088850216,3.388303684731008
3.957318741450066e-07,0.008455318257242295,3.384582987586502
4.057318741450082e-07,0.006785346088849456,3.369700199008468
4.157318741450098e-07,0.007119340522528024,3.406907170453553
4.257318741450114e-07,0.00645135165517104,3.373420896152983
4.357318741450062e-07,0.006785346088849304,3.388303684731004
4.457318741450078e-07,0.006785346088849456,3.362258804719451
4.557318741450094e-07,0.007453334956206592,3.3399346218524
4.65731874145011e-07,0.008121323823564031,3.388303684730995
4.757318741450059e-07,0.008789312690920559,3.354817410430449
4.857318741450075e-07,0.006451351655170888,3.369700199008468
4.957318741450091e-07,0.007453334956206592,3.38830368473101
5.057318741450106e-07,0.008121323823563727,3.36597950186396
5.157318741450055e-07,0.009791295991955808,3.414348564742547
5.257318741450071e-07,0.008789312690920863,3.362258804719451
5.357318741450087e-07,0.008121323823563727,3.399465776164535
5.457318741450103e-07,0.007119340522528024,3.384582987586502
5.557318741450119e-07,0.009791295991956415,3.373420896152978
5.657318741450067e-07,0.009457301558278,3.377141593297485
5.757318741450083e-07,0.009457301558278,3.354817410430434
5.857318741450099e-07,0.009791295991956567,3.384582987586502
5.957318741450115e-07,0.008455318257242295,3.373420896152973
6.057318741450063e-07,0.008455318257242295,3.36597950186396
6.157318741450079e-07,0.009123307124599432,3.406907170453553
6.257318741450095e-07,0.007453334956206592,3.358538107574943
6.357318741450111e-07,0.009123307124598218,3.399465776164527
6.457318741450059e-07,0.006451351655172103,3.380862290442002
6.557318741450075e-07,0.008121323823563727,3.362258804719451
6.657318741450091e-07,0.008455318257242295,3.395745079020027
6.757318741450107e-07,0.009791295991956567,3.358538107574943
6.857318741450055e-07,0.00778732938988607,3.37342089615297
6.957318741450071e-07,0.007453334956206592,3.380862290441993
7.057318741450087e-07,0.009123307124599432,3.369700199008468
7.157318741450103e-07,0.008121323823563727,3.406907170453553
7.257318741450119e-07,0.00711934052252924,3.354817410430449
7.357318741450068e-07,0.009791295991956567,3.38830368473101
7.457318741450084e-07,0.006451351655170888,3.384582987586502
7.557318741450099e-07,0.008121323823563727,3.36597950186396
7.657318741450115e-07,0.009123307124599129,3.392024381875506
7.757318741450064e-07,0.008455318257242295,3.36597950186396
7.85731874145008e-07,0.00778732938988516,3.392024381875518
7.957318741450096e-07,0.007453334956206592,3.369700199008468
8.057318741450112e-07,0.009791295991955353,3.369700199008481
8.15731874145006e-07,0.00711934052252924,3.399465776164522
8.257318741450076e-07,0.009457301558278,3.380862290441993
8.357318741450092e-07,0.008455318257242295,3.38830368473101
8.457318741450108e-07,0.007453334956206592,3.380862290441993
8.557318741450056e-07,0.009457301558277089,3.37342089615298
8.657318741450072e-07,0.009457301558278,3.392024381875518
8.757318741450088e-07,0.009123307124599432,3.358538107574943
8.857318741450104e-07,0.006785346088849456,3.392024381875518
8.957318741450052e-07,0.007453334956206288,3.365979501863972
9.057318741450068e-07,0.008121323823563727,3.369700199008468
9.157318741450084e-07,0.008789312690920863,3.384582987586502
9.2573187414501e-07,0.00778732938988516,3.36597950186396
9.357318741450116e-07,0.007453334956206137,3.380862290441995
9.457318741450064e-07,0.006451351655170888,3.384582987586502
9.55731874145008e-07,0.008455318257242295,3.373420896152977
9.657318741450096e-07,0.00778732938988516,3.392024381875518
9.757318741450112e-07,0.008455318257241384,3.351096713285932
9.857318741450061e-07,0.0064513516551718,3.365979501863953
9.957318741450077e-07,0.007453334956206592,3.369700199008468
1.005731874145009e-06,0.009123307124599432,3.354817410430434
1.015731874145011e-06,0.009791295991955504,3.380862290441981
1.025731874145006e-06,0.007453334956207655,3.354817410430446
1.035731874145007e-06,0.006785346088849456,3.38830368473101
1.045731874145009e-06,0.00778732938988516,3.38830368473101
1.05573187414501e-06,0.007119340522528024,3.354817410430434
1.065731874145005e-06,0.007119340522528024,3.399465776164515
1.075731874145007e-06,0.007119340522528024,3.343655318996909
1.085731874145008e-06,0.008121323823563727,3.38830368473101
1.09573187414501e-06,0.006451351655170888,3.369700199008468
1.105731874145012e-06,0.009123307124598825,3.380862290442
1.115731874145007e-06,0.00778732938988516,3.395745079020027
1.125731874145008e-06,0.006451351655170888,3.36597950186396
1.13573187414501e-06,0.008121323823563727,3.38830368473101
1.145731874145011e-06,0.007787329389885311,3.392024381875515
1.155731874145006e-06,0.008121323823563575,3.384582987586505
1.165731874145008e-06,0.009123307124599432,3.395745079020027
1.175731874145009e-06,0.007453334956206592,3.3399346218524
1.185731874145011e-06,0.008789312690919799,3.399465776164532
1.195731874145006e-06,0.006451351655171952,3.392024381875522
1.205731874145007e-06,0.00778732938988516,3.377141593297485
1.215731874145009e-06,0.008455318257242295,3.41434856474257
1.225731874145011e-06,0.006451351655170888,3.36597950186396
1.235731874145005e-06,0.007119340522527721,3.403186473309027
1.245731874145007e-06,0.00778732938988516,3.395745079020027
1.255731874145009e-06,0.006451351655170888,3.36597950186396
1.26573187414501e-06,0.008455318257242295,3.403186473309044
1.275731874145012e-06,0.007787329389885463,3.380862290442008
1.285731874145007e-06,0.008455318257242295,3.41434856474257
1.295731874145008e-06,0.00778732938988516,3.380862290441993
1.30573187414501e-06,0.007453334956206592,3.377141593297485
1.315731874145011e-06,0.009123307124599129,3.403186473309027
1.325731874145006e-06,0.008455318257242599,3.365979501863976
1.335731874145008e-06,0.00778732938988516,3.406907170453553
1.345731874145009e-06,0.008121323823563727,3.403186473309044
1.355731874145011e-06,0.009791295991957175,3.380862290442006
1.365731874145006e-06,0.01112727372667023,3.410627867598047
1.375731874145007e-06,0.007119340522528024,3.373420896152977
1.385731874145009e-06,0.009457301558278,3.403186473309044
1.395731874145011e-06,0.009791295991956567,3.384582987586502
1.405731874145005e-06,0.009791295991956567,3.373420896152981
1.415731874145007e-06,0.008789312690920863,3.403186473309044
1.425731874145009e-06,0.008121323823563727,3.373420896152977
1.43573187414501e-06,0.008121323823563727,3.399465776164535
1.445731874145012e-06,0.007787329389886071,3.388303684731014
1.455731874145007e-06,0.009791295991956567,3.395745079020027
1.465731874145008e-06,0.008121323823563727,3.399465776164535
1.47573187414501e-06,0.008121323823563727,3.403186473309044
1.485731874145011e-06,0.006785346088849759,3.39202438187552
1.495731874145006e-06,0.007453334956206288,3.395745079020025
1.505731874145008e-06,0.009123307124599432,3.392024381875518
1.515731874145009e-06,0.009123307124599432,3.425510656176095
1.525731874145011e-06,0.008455318257242295,3.388303684731019
1.535731874145006e-06,0.008455318257242295,3.406907170453544
1.545731874145007e-06,0.01012529042563514,3.403186473309044
1.555731874145009e-06,0.009791295991956567,3.403186473309044
1.565731874145011e-06,0.008789312690920863,3.410627867598061
1.575731874145005e-06,0.007787329389885615,3.38830368473102
1.585731874145007e-06,0.008789312690920863,3.406907170453553
1.595731874145009e-06,0.008121323823563727,3.421789959031586
1.60573187414501e-06,0.008121323823563727,3.38830368473101
1.615731874145012e-06,0.01045928485931325,3.418069261887059
1.625731874145007e-06,0.009457301558278,3.377141593297485
1.635731874145008e-06,0.009123307124599432,3.399465776164535
1.64573187414501e-06,0.008121323823563727,3.399465776164535
1.655731874145011e-06,0.009457301558278456,3.388303684731017
1.665731874145006e-06,0.0104592848593137,3.403186473309044
1.675731874145008e-06,0.00778732938988516,3.395745079020027
1.68573187414501e-06,0.009123307124599432,3.399465776164535
1.695731874145011e-06,0.008455318257242295,3.399465776164531
1.705731874145006e-06,0.008455318257242295,3.388303684731015
1.715731874145008e-06,0.009791295991956567,3.410627867598061
1.725731874145009e-06,0.009123307124599432,3.377141593297485
1.735731874145011e-06,0.007119340522528024,3.399465776164535
1.745731874145006e-06,0.008789312690920103,3.388303684731015
1.755731874145007e-06,0.008789312690920863,3.369700199008468
1.765731874145009e-06,0.009457301558278,3.403186473309044
1.77573187414501e-06,0.008121323823563727,3.373420896152977
1.785731874145005e-06,0.009123307124598976,3.39202438187551
1.795731874145007e-06,0.00778732938988516,3.395745079020027
1.805731874145008e-06,0.007119340522528024,3.380862290441993
1.81573187414501e-06,0.009457301558278,3.406907170453553
1.825731874145012e-06,0.008455318257242448,3.380862290442
1.835731874145006e-06,0.008789312690920863,3.395745079020027
1.845731874145008e-06,0.008121323823563727,3.392024381875518
1.85573187414501e-06,0.008121323823563727,3.369700199008468
1.865731874145011e-06,0.007787329389885311,3.410627867598046
1.875731874145006e-06,0.008121323823563575,3.3771415932975
1.885731874145008e-06,0.006785346088849456,3.403186473309044
1.895731874145009e-06,0.00778732938988516,3.380862290441993
1.905731874145011e-06,0.00778732938988516,3.380862290441993
1.915731874145006e-06,0.008455318257241991,3.392024381875514
1.925731874145007e-06,0.00778732938988516,3.36597950186396
1.935731874145009e-06,0.008789312690920863,3.395745079020027
1.94573187414501e-06,0.007119340522528024,3.380862290441993
1.955731874145005e-06,0.007787329389884856,3.392024381875514
1.965731874145007e-06,0.008121323823563727,3.392024381875518
1.975731874145008e-06,0.007453334956206592,3.377141593297485
1.98573187414501e-06,0.008121323823563727,3.392024381875518
1.995731874145012e-06,0.007119340522529088,3.399465776164524
2.005731874145006e-06,0.009457301558278,3.373420896152977
2.015731874145008e-06,0.01012529042563514,3.406907170453553
2.02573187414501e-06,0.006785346088849456,3.369700199008468
2.035731874145011e-06,0.008789312690920256,3.395745079020022
2.045731874145006e-06,0.007453334956207199,3.384582987586507
2.055731874145008e-06,0.00778732938988516,3.369700199008468
2.065731874145009e-06,0.008789312690920863,3.384582987586502
2.075731874145011e-06,0.007119340522528328,3.354817410430439
2.085731874145006e-06,0.007787329389884856,3.365979501863955
2.095731874145007e-06,0.004447385053099481,3.380862290441993
2.105731874145009e-06,0.008455318257242295,3.358538107574943
2.11573187414501e-06,0.009457301558278,3.399465776164535
2.125731874145005e-06,0.006451351655172255,3.362258804719468
2.135731874145007e-06,0.007119340522528024,3.380862290441993
2.145731874145008e-06,0.00611735722149232,3.38830368473101
2.15573187414501e-06,0.009123307124599432,3.36597950186396
2.165731874145012e-06,0.00611735722149232,3.392024381875505
2.175731874145007e-06,0.00611735722149232,3.362258804719451
2.185731874145008e-06,0.006451351655170888,3.384582987586502
2.19573187414501e-06,0.006451351655170888,3.384582987586502
2.205731874145011e-06,0.00778732938988516,3.384582987586512
