traces_bank_current_trigger/sampling_freq_100MHz/PUSH/push_10.csv

#Digilent WaveForms Oscilloscope Acquisition
#Device Name: Discovery2
#Serial Number: SN:210321B3D813
#Date Time: 2023-07-18 14:06:20.218
#Sample rate: 1e+08Hz
#Samples: 8192
#Trigger: Source: Channel 2 Type: Edge Condition: Rising Level: 2 V Hyst.: Auto HoldOff: 0 s
#Channel 1: Range: 10 mV/div Offset: 0 V Attenuation: 1 X Sample Mode: Average
#Channel 2: Range: 5 V/div Offset: 0 V Attenuation: 1 X Sample Mode: Average

Time (s),Channel 1 (V),Channel 2 (V)
-9.525039123630633e-07,0.00611735722149232,0.03967625467340606
-9.425039123630617e-07,0.007453334956206592,-0.004972111060695325
-9.325039123630601e-07,0.006451351655170736,0.03223486038438578
-9.225039123630653e-07,0.006117357221492472,0.02479346609537565
-9.125039123630637e-07,0.006451351655170888,0.02479346609537227
-9.025039123630621e-07,0.005115373920456617,0.03595555752889761
-8.925039123630605e-07,0.00778732938988516,0.002469283228321573
-8.825039123630657e-07,0.007453334956206744,0.03967625467338914
-8.725039123630641e-07,0.006785346088849456,-0.001251413916186876
-8.625039123630625e-07,0.007453334956206592,0.01363137466184692
-8.525039123630609e-07,0.006451351655170888,0.02479346609537227
-8.425039123630593e-07,0.007453334956207047,0.0024692832283368
-8.325039123630644e-07,0.008455318257242295,0.03595555752889761
-8.225039123630628e-07,0.009457301558278,-0.01613420249422067
-8.125039123630612e-07,0.006451351655170888,0.02107276895086382
-8.025039123630597e-07,0.006451351655171192,0.01735207180634691
-7.925039123630648e-07,0.007119340522527721,-0.001251413916178418
-7.825039123630632e-07,0.00778732938988516,0.02107276895086382
-7.725039123630616e-07,0.006785346088849456,0.01363137466184692
-7.6250391236306e-07,0.007453334956205985,0.006189980372840173
-7.525039123630652e-07,0.006117357221492929,0.02851416323987056
-7.425039123630636e-07,0.008121323823563727,-0.001251413916186876
-7.32503912363062e-07,0.008789312690920863,0.01735207180635537
-7.225039123630604e-07,0.008455318257242295,0.006189980372830022
-7.125039123630656e-07,0.007453334956207047,-0.004972111060690249
-7.02503912363064e-07,0.007453334956206592,0.03223486038438916
-6.925039123630624e-07,0.006451351655170888,-0.02357559678323757
-6.825039123630608e-07,0.007453334956206592,0.02851416323988071
-6.725039123630592e-07,0.00745333495620644,0.002469283228326648
-6.625039123630644e-07,0.007119340522528024,0.01363137466184692
-6.525039123630628e-07,0.00611735722149232,0.02107276895086382
-6.425039123630612e-07,0.007453334956206592,-0.01613420249422067
-6.325039123630596e-07,0.007119340522527873,0.02479346609536719
-6.225039123630648e-07,0.006785346088849608,0.013631374661852
-6.125039123630632e-07,0.008121323823563727,-0.001251413916186876
-6.025039123630616e-07,0.00611735722149232,0.03223486038438916
-5.9250391236306e-07,0.007453334956206744,-0.0124135053496953
-5.825039123630651e-07,0.007787329389885008,0.02479346609535535
-5.725039123630635e-07,0.007119340522528024,-0.01985489963872912
-5.625039123630619e-07,0.006785346088849456,0.01735207180635537
-5.525039123630604e-07,0.008121323823563727,0.002469283228321573
-5.425039123630655e-07,0.006451351655171647,-0.01241350534970546
-5.325039123630639e-07,0.009123307124599432,0.006189980372830022
-5.225039123630623e-07,0.007453334956206592,-0.004972111060695325
-5.125039123630607e-07,0.008455318257242295,-0.008692808205203774
-5.025039123630591e-07,0.007119340522527873,-0.01241350534971561
-4.925039123630643e-07,0.006785346088849456,-0.01985489963872912
-4.825039123630627e-07,0.008455318257242295,0.01735207180635537
-4.725039123630611e-07,0.008121323823563727,-0.004972111060695325
-4.625039123630595e-07,0.006785346088849304,-0.004972111060686865
-4.525039123630647e-07,0.006451351655170888,0.01363137466184692
-4.425039123630631e-07,0.007119340522528024,-0.03101699107225447
-4.325039123630615e-07,0.007453334956206592,0.01735207180635537
-4.225039123630599e-07,0.006785346088849759,-0.0161342024942156
-4.125039123630651e-07,0.007453334956206288,-0.004972111060700401
-4.025039123630635e-07,0.007119340522528024,0.01363137466184692
-3.925039123630619e-07,0.006451351655170888,-0.01613420249422067
-3.825039123630603e-07,0.007453334956206592,0.01735207180635537
-3.725039123630655e-07,0.007787329389885008,-0.01613420249420544
-3.625039123630639e-07,0.009457301558278,-0.001251413916186876
-3.525039123630623e-07,0.009457301558278,0.01735207180635537
-3.425039123630607e-07,0.009123307124599432,-0.03101699107225447
-3.325039123630591e-07,0.01012529042563498,0.02107276895085536
-3.225039123630642e-07,0.009791295991956567,0.002469283228321573
-3.125039123630626e-07,0.01112727372667084,0.002469283228321573
-3.025039123630611e-07,0.008121323823563727,0.002469283228321573
-2.925039123630595e-07,0.008789312690921166,-0.01985489963871559
-2.825039123630646e-07,0.009457301558278,0.00991067751733847
-2.72503912363063e-07,0.009123307124599432,0.002469283228321573
-2.625039123630614e-07,0.008789312690920863,-0.01241350534971222
-2.525039123630598e-07,0.008121323823565094,0.009910677517316474
-2.42503912363065e-07,0.01112727372666947,-0.03845838536124937
-2.325039123630634e-07,0.00778732938988516,0.02479346609537227
-2.225039123630618e-07,0.008789312690920863,-0.001251413916186876
-2.125039123630602e-07,0.009123307124599432,-0.001251413916186876
-2.025039123630654e-07,0.006451351655172103,0.03223486038437393
-1.925039123630638e-07,0.00778732938988516,-0.004972111060695325
-1.825039123630622e-07,0.00778732938988516,0.01363137466184692
-1.725039123630606e-07,0.008121323823563727,0.00991067751733847
-1.625039123630658e-07,0.007787329389885311,0.02107276895085874
-1.525039123630642e-07,0.00611735722149232,0.04339695181791451
-1.425039123630626e-07,0.007119340522528024,-0.01613420249422067
-1.32503912363061e-07,0.009123307124599432,0.03595555752889761
-1.225039123630594e-07,0.008455318257241839,0.0210727689508672
-1.125039123630646e-07,0.007453334956206592,0.02851416323988071
-1.02503912363063e-07,0.007453334956206592,0.02107276895086382
-9.250391236306137e-08,0.008789312690920863,-0.01985489963872912
-8.250391236305977e-08,0.007119340522528024,0.02479346609535704
-7.250391236306495e-08,0.007119340522528024,-0.008692808205188543
-6.250391236306335e-08,0.008455318257242295,0.006189980372830022
-5.250391236306175e-08,0.00611735722149232,0.01363137466184692
-4.250391236306015e-08,0.00745333495620644,-0.01241350534970376
-3.250391236306533e-08,0.007119340522528176,0.006189980372821563
-2.250391236306373e-08,0.007119340522528024,-0.008692808205203774
-1.250391236306213e-08,0.005115373920456617,0.00991067751733847
-2.503912363060535e-09,-0.008912392294043234,1.401451409563498
7.496087636934287e-09,0.008789312690912812,3.778976884903316
1.749608763693589e-08,0.007453334956206592,2.979026998835081
2.749608763693748e-08,0.0104592848593137,3.328772530418875
3.749608763693908e-08,0.01079327929299227,3.258079284673214
4.749608763694068e-08,0.01112727372666886,3.310169044696363
5.74960876369355e-08,0.006785346088849456,3.377141593297485
6.74960876369371e-08,0.005783362787813752,3.3399346218524
7.74960876369387e-08,0.0004394518489566662,3.406907170453553
8.74960876369403e-08,0.001441435149992522,3.310169044696368
9.749608763693512e-08,0.001775429583670786,3.388303684730975
1.074960876369367e-07,0.003779396185742345,3.287844861829282
1.174960876369383e-07,0.00611735722149232,3.362258804719451
1.274960876369399e-07,0.006451351655171344,3.280403467540299
1.374960876369347e-07,0.007453334956206137,3.3548174104304
1.474960876369363e-07,0.007453334956206592,3.306448347551824
1.574960876369379e-07,0.006451351655170888,3.347376016141417
1.674960876369395e-07,0.007119340522528024,3.36597950186396
1.774960876369344e-07,0.005783362787814359,3.384582987586493
1.87496087636936e-07,0.002777412884706641,3.36597950186396
1.974960876369376e-07,0.003111407318385209,3.395745079020027
2.074960876369391e-07,0.002777412884706641,3.332493227563384
2.174960876369407e-07,0.004781379486777442,3.373420896152946
2.274960876369356e-07,0.003445401752063777,3.306448347551824
2.374960876369372e-07,0.007453334956206592,3.328772530418875
2.474960876369388e-07,0.007119340522528024,3.347376016141417
2.574960876369404e-07,0.006785346088849911,3.325051833274382
2.674960876369352e-07,0.007787329389884704,3.358538107574927
2.774960876369368e-07,0.004113390619420913,3.354817410430434
2.874960876369384e-07,0.005115373920456617,3.351096713285926
2.9749608763694e-07,0.002777412884706641,3.38830368473099
3.074960876369348e-07,0.002777412884706641,3.343655318996929
3.174960876369364e-07,0.005115373920456617,3.373420896152977
3.27496087636938e-07,0.003445401752063777,3.351096713285926
3.374960876369396e-07,0.005783362787813752,3.343655318996909
3.474960876369344e-07,0.005449368354135336,3.351096713285922
3.57496087636936e-07,0.007119340522528024,3.3399346218524
3.674960876369376e-07,0.006785346088849456,3.362258804719451
3.774960876369392e-07,0.006785346088849456,3.369700199008468
3.874960876369408e-07,0.00611735722149232,3.358538107574955
3.974960876369356e-07,0.00611735722149232,3.384582987586502
4.074960876369372e-07,0.005115373920456617,3.347376016141417
4.174960876369388e-07,0.00778732938988516,3.384582987586502
4.274960876369404e-07,0.006451351655170888,3.351096713285936
4.374960876369353e-07,0.006451351655170888,3.373420896152966
4.474960876369369e-07,0.007453334956206592,3.380862290441993
4.574960876369384e-07,0.007119340522528024,3.3399346218524
4.6749608763694e-07,0.006785346088850216,3.377141593297473
4.774960876369349e-07,0.008455318257241535,3.351096713285938
4.874960876369365e-07,0.007119340522528024,3.377141593297485
4.974960876369381e-07,0.005783362787813752,3.384582987586502
5.074960876369397e-07,0.00611735722149232,3.358538107574943
5.174960876369345e-07,0.008121323823562817,3.388303684730997
5.274960876369361e-07,0.007119340522528024,3.358538107574943
5.374960876369377e-07,0.00778732938988516,3.377141593297485
5.474960876369393e-07,0.006785346088849456,3.36597950186396
5.574960876369409e-07,0.00812132382356388,3.365979501863968
5.674960876369357e-07,0.008455318257242295,3.384582987586502
5.774960876369373e-07,0.008121323823563727,3.373420896152977
5.874960876369389e-07,0.008121323823563727,3.377141593297485
5.974960876369405e-07,0.008121323823564031,3.380862290441991
6.074960876369353e-07,0.008789312690920863,3.377141593297485
6.174960876369369e-07,0.008455318257242295,3.380862290441993
6.274960876369385e-07,0.00778732938988516,3.369700199008468
6.374960876369401e-07,0.00711934052252848,3.365979501863976
6.474960876369349e-07,0.008121323823563271,3.403186473309027
6.574960876369365e-07,0.006451351655170888,3.369700199008468
6.674960876369381e-07,0.008121323823563727,3.38830368473101
6.774960876369397e-07,0.009791295991956567,3.392024381875518
6.874960876369346e-07,0.00778732938988607,3.384582987586505
6.974960876369362e-07,0.006451351655170888,3.399465776164535
7.074960876369377e-07,0.008789312690920863,3.36597950186396
7.174960876369393e-07,0.009457301558278,3.41434856474257
7.274960876369409e-07,0.008455318257242902,3.3845829875865
7.374960876369358e-07,0.009791295991956567,3.380862290441993
7.474960876369374e-07,0.006451351655170888,3.38830368473101
7.57496087636939e-07,0.008121323823563727,3.36597950186396
7.674960876369406e-07,0.01045928485931249,3.410627867598042
7.774960876369354e-07,0.00778732938988516,3.369700199008468
7.87496087636937e-07,0.008121323823563727,3.377141593297485
7.974960876369386e-07,0.007453334956206592,3.395745079020027
8.074960876369402e-07,0.009123307124599279,3.362258804719466
8.17496087636935e-07,0.008789312690921015,3.395745079020012
8.274960876369366e-07,0.007453334956206592,3.369700199008468
8.374960876369382e-07,0.007453334956206592,3.373420896152977
8.474960876369398e-07,0.008455318257242295,3.399465776164535
8.574960876369346e-07,0.00878931269092071,3.347376016141441
8.674960876369362e-07,0.009457301558278,3.399465776164535
8.774960876369378e-07,0.00778732938988516,3.36597950186396
8.874960876369394e-07,0.008121323823563727,3.380862290441993
8.974960876369342e-07,0.00711934052252848,3.380862290441993
9.074960876369358e-07,0.008455318257242295,3.358538107574943
9.174960876369374e-07,0.008789312690920863,3.377141593297485
9.27496087636939e-07,0.00611735722149232,3.373420896152977
9.374960876369406e-07,0.007787329389884704,3.373420896152985
9.474960876369355e-07,0.006785346088849456,3.392024381875518
9.574960876369371e-07,0.007119340522528024,3.373420896152977
9.674960876369386e-07,0.007453334956206592,3.38830368473101
9.774960876369402e-07,0.008455318257241839,3.384582987586502
9.874960876369351e-07,0.007453334956207047,3.384582987586502
9.974960876369367e-07,0.007453334956206592,3.392024381875518
1.007496087636938e-06,0.009123307124599432,3.358538107574943
1.01749608763694e-06,0.00878931269092071,3.395745079020021
1.027496087636935e-06,0.008455318257242448,3.380862290442
1.037496087636936e-06,0.006785346088849456,3.380862290441993
1.047496087636938e-06,0.009123307124599432,3.392024381875518
1.057496087636939e-06,0.009457301558278,3.369700199008468
1.067496087636934e-06,0.009791295991956415,3.384582987586495
1.077496087636936e-06,0.008121323823563727,3.373420896152977
1.087496087636937e-06,0.008789312690920863,3.38830368473101
1.097496087636939e-06,0.007453334956206592,3.384582987586502
1.107496087636941e-06,0.008121323823564487,3.369700199008483
1.117496087636936e-06,0.009791295991956567,3.403186473309044
1.127496087636937e-06,0.00778732938988516,3.377141593297485
1.137496087636939e-06,0.008121323823563727,3.384582987586502
1.14749608763694e-06,0.009123307124599279,3.392024381875506
1.157496087636935e-06,0.008789312690921015,3.365979501863972
1.167496087636937e-06,0.009791295991956567,3.406907170453553
1.177496087636938e-06,0.008121323823563727,3.38830368473101
1.18749608763694e-06,0.008789312690920863,3.37342089615299
1.197496087636935e-06,0.008789312690920863,3.40318647330903
1.207496087636936e-06,0.0104592848593137,3.362258804719451
1.217496087636938e-06,0.009791295991956567,3.406907170453553
1.22749608763694e-06,0.01179526259402797,3.392024381875518
1.237496087636934e-06,0.00878931269092223,3.377141593297492
1.247496087636936e-06,0.009457301558278,3.373420896152977
1.257496087636938e-06,0.008789312690920863,3.358538107574943
1.267496087636939e-06,0.01146126816034941,3.373420896152977
1.277496087636941e-06,0.008121323823564487,3.384582987586493
1.287496087636936e-06,0.009791295991956567,3.36597950186396
1.297496087636937e-06,0.008789312690920863,3.406907170453553
1.307496087636939e-06,0.008455318257242295,3.3399346218524
1.31749608763694e-06,0.01079327929299075,3.388303684730998
1.327496087636935e-06,0.007453334956208111,3.362258804719463
1.337496087636937e-06,0.008455318257242295,3.373420896152977
1.347496087636938e-06,0.009791295991956567,3.395745079020027
1.35749608763694e-06,0.009123307124599888,3.354817410430453
1.367496087636935e-06,0.01012529042563468,3.395745079020009
1.377496087636936e-06,0.0104592848593137,3.369700199008468
1.387496087636938e-06,0.008455318257242295,3.38830368473101
1.39749608763694e-06,0.008455318257242295,3.395745079020027
1.407496087636934e-06,0.01012529042563438,3.354817410430453
1.417496087636936e-06,0.009791295991956567,3.38830368473101
1.427496087636938e-06,0.0104592848593137,3.358538107574943
1.437496087636939e-06,0.007453334956206592,3.362258804719451
1.447496087636941e-06,0.00878931269092147,3.377141593297466
1.457496087636936e-06,0.01012529042563514,3.336213924707892
1.467496087636937e-06,0.01112727372667084,3.38830368473101
1.477496087636939e-06,0.008121323823563727,3.36597950186396
1.48749608763694e-06,0.01012529042563438,3.362258804719463
1.497496087636935e-06,0.008455318257243055,3.388303684730998
1.507496087636937e-06,0.009791295991956567,3.354817410430434
1.517496087636938e-06,0.008455318257242295,3.392024381875518
1.52749608763694e-06,0.009123307124599279,3.362258804719451
1.537496087636935e-06,0.008789312690921015,3.362258804719451
1.547496087636936e-06,0.009791295991956567,3.369700199008468
1.557496087636938e-06,0.009791295991956567,3.362258804719451
1.56749608763694e-06,0.01212925702770654,3.395745079020027
1.577496087636935e-06,0.009457301558279216,3.380862290442
1.587496087636936e-06,0.009791295991956567,3.373420896152977
1.597496087636938e-06,0.009457301558278,3.392024381875518
1.607496087636939e-06,0.009123307124599432,3.354817410430434
1.617496087636941e-06,0.009791295991956415,3.369700199008473
1.627496087636936e-06,0.009457301558278,3.380862290441993
1.637496087636937e-06,0.009791295991956567,3.362258804719451
1.647496087636939e-06,0.008455318257242295,3.392024381875518
1.657496087636941e-06,0.01079327929299151,3.343655318996929
1.667496087636935e-06,0.009123307124599432,3.38830368473101
1.677496087636937e-06,0.009457301558278,3.358538107574943
1.687496087636939e-06,0.009791295991956567,3.351096713285926
1.69749608763694e-06,0.007119340522529088,3.384582987586485
1.707496087636935e-06,0.009457301558276936,3.347376016141434
1.717496087636937e-06,0.009457301558278,3.380862290441993
1.727496087636938e-06,0.008121323823563727,3.351096713285926
1.73749608763694e-06,0.008789312690920863,3.358538107574943
1.747496087636935e-06,0.008121323823564031,3.388303684730997
1.757496087636936e-06,0.008455318257242295,3.369700199008468
1.767496087636938e-06,0.009791295991956567,3.392024381875518
1.777496087636939e-06,0.01012529042563514,3.362258804719451
1.787496087636934e-06,0.00878931269092147,3.373420896152972
1.797496087636936e-06,0.009123307124599432,3.392024381875518
1.807496087636937e-06,0.01112727372667084,3.358538107574943
1.817496087636939e-06,0.0104592848593137,3.38830368473101
1.827496087636941e-06,0.009457301558277544,3.358538107574941
1.837496087636935e-06,0.008455318257242295,3.354817410430434
1.847496087636937e-06,0.008121323823563727,3.392024381875518
1.857496087636939e-06,0.008455318257242295,3.351096713285926
1.86749608763694e-06,0.01079327929299166,3.380862290441986
1.877496087636935e-06,0.009457301558278607,3.365979501863966
1.887496087636937e-06,0.009791295991956567,3.369700199008468
1.897496087636938e-06,0.009457301558278,3.377141593297485
1.90749608763694e-06,0.009123307124599432,3.343655318996909
1.917496087636935e-06,0.008789312690921015,3.392024381875496
1.927496087636936e-06,0.009457301558278,3.358538107574943
1.937496087636938e-06,0.009123307124599432,3.369700199008468
1.947496087636939e-06,0.008455318257242295,3.36597950186396
1.957496087636934e-06,0.01012529042563438,3.369700199008466
1.967496087636936e-06,0.009791295991956567,3.392024381875518
1.977496087636937e-06,0.009123307124599432,3.362258804719451
1.987496087636939e-06,0.00778732938988516,3.384582987586502
1.997496087636941e-06,0.01012529042563453,3.380862290441985
2.007496087636935e-06,0.008789312690920863,3.362258804719451
2.017496087636937e-06,0.0104592848593137,3.392024381875518
2.027496087636939e-06,0.008121323823563727,3.362258804719451
2.03749608763694e-06,0.007787329389885008,3.373420896152981
2.047496087636935e-06,0.007453334956206744,3.384582987586497
2.057496087636937e-06,0.008121323823563727,3.373420896152977
2.067496087636938e-06,0.008789312690920863,3.392024381875518
2.07749608763694e-06,0.007453334956207047,3.384582987586493
2.087496087636935e-06,0.008455318257241839,3.365979501863968
2.097496087636936e-06,0.00778732938988516,3.38830368473101
2.107496087636938e-06,0.004781379486778049,3.369700199008468
2.117496087636939e-06,0.006451351655170888,3.384582987586502
2.127496087636934e-06,0.007453334956206137,3.362258804719461
2.137496087636936e-06,0.006785346088849456,3.38830368473101
2.147496087636938e-06,0.007453334956206592,3.380862290441993
2.157496087636939e-06,0.00778732938988516,3.36597950186396
2.167496087636941e-06,0.0077873293898844,3.395745079020019
2.177496087636936e-06,0.00611735722149232,3.377141593297485
2.187496087636937e-06,0.006451351655170888,3.380862290441993
2.197496087636939e-06,0.006451351655170888,3.41434856474257
2.20749608763694e-06,0.007787329389884856,3.347376016141439
