traces_bank_current_trigger/sampling_freq_100MHz/PUSH/push_8.csv

#Digilent WaveForms Oscilloscope Acquisition
#Device Name: Discovery2
#Serial Number: SN:210321B3D813
#Date Time: 2023-07-18 13:55:20.559
#Sample rate: 1e+08Hz
#Samples: 8192
#Trigger: Source: Channel 2 Type: Edge Condition: Rising Level: 2 V Hyst.: Auto HoldOff: 0 s
#Channel 1: Range: 10 mV/div Offset: 0 V Attenuation: 1 X Sample Mode: Average
#Channel 2: Range: 5 V/div Offset: 0 V Attenuation: 1 X Sample Mode: Average

Time (s),Channel 1 (V),Channel 2 (V)
-9.556370192307677e-07,0.00778732938988516,0.00991067751733847
-9.456370192307661e-07,0.008455318257242295,0.02479346609537227
-9.356370192307645e-07,0.00812132382356312,0.03223486038437393
-9.256370192307697e-07,0.006785346088850064,-0.001251413916171645
-9.156370192307681e-07,0.006451351655170888,0.06572113468496521
-9.056370192307665e-07,0.006451351655170888,0.006189980372830022
-8.956370192307649e-07,0.00778732938988516,0.03967625467340606
-8.856370192307701e-07,0.007453334956206744,0.02851416323988579
-8.756370192307685e-07,0.00778732938988516,0.02479346609537227
-8.656370192307669e-07,0.008121323823563727,0.03595555752889761
-8.556370192307653e-07,0.007119340522528024,-0.004972111060695325
-8.456370192307637e-07,0.008455318257242295,0.02107276895086889
-8.356370192307689e-07,0.008455318257242295,0.03223486038438916
-8.256370192307673e-07,0.006451351655170888,-0.01241350534971222
-8.156370192307657e-07,0.008121323823563727,0.04339695181791451
-8.056370192307641e-07,0.00778732938988516,0.002469283228323264
-7.956370192307692e-07,0.00778732938988516,0.00618998037282833
-7.856370192307676e-07,0.008121323823563727,0.02851416323988071
-7.75637019230766e-07,0.007453334956206592,-0.008692808205203774
-7.656370192307644e-07,0.00711934052252848,0.05455904325141447
-7.556370192307696e-07,0.008121323823563271,-0.001251413916161494
-7.45637019230768e-07,0.007453334956206592,0.02479346609537227
-7.356370192307664e-07,0.008789312690920863,0.04339695181791451
-7.256370192307648e-07,0.007119340522528024,-0.004972111060695325
-7.1563701923077e-07,0.006451351655171192,0.05083834610690603
-7.056370192307684e-07,0.00778732938988516,-0.008692808205203774
-6.956370192307668e-07,0.008789312690920863,0.01735207180635537
-6.856370192307652e-07,0.006451351655170888,0.03595555752889761
-6.756370192307636e-07,0.006451351655170888,-0.004972111060671637
-6.656370192307688e-07,0.006451351655170888,0.04711764896242296
-6.556370192307672e-07,0.00611735722149232,-0.001251413916186876
-6.456370192307656e-07,0.008121323823563727,0.02107276895086382
-6.35637019230764e-07,0.006117357221493232,0.02107276895085197
-6.256370192307692e-07,0.008121323823562817,-0.00497211106068348
-6.156370192307676e-07,0.00611735722149232,0.06572113468496521
-6.05637019230766e-07,0.007453334956206592,-0.004972111060695325
-5.956370192307644e-07,0.007119340522527873,0.009910677517345238
-5.856370192307696e-07,0.006785346088849608,0.0247934660953655
-5.75637019230768e-07,0.007453334956206592,-0.001251413916186876
-5.656370192307664e-07,0.00778732938988516,0.02851416323988071
-5.556370192307648e-07,0.006451351655170888,-0.001251413916186876
-5.456370192307699e-07,0.008121323823562968,0.03223486038437393
-5.356370192307683e-07,0.00778732938988516,0.03223486038438916
-5.256370192307667e-07,0.00778732938988516,0.00991067751733847
-5.156370192307651e-07,0.006785346088849456,0.02107276895086382
-5.056370192307635e-07,0.007453334956207352,0.01363137466184523
-4.956370192307687e-07,0.009123307124599432,0.00991067751733847
-4.856370192307671e-07,0.007453334956206592,0.03595555752889761
-4.756370192307655e-07,0.007453334956206592,-0.02729629392774602
-4.656370192307639e-07,0.007453334956206592,0.0210727689508469
-4.556370192307691e-07,0.007453334956206592,-0.01613420249422067
-4.456370192307675e-07,0.007453334956206592,0.01735207180635537
-4.356370192307659e-07,0.00611735722149232,0.02107276895086382
-4.256370192307643e-07,0.006117357221492776,-0.001251413916171648
-4.156370192307695e-07,0.007119340522527569,0.03223486038437393
-4.056370192307679e-07,0.007119340522528024,-0.01985489963872912
-3.956370192307663e-07,0.00778732938988516,0.006189980372830022
-3.856370192307647e-07,0.006451351655170888,0.00991067751733847
-3.756370192307699e-07,0.007453334956206137,-0.01613420249420883
-3.656370192307683e-07,0.008121323823563727,0.05083834610693141
-3.556370192307667e-07,0.007453334956206592,-0.01241350534971222
-3.456370192307651e-07,0.008121323823563727,-0.001251413916186876
-3.356370192307635e-07,0.007787329389885615,0.0210727689508469
-3.256370192307687e-07,0.008789312690920863,-0.01613420249422067
-3.156370192307671e-07,0.008789312690920863,0.02851416323988071
-3.056370192307655e-07,0.006451351655170888,-0.004972111060695325
-2.956370192307639e-07,0.007787329389884856,0.01735207180635875
-2.85637019230769e-07,0.007119340522528024,0.02479346609537227
-2.756370192307674e-07,0.006785346088849456,0.002469283228321573
-2.656370192307658e-07,0.008455318257242295,0.03223486038438916
-2.556370192307642e-07,0.007787329389884856,-0.008692808205197007
-2.456370192307694e-07,0.007119340522528328,0.006189980372823254
-2.356370192307678e-07,0.007119340522528024,0.02479346609537227
-2.256370192307662e-07,0.008121323823563727,-0.008692808205203774
-2.156370192307646e-07,0.00778732938988516,0.04711764896242296
-2.056370192307698e-07,0.006785346088849911,-0.01241350534968515
-1.956370192307682e-07,0.007453334956206592,0.00991067751733847
-1.856370192307666e-07,0.00611735722149232,0.03223486038438916
-1.75637019230765e-07,0.00778732938988516,0.002469283228321573
-1.656370192307702e-07,0.008121323823563575,0.03967625467338914
-1.556370192307686e-07,0.006451351655170888,0.002469283228321573
-1.45637019230767e-07,0.009123307124599432,0.03223486038438916
-1.356370192307654e-07,0.006451351655170888,0.02479346609537227
-1.256370192307638e-07,0.007119340522528024,-0.001251413916166573
-1.15637019230769e-07,0.007119340522528024,0.04339695181791451
-1.056370192307674e-07,0.006451351655170888,0.002469283228321573
-9.563701923076578e-08,0.006785346088849456,0.03223486038438916
-8.563701923076418e-08,0.008121323823563424,0.01735207180634352
-7.563701923076936e-08,0.007453334956206896,-0.008692808205191929
-6.563701923076776e-08,0.005783362787813752,0.04339695181791451
-5.563701923076616e-08,0.00611735722149232,-0.01241350534971222
-4.563701923076456e-08,0.005783362787814056,0.01735207180635537
-3.563701923076974e-08,0.006451351655170585,0.01735207180635537
-2.563701923076814e-08,0.006451351655170888,0.006189980372830022
-1.563701923076654e-08,0.00611735722149232,0.06572113468496521
-5.637019230764944e-09,0.001107440716313802,0.2517559919103877
4.362980769229878e-09,-0.006908425691968183,3.347376016140009
1.436298076923148e-08,0.01179526259402797,3.17250325034952
2.436298076923308e-08,0.006785346088849456,3.254358587528706
3.436298076923467e-08,0.01647118466552792,3.272962073251248
4.436298076923627e-08,0.008121323823564184,3.299006953262826
5.436298076923109e-08,0.009123307124599432,3.3399346218524
6.436298076923269e-08,0.004113390619420913,3.41434856474257
7.436298076923429e-08,0.00611735722149232,3.332493227563384
8.436298076923589e-08,-0.0005625314520775186,3.432952050465061
9.436298076923071e-08,0.002777412884705122,3.321331136129909
1.043629807692323e-07,0.002109424017349506,3.362258804719451
1.143629807692339e-07,0.00611735722149232,3.302727650407316
1.243629807692355e-07,0.005449368354136855,3.299006953262824
1.343629807692303e-07,0.009123307124597762,3.336213924707875
1.443629807692319e-07,0.00611735722149232,3.31761043898535
1.543629807692335e-07,0.01079327929299227,3.336213924707892
1.643629807692351e-07,0.005449368354135184,3.395745079020027
1.743629807692299e-07,0.006451351655170433,3.339934621852426
1.843629807692315e-07,0.006451351655170888,3.418069261887078
1.943629807692331e-07,0.002777412884706641,3.336213924707892
2.043629807692347e-07,0.003111407318385209,3.395745079020027
2.143629807692363e-07,0.005783362787813145,3.354817410430421
2.243629807692312e-07,0.004447385053099481,3.325051833274367
2.343629807692328e-07,0.006785346088849456,3.351096713285926
2.443629807692344e-07,0.007453334956206592,3.313889741840841
2.54362980769236e-07,0.007119340522528024,3.347376016141431
2.643629807692308e-07,0.007119340522528024,3.377141593297472
2.743629807692324e-07,0.006785346088849456,3.3399346218524
2.84362980769234e-07,0.00611735722149232,3.395745079020027
2.943629807692356e-07,0.003779396185742497,3.365979501863972
3.043629807692304e-07,0.004113390619420761,3.392024381875506
3.14362980769232e-07,0.004781379486778049,3.358538107574943
3.243629807692336e-07,0.004781379486778049,3.3399346218524
3.343629807692352e-07,0.005449368354135184,3.384582987586502
3.4436298076923e-07,0.005449368354135184,3.325051833274394
3.543629807692316e-07,0.006451351655170888,3.351096713285926
3.643629807692332e-07,0.007119340522528024,3.36597950186396
3.743629807692348e-07,0.007119340522528024,3.332493227563384
3.843629807692364e-07,0.006117357221491713,3.392024381875496
3.943629807692312e-07,0.004781379486778049,3.343655318996909
4.043629807692328e-07,0.005783362787813752,3.384582987586502
4.143629807692344e-07,0.004781379486778049,3.373420896152977
4.24362980769236e-07,0.006451351655171495,3.354817410430448
4.343629807692308e-07,0.007787329389884553,3.384582987586489
4.443629807692324e-07,0.005115373920456617,3.354817410430434
4.54362980769234e-07,0.008789312690920863,3.354817410430434
4.643629807692356e-07,0.007119340522528176,3.384582987586481
4.743629807692305e-07,0.00745333495620644,3.339934621852421
4.843629807692321e-07,0.00611735722149232,3.392024381875518
4.943629807692337e-07,0.008121323823563727,3.332493227563384
5.043629807692353e-07,0.006451351655170888,3.38830368473101
5.143629807692301e-07,0.006785346088849304,3.395745079020024
5.243629807692317e-07,0.00778732938988516,3.369700199008468
5.343629807692333e-07,0.00611735722149232,3.395745079020027
5.443629807692349e-07,0.005783362787813752,3.351096713285926
5.543629807692365e-07,0.007453334956207047,3.369700199008476
5.643629807692313e-07,0.008455318257242295,3.38830368473101
5.743629807692329e-07,0.00778732938988516,3.347376016141417
5.843629807692345e-07,0.009123307124599432,3.403186473309044
5.943629807692361e-07,0.007453334956207504,3.358538107574951
6.043629807692309e-07,0.009457301558278,3.377141593297485
6.143629807692325e-07,0.007453334956206592,3.395745079020027
6.243629807692341e-07,0.007119340522528024,3.354817410430434
6.343629807692357e-07,0.007787329389884248,3.403186473309017
6.443629807692305e-07,0.005783362787814663,3.343655318996936
6.543629807692321e-07,0.006785346088849456,3.377141593297485
6.643629807692337e-07,0.007119340522528024,3.373420896152977
6.743629807692353e-07,0.007119340522528024,3.354817410430434
6.843629807692301e-07,0.008455318257241688,3.395745079020009
6.943629807692317e-07,0.005449368354135184,3.343655318996909
7.043629807692333e-07,0.00611735722149232,3.384582987586502
7.143629807692349e-07,0.006451351655170888,3.395745079020027
7.243629807692365e-07,0.00611735722149308,3.351096713285953
7.343629807692314e-07,0.00778732938988516,3.410627867598061
7.44362980769233e-07,0.003779396185742345,3.343655318996909
7.543629807692346e-07,0.007119340522528024,3.369700199008468
7.643629807692362e-07,0.006785346088849,3.403186473309027
7.74362980769231e-07,0.005783362787813752,3.36597950186396
7.843629807692326e-07,0.005449368354135184,3.410627867598061
7.943629807692342e-07,0.006451351655170888,3.358538107574943
8.043629807692358e-07,0.008789312690919496,3.38830368473101
8.143629807692306e-07,0.005783362787815119,3.38830368473101
8.243629807692322e-07,0.00778732938988516,3.36597950186396
8.343629807692338e-07,0.006451351655170888,3.432952050465111
8.443629807692354e-07,0.004781379486778049,3.347376016141417
8.543629807692302e-07,0.006785346088848544,3.392024381875498
8.643629807692318e-07,0.006451351655170888,3.399465776164535
8.743629807692334e-07,0.006785346088849456,3.351096713285926
8.84362980769235e-07,0.006451351655170888,3.418069261887078
8.943629807692298e-07,0.006117357221492472,3.351096713285956
9.043629807692314e-07,0.00778732938988516,3.395745079020027
9.14362980769233e-07,0.007119340522528024,3.38830368473101
9.243629807692346e-07,0.00611735722149232,3.369700199008468
9.343629807692362e-07,0.007453334956205529,3.403186473309035
9.44362980769231e-07,0.005115373920456617,3.384582987586502
9.543629807692326e-07,0.00778732938988516,3.395745079020027
9.643629807692342e-07,0.007119340522528024,3.392024381875518
9.743629807692358e-07,0.00711934052252848,3.358538107574966
9.843629807692307e-07,0.008121323823563271,3.410627867598037
9.943629807692323e-07,0.00778732938988516,3.358538107574943
1.004362980769234e-06,0.008121323823563727,3.392024381875518
1.014362980769235e-06,0.008789312690920256,3.377141593297478
1.02436298076923e-06,0.007453334956207199,3.362258804719458
1.034362980769232e-06,0.007119340522528024,3.429231353320603
1.044362980769233e-06,0.006785346088849456,3.373420896152977
1.054362980769235e-06,0.007453334956206592,3.384582987586502
1.06436298076923e-06,0.007453334956206592,3.392024381875515
1.074362980769231e-06,0.006785346088849456,3.358538107574943
1.084362980769233e-06,0.006785346088849456,3.403186473309044
1.094362980769235e-06,0.004447385053099481,3.362258804719451
1.104362980769236e-06,0.007787329389884553,3.392024381875514
1.114362980769231e-06,0.006451351655170888,3.380862290441993
1.124362980769233e-06,0.007119340522528024,3.362258804719451
1.134362980769234e-06,0.008455318257242295,3.41434856474257
1.144362980769236e-06,0.006451351655172407,3.373420896152985
1.154362980769231e-06,0.009791295991955048,3.39202438187551
1.164362980769232e-06,0.007119340522528024,3.399465776164535
1.174362980769234e-06,0.008121323823563727,3.358538107574943
1.184362980769236e-06,0.007453334956206137,3.418069261887053
1.19436298076923e-06,0.006451351655171344,3.362258804719477
1.204362980769232e-06,0.008121323823563727,3.377141593297485
1.214362980769234e-06,0.007453334956206592,3.410627867598061
1.224362980769235e-06,0.006785346088849456,3.369700199008468
1.23436298076923e-06,0.007119340522527873,3.406907170453536
1.244362980769232e-06,0.008455318257242295,3.343655318996909
1.254362980769233e-06,0.00778732938988516,3.380862290441993
1.264362980769235e-06,0.008789312690920863,3.399465776164535
1.274362980769236e-06,0.007453334956207047,3.354817410430461
1.284362980769231e-06,0.008455318257242295,3.41434856474257
1.294362980769233e-06,0.007453334956206592,3.373420896152977
1.304362980769234e-06,0.009457301558278,3.392024381875518
1.314362980769236e-06,0.00812132382356312,3.406907170453537
1.324362980769231e-06,0.006785346088850064,3.373420896152992
1.334362980769232e-06,0.007119340522528024,3.418069261887078
1.344362980769234e-06,0.008121323823563727,3.369700199008468
1.354362980769236e-06,0.007787329389885615,3.388303684731007
1.36436298076923e-06,0.008789312690920406,3.380862290441997
1.374362980769232e-06,0.009123307124599432,3.369700199008468
1.384362980769234e-06,0.008455318257242295,3.403186473309044
1.394362980769235e-06,0.006785346088849456,3.36597950186396
1.40436298076923e-06,0.008455318257241535,3.384582987586493
1.414362980769232e-06,0.008789312690920863,3.38830368473101
1.424362980769233e-06,0.00778732938988516,3.362258804719451
1.434362980769235e-06,0.009123307124599432,3.399465776164535
1.444362980769236e-06,0.008455318257242751,3.347376016141434
1.454362980769231e-06,0.009457301558278,3.384582987586502
1.464362980769233e-06,0.008789312690920863,3.373420896152977
1.474362980769234e-06,0.00778732938988516,3.362258804719451
1.484362980769236e-06,0.00945730155827648,3.39946577616452
1.494362980769231e-06,0.006117357221493839,3.365979501863975
1.504362980769232e-06,0.007453334956206592,3.406907170453553
1.514362980769234e-06,0.008455318257242295,3.380862290441993
1.524362980769236e-06,0.007453334956207047,3.362258804719472
1.53436298076923e-06,0.008455318257241839,3.406907170453532
1.544362980769232e-06,0.008455318257242295,3.351096713285926
1.554362980769234e-06,0.009457301558278,3.384582987586502
1.564362980769235e-06,0.008789312690920863,3.395745079020027
1.57436298076923e-06,0.009123307124599279,3.358538107574959
1.584362980769232e-06,0.008789312690920863,3.406907170453553
1.594362980769233e-06,0.007453334956206592,3.373420896152977
1.604362980769235e-06,0.008789312690920863,3.384582987586502
1.614362980769236e-06,0.008789312690920863,3.395745079020017
1.624362980769231e-06,0.008789312690920863,3.373420896152977
1.634362980769233e-06,0.008789312690920863,3.399465776164535
1.644362980769235e-06,0.008121323823563727,3.36597950186396
1.654362980769236e-06,0.008789312690921015,3.380862290442
1.664362980769231e-06,0.009123307124599432,3.395745079020027
1.674362980769233e-06,0.009457301558278,3.362258804719451
1.684362980769234e-06,0.009457301558278,3.410627867598061
1.694362980769236e-06,0.007453334956206896,3.380862290442002
1.704362980769231e-06,0.008121323823563424,3.399465776164527
1.714362980769232e-06,0.00778732938988516,3.406907170453553
1.724362980769234e-06,0.008455318257242295,3.369700199008468
1.734362980769235e-06,0.006785346088849456,3.403186473309044
1.74436298076923e-06,0.006785346088849456,3.380862290442003
1.754362980769232e-06,0.008789312690920863,3.384582987586502
1.764362980769233e-06,0.009123307124599432,3.403186473309044
1.774362980769235e-06,0.006785346088849456,3.373420896152977
1.78436298076923e-06,0.008789312690919952,3.406907170453537
1.794362980769231e-06,0.008121323823563727,3.373420896152977
1.804362980769233e-06,0.008789312690920863,3.406907170453553
1.814362980769235e-06,0.009791295991956567,3.392024381875518
1.824362980769236e-06,0.009123307124599129,3.380862290442017
1.834362980769231e-06,0.008455318257242295,3.432952050465111
1.844362980769233e-06,0.007119340522528024,3.373420896152977
1.854362980769234e-06,0.007453334956206592,3.399465776164535
1.864362980769236e-06,0.009457301558277393,3.414348564742551
1.874362980769231e-06,0.008121323823564335,3.373420896152995
1.884362980769232e-06,0.007453334956206592,3.425510656176095
1.894362980769234e-06,0.006451351655170888,3.373420896152977
1.904362980769235e-06,0.008789312690920863,3.395745079020027
1.91436298076923e-06,0.007787329389885615,3.414348564742561
1.924362980769232e-06,0.009457301558278,3.373420896152977
1.934362980769233e-06,0.008455318257242295,3.41434856474257
1.944362980769235e-06,0.007453334956206592,3.373420896152977
1.95436298076923e-06,0.008789312690920256,3.395745079020017
1.964362980769231e-06,0.009791295991956567,3.421789959031586
1.974362980769233e-06,0.009123307124599432,3.384582987586502
1.984362980769235e-06,0.009457301558278,3.410627867598061
1.994362980769236e-06,0.008121323823564942,3.36970019900848
2.004362980769231e-06,0.01079327929299227,3.395745079020027
2.014362980769233e-06,0.009457301558278,3.399465776164535
2.024362980769234e-06,0.008789312690920863,3.36597950186396
2.034362980769236e-06,0.008121323823564031,3.429231353320571
2.044362980769231e-06,0.008789312690920559,3.358538107574975
2.054362980769232e-06,0.008455318257242295,3.395745079020027
2.064362980769234e-06,0.008789312690920863,3.399465776164535
2.074362980769235e-06,0.009123307124599736,3.369700199008486
2.08436298076923e-06,0.009791295991956264,3.410627867598042
2.094362980769232e-06,0.007119340522528024,3.36597950186396
2.104362980769233e-06,0.00778732938988516,3.395745079020027
2.114362980769235e-06,0.009123307124599432,3.38830368473101
2.12436298076923e-06,0.008121323823564184,3.362258804719463
2.134362980769232e-06,0.009123307124599432,3.41434856474257
2.144362980769233e-06,0.00611735722149232,3.362258804719451
2.154362980769235e-06,0.009123307124599432,3.384582987586502
2.164362980769236e-06,0.01012529042563483,3.399465776164513
2.174362980769231e-06,0.009457301558278,3.351096713285926
2.184362980769233e-06,0.009457301558278,3.410627867598061
2.194362980769234e-06,0.009123307124599432,3.369700199008468
2.204362980769236e-06,0.009123307124600039,3.384582987586509
