traces_bank_current_trigger/sampling_freq_100MHz/MOVi/mov_6.csv

#Digilent WaveForms Oscilloscope Acquisition
#Device Name: Discovery2
#Serial Number: SN:210321B3D813
#Date Time: 2023-07-27 14:15:52.637
#Sample rate: 5e+07Hz
#Samples: 8192
#Trigger: Source: Channel 2 Type: Edge Condition: Rising Level: 2 V Hyst.: Auto HoldOff: 0 s
#Channel 1: Range: 20 mV/div Offset: 0 V Attenuation: 1 X Sample Mode: Average
#Channel 2: Range: 5 V/div Offset: 0 V Attenuation: 1 X Sample Mode: Average

Time (s),Channel 1 (V),Channel 2 (V)
8.090753323485974e-06,0.005115373920456617,3.384582987586502
8.110753323485977e-06,0.006451351655170888,3.380862290441993
8.13075332348598e-06,0.008121323823562664,3.38086229044199
8.15075332348597e-06,0.005783362787814815,3.37342089615298
8.170753323485973e-06,0.007119340522528024,3.380862290441993
8.190753323485976e-06,0.005783362787813752,3.384582987586502
8.21075332348598e-06,0.007119340522528024,3.373420896152977
8.230753323485969e-06,0.005449368354135944,3.388303684731004
8.250753323485972e-06,0.006451351655170888,3.377141593297485
8.270753323485976e-06,0.006785346088849456,3.384582987586502
8.290753323485979e-06,0.006451351655170888,3.384582987586502
8.310753323485982e-06,0.007119340522528176,3.377141593297483
8.330753323485972e-06,0.007453334956206592,3.373420896152977
8.350753323485975e-06,0.005115373920456617,3.380862290441993
8.370753323485978e-06,0.00778732938988516,3.373420896152977
8.390753323485981e-06,0.006451351655171495,3.377141593297492
8.410753323485971e-06,0.007787329389884553,3.392024381875512
8.430753323485974e-06,0.007453334956206592,3.384582987586502
8.450753323485977e-06,0.004781379486778049,3.373420896152977
8.470753323485981e-06,0.007453334956205529,3.380862290441993
8.49075332348597e-06,0.00511537392045768,3.380862290441993
8.510753323485973e-06,0.005449368354135184,3.373420896152977
8.530753323485977e-06,0.00611735722149232,3.380862290441993
8.55075332348598e-06,0.005115373920456617,3.380862290441993
8.570753323485969e-06,0.007119340522527114,3.377141593297487
8.590753323485973e-06,0.005449368354135184,3.38830368473101
8.610753323485976e-06,0.005783362787813752,3.38830368473101
8.630753323485979e-06,0.005115373920456617,3.380862290441993
8.650753323485982e-06,0.004447385053100545,3.37714159329749
8.670753323485972e-06,0.006785346088849456,3.38830368473101
8.690753323485975e-06,0.005783362787813752,3.380862290441993
8.710753323485978e-06,0.00611735722149232,3.377141593297485
8.730753323485981e-06,0.005783362787813448,3.388303684731007
8.750753323485971e-06,0.00511537392045692,3.380862290441997
8.770753323485974e-06,0.005783362787813752,3.380862290441993
8.790753323485977e-06,0.004781379486778049,3.384582987586502
8.810753323485981e-06,0.005783362787814207,3.388303684731008
8.83075332348597e-06,0.006785346088849,3.384582987586504
8.850753323485974e-06,0.004781379486778049,3.384582987586502
8.870753323485977e-06,0.005115373920456617,3.380862290441993
8.89075332348598e-06,0.004113390619420913,3.38830368473101
8.91075332348597e-06,0.005449368354134577,3.38830368473101
8.930753323485973e-06,0.005115373920456617,3.380862290441993
8.950753323485976e-06,0.003445401752063777,3.380862290441993
8.970753323485979e-06,0.004781379486778049,3.377141593297485
8.990753323485982e-06,0.003779396185742801,3.377141593297483
9.010753323485972e-06,0.004781379486778049,3.373420896152977
9.030753323485975e-06,0.005115373920456617,3.373420896152977
9.050753323485978e-06,0.002777412884706641,3.369700199008468
9.070753323485982e-06,0.004781379486777594,3.380862290441997
9.090753323485971e-06,0.003779396185742345,3.38830368473101
9.110753323485974e-06,0.003779396185742345,3.384582987586502
9.130753323485978e-06,0.005449368354135184,3.380862290441993
9.150753323485981e-06,0.003111407318386273,3.384582987586504
9.17075332348597e-06,0.005449368354134121,3.388303684731008
9.190753323485974e-06,0.003779396185742345,3.384582987586502
9.210753323485977e-06,0.004781379486778049,3.380862290441993
9.23075332348598e-06,0.005115373920456617,3.36597950186396
9.25075332348597e-06,0.002777412884707705,3.358538107574946
9.270753323485973e-06,0.004113390619420913,3.377141593297485
9.290753323485976e-06,0.004447385053099481,3.369700199008468
9.310753323485979e-06,0.004447385053099481,3.369700199008468
9.330753323485982e-06,0.004113390619420761,3.369700199008459
9.350753323485972e-06,0.003779396185742345,3.351096713285926
9.370753323485975e-06,0.003779396185742345,3.36597950186396
9.390753323485979e-06,0.002777412884706641,3.358538107574943
9.410753323485982e-06,0.004447385053099633,3.347376016141427
9.430753323485971e-06,0.004781379486778049,3.369700199008468
9.450753323485975e-06,0.003445401752063777,3.373420896152977
9.470753323485978e-06,0.005115373920456617,3.369700199008468
9.490753323485981e-06,0.003445401752064385,3.373420896152973
9.510753323485971e-06,0.004781379486777442,3.365979501863963
9.530753323485974e-06,0.004781379486778049,3.373420896152977
9.550753323485977e-06,0.002777412884706641,3.369700199008468
9.57075332348598e-06,0.004447385053099481,3.373420896152977
9.59075332348597e-06,0.003111407318385817,3.365979501863963
9.610753323485973e-06,0.004781379486778049,3.354817410430434
9.630753323485976e-06,0.005449368354135184,3.369700199008468
9.650753323485979e-06,0.004113390619420913,3.373420896152977
9.670753323485969e-06,0.005449368354134577,3.36970019900847
9.690753323485972e-06,0.004447385053099481,3.36597950186396
9.710753323485975e-06,0.005449368354135184,3.373420896152977
9.730753323485979e-06,0.005783362787813752,3.369700199008468
9.750753323485982e-06,0.004113390619421368,3.365979501863961
9.770753323485971e-06,0.005115373920456617,3.369700199008468
9.790753323485975e-06,0.004781379486778049,3.362258804719451
9.810753323485978e-06,0.004781379486778049,3.369700199008468
9.830753323485981e-06,0.005115373920455857,3.362258804719453
9.850753323485971e-06,0.003445401752064537,3.365979501863958
9.870753323485974e-06,0.005783362787813752,3.369700199008468
9.890753323485977e-06,0.004113390619420913,3.36597950186396
9.91075332348598e-06,0.005115373920457224,3.365979501863961
9.93075332348597e-06,0.00645135165517028,3.369700199008466
9.950753323485973e-06,0.003779396185742345,3.380862290441993
9.970753323485976e-06,0.006451351655170888,3.377141593297485
9.99075332348598e-06,0.005449368354135184,3.380862290441993
1.001075332348597e-05,0.005449368354135184,3.369700199008473
1.003075332348597e-05,0.006785346088849456,3.369700199008468
1.005075332348598e-05,0.004447385053099481,3.377141593297485
1.007075332348598e-05,0.006451351655170888,3.373420896152977
1.009075332348598e-05,0.004781379486778504,3.38086229044199
1.011075332348597e-05,0.005783362787813752,3.373420896152977
1.013075332348597e-05,0.007453334956206592,3.369700199008468
1.015075332348598e-05,0.004447385053099481,3.369700199008468
1.017075332348598e-05,0.006785346088849,3.369700199008468
1.019075332348597e-05,0.005783362787814207,3.369700199008468
1.021075332348597e-05,0.006451351655170888,3.377141593297485
1.023075332348598e-05,0.007119340522528024,3.362258804719451
1.025075332348598e-05,0.005783362787814815,3.38086229044199
1.027075332348597e-05,0.008121323823562664,3.37342089615298
1.029075332348597e-05,0.007119340522528024,3.373420896152977
1.031075332348598e-05,0.006785346088849456,3.380862290441993
1.033075332348598e-05,0.008121323823563727,3.373420896152977
1.035075332348597e-05,0.004781379486779568,3.36970019900847
1.037075332348597e-05,0.00778732938988516,3.373420896152977
1.039075332348598e-05,0.006785346088849456,3.369700199008468
1.041075332348598e-05,0.006451351655170888,3.377141593297485
1.043075332348598e-05,0.005783362787813297,3.369700199008473
1.045075332348597e-05,0.004781379486778049,3.380862290441993
1.047075332348597e-05,0.006451351655170888,3.369700199008468
1.049075332348598e-05,0.004781379486778049,3.36597950186396
1.051075332348598e-05,0.005449368354135336,3.373420896152973
1.053075332348597e-05,0.0057833627878136,3.365979501863963
1.055075332348597e-05,0.004113390619420913,3.369700199008468
1.057075332348598e-05,0.005449368354135184,3.380862290441993
1.059075332348598e-05,0.004113390619421368,3.384582987586492
1.061075332348597e-05,0.005115373920456161,3.362258804719461
1.063075332348597e-05,0.005115373920456617,3.369700199008468
1.065075332348598e-05,0.003779396185742345,3.36597950186396
1.067075332348598e-05,0.005115373920456617,3.373420896152977
1.069075332348597e-05,0.004447385053099785,3.365979501863963
1.071075332348597e-05,0.005449368354135184,3.36597950186396
1.073075332348598e-05,0.00611735722149232,3.369700199008468
1.075075332348598e-05,0.003779396185742345,3.369700199008468
1.077075332348598e-05,0.006117357221491865,3.369700199008468
1.079075332348597e-05,0.005115373920456617,3.369700199008468
1.081075332348598e-05,0.005115373920456617,3.36597950186396
1.083075332348598e-05,0.006451351655170888,3.36597950186396
1.085075332348598e-05,0.004781379486779112,3.365979501863958
1.087075332348597e-05,0.007119340522526961,3.362258804719453
1.089075332348597e-05,0.005449368354135184,3.36597950186396
1.091075332348598e-05,0.006451351655170888,3.373420896152977
1.093075332348598e-05,0.007119340522526961,3.36970019900847
1.095075332348597e-05,0.004781379486779112,3.373420896152975
1.097075332348597e-05,0.007119340522528024,3.373420896152977
1.099075332348598e-05,0.005783362787813752,3.36597950186396
1.101075332348598e-05,0.007119340522528024,3.354817410430434
1.103075332348597e-05,0.00745333495620644,3.362258804719448
1.105075332348597e-05,0.005449368354135184,3.36597950186396
1.107075332348598e-05,0.006785346088849456,3.362258804719451
1.109075332348598e-05,0.005783362787813752,3.373420896152977
1.111075332348598e-05,0.006117357221492624,3.369700199008468
1.113075332348597e-05,0.006785346088849456,3.369700199008468
1.115075332348598e-05,0.004447385053099481,3.358538107574943
1.117075332348598e-05,0.006451351655170888,3.362258804719451
1.119075332348598e-05,0.004113390619421673,3.380862290441985
1.121075332348597e-05,0.005783362787813752,3.362258804719451
1.123075332348597e-05,0.006451351655170888,3.373420896152977
1.125075332348598e-05,0.004113390619420913,3.369700199008468
1.127075332348598e-05,0.006451351655170128,3.36970019900847
1.129075332348597e-05,0.004781379486778809,3.373420896152975
1.131075332348597e-05,0.00611735722149232,3.373420896152977
1.133075332348598e-05,0.007119340522528024,3.369700199008468
1.135075332348598e-05,0.004113390619420913,3.369700199008468
1.137075332348597e-05,0.006785346088848241,3.369700199008468
1.139075332348597e-05,0.00611735722149232,3.377141593297485
1.141075332348598e-05,0.007119340522528024,3.369700199008468
1.143075332348598e-05,0.006785346088849456,3.369700199008468
1.145075332348598e-05,0.005449368354135944,3.36970019900847
1.147075332348597e-05,0.007119340522528024,3.373420896152977
1.149075332348598e-05,0.007453334956206592,3.377141593297485
1.151075332348598e-05,0.006785346088849456,3.373420896152977
1.153075332348598e-05,0.008455318257241384,3.373420896152972
1.155075332348597e-05,0.006451351655170888,3.362258804719451
1.157075332348597e-05,0.00778732938988516,3.373420896152977
1.159075332348598e-05,0.005783362787813752,3.369700199008468
1.161075332348598e-05,0.00711934052252848,3.373420896152978
1.163075332348597e-05,0.008121323823563271,3.377141593297483
1.165075332348597e-05,0.00611735722149232,3.373420896152977
1.167075332348598e-05,0.006451351655170888,3.380862290441993
1.169075332348598e-05,0.005449368354135184,3.384582987586502
1.171075332348597e-05,0.006117357221492017,3.373420896152981
1.173075332348597e-05,0.006451351655170888,3.373420896152977
1.175075332348598e-05,0.004447385053099481,3.373420896152977
1.177075332348598e-05,0.00611735722149232,3.36597950186396
1.179075332348597e-05,0.004781379486778656,3.380862290441986
1.181075332348597e-05,0.005783362787813752,3.377141593297485
1.183075332348598e-05,0.005449368354135184,3.369700199008468
1.185075332348598e-05,0.005449368354135184,3.373420896152977
1.187075332348598e-05,0.006117357221492169,3.36970019900847
1.189075332348597e-05,0.005783362787813752,3.373420896152977
1.191075332348597e-05,0.005783362787813752,3.373420896152977
1.193075332348598e-05,0.006451351655170888,3.36597950186396
1.195075332348598e-05,0.004447385053099785,3.354817410430441
1.197075332348597e-05,0.005115373920456313,3.369700199008461
1.199075332348597e-05,0.005115373920456617,3.362258804719451
1.201075332348598e-05,0.005449368354135184,3.358538107574943
1.203075332348598e-05,0.006117357221491561,3.358538107574943
1.205075332348597e-05,0.004447385053100241,3.358538107574943
1.207075332348597e-05,0.006785346088849456,3.362258804719451
1.209075332348598e-05,0.00611735722149232,3.377141593297485
1.211075332348598e-05,0.005783362787813752,3.36597950186396
1.213075332348597e-05,0.007119340522527417,3.369700199008466
1.215075332348597e-05,0.005449368354135184,3.377141593297485
1.217075332348598e-05,0.006451351655170888,3.380862290441993
1.219075332348598e-05,0.004447385053099481,3.373420896152977
1.221075332348598e-05,0.00511537392045692,3.365979501863958
1.223075332348597e-05,0.005783362787813752,3.362258804719451
1.225075332348597e-05,0.003779396185742345,3.377141593297485
1.227075332348598e-05,0.005115373920456617,3.377141593297485
1.229075332348598e-05,0.003779396185743256,3.377141593297481
1.231075332348597e-05,0.005783362787812841,3.369700199008471
1.233075332348597e-05,0.006451351655170888,3.36597950186396
1.235075332348598e-05,0.004781379486778049,3.373420896152977
1.237075332348598e-05,0.005783362787813448,3.380862290441991
1.239075332348597e-05,0.00511537392045692,3.377141593297487
1.241075332348597e-05,0.007119340522528024,3.369700199008468
1.243075332348598e-05,0.00611735722149232,3.369700199008468
1.245075332348598e-05,0.005449368354135184,3.369700199008468
1.247075332348597e-05,0.0057833627878136,3.380862290441988
1.249075332348597e-05,0.005783362787813752,3.380862290441993
1.251075332348598e-05,0.005449368354135184,3.380862290441993
1.253075332348598e-05,0.006451351655170888,3.380862290441993
1.255075332348598e-05,0.005115373920457072,3.369700199008471
1.257075332348597e-05,0.00611735722149232,3.377141593297485
1.259075332348597e-05,0.005115373920456617,3.377141593297485
1.261075332348598e-05,0.006451351655170888,3.380862290441993
1.263075332348598e-05,0.006785346088848696,3.377141593297483
1.265075332348597e-05,0.005115373920457376,3.373420896152978
1.267075332348597e-05,0.007119340522528024,3.380862290441993
1.269075332348598e-05,0.005115373920456617,3.380862290441993
1.271075332348598e-05,0.005783362787813904,3.38086229044199
1.273075332348597e-05,0.006117357221492169,3.37342089615298
1.275075332348597e-05,0.004781379486778049,3.36597950186396
1.277075332348598e-05,0.00611735722149232,3.377141593297485
1.279075332348598e-05,0.005449368354135184,3.377141593297485
1.281075332348597e-05,0.0057833627878136,3.358538107574951
1.283075332348597e-05,0.007119340522528024,3.384582987586502
1.285075332348598e-05,0.004447385053099481,3.373420896152977
1.287075332348598e-05,0.00611735722149232,3.369700199008468
1.289075332348598e-05,0.005115373920456768,3.377141593297485
1.291075332348597e-05,0.005449368354135184,3.377141593297485
1.293075332348598e-05,0.00611735722149232,3.380862290441993
1.295075332348598e-05,0.004781379486778049,3.384582987586502
1.297075332348598e-05,0.006451351655170585,3.384582987586505
1.299075332348597e-05,0.005783362787814056,3.392024381875515
1.301075332348597e-05,0.00611735722149232,3.380862290441993
1.303075332348598e-05,0.006785346088849456,3.380862290441993
1.305075332348598e-05,0.005115373920457376,3.380862290441991
1.307075332348597e-05,0.006785346088848697,3.377141593297487
1.309075332348597e-05,0.005115373920456617,3.392024381875518
1.311075332348598e-05,0.005783362787813752,3.384582987586502
1.313075332348598e-05,0.006785346088849456,3.373420896152977
1.315075332348597e-05,0.004113390619422128,3.365979501863963
1.317075332348597e-05,0.006451351655170888,3.384582987586502
1.319075332348598e-05,0.004781379486778049,3.380862290441993
1.321075332348598e-05,0.005449368354135184,3.380862290441993
1.323075332348598e-05,0.005115373920456009,3.373420896152977
1.325075332348597e-05,0.003779396185742345,3.373420896152977
1.327075332348598e-05,0.005783362787813752,3.377141593297485
1.329075332348598e-05,0.005449368354135184,3.373420896152977
1.331075332348598e-05,0.005783362787813904,3.373420896152977
1.333075332348597e-05,0.00611735722149232,3.373420896152977
1.335075332348597e-05,0.004447385053099481,3.38830368473101
1.337075332348598e-05,0.007453334956206592,3.373420896152977
1.339075332348598e-05,0.005115373920457376,3.377141593297485
1.341075332348597e-05,0.006785346088848697,3.377141593297485
1.343075332348597e-05,0.007119340522528024,3.377141593297485
1.345075332348598e-05,0.004781379486778049,3.384582987586502
1.347075332348598e-05,0.00611735722149232,3.380862290441993
1.349075332348597e-05,0.00611735722149232,3.380862290441993
1.351075332348597e-05,0.007453334956206592,3.373420896152977
1.353075332348598e-05,0.00778732938988516,3.373420896152977
1.355075332348598e-05,0.005783362787813752,3.362258804719451
1.357075332348597e-05,0.008121323823562664,3.362258804719451
1.359075332348597e-05,0.005449368354135184,3.369700199008468
1.361075332348598e-05,0.007453334956206592,3.358538107574943
1.363075332348598e-05,0.006785346088849456,3.354817410430434
1.365075332348598e-05,0.005115373920457528,3.354817410430439
1.367075332348597e-05,0.007119340522528024,3.36597950186396
1.369075332348597e-05,0.005449368354135184,3.369700199008468
1.371075332348598e-05,0.005449368354135184,3.373420896152977
1.373075332348598e-05,0.005449368354134424,3.365979501863961
1.375075332348597e-05,0.003779396185743104,3.369700199008466
1.377075332348597e-05,0.005783362787813752,3.380862290441993
1.379075332348598e-05,0.004781379486778049,3.384582987586502
1.381075332348598e-05,0.004781379486778049,3.369700199008468
1.383075332348597e-05,0.005115373920456465,3.373420896152975
1.385075332348597e-05,0.004447385053099481,3.377141593297485
1.387075332348598e-05,0.005449368354135184,3.380862290441993
1.389075332348598e-05,0.005449368354135184,3.380862290441993
1.391075332348597e-05,0.0057833627878136,3.380862290441993
1.393075332348597e-05,0.006785346088849456,3.380862290441993
1.395075332348598e-05,0.004113390619420913,3.384582987586502
1.397075332348598e-05,0.007453334956206592,3.373420896152977
1.399075332348598e-05,0.005449368354136096,3.369700199008473
1.401075332348597e-05,0.007453334956206592,3.380862290441993
1.403075332348597e-05,0.006785346088849456,3.36597950186396
1.405075332348598e-05,0.006451351655170888,3.373420896152977
1.407075332348598e-05,0.007453334956206288,3.369700199008468
1.409075332348597e-05,0.006785346088849759,3.369700199008468
1.411075332348597e-05,0.006785346088849456,3.373420896152977
1.413075332348598e-05,0.007119340522528024,3.369700199008468
1.415075332348598e-05,0.005783362787814815,3.358538107574955
1.417075332348597e-05,0.008121323823562664,3.38458298758649
1.419075332348597e-05,0.00611735722149232,3.380862290441993
1.421075332348598e-05,0.007453334956206592,3.373420896152977
1.423075332348598e-05,0.007453334956206592,3.36597950186396
1.425075332348597e-05,0.006785346088849759,3.369700199008466
1.427075332348597e-05,0.008455318257242295,3.369700199008468
1.429075332348598e-05,0.007119340522528024,3.384582987586502
1.431075332348598e-05,0.00611735722149232,3.377141593297485
1.433075332348598e-05,0.006785346088849304,3.373420896152977
1.435075332348597e-05,0.006451351655170888,3.373420896152977
1.437075332348597e-05,0.007119340522528024,3.380862290441993
1.439075332348598e-05,0.007119340522528024,3.369700199008468
1.441075332348598e-05,0.00711934052252848,3.384582987586497
1.443075332348597e-05,0.008121323823563271,3.373420896152981
1.445075332348597e-05,0.00611735722149232,3.377141593297485
1.447075332348598e-05,0.007119340522528024,3.380862290441993
1.449075332348598e-05,0.006451351655170736,3.37714159329749
1.451075332348597e-05,0.006117357221492472,3.388303684731005
