traces_bank_current_trigger/sampling_freq_100MHz/MOVi/mov_5.csv

#Digilent WaveForms Oscilloscope Acquisition
#Device Name: Discovery2
#Serial Number: SN:210321B3D813
#Date Time: 2023-07-27 14:10:37.678
#Sample rate: 5e+07Hz
#Samples: 8192
#Trigger: Source: Channel 2 Type: Edge Condition: Rising Level: 2 V Hyst.: Auto HoldOff: 0 s
#Channel 1: Range: 20 mV/div Offset: 0 V Attenuation: 1 X Sample Mode: Average
#Channel 2: Range: 5 V/div Offset: 0 V Attenuation: 1 X Sample Mode: Average

Time (s),Channel 1 (V),Channel 2 (V)
8.088180790960457e-06,0.007453334956206592,3.380862290441993
8.108180790960461e-06,0.007453334956206592,3.392024381875518
8.128180790960464e-06,0.007119340522528176,3.388303684731004
8.148180790960453e-06,0.00745333495620644,3.373420896152983
8.168180790960457e-06,0.005783362787813752,3.373420896152977
8.18818079096046e-06,0.007453334956206592,3.369700199008468
8.208180790960463e-06,0.006451351655170888,3.384582987586502
8.228180790960453e-06,0.006117357221492472,3.395745079020022
8.248180790960456e-06,0.007453334956206592,3.380862290441993
8.268180790960459e-06,0.005115373920456617,3.373420896152977
8.288180790960462e-06,0.006785346088849456,3.377141593297485
8.308180790960465e-06,0.005449368354135336,3.388303684731008
8.328180790960455e-06,0.005783362787813752,3.384582987586502
8.348180790960458e-06,0.005783362787813752,3.380862290441993
8.368180790960461e-06,0.005115373920456617,3.377141593297485
8.388180790960465e-06,0.006451351655170736,3.377141593297485
8.408180790960454e-06,0.006117357221492472,3.377141593297485
8.428180790960457e-06,0.005783362787813752,3.395745079020027
8.448180790960461e-06,0.007453334956206592,3.384582987586502
8.468180790960464e-06,0.005449368354135488,3.373420896152973
8.488180790960454e-06,0.006117357221492017,3.365979501863963
8.508180790960457e-06,0.004781379486778049,3.38830368473101
8.52818079096046e-06,0.005115373920456617,3.410627867598061
8.548180790960463e-06,0.006785346088849456,3.377141593297485
8.568180790960453e-06,0.004447385053100545,3.373420896152978
8.588180790960456e-06,0.005783362787813752,3.384582987586502
8.608180790960459e-06,0.005115373920456617,3.399465776164535
8.628180790960462e-06,0.004781379486778049,3.38830368473101
8.648180790960466e-06,0.006785346088849,3.377141593297488
8.668180790960455e-06,0.005783362787813752,3.384582987586502
8.688180790960458e-06,0.005783362787813752,3.377141593297485
8.708180790960462e-06,0.004781379486778049,3.395745079020027
8.728180790960465e-06,0.004781379486778809,3.392024381875514
8.748180790960454e-06,0.006451351655170129,3.380862290441998
8.768180790960458e-06,0.004781379486778049,3.373420896152977
8.788180790960461e-06,0.006451351655170888,3.36597950186396
8.808180790960464e-06,0.004781379486777745,3.38830368473101
8.828180790960454e-06,0.004113390619421216,3.38830368473101
8.848180790960457e-06,0.00611735722149232,3.392024381875518
8.86818079096046e-06,0.005115373920456617,3.362258804719451
8.888180790960463e-06,0.00611735722149232,3.377141593297485
8.908180790960453e-06,0.004781379486778656,3.377141593297485
8.928180790960456e-06,0.004447385053099481,3.395745079020027
8.948180790960459e-06,0.005783362787813752,3.373420896152977
8.968180790960462e-06,0.004113390619420913,3.369700199008468
8.988180790960466e-06,0.005449368354134881,3.362258804719458
9.008180790960455e-06,0.004781379486778049,3.377141593297485
9.028180790960458e-06,0.005783362787813752,3.38830368473101
9.048180790960462e-06,0.006451351655170888,3.369700199008468
9.068180790960465e-06,0.005449368354135791,3.365979501863958
9.088180790960455e-06,0.006785346088849456,3.362258804719451
9.108180790960458e-06,0.004447385053099481,3.373420896152977
9.128180790960461e-06,0.005115373920456617,3.377141593297485
9.148180790960464e-06,0.006451351655169977,3.362258804719449
9.168180790960454e-06,0.004447385053100392,3.358538107574944
9.188180790960457e-06,0.006451351655170888,3.362258804719451
9.20818079096046e-06,0.005783362787813752,3.369700199008468
9.228180790960463e-06,0.005783362787813752,3.362258804719451
9.248180790960453e-06,0.008121323823562664,3.362258804719451
9.268180790960456e-06,0.005783362787813752,3.351096713285926
9.288180790960459e-06,0.006451351655170888,3.354817410430434
9.308180790960463e-06,0.006451351655170888,3.373420896152977
9.328180790960466e-06,0.00645135165517104,3.369700199008463
9.348180790960455e-06,0.006785346088849456,3.358538107574943
9.368180790960459e-06,0.005449368354135184,3.358538107574943
9.388180790960462e-06,0.007453334956206592,3.351096713285926
9.408180790960465e-06,0.006451351655169977,3.377141593297487
9.428180790960455e-06,0.004447385053099481,3.380862290441993
9.448180790960458e-06,0.007119340522528024,3.36597950186396
9.468180790960461e-06,0.005115373920456617,3.369700199008468
9.488180790960464e-06,0.00578336278781284,3.365979501863966
9.508180790960454e-06,0.003779396185743256,3.380862290441986
9.528180790960457e-06,0.004781379486778049,3.392024381875518
9.54818079096046e-06,0.005115373920456617,3.377141593297485
9.568180790960463e-06,0.003779396185742345,3.377141593297485
9.588180790960453e-06,0.004113390619420761,3.380862290441991
9.608180790960456e-06,0.004113390619420913,3.384582987586502
9.62818079096046e-06,0.004781379486778049,3.399465776164535
9.648180790960463e-06,0.007119340522528024,3.384582987586502
9.668180790960452e-06,0.004781379486779112,3.380862290441995
9.688180790960456e-06,0.006451351655170888,3.377141593297485
9.708180790960459e-06,0.005115373920456617,3.392024381875518
9.728180790960462e-06,0.005783362787813752,3.395745079020027
9.748180790960465e-06,0.006451351655169825,3.369700199008473
9.768180790960455e-06,0.004113390619420913,3.380862290441993
9.788180790960458e-06,0.005449368354135184,3.384582987586502
9.808180790960461e-06,0.005449368354135184,3.380862290441993
9.828180790960464e-06,0.004781379486778353,3.395745079020022
9.848180790960454e-06,0.005449368354134881,3.384582987586507
9.868180790960457e-06,0.004781379486778049,3.377141593297485
9.88818079096046e-06,0.006451351655170888,3.395745079020027
9.908180790960464e-06,0.005115373920456617,3.388303684731012
9.928180790960453e-06,0.005115373920456617,3.392024381875517
9.948180790960456e-06,0.007119340522528024,3.380862290441993
9.96818079096046e-06,0.004447385053099481,3.36597950186396
9.988180790960463e-06,0.00611735722149232,3.369700199008468
1.000818079096045e-05,0.00611735722149232,3.380862290441988
1.002818079096046e-05,0.005449368354135184,3.38830368473101
1.004818079096046e-05,0.006785346088849456,3.373420896152977
1.006818079096046e-05,0.004781379486778049,3.36597950186396
1.008818079096047e-05,0.007119340522527265,3.36970019900847
1.010818079096045e-05,0.005449368354135184,3.373420896152977
1.012818079096046e-05,0.005115373920456617,3.395745079020027
1.014818079096046e-05,0.007119340522528024,3.373420896152977
1.016818079096046e-05,0.005115373920457376,3.37342089615297
1.018818079096045e-05,0.006785346088848697,3.358538107574949
1.020818079096046e-05,0.005783362787813752,3.380862290441993
1.022818079096046e-05,0.005115373920456617,3.373420896152977
1.024818079096046e-05,0.007453334956205073,3.37714159329748
1.026818079096045e-05,0.004113390619422432,3.365979501863964
1.028818079096046e-05,0.00611735722149232,3.369700199008468
1.030818079096046e-05,0.00611735722149232,3.392024381875518
1.032818079096046e-05,0.005783362787813752,3.380862290441993
1.034818079096045e-05,0.005783362787813752,3.377141593297487
1.036818079096046e-05,0.004113390619420913,3.373420896152977
1.038818079096046e-05,0.006785346088849456,3.380862290441993
1.040818079096046e-05,0.004781379486778049,3.392024381875518
1.042818079096047e-05,0.005115373920457376,3.392024381875522
1.044818079096046e-05,0.006785346088849456,3.399465776164535
1.046818079096046e-05,0.005783362787813752,3.377141593297485
1.048818079096046e-05,0.006785346088849456,3.36597950186396
1.050818079096046e-05,0.005449368354135184,3.384582987586502
1.052818079096045e-05,0.005449368354135184,3.384582987586502
1.054818079096046e-05,0.007119340522528024,3.384582987586502
1.056818079096046e-05,0.005449368354135184,3.380862290441993
1.058818079096046e-05,0.007787329389884553,3.377141593297487
1.060818079096045e-05,0.006451351655171496,3.380862290441991
1.062818079096046e-05,0.006785346088849456,3.373420896152977
1.064818079096046e-05,0.008121323823563727,3.373420896152977
1.066818079096046e-05,0.006785346088849456,3.36597950186396
1.068818079096045e-05,0.00812132382356312,3.37714159329748
1.070818079096046e-05,0.007453334956206592,3.377141593297485
1.072818079096046e-05,0.007453334956206592,3.395745079020027
1.074818079096046e-05,0.008789312690920863,3.377141593297485
1.076818079096047e-05,0.007787329389885615,3.37714159329748
1.078818079096046e-05,0.008789312690920863,3.36597950186396
1.080818079096046e-05,0.008121323823563727,3.369700199008468
1.082818079096046e-05,0.007119340522528024,3.377141593297485
1.084818079096046e-05,0.008455318257241232,3.373420896152975
1.086818079096045e-05,0.006117357221493384,3.36970019900847
1.088818079096046e-05,0.008121323823563727,3.362258804719451
1.090818079096046e-05,0.006451351655170888,3.380862290441993
1.092818079096046e-05,0.006117357221492928,3.384582987586495
1.094818079096045e-05,0.007453334956205985,3.369700199008475
1.096818079096046e-05,0.006785346088849456,3.362258804719451
1.098818079096046e-05,0.007119340522528024,3.369700199008468
1.100818079096046e-05,0.006451351655170888,3.380862290441993
1.102818079096045e-05,0.005783362787814056,3.380862290441993
1.104818079096046e-05,0.007119340522528024,3.369700199008468
1.106818079096046e-05,0.005449368354135184,3.362258804719451
1.108818079096046e-05,0.007119340522528024,3.362258804719451
1.110818079096047e-05,0.007119340522527569,3.373420896152981
1.112818079096046e-05,0.00611735722149232,3.384582987586502
1.114818079096046e-05,0.008121323823563727,3.369700199008468
1.116818079096046e-05,0.006451351655170888,3.36597950186396
1.118818079096046e-05,0.007787329389884248,3.36597950186397
1.120818079096045e-05,0.005783362787813752,3.38830368473101
1.122818079096046e-05,0.006451351655170888,3.373420896152977
1.124818079096046e-05,0.008121323823563727,3.384582987586502
1.126818079096046e-05,0.005449368354136096,3.36597950186396
1.128818079096045e-05,0.007453334956205681,3.36597950186396
1.130818079096046e-05,0.006785346088849456,3.380862290441993
1.132818079096046e-05,0.00611735722149232,3.395745079020027
1.134818079096046e-05,0.006785346088849456,3.380862290441993
1.136818079096045e-05,0.006117357221492624,3.369700199008473
1.138818079096046e-05,0.007119340522528024,3.377141593297485
1.140818079096046e-05,0.005783362787813752,3.392024381875518
1.142818079096046e-05,0.00611735722149232,3.380862290441993
1.144818079096047e-05,0.007453334956205985,3.380862290441991
1.146818079096046e-05,0.00611735722149232,3.377141593297485
1.148818079096046e-05,0.00778732938988516,3.380862290441993
1.150818079096046e-05,0.006785346088849456,3.395745079020027
1.152818079096047e-05,0.006785346088849456,3.403186473309034
1.154818079096045e-05,0.006785346088849456,3.380862290441993
1.156818079096046e-05,0.007119340522528024,3.380862290441993
1.158818079096046e-05,0.008121323823563727,3.392024381875518
1.160818079096046e-05,0.006117357221492472,3.39202438187552
1.162818079096045e-05,0.006451351655170736,3.395745079020025
1.164818079096046e-05,0.007119340522528024,3.373420896152977
1.166818079096046e-05,0.005783362787813752,3.38830368473101
1.168818079096046e-05,0.007119340522528024,3.380862290441993
1.170818079096045e-05,0.005115373920457527,3.388303684731007
1.172818079096046e-05,0.00611735722149232,3.392024381875518
1.174818079096046e-05,0.008455318257242295,3.380862290441993
1.176818079096046e-05,0.006451351655170888,3.36597950186396
1.178818079096045e-05,0.007453334956206137,3.373420896152973
1.180818079096046e-05,0.00611735722149232,3.384582987586502
1.182818079096046e-05,0.006451351655170888,3.373420896152977
1.184818079096046e-05,0.008455318257242295,3.362258804719451
1.186818079096047e-05,0.006451351655171495,3.358538107574946
1.188818079096045e-05,0.00778732938988516,3.36597950186396
1.190818079096046e-05,0.004113390619420913,3.369700199008468
1.192818079096046e-05,0.005783362787813752,3.369700199008468
1.194818079096046e-05,0.00745333495620568,3.358538107574943
1.196818079096045e-05,0.005449368354136095,3.358538107574943
1.198818079096046e-05,0.00611735722149232,3.369700199008468
1.200818079096046e-05,0.004781379486778049,3.369700199008468
1.202818079096046e-05,0.00544936835413564,3.37342089615297
1.204818079096045e-05,0.006451351655170433,3.358538107574949
1.206818079096046e-05,0.005449368354135184,3.362258804719451
1.208818079096046e-05,0.005783362787813752,3.369700199008468
1.210818079096046e-05,0.004781379486778049,3.380862290441993
1.212818079096045e-05,0.003111407318385969,3.388303684731007
1.214818079096046e-05,0.005115373920456617,3.369700199008468
1.216818079096046e-05,0.004447385053099481,3.373420896152977
1.218818079096046e-05,0.006451351655170888,3.36597950186396
1.220818079096047e-05,0.003779396185742953,3.380862290441995
1.222818079096045e-05,0.005115373920456617,3.384582987586502
1.224818079096046e-05,0.004781379486778049,3.380862290441993
1.226818079096046e-05,0.004447385053099481,3.369700199008468
1.228818079096046e-05,0.004113390619421216,3.354817410430443
1.230818079096045e-05,0.004781379486777745,3.373420896152968
1.232818079096046e-05,0.005449368354135184,3.377141593297485
1.234818079096046e-05,0.006785346088849456,3.36597950186396
1.236818079096046e-05,0.005783362787814207,3.369700199008468
1.238818079096045e-05,0.006785346088849,3.369700199008468
1.240818079096046e-05,0.004113390619420913,3.373420896152977
1.242818079096046e-05,0.004781379486778049,3.392024381875518
1.244818079096046e-05,0.006451351655170888,3.362258804719451
1.246818079096045e-05,0.004781379486778809,3.377141593297478
1.248818079096046e-05,0.005449368354135184,3.377141593297485
1.250818079096046e-05,0.005115373920456617,3.38830368473101
1.252818079096046e-05,0.005783362787813752,3.38830368473101
1.254818079096047e-05,0.006451351655170433,3.388303684731012
1.256818079096046e-05,0.005449368354135184,3.392024381875518
1.258818079096046e-05,0.005449368354135184,3.380862290441993
1.260818079096046e-05,0.004781379486778049,3.384582987586502
1.262818079096046e-05,0.005449368354135336,3.38830368473101
1.264818079096045e-05,0.0057833627878136,3.38830368473101
1.266818079096046e-05,0.004781379486778049,3.373420896152977
1.268818079096046e-05,0.006451351655170888,3.373420896152977
1.270818079096046e-05,0.004447385053099785,3.384582987586502
1.272818079096045e-05,0.005115373920456313,3.384582987586502
1.274818079096046e-05,0.006451351655170888,3.380862290441993
1.276818079096046e-05,0.005115373920456617,3.380862290441993
1.278818079096046e-05,0.00778732938988516,3.384582987586502
1.280818079096045e-05,0.004781379486779416,3.380862290441995
1.282818079096046e-05,0.005783362787813752,3.384582987586502
1.284818079096046e-05,0.007119340522528024,3.384582987586502
1.286818079096046e-05,0.005449368354135184,3.373420896152977
1.288818079096047e-05,0.006451351655170888,3.388303684731014
1.290818079096046e-05,0.006451351655170888,3.395745079020027
1.292818079096046e-05,0.005115373920456617,3.406907170453553
1.294818079096046e-05,0.006451351655170888,3.38830368473101
1.296818079096046e-05,0.005115373920457072,3.380862290441998
1.298818079096045e-05,0.006117357221491865,3.392024381875514
1.300818079096046e-05,0.004447385053099481,3.410627867598061
1.302818079096046e-05,0.005115373920456617,3.392024381875518
1.304818079096046e-05,0.006117357221491865,3.395745079020024
1.306818079096045e-05,0.005115373920457072,3.388303684731014
1.308818079096046e-05,0.005783362787813752,3.384582987586502
1.310818079096046e-05,0.005115373920456617,3.38830368473101
1.312818079096046e-05,0.004781379486778049,3.403186473309044
1.314818079096045e-05,0.006117357221491712,3.392024381875523
1.316818079096046e-05,0.004113390619420913,3.373420896152977
1.318818079096046e-05,0.004781379486778049,3.399465776164535
1.320818079096046e-05,0.004113390619420913,3.395745079020027
1.322818079096047e-05,0.005449368354135488,3.414348564742566
1.324818079096046e-05,0.00611735722149232,3.406907170453553
1.326818079096046e-05,0.004781379486778049,3.384582987586502
1.328818079096046e-05,0.00611735722149232,3.380862290441993
1.330818079096046e-05,0.005449368354134577,3.384582987586507
1.332818079096045e-05,0.004113390619420913,3.395745079020027
1.334818079096046e-05,0.006451351655170888,3.377141593297485
1.336818079096046e-05,0.004447385053099481,3.384582987586502
1.338818079096046e-05,0.0057833627878136,3.388303684731012
1.340818079096045e-05,0.005449368354135336,3.392024381875517
1.342818079096046e-05,0.004447385053099481,3.392024381875518
1.344818079096046e-05,0.005783362787813752,3.384582987586502
1.346818079096046e-05,0.004781379486778049,3.362258804719451
1.348818079096045e-05,0.006117357221491712,3.373420896152972
1.350818079096046e-05,0.004781379486778049,3.380862290441993
1.352818079096046e-05,0.005115373920456617,3.395745079020027
1.354818079096046e-05,0.00611735722149232,3.384582987586502
1.356818079096045e-05,0.004781379486778656,3.369700199008475
1.358818079096046e-05,0.005449368354135184,3.369700199008468
1.360818079096046e-05,0.003779396185742345,3.380862290441993
1.362818079096046e-05,0.004113390619420913,3.384582987586502
1.364818079096047e-05,0.005449368354134881,3.373420896152978
1.366818079096045e-05,0.004781379486778049,3.377141593297485
1.368818079096046e-05,0.005115373920456617,3.380862290441993
1.370818079096046e-05,0.005115373920456617,3.380862290441993
1.372818079096046e-05,0.003445401752064537,3.399465776164529
1.374818079096045e-05,0.005115373920455857,3.384582987586509
1.376818079096046e-05,0.004113390619420913,3.369700199008468
1.378818079096046e-05,0.003445401752063777,3.369700199008468
1.380818079096046e-05,0.002443418451028074,3.380862290441993
1.382818079096045e-05,0.002777412884706489,3.395745079020021
1.384818079096046e-05,0.005449368354135184,3.380862290441993
1.386818079096046e-05,0.003111407318385209,3.36597950186396
1.388818079096046e-05,0.004781379486778049,3.377141593297485
1.390818079096045e-05,0.0037793961857428,3.388303684731005
1.392818079096046e-05,0.004113390619420913,3.38830368473101
1.394818079096046e-05,0.005449368354135184,3.377141593297485
1.396818079096046e-05,0.004447385053099481,3.362258804719451
1.398818079096047e-05,0.005115373920456465,3.380862290441991
1.400818079096045e-05,0.004781379486778049,3.377141593297485
1.402818079096046e-05,0.005783362787813752,3.392024381875518
1.404818079096046e-05,0.00611735722149232,3.369700199008468
1.406818079096046e-05,0.005115373920457072,3.365979501863958
1.408818079096045e-05,0.006117357221491865,3.362258804719453
1.410818079096046e-05,0.005115373920456617,3.380862290441993
1.412818079096046e-05,0.005449368354135184,3.380862290441993
1.414818079096046e-05,0.006117357221492017,3.362258804719453
1.416818079096045e-05,0.005449368354135488,3.365979501863958
1.418818079096046e-05,0.007119340522528024,3.362258804719451
1.420818079096046e-05,0.005449368354135184,3.369700199008468
1.422818079096046e-05,0.006785346088849456,3.384582987586502
1.424818079096045e-05,0.008455318257241535,3.373420896152981
1.426818079096046e-05,0.005115373920456617,3.358538107574943
1.428818079096046e-05,0.006785346088849456,3.358538107574943
1.430818079096046e-05,0.005115373920456617,3.380862290441993
1.432818079096047e-05,0.006451351655171192,3.39202438187551
1.434818079096045e-05,0.007119340522528024,3.373420896152977
1.436818079096046e-05,0.005449368354135184,3.362258804719451
1.438818079096046e-05,0.006451351655170888,3.362258804719451
1.440818079096046e-05,0.005783362787813904,3.369700199008473
1.442818079096045e-05,0.006117357221492169,3.380862290441988
1.444818079096046e-05,0.006785346088849456,3.369700199008468
1.446818079096046e-05,0.005115373920456617,3.377141593297485
1.448818079096046e-05,0.006785346088848849,3.362258804719461
