traces_bank_current_trigger/sampling_freq_100MHz/MOVi/mov_3.csv

#Digilent WaveForms Oscilloscope Acquisition
#Device Name: Discovery2
#Serial Number: SN:210321B3D813
#Date Time: 2023-07-27 14:00:11.703
#Sample rate: 5e+07Hz
#Samples: 8192
#Trigger: Source: Channel 2 Type: Edge Condition: Rising Level: 2 V Hyst.: Auto HoldOff: 0 s
#Channel 1: Range: 20 mV/div Offset: 0 V Attenuation: 1 X Sample Mode: Average
#Channel 2: Range: 5 V/div Offset: 0 V Attenuation: 1 X Sample Mode: Average

Time (s),Channel 1 (V),Channel 2 (V)
8.090629575402633e-06,0.004781379486778049,3.384582987586502
8.110629575402636e-06,0.006451351655170888,3.380862290441993
8.13062957540264e-06,0.005783362787813145,3.380862290441995
8.150629575402629e-06,0.004447385053100088,3.3845829875865
8.170629575402632e-06,0.007119340522528024,3.38830368473101
8.190629575402636e-06,0.004447385053099481,3.377141593297485
8.210629575402639e-06,0.005783362787813752,3.380862290441993
8.230629575402628e-06,0.006117357221492169,3.377141593297487
8.250629575402632e-06,0.003779396185742345,3.369700199008468
8.270629575402635e-06,0.006451351655170888,3.373420896152977
8.290629575402638e-06,0.004447385053099481,3.380862290441993
8.310629575402641e-06,0.006117357221491713,3.358538107574951
8.330629575402631e-06,0.004781379486778049,3.377141593297485
8.350629575402634e-06,0.004781379486778049,3.362258804719451
8.370629575402637e-06,0.00611735722149232,3.358538107574943
8.39062957540264e-06,0.004447385053099785,3.36970019900847
8.41062957540263e-06,0.005115373920456313,3.373420896152975
8.430629575402633e-06,0.00611735722149232,3.369700199008468
8.450629575402637e-06,0.003445401752063777,3.373420896152977
8.47062957540264e-06,0.006785346088847937,3.380862290441997
8.490629575402629e-06,0.003445401752065296,3.388303684731007
8.510629575402633e-06,0.005449368354135184,3.384582987586502
8.530629575402636e-06,0.00611735722149232,3.377141593297485
8.550629575402639e-06,0.005449368354135184,3.373420896152977
8.570629575402629e-06,0.006785346088848848,3.377141593297483
8.590629575402632e-06,0.004113390619420913,3.38830368473101
8.610629575402635e-06,0.005115373920456617,3.377141593297485
8.630629575402638e-06,0.00611735722149232,3.36597950186396
8.650629575402641e-06,0.004781379486778809,3.377141593297488
8.670629575402631e-06,0.006451351655170888,3.384582987586502
8.690629575402634e-06,0.005449368354135184,3.384582987586502
8.710629575402637e-06,0.006785346088849456,3.369700199008468
8.730629575402641e-06,0.007119340522527113,3.373420896152975
8.75062957540263e-06,0.005115373920457527,3.36970019900847
8.770629575402633e-06,0.007453334956206592,3.380862290441993
8.790629575402637e-06,0.005449368354135184,3.380862290441993
8.81062957540264e-06,0.007119340522527721,3.369700199008471
8.83062957540263e-06,0.006451351655171192,3.377141593297481
8.850629575402633e-06,0.005449368354135184,3.384582987586502
8.870629575402636e-06,0.00778732938988516,3.377141593297485
8.890629575402639e-06,0.004113390619420913,3.377141593297485
8.910629575402629e-06,0.006785346088848241,3.369700199008471
8.930629575402632e-06,0.00611735722149232,3.373420896152977
8.950629575402635e-06,0.004447385053099481,3.373420896152977
8.970629575402638e-06,0.006785346088849456,3.373420896152977
8.990629575402642e-06,0.005783362787813448,3.373420896152981
9.010629575402631e-06,0.005115373920456617,3.384582987586502
9.030629575402634e-06,0.007119340522528024,3.384582987586502
9.050629575402638e-06,0.004781379486778049,3.373420896152977
9.070629575402641e-06,0.007119340522526961,3.380862290441991
9.09062957540263e-06,0.004781379486778049,3.377141593297485
9.110629575402634e-06,0.006451351655170888,3.38830368473101
9.130629575402637e-06,0.005783362787813752,3.380862290441993
9.15062957540264e-06,0.005449368354136248,3.377141593297487
9.17062957540263e-06,0.007787329389884096,3.380862290441991
9.190629575402633e-06,0.004447385053099481,3.384582987586502
9.210629575402636e-06,0.005783362787813752,3.369700199008468
9.230629575402639e-06,0.005783362787813752,3.380862290441993
9.250629575402629e-06,0.004781379486778504,3.377141593297487
9.270629575402632e-06,0.006785346088849456,3.377141593297485
9.290629575402635e-06,0.005449368354135184,3.369700199008468
9.310629575402638e-06,0.007119340522528024,3.369700199008468
9.330629575402642e-06,0.007119340522527265,3.37714159329748
9.350629575402631e-06,0.005449368354135184,3.36597950186396
9.370629575402635e-06,0.006451351655170888,3.36597950186396
9.390629575402638e-06,0.00611735722149232,3.377141593297485
9.410629575402641e-06,0.007119340522527873,3.38086229044199
9.430629575402631e-06,0.006785346088849456,3.373420896152977
9.450629575402634e-06,0.005783362787813752,3.36597950186396
9.470629575402637e-06,0.006785346088849456,3.373420896152977
9.49062957540264e-06,0.005115373920457224,3.373420896152975
9.51062957540263e-06,0.00645135165517028,3.36970019900847
9.530629575402633e-06,0.00611735722149232,3.377141593297485
9.550629575402636e-06,0.005115373920456617,3.369700199008468
9.570629575402639e-06,0.006785346088849456,3.373420896152977
9.590629575402629e-06,0.005115373920457376,3.39202438187551
9.610629575402632e-06,0.005449368354135184,3.377141593297485
9.630629575402635e-06,0.006785346088849456,3.362258804719451
9.650629575402639e-06,0.00611735722149232,3.380862290441993
9.670629575402628e-06,0.007453334956205985,3.37342089615298
9.690629575402631e-06,0.005449368354135184,3.373420896152977
9.710629575402635e-06,0.007119340522528024,3.377141593297485
9.730629575402638e-06,0.007119340522528024,3.369700199008468
9.750629575402641e-06,0.004447385053100241,3.3845829875865
9.770629575402631e-06,0.00611735722149232,3.380862290441993
9.790629575402634e-06,0.005449368354135184,3.38830368473101
9.810629575402637e-06,0.006785346088849456,3.377141593297485
9.83062957540264e-06,0.006451351655170128,3.380862290441991
9.85062957540263e-06,0.004781379486778809,3.377141593297487
9.870629575402633e-06,0.00778732938988516,3.380862290441993
9.890629575402636e-06,0.006451351655170888,3.392024381875518
9.910629575402639e-06,0.007119340522527873,3.377141593297488
9.930629575402629e-06,0.006785346088849608,3.384582987586498
9.950629575402632e-06,0.005449368354135184,3.392024381875518
9.970629575402636e-06,0.007453334956206592,3.38830368473101
9.990629575402639e-06,0.005449368354135184,3.384582987586502
1.001062957540263e-05,0.007119340522527265,3.388303684731008
1.003062957540263e-05,0.007453334956206592,3.392024381875518
1.005062957540263e-05,0.005449368354135184,3.38830368473101
1.007062957540264e-05,0.006785346088849456,3.377141593297485
1.009062957540264e-05,0.00544936835413564,3.38830368473101
1.011062957540263e-05,0.006451351655170888,3.38830368473101
1.013062957540263e-05,0.006785346088849456,3.384582987586502
1.015062957540264e-05,0.005115373920456617,3.38830368473101
1.017062957540264e-05,0.006117357221491713,3.38830368473101
1.019062957540263e-05,0.004781379486778656,3.38830368473101
1.021062957540263e-05,0.006451351655170888,3.377141593297485
1.023062957540264e-05,0.006451351655170888,3.384582987586502
1.025062957540264e-05,0.004781379486778961,3.384582987586507
1.027062957540263e-05,0.006785346088848544,3.395745079020022
1.029062957540263e-05,0.005115373920456617,3.384582987586502
1.031062957540264e-05,0.006785346088849456,3.38830368473101
1.033062957540264e-05,0.00611735722149232,3.38830368473101
1.035062957540263e-05,0.003779396185743408,3.384582987586504
1.037062957540263e-05,0.006451351655170888,3.38830368473101
1.039062957540263e-05,0.005449368354135184,3.377141593297485
1.041062957540264e-05,0.005449368354135184,3.38830368473101
1.043062957540264e-05,0.007119340522526809,3.388303684731007
1.045062957540263e-05,0.004447385053099481,3.380862290441993
1.047062957540263e-05,0.00611735722149232,3.384582987586502
1.049062957540264e-05,0.004781379486778049,3.384582987586502
1.051062957540264e-05,0.006785346088849152,3.392024381875515
1.053062957540263e-05,0.006117357221492624,3.384582987586505
1.055062957540263e-05,0.004113390619420913,3.392024381875518
1.057062957540264e-05,0.00611735722149232,3.384582987586502
1.059062957540264e-05,0.004781379486778504,3.392024381875515
1.061062957540263e-05,0.005783362787813297,3.384582987586505
1.063062957540263e-05,0.006785346088849456,3.392024381875518
1.065062957540264e-05,0.004447385053099481,3.38830368473101
1.067062957540264e-05,0.00611735722149232,3.392024381875518
1.069062957540263e-05,0.005783362787813904,3.392024381875518
1.071062957540263e-05,0.006451351655170888,3.384582987586502
1.073062957540264e-05,0.00611735722149232,3.384582987586502
1.075062957540264e-05,0.004781379486778049,3.38830368473101
1.077062957540264e-05,0.006117357221492017,3.388303684731014
1.079062957540263e-05,0.005449368354135184,3.395745079020027
1.081062957540263e-05,0.00611735722149232,3.395745079020027
1.083062957540264e-05,0.006451351655170888,3.377141593297485
1.085062957540264e-05,0.004447385053100545,3.377141593297492
1.087062957540263e-05,0.006785346088848392,3.392024381875512
1.089062957540263e-05,0.004447385053099481,3.384582987586502
1.091062957540264e-05,0.006785346088849456,3.392024381875518
1.093062957540264e-05,0.005449368354134881,3.388303684731008
1.095062957540263e-05,0.004781379486778353,3.384582987586504
1.097062957540263e-05,0.00611735722149232,3.38830368473101
1.099062957540264e-05,0.004113390619420913,3.384582987586502
1.101062957540264e-05,0.004781379486778049,3.392024381875518
1.103062957540263e-05,0.004113390619421216,3.388303684731012
1.105062957540263e-05,0.004113390619420913,3.373420896152977
1.107062957540264e-05,0.006451351655170888,3.380862290441993
1.109062957540264e-05,0.005449368354135184,3.384582987586502
1.111062957540264e-05,0.005449368354135336,3.377141593297483
1.113062957540263e-05,0.005783362787813752,3.373420896152977
1.115062957540263e-05,0.003779396185742345,3.362258804719451
1.117062957540264e-05,0.00611735722149232,3.380862290441993
1.119062957540264e-05,0.00411339061942152,3.377141593297483
1.121062957540263e-05,0.005449368354135184,3.373420896152977
1.123062957540263e-05,0.005783362787813752,3.377141593297485
1.125062957540264e-05,0.003445401752063777,3.380862290441993
1.127062957540264e-05,0.005115373920456313,3.373420896152977
1.129062957540263e-05,0.004447385053099785,3.373420896152977
1.131062957540263e-05,0.005115373920456617,3.362258804719451
1.133062957540264e-05,0.004113390619420913,3.377141593297485
1.135062957540264e-05,0.003779396185742345,3.362258804719451
1.137062957540263e-05,0.004781379486777594,3.362258804719451
1.139062957540263e-05,0.004447385053099481,3.369700199008468
1.141062957540264e-05,0.005449368354135184,3.369700199008468
1.143062957540264e-05,0.005449368354135184,3.362258804719451
1.145062957540264e-05,0.004447385053100696,3.373420896152977
1.147062957540263e-05,0.007119340522528024,3.373420896152977
1.149062957540263e-05,0.005115373920456617,3.369700199008468
1.151062957540264e-05,0.005783362787813752,3.369700199008468
1.153062957540264e-05,0.006117357221491713,3.365979501863956
1.155062957540263e-05,0.004781379486778049,3.358538107574943
1.157062957540263e-05,0.00611735722149232,3.380862290441993
1.159062957540264e-05,0.005115373920456617,3.377141593297485
1.161062957540264e-05,0.006117357221492017,3.373420896152977
1.163062957540263e-05,0.005449368354135488,3.373420896152977
1.165062957540263e-05,0.005115373920456617,3.377141593297485
1.167062957540264e-05,0.00611735722149232,3.377141593297485
1.169062957540264e-05,0.004781379486778049,3.384582987586502
1.171062957540263e-05,0.005783362787813297,3.377141593297488
1.173062957540263e-05,0.006785346088849456,3.384582987586502
1.175062957540264e-05,0.004781379486778049,3.380862290441993
1.177062957540264e-05,0.006785346088849456,3.373420896152977
1.179062957540263e-05,0.005449368354135791,3.388303684731004
1.181062957540263e-05,0.006451351655170888,3.38830368473101
1.183062957540263e-05,0.007119340522528024,3.384582987586502
1.185062957540264e-05,0.004447385053099481,3.377141593297485
1.187062957540264e-05,0.008121323823562817,3.380862290442002
1.189062957540263e-05,0.00611735722149232,3.399465776164535
1.191062957540263e-05,0.00778732938988516,3.392024381875518
1.193062957540264e-05,0.006785346088849456,3.399465776164535
1.195062957540264e-05,0.006451351655171495,3.384582987586502
1.197062957540263e-05,0.007787329389884553,3.384582987586502
1.199062957540263e-05,0.005449368354135184,3.392024381875518
1.201062957540264e-05,0.007119340522528024,3.395745079020027
1.203062957540264e-05,0.007119340522527417,3.395745079020024
1.205062957540263e-05,0.005783362787814359,3.388303684731014
1.207062957540263e-05,0.007119340522528024,3.403186473309044
1.209062957540264e-05,0.00611735722149232,3.384582987586502
1.211062957540264e-05,0.006451351655170888,3.384582987586502
1.213062957540263e-05,0.007119340522527721,3.377141593297488
1.215062957540263e-05,0.005783362787813752,3.373420896152977
1.217062957540263e-05,0.006785346088849456,3.380862290441993
1.219062957540264e-05,0.005115373920456617,3.38830368473101
1.221062957540264e-05,0.006117357221492928,3.377141593297487
1.223062957540263e-05,0.007453334956206592,3.380862290441993
1.225062957540263e-05,0.005449368354135184,3.384582987586502
1.227062957540264e-05,0.007453334956206592,3.392024381875518
1.229062957540264e-05,0.005115373920457528,3.392024381875512
1.231062957540263e-05,0.007119340522527114,3.377141593297492
1.233062957540263e-05,0.00778732938988516,3.384582987586502
1.235062957540264e-05,0.005783362787813752,3.380862290441993
1.237062957540264e-05,0.007453334956205832,3.380862290441991
1.239062957540263e-05,0.005783362787814512,3.377141593297487
1.241062957540263e-05,0.00611735722149232,3.392024381875518
1.243062957540264e-05,0.006785346088849456,3.380862290441993
1.245062957540264e-05,0.004447385053099481,3.373420896152977
1.247062957540263e-05,0.006451351655169977,3.384582987586497
1.249062957540263e-05,0.004781379486778049,3.380862290441993
1.251062957540263e-05,0.005783362787813752,3.377141593297485
1.253062957540264e-05,0.00611735722149232,3.380862290441993
1.255062957540264e-05,0.004447385053100545,3.37714159329749
1.257062957540263e-05,0.006785346088849456,3.38830368473101
1.259062957540263e-05,0.004781379486778049,3.377141593297485
1.261062957540264e-05,0.005449368354135184,3.369700199008468
1.263062957540264e-05,0.00578336278781284,3.380862290441993
1.265062957540263e-05,0.003779396185743256,3.380862290441993
1.267062957540263e-05,0.005783362787813752,3.377141593297485
1.269062957540264e-05,0.004113390619420913,3.392024381875518
1.271062957540264e-05,0.00645135165517104,3.37342089615298
1.273062957540263e-05,0.006785346088849304,3.38086229044199
1.275062957540263e-05,0.004447385053099481,3.380862290441993
1.277062957540264e-05,0.006451351655170888,3.377141593297485
1.279062957540264e-05,0.004781379486778049,3.377141593297485
1.281062957540263e-05,0.005449368354134881,3.377141593297485
1.283062957540263e-05,0.006451351655170888,3.380862290441993
1.285062957540264e-05,0.004447385053099481,3.380862290441993
1.287062957540264e-05,0.005783362787813752,3.380862290441993
1.289062957540264e-05,0.005115373920457072,3.392024381875517
1.291062957540263e-05,0.00611735722149232,3.38830368473101
1.293062957540263e-05,0.005115373920456617,3.384582987586502
1.295062957540264e-05,0.004113390619420913,3.38830368473101
1.297062957540264e-05,0.006117357221491257,3.388303684731017
1.299062957540263e-05,0.003779396185743408,3.403186473309037
1.301062957540263e-05,0.006785346088849456,3.399465776164535
1.303062957540264e-05,0.00611735722149232,3.392024381875518
1.305062957540264e-05,0.004447385053100088,3.388303684731019
1.307062957540263e-05,0.005783362787813145,3.406907170453544
1.309062957540263e-05,0.003779396185742345,3.403186473309044
1.311062957540264e-05,0.005449368354135184,3.41434856474257
1.313062957540264e-05,0.005783362787813752,3.399465776164535
1.315062957540263e-05,0.004113390619421672,3.399465776164535
1.317062957540263e-05,0.006451351655170888,3.392024381875518
1.319062957540264e-05,0.004781379486778049,3.395745079020027
1.321062957540264e-05,0.005449368354135184,3.392024381875518
1.323062957540264e-05,0.004781379486777594,3.39202438187552
1.325062957540263e-05,0.003779396185742345,3.395745079020027
1.327062957540263e-05,0.005783362787813752,3.392024381875518
1.329062957540264e-05,0.004113390619420913,3.395745079020027
1.331062957540264e-05,0.006117357221491865,3.392024381875515
1.333062957540263e-05,0.005115373920456617,3.384582987586502
1.335062957540263e-05,0.004447385053099481,3.380862290441993
1.337062957540264e-05,0.00611735722149232,3.38830368473101
1.339062957540264e-05,0.004781379486778504,3.377141593297487
1.341062957540263e-05,0.005783362787813297,3.380862290441991
1.343062957540263e-05,0.006451351655170888,3.380862290441993
1.345062957540264e-05,0.004781379486778049,3.373420896152977
1.347062957540264e-05,0.006785346088849456,3.36597950186396
1.349062957540263e-05,0.00478137948677896,3.380862290441986
1.351062957540263e-05,0.007119340522528024,3.38830368473101
1.353062957540264e-05,0.007453334956206592,3.369700199008468
1.355062957540264e-05,0.00611735722149232,3.369700199008468
1.357062957540263e-05,0.007119340522527569,3.369700199008468
1.359062957540263e-05,0.005449368354135184,3.362258804719451
1.361062957540263e-05,0.007119340522528024,3.373420896152977
1.363062957540264e-05,0.008121323823563727,3.36597950186396
1.365062957540264e-05,0.005115373920457528,3.37342089615298
1.367062957540263e-05,0.007119340522528024,3.380862290441993
1.369062957540263e-05,0.006785346088849456,3.384582987586502
1.371062957540264e-05,0.00611735722149232,3.384582987586502
1.373062957540264e-05,0.006451351655170281,3.373420896152977
1.375062957540263e-05,0.005115373920457224,3.373420896152977
1.377062957540263e-05,0.006451351655170888,3.373420896152977
1.379062957540264e-05,0.005115373920456617,3.38830368473101
1.381062957540264e-05,0.005115373920456617,3.377141593297485
1.383062957540263e-05,0.005783362787813448,3.373420896152978
1.385062957540263e-05,0.003445401752063777,3.369700199008468
1.387062957540264e-05,0.004447385053099481,3.377141593297485
1.389062957540264e-05,0.003111407318385209,3.377141593297485
1.391062957540263e-05,0.004113390619420457,3.377141593297485
1.393062957540263e-05,0.005449368354135184,3.369700199008468
1.395062957540263e-05,0.003445401752063777,3.373420896152977
1.397062957540264e-05,0.004781379486778049,3.373420896152977
1.399062957540264e-05,0.004447385053099937,3.377141593297487
1.401062957540263e-05,0.005449368354135184,3.380862290441993
1.403062957540263e-05,0.004447385053099481,3.392024381875518
1.405062957540264e-05,0.003445401752063777,3.377141593297485
1.407062957540264e-05,0.004781379486777594,3.384582987586502
1.409062957540263e-05,0.0037793961857428,3.384582987586502
1.411062957540263e-05,0.005783362787813752,3.384582987586502
1.413062957540264e-05,0.004781379486778049,3.384582987586502
1.415062957540264e-05,0.003111407318386424,3.388303684731007
1.417062957540263e-05,0.005783362787812537,3.380862290441997
1.419062957540263e-05,0.004447385053099481,3.380862290441993
1.421062957540264e-05,0.005783362787813752,3.406907170453553
1.423062957540264e-05,0.005115373920456617,3.392024381875518
1.425062957540263e-05,0.003779396185742953,3.395745079020025
1.427062957540263e-05,0.005115373920456617,3.395745079020027
1.429062957540263e-05,0.003445401752063777,3.392024381875518
1.431062957540264e-05,0.005449368354135184,3.399465776164535
1.433062957540264e-05,0.005783362787812992,3.392024381875517
1.435062957540263e-05,0.004113390619420913,3.38830368473101
1.437062957540263e-05,0.005783362787813752,3.403186473309044
1.439062957540264e-05,0.003445401752063777,3.403186473309044
1.441062957540264e-05,0.005115373920457224,3.399465776164532
1.443062957540263e-05,0.00645135165517028,3.392024381875522
1.445062957540263e-05,0.004113390619420913,3.399465776164535
1.447062957540264e-05,0.005115373920456617,3.406907170453553
1.449062957540264e-05,0.004447385053100241,3.395745079020031
1.451062957540263e-05,0.006117357221491562,3.40318647330904
