traces_bank_current_trigger/sampling_freq_100MHz/MOVi/mov_1.csv

#Digilent WaveForms Oscilloscope Acquisition
#Device Name: Discovery2
#Serial Number: SN:210321B3D813
#Date Time: 2023-07-27 13:50:05.955
#Sample rate: 5e+07Hz
#Samples: 8192
#Trigger: Source: Channel 2 Type: Edge Condition: Rising Level: 2 V Hyst.: Auto HoldOff: 0 s
#Channel 1: Range: 20 mV/div Offset: 0 V Attenuation: 1 X Sample Mode: Average
#Channel 2: Range: 5 V/div Offset: 0 V Attenuation: 1 X Sample Mode: Average

Time (s),Channel 1 (V),Channel 2 (V)
8.089732484076442e-06,0.003445401752063777,3.369700199008468
8.109732484076445e-06,0.007119340522528024,3.380862290441993
8.129732484076448e-06,0.005449368354135184,3.373420896152973
8.149732484076438e-06,0.005449368354135184,3.365979501863963
8.169732484076441e-06,0.005783362787813752,3.36597950186396
8.189732484076444e-06,0.004113390619420913,3.384582987586502
8.209732484076447e-06,0.005783362787813752,3.380862290441993
8.229732484076437e-06,0.00511537392045692,3.380862290441993
8.24973248407644e-06,0.004781379486778049,3.36597950186396
8.269732484076443e-06,0.00611735722149232,3.369700199008468
8.289732484076447e-06,0.003445401752063777,3.380862290441993
8.30973248407645e-06,0.007119340522527417,3.384582987586505
8.329732484076439e-06,0.005783362787813752,3.392024381875518
8.349732484076443e-06,0.005783362787813752,3.384582987586502
8.369732484076446e-06,0.006785346088849456,3.373420896152977
8.389732484076449e-06,0.00377939618574356,3.395745079020021
8.409732484076439e-06,0.006451351655169673,3.380862290442
8.429732484076442e-06,0.004781379486778049,3.399465776164535
8.449732484076445e-06,0.004781379486778049,3.38830368473101
8.469732484076448e-06,0.004781379486777745,3.380862290442008
8.489732484076438e-06,0.004113390619421216,3.414348564742554
8.509732484076441e-06,0.005783362787813752,3.403186473309044
8.529732484076444e-06,0.005783362787813752,3.406907170453553
8.549732484076447e-06,0.004781379486778049,3.38830368473101
8.569732484076437e-06,0.005115373920456465,3.38830368473101
8.58973248407644e-06,0.003111407318385209,3.392024381875518
8.609732484076443e-06,0.006785346088849456,3.392024381875518
8.629732484076447e-06,0.005449368354135184,3.395745079020027
8.64973248407645e-06,0.004447385053100545,3.392024381875518
8.66973248407644e-06,0.006785346088849456,3.392024381875518
8.689732484076443e-06,0.005783362787813752,3.392024381875518
8.709732484076446e-06,0.006451351655170888,3.403186473309044
8.729732484076449e-06,0.004447385053100088,3.399465776164524
8.749732484076439e-06,0.005783362787813145,3.373420896152989
8.769732484076442e-06,0.004781379486778049,3.38830368473101
8.789732484076445e-06,0.003779396185742345,3.392024381875518
8.809732484076448e-06,0.006785346088848392,3.384582987586497
8.829732484076438e-06,0.004447385053100545,3.373420896152981
8.849732484076441e-06,0.004781379486778049,3.373420896152977
8.869732484076444e-06,0.005783362787813752,3.384582987586502
8.889732484076448e-06,0.003111407318385209,3.380862290441993
8.909732484076437e-06,0.005449368354134121,3.406907170453541
8.92973248407644e-06,0.004781379486778049,3.392024381875518
8.949732484076444e-06,0.004113390619420913,3.377141593297485
8.969732484076447e-06,0.004781379486778049,3.38830368473101
8.98973248407645e-06,0.004113390619421824,3.392024381875515
9.00973248407644e-06,0.00611735722149232,3.384582987586502
9.029732484076443e-06,0.004447385053099481,3.395745079020027
9.049732484076446e-06,0.005449368354135184,3.380862290441993
9.069732484076449e-06,0.006451351655169825,3.380862290441998
9.089732484076439e-06,0.004113390619420913,3.392024381875518
9.109732484076442e-06,0.004781379486778049,3.392024381875518
9.129732484076445e-06,0.005115373920456617,3.38830368473101
9.149732484076448e-06,0.00311140731838688,3.384582987586507
9.169732484076438e-06,0.006785346088847785,3.395745079020022
9.189732484076441e-06,0.004447385053099481,3.392024381875518
9.209732484076444e-06,0.007119340522528024,3.395745079020027
9.229732484076448e-06,0.00611735722149232,3.38830368473101
9.249732484076437e-06,0.005449368354135488,3.380862290441997
9.269732484076441e-06,0.005783362787813752,3.380862290441993
9.289732484076444e-06,0.005449368354135184,3.38830368473101
9.309732484076447e-06,0.00778732938988516,3.380862290441993
9.32973248407645e-06,0.006451351655171192,3.395745079020021
9.34973248407644e-06,0.007119340522528024,3.380862290441993
9.369732484076443e-06,0.007453334956206592,3.377141593297485
9.389732484076446e-06,0.004781379486778049,3.373420896152977
9.409732484076449e-06,0.008455318257241384,3.392024381875517
9.429732484076439e-06,0.006451351655170888,3.38830368473101
9.449732484076442e-06,0.006451351655170888,3.377141593297485
9.469732484076445e-06,0.006451351655170888,3.369700199008468
9.489732484076449e-06,0.004781379486778656,3.373420896152985
9.509732484076438e-06,0.006117357221491712,3.39202438187551
9.529732484076441e-06,0.005115373920456617,3.380862290441993
9.549732484076445e-06,0.004781379486778049,3.384582987586502
9.569732484076448e-06,0.006451351655170888,3.377141593297485
9.589732484076437e-06,0.004447385053100392,3.395745079020019
9.609732484076441e-06,0.00778732938988516,3.384582987586502
9.629732484076444e-06,0.005783362787813752,3.384582987586502
9.649732484076447e-06,0.006451351655170888,3.380862290441993
9.669732484076437e-06,0.006785346088849304,3.365979501863966
9.68973248407644e-06,0.005115373920456617,3.377141593297485
9.709732484076443e-06,0.006785346088849456,3.380862290441993
9.729732484076446e-06,0.005783362787813752,3.380862290441993
9.749732484076449e-06,0.005115373920457224,3.365979501863958
9.769732484076439e-06,0.006451351655170888,3.362258804719451
9.789732484076442e-06,0.004447385053099481,3.36597950186396
9.809732484076446e-06,0.006785346088849456,3.373420896152977
9.829732484076449e-06,0.004781379486777897,3.36970019900847
9.849732484076438e-06,0.004447385053099633,3.373420896152975
9.869732484076442e-06,0.004781379486778049,3.377141593297485
9.889732484076445e-06,0.003445401752063777,3.36597950186396
9.909732484076448e-06,0.004781379486777289,3.380862290441991
9.929732484076438e-06,0.003111407318385969,3.377141593297487
9.949732484076441e-06,0.004781379486778049,3.354817410430434
9.969732484076444e-06,0.004113390619420913,3.36597950186396
9.989732484076447e-06,0.002777412884706641,3.380862290441993
1.000973248407644e-05,0.005449368354133969,3.369700199008473
1.002973248407644e-05,0.003445401752063777,3.369700199008468
1.004973248407644e-05,0.002777412884706641,3.362258804719451
1.006973248407645e-05,0.004447385053099481,3.369700199008468
1.008973248407645e-05,0.003111407318385969,3.373420896152978
1.010973248407644e-05,0.004781379486778049,3.377141593297485
1.012973248407644e-05,0.004447385053099481,3.369700199008468
1.014973248407645e-05,0.003779396185742345,3.358538107574943
1.016973248407645e-05,0.004113390619420609,3.365979501863964
1.018973248407644e-05,0.003445401752064081,3.37714159329748
1.020973248407644e-05,0.007119340522528024,3.369700199008468
1.022973248407644e-05,0.005449368354135184,3.377141593297485
1.024973248407645e-05,0.004781379486778961,3.37342089615298
1.026973248407644e-05,0.006785346088848544,3.38086229044199
1.028973248407644e-05,0.004113390619420913,3.384582987586502
1.030973248407644e-05,0.007119340522528024,3.380862290441993
1.032973248407645e-05,0.006451351655170888,3.38830368473101
1.034973248407644e-05,0.004447385053100392,3.373420896152983
1.036973248407644e-05,0.006785346088849456,3.380862290441993
1.038973248407644e-05,0.004781379486778049,3.377141593297485
1.040973248407645e-05,0.008121323823563727,3.384582987586502
1.042973248407645e-05,0.005449368354135184,3.388303684731002
1.044973248407644e-05,0.005449368354135184,3.369700199008468
1.046973248407644e-05,0.006785346088849456,3.369700199008468
1.048973248407645e-05,0.004113390619420913,3.369700199008468
1.050973248407645e-05,0.005783362787813752,3.377141593297483
1.052973248407644e-05,0.005783362787813752,3.373420896152978
1.054973248407644e-05,0.005783362787813752,3.358538107574943
1.056973248407645e-05,0.005115373920456617,3.373420896152977
1.058973248407645e-05,0.004781379486778961,3.36970019900847
1.060973248407644e-05,0.006785346088848544,3.373420896152975
1.062973248407644e-05,0.005783362787813752,3.36597950186396
1.064973248407644e-05,0.00611735722149232,3.354817410430434
1.066973248407645e-05,0.00611735722149232,3.358538107574943
1.068973248407644e-05,0.004113390619421824,3.362258804719449
1.070973248407644e-05,0.006785346088849456,3.36597950186396
1.072973248407644e-05,0.003779396185742345,3.369700199008468
1.074973248407645e-05,0.005449368354135184,3.369700199008468
1.076973248407645e-05,0.006117357221491409,3.351096713285934
1.078973248407644e-05,0.004113390619420913,3.369700199008468
1.080973248407644e-05,0.006451351655170888,3.369700199008468
1.082973248407645e-05,0.004781379486778049,3.373420896152977
1.084973248407645e-05,0.003779396185742801,3.358538107574944
1.086973248407644e-05,0.004781379486777594,3.362258804719449
1.088973248407644e-05,0.003111407318385209,3.373420896152977
1.090973248407645e-05,0.005115373920456617,3.377141593297485
1.092973248407645e-05,0.005115373920456465,3.38086229044199
1.094973248407644e-05,0.004781379486778201,3.37342089615298
1.096973248407644e-05,0.005449368354135184,3.373420896152977
1.098973248407644e-05,0.002777412884706641,3.377141593297485
1.100973248407645e-05,0.005783362787813752,3.380862290441993
1.102973248407644e-05,0.004113390619421672,3.388303684731007
1.104973248407644e-05,0.003445401752063777,3.380862290441993
1.106973248407644e-05,0.00611735722149232,3.377141593297485
1.108973248407645e-05,0.002777412884706641,3.380862290441993
1.110973248407645e-05,0.006117357221491409,3.384582987586505
1.112973248407644e-05,0.004113390619420913,3.392024381875518
1.114973248407644e-05,0.004781379486778049,3.377141593297485
1.116973248407645e-05,0.006451351655170888,3.373420896152977
1.118973248407645e-05,0.00277741288470816,3.377141593297488
1.120973248407644e-05,0.00611735722149232,3.384582987586502
1.122973248407644e-05,0.004447385053099481,3.377141593297485
1.124973248407645e-05,0.003779396185742345,3.369700199008468
1.126973248407645e-05,0.003779396185742345,3.373420896152977
1.128973248407644e-05,0.003779396185742345,3.373420896152977
1.130973248407644e-05,0.005449368354135184,3.384582987586502
1.132973248407644e-05,0.005115373920456617,3.384582987586502
1.134973248407645e-05,0.005115373920456617,3.369700199008468
1.136973248407644e-05,0.004781379486778201,3.377141593297481
1.138973248407644e-05,0.003111407318385209,3.377141593297485
1.140973248407644e-05,0.005783362787813752,3.36597950186396
1.142973248407645e-05,0.004781379486778049,3.373420896152977
1.144973248407645e-05,0.004447385053099481,3.358538107574944
1.146973248407644e-05,0.004447385053099481,3.362258804719451
1.148973248407644e-05,0.003779396185742345,3.36597950186396
1.150973248407645e-05,0.005449368354135184,3.36597950186396
1.152973248407645e-05,0.005449368354134577,3.347376016141417
1.154973248407644e-05,0.004113390619420913,3.347376016141417
1.156973248407644e-05,0.006451351655170888,3.358538107574943
1.158973248407645e-05,0.004113390619420913,3.36597950186396
1.160973248407645e-05,0.005783362787812992,3.365979501863958
1.162973248407644e-05,0.004113390619421672,3.362258804719453
1.164973248407644e-05,0.005115373920456617,3.354817410430434
1.166973248407644e-05,0.006785346088849456,3.36597950186396
1.168973248407645e-05,0.003779396185742345,3.373420896152977
1.170973248407644e-05,0.006451351655169673,3.384582987586497
1.172973248407644e-05,0.005449368354135184,3.380862290441993
1.174973248407644e-05,0.005449368354135184,3.373420896152977
1.176973248407645e-05,0.006785346088849456,3.369700199008468
1.178973248407644e-05,0.004447385053100545,3.377141593297481
1.180973248407644e-05,0.005449368354135184,3.373420896152977
1.182973248407644e-05,0.005783362787813752,3.384582987586502
1.184973248407645e-05,0.005449368354135184,3.36597950186396
1.186973248407645e-05,0.005783362787812992,3.380862290441991
1.188973248407644e-05,0.004113390619420913,3.377141593297485
1.190973248407644e-05,0.005449368354135184,3.38830368473101
1.192973248407645e-05,0.00611735722149232,3.38830368473101
1.194973248407645e-05,0.005449368354135184,3.384582987586498
1.196973248407644e-05,0.005449368354135184,3.377141593297488
1.198973248407644e-05,0.004447385053099481,3.380862290441993
1.200973248407644e-05,0.006785346088849456,3.395745079020027
1.202973248407645e-05,0.005449368354135791,3.388303684731012
1.204973248407644e-05,0.006785346088848848,3.392024381875517
1.206973248407644e-05,0.007119340522528024,3.384582987586502
1.208973248407644e-05,0.005115373920456617,3.380862290441993
1.210973248407645e-05,0.007453334956206592,3.380862290441993
1.212973248407644e-05,0.006451351655171344,3.3845829875865
1.214973248407644e-05,0.005449368354135184,3.384582987586502
1.216973248407644e-05,0.007453334956206592,3.380862290441993
1.218973248407645e-05,0.004113390619420913,3.380862290441993
1.220973248407645e-05,0.006785346088848849,3.392024381875514
1.222973248407644e-05,0.005449368354135184,3.380862290441993
1.224973248407644e-05,0.006451351655170888,3.377141593297485
1.226973248407645e-05,0.006785346088849456,3.380862290441993
1.228973248407645e-05,0.005115373920457528,3.388303684731008
1.230973248407644e-05,0.007119340522527114,3.384582987586504
1.232973248407644e-05,0.00611735722149232,3.392024381875518
1.234973248407644e-05,0.006451351655170888,3.395745079020027
1.236973248407645e-05,0.006451351655169977,3.37342089615298
1.238973248407644e-05,0.004447385053100392,3.38086229044199
1.240973248407644e-05,0.008121323823563727,3.384582987586502
1.242973248407644e-05,0.005783362787813752,3.392024381875518
1.244973248407645e-05,0.004781379486778049,3.384582987586502
1.246973248407644e-05,0.005449368354134881,3.380862290441995
1.248973248407644e-05,0.004113390619420913,3.38830368473101
1.250973248407644e-05,0.007119340522528024,3.406907170453553
1.252973248407645e-05,0.005115373920456617,3.392024381875518
1.254973248407645e-05,0.004447385053099937,3.380862290441997
1.256973248407644e-05,0.005449368354135184,3.38830368473101
1.258973248407644e-05,0.003111407318385209,3.392024381875518
1.260973248407645e-05,0.005115373920456617,3.384582987586502
1.262973248407645e-05,0.004781379486777897,3.384582987586493
1.264973248407644e-05,0.004447385053099633,3.365979501863968
1.266973248407644e-05,0.005449368354135184,3.377141593297485
1.268973248407645e-05,0.003111407318385209,3.38830368473101
1.270973248407645e-05,0.005783362787813297,3.3845829875865
1.272973248407644e-05,0.004781379486778504,3.380862290441995
1.274973248407644e-05,0.003779396185742345,3.373420896152977
1.276973248407644e-05,0.00611735722149232,3.369700199008468
1.278973248407645e-05,0.003445401752063777,3.377141593297485
1.280973248407644e-05,0.005783362787812689,3.380862290441991
1.282973248407644e-05,0.004781379486778049,3.377141593297485
1.284973248407644e-05,0.004447385053099481,3.373420896152977
1.286973248407645e-05,0.005783362787813752,3.377141593297485
1.288973248407645e-05,0.004447385053099937,3.373420896152978
1.290973248407644e-05,0.005449368354135184,3.377141593297485
1.292973248407644e-05,0.006785346088849456,3.362258804719451
1.294973248407645e-05,0.005783362787813752,3.369700199008468
1.296973248407645e-05,0.006451351655169825,3.354817410430441
1.298973248407644e-05,0.004113390619421976,3.369700199008461
1.300973248407644e-05,0.006451351655170888,3.36597950186396
1.302973248407645e-05,0.005115373920456617,3.369700199008468
1.304973248407645e-05,0.006117357221492169,3.351096713285932
1.306973248407644e-05,0.005783362787813904,3.365979501863953
1.308973248407644e-05,0.005115373920456617,3.377141593297485
1.310973248407644e-05,0.006785346088849456,3.373420896152977
1.312973248407645e-05,0.005783362787813752,3.377141593297485
1.314973248407644e-05,0.005783362787813752,3.354817410430444
1.316973248407644e-05,0.00778732938988516,3.351096713285926
1.318973248407644e-05,0.005115373920456617,3.369700199008468
1.320973248407645e-05,0.006785346088849456,3.377141593297485
1.322973248407645e-05,0.006451351655170585,3.37342089615297
1.324973248407644e-05,0.005783362787813752,3.358538107574943
1.326973248407644e-05,0.006785346088849456,3.377141593297485
1.328973248407645e-05,0.004113390619420913,3.373420896152977
1.330973248407645e-05,0.007119340522527265,3.377141593297487
1.332973248407644e-05,0.005449368354135184,3.380862290441993
1.334973248407644e-05,0.00611735722149232,3.369700199008468
1.336973248407645e-05,0.006785346088849456,3.373420896152977
1.338973248407645e-05,0.004781379486778656,3.380862290441995
1.340973248407644e-05,0.006117357221491712,3.3845829875865
1.342973248407644e-05,0.006451351655170888,3.392024381875518
1.344973248407644e-05,0.005783362787813752,3.380862290441993
1.346973248407645e-05,0.007453334956206592,3.38830368473101
1.348973248407644e-05,0.003779396185744016,3.38830368473101
1.350973248407644e-05,0.006785346088849456,3.392024381875518
1.352973248407644e-05,0.00611735722149232,3.380862290441993
1.354973248407645e-05,0.005449368354135184,3.373420896152977
1.356973248407644e-05,0.0057833627878136,3.384582987586497
1.358973248407644e-05,0.003779396185742345,3.377141593297485
1.360973248407644e-05,0.00611735722149232,3.38830368473101
1.362973248407645e-05,0.004781379486778049,3.392024381875518
1.364973248407645e-05,0.00511537392045692,3.380862290441993
1.366973248407644e-05,0.005783362787813752,3.380862290441993
1.368973248407644e-05,0.003779396185742345,3.38830368473101
1.370973248407645e-05,0.006785346088849456,3.384582987586502
1.372973248407645e-05,0.004447385053099633,3.392024381875514
1.374973248407644e-05,0.004781379486777897,3.380862290441998
1.376973248407644e-05,0.006785346088849456,3.384582987586502
1.378973248407644e-05,0.005115373920456617,3.384582987586502
1.380973248407645e-05,0.007453334956206592,3.380862290441993
1.382973248407644e-05,0.005449368354136095,3.392024381875514
1.384973248407644e-05,0.00611735722149232,3.392024381875518
1.386973248407644e-05,0.006451351655170888,3.380862290441993
1.388973248407645e-05,0.004781379486778049,3.392024381875518
1.390973248407644e-05,0.006451351655170129,3.395745079020025
1.392973248407644e-05,0.004113390619420913,3.384582987586502
1.394973248407644e-05,0.005115373920456617,3.38830368473101
1.396973248407645e-05,0.00611735722149232,3.373420896152977
1.398973248407645e-05,0.005115373920457072,3.395745079020025
1.400973248407644e-05,0.00611735722149232,3.392024381875518
1.402973248407644e-05,0.005115373920456617,3.380862290441993
1.404973248407645e-05,0.005115373920456617,3.373420896152977
1.406973248407645e-05,0.005449368354134121,3.392024381875515
1.408973248407644e-05,0.003111407318386273,3.384582987586505
1.410973248407644e-05,0.005783362787813752,3.392024381875518
1.412973248407644e-05,0.004781379486778049,3.384582987586502
1.414973248407645e-05,0.003779396185743256,3.380862290441998
1.416973248407644e-05,0.005783362787812841,3.392024381875514
1.418973248407644e-05,0.004113390619420913,3.406907170453553
1.420973248407644e-05,0.005783362787813752,3.399465776164535
1.422973248407645e-05,0.004781379486778049,3.38830368473101
1.424973248407644e-05,0.005449368354134881,3.380862290441997
1.426973248407644e-05,0.00611735722149232,3.373420896152977
1.428973248407644e-05,0.004447385053099481,3.377141593297485
1.430973248407645e-05,0.005783362787813752,3.377141593297485
1.432973248407645e-05,0.005449368354134881,3.403186473309032
1.434973248407644e-05,0.004781379486778049,3.377141593297485
1.436973248407644e-05,0.004781379486778049,3.384582987586502
1.438973248407645e-05,0.002777412884706641,3.384582987586502
1.440973248407645e-05,0.004781379486778049,3.399465776164529
1.442973248407644e-05,0.004781379486778049,3.384582987586509
1.444973248407644e-05,0.004781379486778049,3.373420896152977
1.446973248407644e-05,0.004781379486778049,3.384582987586502
1.448973248407645e-05,0.003445401752064841,3.373420896152981
