traces_bank_current_trigger/sampling_freq_100MHz/AND/AND_1.csv

#Digilent WaveForms Oscilloscope Acquisition
#Device Name: Discovery2
#Serial Number: SN:210321B3D813
#Date Time: 2023-06-13 13:53:37.445
#Sample rate: 1e+08Hz
#Samples: 8192
#Trigger: Source: Channel 2 Type: Edge Condition: Rising Level: 2 V Hyst.: Auto HoldOff: 0 s
#Channel 1: Range: 5 mV/div Offset: 0 V Attenuation: 1 X Sample Mode: Average
#Channel 2: Range: 2 V/div Offset: 0 V Attenuation: 1 X Sample Mode: Average

Time (s),Channel 1 (V),Channel 2 (V)
-9.567771883289068e-07,0.009791295991956567,-0.01241350534971222
-9.467771883289053e-07,0.008455318257242295,0.04339695181791451
-9.367771883289037e-07,0.006785346088849608,0.009910677517336779
-9.267771883289088e-07,0.007119340522527873,0.006189980372831713
-9.167771883289072e-07,0.008455318257242295,0.05083834610693141
-9.067771883289056e-07,0.006785346088849456,-0.02357559678323757
-8.96777188328904e-07,0.008455318257242295,0.04339695181791451
-8.867771883289092e-07,0.006117357221493384,-0.001251413916166573
-8.767771883289076e-07,0.009791295991956567,0.00991067751733847
-8.66777188328906e-07,0.009457301558278,0.03595555752889761
-8.567771883289044e-07,0.008789312690920863,-0.01613420249422067
-8.467771883289028e-07,0.00812132382356312,0.0508383461069128
-8.36777188328908e-07,0.006785346088849456,0.00991067751733847
-8.267771883289064e-07,0.008455318257242295,0.006189980372830022
-8.167771883289048e-07,0.008789312690920863,0.03967625467340606
-8.067771883289032e-07,0.006785346088849759,-0.008692808205178395
-7.967771883289084e-07,0.007453334956206288,0.04711764896239758
-7.867771883289068e-07,0.006785346088849456,0.01735207180635537
-7.767771883289052e-07,0.00778732938988516,0.006189980372830022
-7.667771883289036e-07,0.006785346088848849,0.02479346609535873
-7.567771883289088e-07,0.005449368354135791,-0.004972111060681791
-7.467771883289072e-07,0.00611735722149232,0.03595555752889761
-7.367771883289056e-07,0.00611735722149232,0.03223486038438916
-7.26777188328904e-07,0.006451351655170888,-0.001251413916186876
-7.167771883289091e-07,0.005783362787814056,0.03967625467338745
-7.067771883289075e-07,0.005783362787813752,-0.01613420249422067
-6.96777188328906e-07,0.007119340522528024,0.05083834610693141
-6.867771883289044e-07,0.004781379486778049,0.01735207180635537
-6.767771883289028e-07,0.00611735722149232,0.006189980372841865
-6.667771883289079e-07,0.00611735722149232,0.03223486038438916
-6.567771883289063e-07,0.005783362787813752,-0.001251413916186876
-6.467771883289047e-07,0.007119340522528024,0.02107276895086382
-6.367771883289031e-07,0.004113390619421673,0.01363137466183846
-6.267771883289083e-07,0.005783362787812992,-0.004972111060686867
-6.167771883289067e-07,0.006785346088849456,0.02851416323988071
-6.067771883289051e-07,0.005115373920456617,-0.001251413916186876
-5.967771883289035e-07,0.006785346088848849,0.02851416323987564
-5.867771883289087e-07,0.005449368354135791,0.01735207180636044
-5.767771883289071e-07,0.004781379486778049,0.01735207180635537
-5.667771883289055e-07,0.00778732938988516,0.04711764896242296
-5.567771883289039e-07,0.006451351655170888,-0.01241350534971222
-5.467771883289091e-07,0.007787329389884553,0.03223486038436886
-5.367771883289075e-07,0.007453334956206592,0.01363137466184692
-5.267771883289059e-07,0.006785346088849456,0.01735207180635537
-5.167771883289043e-07,0.008121323823563727,0.01735207180635537
-5.067771883289027e-07,0.007119340522528024,-0.02357559678321557
-4.967771883289079e-07,0.007119340522528024,0.02479346609537227
-4.867771883289063e-07,0.007119340522528024,0.02107276895086382
-4.767771883289047e-07,0.008455318257242295,0.002469283228321573
-4.667771883289031e-07,0.006451351655170736,0.03223486038436717
-4.567771883289082e-07,0.00611735722149232,-0.01613420249422067
-4.467771883289067e-07,0.00611735722149232,0.03595555752889761
-4.367771883289051e-07,0.005449368354135184,0.002469283228321573
-4.267771883289035e-07,0.006451351655171495,-0.01241350534969023
-4.167771883289086e-07,0.007787329389884553,0.03595555752887562
-4.06777188328907e-07,0.004113390619420913,-0.02729629392774602
-3.967771883289054e-07,0.006785346088849456,0.03595555752889761
-3.867771883289038e-07,0.006451351655170888,-0.001251413916186876
-3.76777188328909e-07,0.007453334956206137,-0.001251413916186876
-3.667771883289074e-07,0.007453334956206592,0.03967625467340606
-3.567771883289058e-07,0.00611735722149232,-0.01613420249422067
-3.467771883289042e-07,0.006785346088849456,0.02479346609537227
-3.367771883289026e-07,0.006117357221492472,-0.008692808205200389
-3.267771883289078e-07,0.006451351655170888,-0.001251413916186876
-3.167771883289062e-07,0.007453334956206592,0.05455904325143986
-3.067771883289046e-07,0.007119340522528024,-0.03473768821676292
-2.96777188328903e-07,0.008455318257241384,0.02479346609536719
-2.867771883289082e-07,0.006451351655170888,0.01363137466184692
-2.767771883289066e-07,0.007453334956206592,-0.008692808205203774
-2.66777188328905e-07,0.006785346088849456,0.03967625467340606
-2.567771883289034e-07,0.006117357221492624,-0.012413505349697
-2.467771883289086e-07,0.006785346088849152,0.02107276895084859
-2.36777188328907e-07,0.007119340522528024,0.00991067751733847
-2.267771883289054e-07,0.006785346088849456,-0.008692808205203774
-2.167771883289038e-07,0.007453334956206592,0.03595555752889761
-2.067771883289089e-07,0.006451351655171344,-0.0235755967832105
-1.967771883289073e-07,0.007119340522528024,0.04339695181791451
-1.867771883289058e-07,0.004781379486778049,0.002469283228321573
-1.767771883289042e-07,0.006451351655170888,0.006189980372830022
-1.667771883289093e-07,0.006451351655170888,0.03223486038437732
-1.567771883289077e-07,0.004781379486778049,-0.004972111060695325
-1.467771883289061e-07,0.006451351655170888,0.03595555752889761
-1.367771883289045e-07,0.006451351655170888,0.01363137466184692
-1.267771883289029e-07,0.006117357221492776,-0.001251413916164881
-1.167771883289081e-07,0.007119340522528024,0.04711764896242296
-1.067771883289065e-07,0.005449368354135184,-0.004972111060695325
-9.677718832890492e-08,0.007453334956206592,0.02851416323988071
-8.677718832890332e-08,0.004113390619421368,-0.004972111060685173
-7.67771883289085e-08,0.005115373920456161,0.01735207180634522
-6.67771883289069e-08,0.005449368354135184,0.02851416323988071
-5.67771883289053e-08,0.005115373920456617,-0.01241350534971222
-4.67771883289037e-08,0.004781379486778049,0.0322348603843807
-3.677718832890888e-08,0.004781379486778049,0.01363137466185538
-2.677718832890728e-08,0.004781379486778049,-0.001251413916186876
-1.677718832890568e-08,0.005449368354135184,0.05455904325143986
-6.777188328904087e-09,0.002777412884706641,0.0954867118410328
3.222811671090735e-09,-0.01425630323289257,2.900892358799128
1.322281167109233e-08,0.01146126816034941,3.369700199008468
2.322281167109393e-08,0.00611735722149232,3.183665341783045
3.322281167109553e-08,0.01513520693081365,3.295286256118299
4.322281167109713e-08,0.003779396185745231,3.325051833274367
5.322281167109195e-08,0.01012529042563514,3.325051833274367
6.322281167109355e-08,0.003445401752063777,3.429231353320603
7.322281167109515e-08,0.007119340522528024,3.332493227563384
8.322281167109675e-08,-0.002566498054148622,3.451555536187586
9.322281167109157e-08,0.001441435149990547,3.302727650407383
1.032228116710932e-07,-0.0002285370184004695,3.41434856474257
1.132228116710948e-07,0.005449368354135184,3.302727650407316
1.232228116710964e-07,0.001775429583673368,3.351096713285907
1.332228116710912e-07,0.007119340522525594,3.310169044696351
1.432228116710928e-07,0.006451351655170888,3.313889741840841
1.532228116710944e-07,0.009457301558278,3.321331136129858
1.63222811671096e-07,0.00611735722149232,3.354817410430434
1.732228116710908e-07,0.005783362787813904,3.351096713285927
1.832228116710924e-07,0.002109424017349506,3.418069261887078
1.93222811671094e-07,0.004113390619420913,3.347376016141417
2.032228116710956e-07,0.002109424017349506,3.395745079020027
2.132228116710972e-07,0.002109424017349809,3.365979501863953
2.23222811671092e-07,0.002777412884706641,3.351096713285926
2.332228116710936e-07,0.006785346088849456,3.358538107574943
2.432228116710952e-07,0.005449368354135184,3.321331136129858
2.532228116710968e-07,0.007119340522526657,3.369700199008458
2.632228116710916e-07,0.00411339061942228,3.347376016141427
2.732228116710932e-07,0.007119340522528024,3.347376016141417
2.832228116710948e-07,0.005449368354135184,3.403186473309044
2.932228116710964e-07,0.003779396185742497,3.351096713285949
3.032228116710913e-07,0.004113390619420761,3.40318647330902
3.132228116710928e-07,0.002777412884706641,3.362258804719451
3.232228116710944e-07,0.003445401752063777,3.354817410430434
3.33222811671096e-07,0.00611735722149232,3.369700199008468
3.432228116710909e-07,0.004447385053100241,3.343655318996921
3.532228116710925e-07,0.00611735722149232,3.377141593297485
3.632228116710941e-07,0.006451351655170888,3.358538107574943
3.732228116710957e-07,0.008789312690920863,3.36597950186396
3.832228116710973e-07,0.007453334956206744,3.373420896152966
3.932228116710921e-07,0.00778732938988516,3.351096713285926
4.032228116710937e-07,0.00778732938988516,3.392024381875518
4.132228116710953e-07,0.006785346088849456,3.380862290441993
4.232228116710969e-07,0.007453334956206137,3.36970019900848
4.332228116710917e-07,0.006451351655171344,3.395745079020015
4.432228116710933e-07,0.007453334956206592,3.3399346218524
4.532228116710949e-07,0.008789312690920863,3.373420896152977
4.632228116710965e-07,0.008455318257242902,3.354817410430436
4.732228116710913e-07,0.00979129599195596,3.358538107574941
4.832228116710929e-07,0.009791295991956567,3.403186473309044
4.932228116710945e-07,0.009123307124599432,3.336213924707892
5.032228116710961e-07,0.009123307124599432,3.384582987586502
5.132228116710909e-07,0.006451351655172103,3.377141593297488
5.232228116710925e-07,0.008455318257242295,3.362258804719451
5.332228116710941e-07,0.007453334956206592,3.41434856474257
5.432228116710957e-07,0.00778732938988516,3.336213924707892
5.532228116710973e-07,0.00812132382356388,3.377141593297481
5.632228116710922e-07,0.008455318257242295,3.369700199008468
5.732228116710937e-07,0.0104592848593137,3.351096713285926
5.832228116710953e-07,0.01112727372667084,3.38830368473101
5.932228116710969e-07,0.01012529042563514,3.339934621852429
6.032228116710918e-07,0.01012529042563514,3.403186473309044
6.132228116710934e-07,0.009457301558278,3.384582987586502
6.23222811671095e-07,0.0104592848593137,3.351096713285926
6.332228116710966e-07,0.01079327929299181,3.399465776164513
6.432228116710914e-07,0.009791295991957024,3.351096713285948
6.53222811671093e-07,0.01112727372667084,3.406907170453553
6.632228116710946e-07,0.009457301558278,3.373420896152977
6.732228116710962e-07,0.009457301558278,3.36597950186396
6.83222811671091e-07,0.009457301558278,3.380862290441986
6.932228116710926e-07,0.009457301558278,3.336213924707892
7.032228116710942e-07,0.009123307124599432,3.384582987586502
7.132228116710958e-07,0.00778732938988516,3.358538107574943
7.232228116710974e-07,0.009791295991956111,3.365979501863976
7.332228116710922e-07,0.008789312690920863,3.403186473309044
7.432228116710938e-07,0.008121323823563727,3.332493227563384
7.532228116710954e-07,0.008789312690920863,3.392024381875518
7.63222811671097e-07,0.007787329389884856,3.35109671328593
7.732228116710918e-07,0.007119340522528024,3.362258804719451
7.832228116710934e-07,0.00778732938988516,3.384582987586502
7.93222811671095e-07,0.007453334956206592,3.332493227563384
8.032228116710966e-07,0.008789312690920256,3.384582987586497
8.132228116710915e-07,0.007453334956207199,3.373420896152981
8.23222811671093e-07,0.01012529042563514,3.347376016141417
8.332228116710946e-07,0.007119340522528024,3.395745079020027
8.432228116710962e-07,0.008455318257242295,3.336213924707892
8.532228116710911e-07,0.01045928485931279,3.392024381875493
8.632228116710927e-07,0.008121323823563727,3.369700199008468
8.732228116710943e-07,0.009457301558278,3.358538107574943
8.832228116710959e-07,0.008455318257242295,3.38830368473101
8.932228116710907e-07,0.00979129599195596,3.332493227563409
9.032228116710923e-07,0.009457301558278,3.392024381875518
9.132228116710939e-07,0.007119340522528024,3.36597950186396
9.232228116710955e-07,0.007453334956206592,3.343655318996909
9.332228116710971e-07,0.009123307124599129,3.392024381875496
9.432228116710919e-07,0.008455318257242295,3.343655318996909
9.532228116710935e-07,0.00778732938988516,3.377141593297485
9.632228116710951e-07,0.009123307124599432,3.38830368473101
9.732228116710967e-07,0.007453334956207047,3.365979501863978
9.832228116710915e-07,0.008455318257241839,3.406907170453534
9.932228116710931e-07,0.006785346088849456,3.343655318996909
1.003222811671095e-06,0.00778732938988516,3.377141593297485
1.013222811671096e-06,0.005115373920457984,3.369700199008456
1.023222811671091e-06,0.00812132382356236,3.343655318996921
1.033222811671093e-06,0.007453334956206592,3.395745079020027
1.043222811671094e-06,0.00778732938988516,3.3399346218524
1.053222811671096e-06,0.006785346088849456,3.410627867598061
1.063222811671091e-06,0.006117357221492624,3.369700199008486
1.073222811671092e-06,0.006451351655170888,3.369700199008468
1.083222811671094e-06,0.006451351655170888,3.399465776164535
1.093222811671096e-06,0.006785346088849456,3.362258804719451
1.103222811671097e-06,0.007453334956206137,3.392024381875515
1.113222811671092e-06,0.006451351655170888,3.384582987586502
1.123222811671094e-06,0.009791295991956567,3.358538107574943
1.133222811671095e-06,0.007119340522528024,3.418069261887078
1.143222811671097e-06,0.006117357221493384,3.35481741043046
1.153222811671092e-06,0.008455318257241232,3.410627867598035
1.163222811671093e-06,0.00611735722149232,3.36597950186396
1.173222811671095e-06,0.007453334956206592,3.373420896152977
1.183222811671096e-06,0.00745333495620644,3.410627867598037
1.193222811671091e-06,0.007119340522528176,3.358538107574966
1.203222811671093e-06,0.009123307124599432,3.403186473309044
1.213222811671094e-06,0.007119340522528024,3.362258804719451
1.223222811671096e-06,0.008789312690920863,3.36597950186396
1.233222811671091e-06,0.008455318257242448,3.395745079020014
1.243222811671092e-06,0.008121323823563727,3.336213924707892
1.253222811671094e-06,0.008121323823563727,3.395745079020027
1.263222811671096e-06,0.007453334956206592,3.36597950186396
1.273222811671097e-06,0.006785346088850519,3.365979501863975
1.283222811671092e-06,0.009123307124599432,3.399465776164535
1.293222811671094e-06,0.006785346088849456,3.351096713285926
1.303222811671095e-06,0.006785346088849456,3.418069261887078
1.313222811671097e-06,0.007453334956206896,3.37342089615299
1.323222811671092e-06,0.008121323823563424,3.40318647330903
1.333222811671093e-06,0.006785346088849456,3.395745079020027
1.343222811671095e-06,0.005449368354135184,3.369700199008468
1.353222811671096e-06,0.006451351655170585,3.418069261887053
1.363222811671091e-06,0.005783362787814056,3.362258804719477
1.373222811671093e-06,0.006451351655170888,3.373420896152977
1.383222811671094e-06,0.00611735722149232,3.41434856474257
1.393222811671096e-06,0.005449368354135184,3.36597950186396
1.403222811671091e-06,0.006117357221492017,3.406907170453534
1.413222811671092e-06,0.005115373920456617,3.38830368473101
1.423222811671094e-06,0.00611735722149232,3.384582987586502
1.433222811671096e-06,0.007119340522528024,3.425510656176095
1.443222811671097e-06,0.004447385053100696,3.354817410430461
1.453222811671092e-06,0.007119340522528024,3.41434856474257
1.463222811671094e-06,0.00611735722149232,3.392024381875518
1.473222811671095e-06,0.00611735722149232,3.380862290441993
1.483222811671097e-06,0.007119340522527569,3.418069261887057
1.493222811671092e-06,0.006117357221492776,3.373420896152997
1.503222811671093e-06,0.005783362787813752,3.440393444754128
1.513222811671095e-06,0.00778732938988516,3.392024381875518
1.523222811671097e-06,0.007453334956207047,3.380862290442005
1.533222811671091e-06,0.008455318257241839,3.406907170453541
1.543222811671093e-06,0.009123307124599432,3.362258804719451
1.553222811671095e-06,0.008455318257242295,3.41434856474257
1.563222811671096e-06,0.008121323823563727,3.392024381875518
1.573222811671091e-06,0.00711934052252848,3.365979501863972
1.583222811671093e-06,0.006451351655170888,3.425510656176095
1.593222811671094e-06,0.007453334956206592,3.343655318996909
1.603222811671096e-06,0.008789312690920863,3.418069261887078
1.613222811671097e-06,0.007119340522528024,3.37342089615298
1.623222811671092e-06,0.007119340522528024,3.380862290441993
1.633222811671094e-06,0.00778732938988516,3.421789959031586
1.643222811671095e-06,0.00611735722149232,3.358538107574943
1.653222811671097e-06,0.009123307124598218,3.418069261887059
1.663222811671092e-06,0.006451351655170888,3.377141593297485
1.673222811671093e-06,0.009791295991956567,3.380862290441993
1.683222811671095e-06,0.008121323823563727,3.421789959031586
1.693222811671097e-06,0.007453334956207047,3.365979501863976
1.703222811671091e-06,0.008455318257241839,3.403186473309027
1.713222811671093e-06,0.008455318257242295,3.380862290441993
1.723222811671095e-06,0.00778732938988516,3.377141593297485
1.733222811671096e-06,0.009791295991956567,3.421789959031586
1.743222811671091e-06,0.008121323823564487,3.365979501863985
1.753222811671093e-06,0.009123307124599432,3.410627867598061
1.763222811671094e-06,0.00778732938988516,3.392024381875518
1.773222811671096e-06,0.009123307124599432,3.38830368473101
1.783222811671091e-06,0.007453334956207352,3.414348564742558
1.793222811671092e-06,0.009457301558278,3.3399346218524
1.803222811671094e-06,0.008789312690920863,3.406907170453553
1.813222811671095e-06,0.006785346088849456,3.384582987586502
1.823222811671097e-06,0.01012529042563392,3.380862290442008
1.833222811671092e-06,0.007453334956206592,3.41434856474257
1.843222811671093e-06,0.006785346088849456,3.36597950186396
1.853222811671095e-06,0.008789312690920863,3.406907170453553
1.863222811671097e-06,0.00812132382356388,3.392024381875514
1.873222811671091e-06,0.008455318257242142,3.380862290441998
1.883222811671093e-06,0.008789312690920863,3.421789959031586
1.893222811671095e-06,0.008455318257242295,3.373420896152977
1.903222811671096e-06,0.009123307124599432,3.410627867598061
1.913222811671091e-06,0.007119340522528935,3.403186473309047
1.923222811671093e-06,0.00778732938988516,3.377141593297485
1.933222811671094e-06,0.006451351655170888,3.410627867598061
1.943222811671096e-06,0.008455318257242295,3.369700199008468
1.953222811671091e-06,0.00878931269092071,3.414348564742549
1.963222811671092e-06,0.00778732938988516,3.377141593297485
1.973222811671094e-06,0.008789312690920863,3.36597950186396
1.983222811671095e-06,0.007453334956206592,3.406907170453553
1.993222811671097e-06,0.007453334956206137,3.354817410430453
2.003222811671092e-06,0.006451351655170888,3.395745079020027
2.013222811671094e-06,0.007453334956206592,3.384582987586502
2.023222811671095e-06,0.008121323823563727,3.369700199008468
2.033222811671097e-06,0.007787329389884704,3.399465776164519
2.043222811671092e-06,0.006785346088849911,3.362258804719468
2.053222811671093e-06,0.008121323823563727,3.410627867598061
2.063222811671095e-06,0.007119340522528024,3.369700199008468
2.073222811671096e-06,0.009123307124598825,3.365979501863975
2.083222811671091e-06,0.007787329389885767,3.39946577616452
2.093222811671093e-06,0.007119340522528024,3.36597950186396
2.103222811671094e-06,0.009791295991956567,3.406907170453553
2.113222811671096e-06,0.00778732938988516,3.406907170453553
2.123222811671091e-06,0.008789312690920406,3.369700199008485
2.133222811671092e-06,0.008455318257242295,3.418069261887078
2.143222811671094e-06,0.008455318257242295,3.3399346218524
2.153222811671096e-06,0.008789312690920863,3.406907170453553
2.163222811671097e-06,0.009791295991955504,3.377141593297476
2.173222811671092e-06,0.007453334956206592,3.358538107574943
2.183222811671094e-06,0.009457301558278,3.399465776164535
2.193222811671095e-06,0.008789312690920863,3.351096713285926
2.203222811671097e-06,0.01045928485931234,3.395745079020025
