traces_bank_current_trigger/sampling_freq_100MHz/AND/AND_7.csv

#Digilent WaveForms Oscilloscope Acquisition
#Device Name: Discovery2
#Serial Number: SN:210321B3D813
#Date Time: 2023-06-13 14:24:53.246
#Sample rate: 1e+08Hz
#Samples: 8192
#Trigger: Source: Channel 2 Type: Edge Condition: Rising Level: 2 V Hyst.: Auto HoldOff: 0 s
#Channel 1: Range: 5 mV/div Offset: 0 V Attenuation: 1 X Sample Mode: Average
#Channel 2: Range: 2 V/div Offset: 0 V Attenuation: 1 X Sample Mode: Average

Time (s),Channel 1 (V),Channel 2 (V)
-9.516928446771364e-07,0.008121323823563727,0.02851416323988071
-9.416928446771348e-07,0.008455318257242295,-0.02729629392774602
-9.316928446771332e-07,0.008789312690920406,0.01735207180634691
-9.216928446771383e-07,0.007787329389885615,-0.001251413916178418
-9.116928446771367e-07,0.00778732938988516,-0.004972111060695325
-9.016928446771351e-07,0.008455318257242295,0.03223486038438916
-8.916928446771335e-07,0.006451351655170888,-0.01613420249422067
-8.816928446771387e-07,0.008455318257241384,0.02479346609535366
-8.716928446771371e-07,0.007453334956206592,-0.008692808205203774
-8.616928446771355e-07,0.007453334956206592,-0.004972111060695325
-8.516928446771339e-07,0.009123307124599432,0.02107276895086382
-8.416928446771323e-07,0.006785346088850671,-0.04962047679476964
-8.316928446771375e-07,0.009457301558278,0.00991067751733847
-8.216928446771359e-07,0.006785346088849456,0.02479346609537227
-8.116928446771343e-07,0.007453334956206592,0.00991067751733847
-8.016928446771327e-07,0.006785346088849304,0.035955557528879
-7.916928446771379e-07,0.00645135165517104,-0.004972111060676715
-7.816928446771363e-07,0.008121323823563727,0.01735207180635537
-7.716928446771347e-07,0.00778732938988516,0.006189980372830022
-7.616928446771331e-07,0.008455318257241688,-0.001251413916176724
-7.516928446771383e-07,0.007119340522528632,0.02107276895085367
-7.416928446771367e-07,0.007453334956206592,-0.01613420249422067
-7.316928446771351e-07,0.008789312690920863,0.02479346609537227
-7.216928446771335e-07,0.00778732938988516,0.00991067751733847
-7.116928446771387e-07,0.006451351655171496,-0.01613420249420883
-7.016928446771371e-07,0.006785346088849456,0.04339695181791451
-6.916928446771355e-07,0.006785346088849456,-0.03473768821676292
-6.816928446771339e-07,0.009457301558278,0.01735207180635537
-6.716928446771323e-07,0.008455318257241688,0.01735207180633506
-6.616928446771374e-07,0.007119340522528024,-0.02729629392774602
-6.516928446771358e-07,0.008455318257242295,0.03223486038438916
-6.416928446771342e-07,0.008789312690920863,0.002469283228321573
-6.316928446771327e-07,0.007453334956207199,0.02851416323986549
-6.216928446771378e-07,0.008789312690920256,-0.004972111060680094
-6.116928446771362e-07,0.006785346088849456,-0.008692808205203774
-6.016928446771346e-07,0.007119340522528024,0.01735207180635537
-5.91692844677133e-07,0.006451351655171648,-0.01241350534969361
-5.816928446771382e-07,0.008121323823562968,0.0285141632398621
-5.716928446771366e-07,0.007453334956206592,0.01363137466184692
-5.61692844677135e-07,0.008789312690920863,-0.01241350534971222
-5.516928446771334e-07,0.008455318257242295,0.02851416323988071
-5.416928446771386e-07,0.007119340522528632,-0.01241350534969361
-5.31692844677137e-07,0.007119340522528024,0.02851416323988071
-5.216928446771354e-07,0.006785346088849456,0.00991067751733847
-5.116928446771338e-07,0.00611735722149232,0.006189980372830022
-5.016928446771322e-07,0.007453334956205832,0.03595555752887731
-4.916928446771374e-07,0.005783362787813752,-0.008692808205203774
-4.816928446771358e-07,0.008455318257242295,0.02479346609537227
-4.716928446771342e-07,0.005783362787813752,0.006189980372830022
-4.616928446771326e-07,0.006451351655170585,-0.0012514139161818
-4.516928446771378e-07,0.005783362787813752,0.00991067751733847
-4.416928446771362e-07,0.006785346088849456,-0.004972111060695325
-4.316928446771346e-07,0.007119340522528024,0.02479346609537227
-4.21692844677133e-07,0.006451351655170128,0.009910677517333395
-4.116928446771381e-07,0.004781379486778809,-0.0012514139161818
-4.016928446771365e-07,0.005783362787813752,0.05083834610693141
-3.916928446771349e-07,0.004113390619420913,-0.01241350534971222
-3.816928446771334e-07,0.005783362787813752,0.03967625467340606
-3.716928446771385e-07,0.006785346088849,0.009910677517352005
-3.616928446771369e-07,0.004781379486778049,0.02479346609537227
-3.516928446771353e-07,0.006785346088849456,0.03595555752889761
-3.416928446771337e-07,0.00778732938988516,-0.03473768821676292
-3.316928446771321e-07,0.008121323823562817,0.03595555752888915
-3.216928446771373e-07,0.00611735722149232,0.01735207180635537
-3.116928446771357e-07,0.006451351655170888,0.01363137466184692
-3.016928446771341e-07,0.005115373920456617,0.03595555752889761
-2.916928446771325e-07,0.006117357221492624,-0.001251413916166573
-2.816928446771377e-07,0.006785346088849456,0.04339695181791451
-2.716928446771361e-07,0.007453334956206592,0.02479346609537227
-2.616928446771345e-07,0.006451351655170888,-0.01613420249422067
-2.516928446771329e-07,0.006785346088849456,0.03967625467338237
-2.416928446771381e-07,0.006785346088849456,-0.01241350534968853
-2.316928446771365e-07,0.008121323823563727,0.03595555752889761
-2.216928446771349e-07,0.00611735722149232,0.02107276895086382
-2.116928446771333e-07,0.007119340522528024,0.002469283228321573
-2.016928446771385e-07,0.006117357221492776,0.03223486038437563
-1.916928446771369e-07,0.007119340522528024,-0.02729629392774602
-1.816928446771353e-07,0.008789312690920863,0.02107276895086382
-1.716928446771337e-07,0.004781379486778049,0.006189980372830022
-1.616928446771388e-07,0.006117357221491712,0.01363137466184354
-1.516928446771372e-07,0.005449368354135184,0.02107276895086382
-1.416928446771356e-07,0.006785346088849456,-0.008692808205203774
-1.31692844677134e-07,0.006785346088849456,0.03595555752889761
-1.216928446771325e-07,0.007119340522527569,0.002469283228324957
-1.116928446771376e-07,0.00611735722149232,0.00991067751733847
-1.01692844677136e-07,0.005783362787813752,0.02107276895086382
-9.169284467713443e-08,0.006451351655170888,-0.01985489963872912
-8.169284467713283e-08,0.00611735722149232,0.02107276895086043
-7.169284467713801e-08,0.00611735722149232,0.0136313746618503
-6.169284467713641e-08,0.005783362787813752,-0.001251413916186876
-5.169284467713482e-08,0.004447385053099481,0.03223486038438916
-4.169284467713322e-08,0.006785346088849,-0.008692808205191929
-3.16928446771384e-08,0.005783362787814207,0.01735207180634352
-2.16928446771368e-08,0.005115373920456617,0.01363137466184692
-1.16928446771352e-08,0.005115373920456617,0.002469283228321573
-1.6928446771336e-09,-0.01425630323290032,1.635855329667531
8.307155322861222e-09,0.01379922919608662,3.767814793469903
1.830715532286282e-08,0.003445401752063777,3.012513273135657
2.830715532286442e-08,0.01012529042563514,3.295286256118299
3.830715532286602e-08,0.008121323823563727,3.302727650407316
4.830715532286762e-08,0.01212925702770396,3.299006953262849
5.830715532286244e-08,0.006451351655170888,3.392024381875518
6.830715532286404e-08,0.003779396185742345,3.31761043898535
7.830715532286563e-08,-0.0008965258857576053,3.425510656176095
8.830715532286723e-08,0.003111407318383994,3.284124164684831
9.830715532286205e-08,0.0004394518489578814,3.410627867598003
1.083071553228637e-07,0.002109424017349506,3.239475798950672
1.183071553228653e-07,0.004447385053099481,3.358538107574943
1.283071553228668e-07,0.006451351655171344,3.258079284673253
1.383071553228617e-07,0.007453334956206137,3.34365531899687
1.483071553228633e-07,0.006785346088849456,3.291565558973791
1.583071553228649e-07,0.005115373920456617,3.332493227563384
1.683071553228665e-07,0.008121323823563727,3.313889741840841
1.783071553228613e-07,0.004113390619422735,3.38458298758647
1.883071553228629e-07,0.004447385053099481,3.325051833274367
1.983071553228645e-07,0.00144143514999237,3.41434856474257
2.083071553228661e-07,0.00144143514999237,3.299006953262807
2.183071553228677e-07,0.003445401752064385,3.377141593297458
2.283071553228625e-07,0.004781379486778049,3.31761043898535
2.383071553228641e-07,0.005449368354135184,3.332493227563384
2.483071553228657e-07,0.004781379486778049,3.332493227563384
2.583071553228673e-07,0.006785346088849759,3.299006953262824
2.683071553228621e-07,0.007453334956206288,3.336213924707875
2.783071553228637e-07,0.005449368354135184,3.362258804719451
2.883071553228653e-07,0.004447385053099481,3.3399346218524
2.983071553228669e-07,0.003779396185741586,3.380862290441971
3.083071553228617e-07,0.002109424017350265,3.332493227563406
3.183071553228633e-07,0.003779396185742345,3.369700199008468
3.283071553228649e-07,0.002777412884706641,3.351096713285926
3.383071553228665e-07,0.004113390619420913,3.332493227563384
3.483071553228614e-07,0.00444738505309933,3.358538107574931
3.58307155322863e-07,0.00611735722149232,3.325051833274367
3.683071553228646e-07,0.007119340522528024,3.3399346218524
3.783071553228661e-07,0.007453334956206592,3.3399346218524
3.883071553228677e-07,0.006451351655170585,3.351096713285939
3.983071553228626e-07,0.005783362787813752,3.380862290441993
4.083071553228642e-07,0.005449368354135184,3.347376016141417
4.183071553228658e-07,0.004781379486778049,3.369700199008468
4.283071553228674e-07,0.005449368354134577,3.373420896152961
4.383071553228622e-07,0.004113390619421521,3.339934621852415
4.483071553228638e-07,0.005783362787813752,3.36597950186396
4.583071553228654e-07,0.005449368354135184,3.347376016141417
4.68307155322867e-07,0.007119340522528024,3.365979501863948
4.783071553228618e-07,0.007119340522528024,3.339934621852412
4.883071553228634e-07,0.006785346088849456,3.336213924707892
4.98307155322865e-07,0.006451351655170888,3.380862290441993
5.083071553228666e-07,0.004113390619420913,3.343655318996909
5.183071553228614e-07,0.006451351655169825,3.37714159329747
5.28307155322863e-07,0.006451351655170888,3.36597950186396
5.383071553228646e-07,0.005783362787813752,3.354817410430434
5.483071553228662e-07,0.00611735722149232,3.377141593297485
5.583071553228678e-07,0.006117357221492928,3.328772530418894
5.683071553228626e-07,0.007453334956206592,3.369700199008468
5.783071553228642e-07,0.007453334956206592,3.332493227563384
5.883071553228658e-07,0.007453334956206592,3.343655318996909
5.983071553228674e-07,0.00812132382356388,3.373420896152963
6.083071553228623e-07,0.008455318257242295,3.343655318996909
6.183071553228639e-07,0.008455318257242295,3.369700199008468
6.283071553228655e-07,0.00778732938988516,3.347376016141417
6.38307155322867e-07,0.006785346088849759,3.354817410430444
6.483071553228619e-07,0.007453334956206288,3.377141593297475
6.583071553228635e-07,0.00778732938988516,3.336213924707892
6.683071553228651e-07,0.007453334956206592,3.373420896152977
6.783071553228667e-07,0.005783362787813752,3.3399346218524
6.883071553228615e-07,0.006117357221492169,3.3399346218524
6.983071553228631e-07,0.00778732938988516,3.38830368473101
7.083071553228647e-07,0.005783362787813752,3.336213924707892
7.183071553228663e-07,0.008455318257242295,3.373420896152977
7.283071553228679e-07,0.005783362787813904,3.358538107574943
7.383071553228627e-07,0.00611735722149232,3.358538107574943
7.483071553228643e-07,0.004781379486778049,3.395745079020027
7.583071553228659e-07,0.003779396185742345,3.3399346218524
7.683071553228675e-07,0.006451351655169521,3.377141593297485
7.783071553228623e-07,0.003445401752063777,3.377141593297485
7.883071553228639e-07,0.00611735722149232,3.347376016141417
7.983071553228655e-07,0.005783362787813752,3.399465776164535
8.083071553228671e-07,0.005115373920457224,3.325051833274392
8.183071553228619e-07,0.00645135165517028,3.380862290441968
8.283071553228635e-07,0.00611735722149232,3.369700199008468
8.383071553228651e-07,0.006451351655170888,3.362258804719451
8.483071553228667e-07,0.007119340522528024,3.38830368473101
8.583071553228616e-07,0.007787329389884856,3.354817410430449
8.683071553228632e-07,0.008455318257242295,3.377141593297485
8.783071553228648e-07,0.006785346088849456,3.36597950186396
8.883071553228663e-07,0.007453334956206592,3.358538107574943
8.983071553228612e-07,0.006785346088849759,3.39574507902001
9.083071553228628e-07,0.007119340522528024,3.343655318996909
9.183071553228644e-07,0.008455318257242295,3.384582987586502
9.28307155322866e-07,0.008121323823563727,3.369700199008468
9.383071553228676e-07,0.006785346088849304,3.347376016141436
9.483071553228624e-07,0.006451351655170888,3.38830368473101
9.58307155322864e-07,0.007453334956206592,3.347376016141417
9.683071553228656e-07,0.009123307124599432,3.380862290441993
9.783071553228672e-07,0.007787329389884553,3.362258804719451
9.88307155322862e-07,0.006451351655171496,3.362258804719451
9.983071553228636e-07,0.008121323823563727,3.392024381875518
1.008307155322865e-06,0.00611735722149232,3.358538107574943
1.018307155322867e-06,0.01012529042563377,3.384582987586492
1.028307155322862e-06,0.007119340522529391,3.362258804719461
1.038307155322863e-06,0.007453334956206592,3.36597950186396
1.048307155322865e-06,0.007119340522528024,3.392024381875518
1.058307155322866e-06,0.00778732938988516,3.343655318996909
1.068307155322861e-06,0.007453334956206744,3.384582987586483
1.078307155322863e-06,0.007453334956206592,3.384582987586502
1.088307155322864e-06,0.00611735722149232,3.377141593297485
1.098307155322866e-06,0.007119340522528024,3.392024381875518
1.108307155322868e-06,0.008121323823564184,3.354817410430448
1.118307155322862e-06,0.009123307124599432,3.384582987586502
1.128307155322864e-06,0.008121323823563727,3.373420896152977
1.138307155322866e-06,0.00778732938988516,3.36597950186396
1.148307155322867e-06,0.008121323823563424,3.399465776164517
1.158307155322862e-06,0.007453334956206896,3.358538107574961
1.168307155322864e-06,0.0104592848593137,3.406907170453553
1.178307155322865e-06,0.009791295991956567,3.377141593297485
1.188307155322867e-06,0.009123307124599432,3.36970019900848
1.198307155322862e-06,0.009123307124599432,3.395745079020015
1.208307155322863e-06,0.009457301558278,3.358538107574943
1.218307155322865e-06,0.01112727372667084,3.392024381875518
1.228307155322866e-06,0.008789312690920863,3.384582987586502
1.238307155322861e-06,0.009123307124599279,3.362258804719461
1.248307155322863e-06,0.009791295991956567,3.392024381875518
1.258307155322865e-06,0.008121323823563727,3.358538107574943
1.268307155322866e-06,0.01012529042563514,3.38830368473101
1.278307155322868e-06,0.007453334956206896,3.377141593297478
1.288307155322863e-06,0.008121323823563727,3.362258804719451
1.298307155322864e-06,0.007119340522528024,3.406907170453553
1.308307155322866e-06,0.008121323823563727,3.362258804719451
1.318307155322867e-06,0.01012529042563377,3.392024381875505
1.328307155322862e-06,0.007119340522529391,3.362258804719465
1.338307155322864e-06,0.009457301558278,3.358538107574943
1.348307155322865e-06,0.006451351655170888,3.384582987586502
1.358307155322867e-06,0.007119340522528328,3.373420896152981
1.368307155322862e-06,0.007787329389884856,3.384582987586497
1.378307155322863e-06,0.00778732938988516,3.384582987586502
1.388307155322865e-06,0.006451351655170888,3.362258804719451
1.398307155322867e-06,0.007119340522528024,3.395745079020027
1.408307155322861e-06,0.006451351655171192,3.373420896152987
1.418307155322863e-06,0.007119340522528024,3.38830368473101
1.428307155322865e-06,0.007453334956206592,3.38830368473101
1.438307155322866e-06,0.007453334956206592,3.377141593297485
1.448307155322868e-06,0.006785346088849759,3.403186473309029
1.458307155322863e-06,0.007453334956206592,3.369700199008468
1.468307155322864e-06,0.009123307124599432,3.395745079020027
1.478307155322866e-06,0.00778732938988516,3.380862290441993
1.488307155322867e-06,0.009123307124598976,3.377141593297495
1.498307155322862e-06,0.008121323823564184,3.399465776164525
1.508307155322864e-06,0.00778732938988516,3.369700199008468
1.518307155322865e-06,0.0104592848593137,3.395745079020027
1.528307155322867e-06,0.008455318257242599,3.369700199008475
1.538307155322862e-06,0.009123307124599129,3.384582987586495
1.548307155322863e-06,0.009791295991956567,3.395745079020027
1.558307155322865e-06,0.008789312690920863,3.384582987586502
1.568307155322867e-06,0.009791295991956567,3.406907170453553
1.578307155322861e-06,0.009791295991956567,3.365979501863978
1.588307155322863e-06,0.0104592848593137,3.38830368473101
1.598307155322865e-06,0.007453334956206592,3.403186473309044
1.608307155322866e-06,0.00778732938988516,3.373420896152977
1.618307155322868e-06,0.008121323823564184,3.38830368473101
1.628307155322863e-06,0.009123307124599432,3.38830368473101
1.638307155322864e-06,0.008789312690920863,3.373420896152977
1.648307155322866e-06,0.007119340522528024,3.403186473309044
1.658307155322867e-06,0.009457301558278152,3.369700199008481
1.668307155322862e-06,0.009791295991956567,3.399465776164535
1.678307155322864e-06,0.008121323823563727,3.38830368473101
1.688307155322865e-06,0.008455318257242295,3.38830368473101
1.698307155322867e-06,0.008455318257242142,3.403186473309029
1.708307155322862e-06,0.00812132382356388,3.369700199008483
1.718307155322863e-06,0.009791295991956567,3.399465776164535
1.728307155322865e-06,0.009791295991956567,3.392024381875518
1.738307155322867e-06,0.01012529042563514,3.395745079020027
1.748307155322862e-06,0.009123307124599888,3.406907170453548
1.758307155322863e-06,0.009457301558278,3.373420896152977
1.768307155322865e-06,0.0104592848593137,3.425510656176095
1.778307155322866e-06,0.009123307124599432,3.395745079020027
1.788307155322861e-06,0.01012529042563468,3.395745079020027
1.798307155322863e-06,0.008455318257242295,3.399465776164535
1.808307155322864e-06,0.009457301558278,3.380862290441993
1.818307155322866e-06,0.01112727372667084,3.418069261887078
1.828307155322868e-06,0.008455318257241991,3.406907170453546
1.838307155322862e-06,0.00778732938988516,3.392024381875518
1.848307155322864e-06,0.009123307124599432,3.406907170453553
1.858307155322866e-06,0.008121323823563727,3.380862290441993
1.868307155322867e-06,0.009123307124598825,3.410627867598046
1.878307155322862e-06,0.007787329389885767,3.3771415932975
1.888307155322864e-06,0.008121323823563727,3.380862290441993
1.898307155322865e-06,0.009123307124599432,3.406907170453553
1.908307155322867e-06,0.008789312690920863,3.384582987586502
1.918307155322862e-06,0.009791295991956111,3.399465776164529
1.928307155322863e-06,0.008789312690920863,3.384582987586502
1.938307155322865e-06,0.009457301558278,3.384582987586502
1.948307155322866e-06,0.008455318257242295,3.403186473309044
1.958307155322861e-06,0.00812132382356388,3.377141593297497
1.968307155322863e-06,0.0104592848593137,3.421789959031586
1.978307155322864e-06,0.008455318257242295,3.380862290441993
1.988307155322866e-06,0.008455318257242295,3.392024381875518
1.998307155322868e-06,0.008121323823564031,3.414348564742559
2.008307155322862e-06,0.008789312690920863,3.392024381875518
2.018307155322864e-06,0.008455318257242295,3.403186473309044
2.028307155322866e-06,0.00778732938988516,3.38830368473101
2.038307155322867e-06,0.008121323823564031,3.388303684731012
2.048307155322862e-06,0.008789312690920559,3.392024381875517
2.058307155322864e-06,0.007453334956206592,3.38830368473101
2.068307155322865e-06,0.008455318257242295,3.399465776164535
2.078307155322867e-06,0.007453334956206592,3.3845829875865
2.088307155322862e-06,0.007453334956206592,3.380862290441995
2.098307155322863e-06,0.008121323823563727,3.410627867598061
2.108307155322865e-06,0.009457301558278,3.36597950186396
2.118307155322866e-06,0.008789312690920863,3.406907170453553
2.128307155322861e-06,0.008455318257242448,3.377141593297498
2.138307155322863e-06,0.009457301558278,3.377141593297485
2.148307155322864e-06,0.00778732938988516,3.403186473309044
2.158307155322866e-06,0.008455318257242295,3.369700199008468
2.168307155322868e-06,0.009457301558277544,3.399465776164527
2.178307155322862e-06,0.008455318257242295,3.380862290441993
2.188307155322864e-06,0.008455318257242295,3.380862290441993
2.198307155322866e-06,0.00611735722149232,3.384582987586502
2.208307155322867e-06,0.00711934052252848,3.362258804719465
