traces_bank_current_trigger/sampling_freq_100MHz/AND/AND_2.csv

#Digilent WaveForms Oscilloscope Acquisition
#Device Name: Discovery2
#Serial Number: SN:210321B3D813
#Date Time: 2023-06-13 13:58:37.589
#Sample rate: 1e+08Hz
#Samples: 8192
#Trigger: Source: Channel 2 Type: Edge Condition: Rising Level: 2 V Hyst.: Auto HoldOff: 0 s
#Channel 1: Range: 5 mV/div Offset: 0 V Attenuation: 1 X Sample Mode: Average
#Channel 2: Range: 2 V/div Offset: 0 V Attenuation: 1 X Sample Mode: Average

Time (s),Channel 1 (V),Channel 2 (V)
-9.532510288065834e-07,0.00778732938988516,0.01735207180635537
-9.432510288065818e-07,0.009123307124599432,-0.01985489963872912
-9.332510288065802e-07,0.008789312690920863,0.0508383461069111
-9.232510288065854e-07,0.008789312690920863,0.006189980372850325
-9.132510288065838e-07,0.00778732938988516,0.02107276895086382
-9.032510288065822e-07,0.007453334956206592,0.01735207180635537
-8.932510288065806e-07,0.008789312690920863,-0.004972111060695325
-8.832510288065857e-07,0.008789312690920863,0.035955557528879
-8.732510288065841e-07,0.008455318257242295,-0.001251413916186876
-8.632510288065825e-07,0.00778732938988516,0.02479346609537227
-8.532510288065809e-07,0.008121323823563727,0.03967625467340606
-8.432510288065793e-07,0.008455318257242599,-0.01985489963870543
-8.332510288065845e-07,0.009123307124599432,0.03223486038438916
-8.232510288065829e-07,0.00778732938988516,-0.008692808205203774
-8.132510288065813e-07,0.00778732938988516,0.02107276895086382
-8.032510288065797e-07,0.008455318257241991,0.02851416323986549
-7.932510288065849e-07,0.007787329389885463,-0.004972111060680094
-7.832510288065833e-07,0.01012529042563514,0.04339695181791451
-7.732510288065817e-07,0.006785346088849456,-0.008692808205203774
-7.632510288065801e-07,0.009457301558277544,0.01363137466185369
-7.532510288065853e-07,0.008455318257242751,0.02851416323987395
-7.432510288065837e-07,0.00778732938988516,0.002469283228321573
-7.332510288065821e-07,0.008789312690920863,0.03223486038438916
-7.232510288065805e-07,0.00778732938988516,0.006189980372830022
-7.132510288065857e-07,0.008455318257241991,0.03967625467339083
-7.032510288065841e-07,0.00611735722149232,0.01735207180635537
-6.932510288065825e-07,0.008455318257242295,0.006189980372830022
-6.832510288065809e-07,0.008455318257242295,0.02851416323988071
-6.732510288065793e-07,0.006451351655171648,0.00618998037283679
-6.632510288065845e-07,0.008121323823563727,0.02107276895086382
-6.532510288065829e-07,0.006785346088849456,0.02479346609537227
-6.432510288065813e-07,0.008121323823563727,-0.01613420249422067
-6.332510288065797e-07,0.008455318257241839,0.03967625467339083
-6.232510288065848e-07,0.007453334956207047,0.006189980372845252
-6.132510288065832e-07,0.007453334956206592,0.02107276895086382
-6.032510288065816e-07,0.005449368354135184,0.02851416323988071
-5.9325102880658e-07,0.007453334956207352,-0.001251413916169956
-5.832510288065852e-07,0.009123307124598672,0.0359555575288807
-5.732510288065836e-07,0.007453334956206592,0.02107276895086382
-5.63251028806582e-07,0.007453334956206592,0.02479346609537227
-5.532510288065804e-07,0.006451351655170888,0.01363137466184692
-5.432510288065856e-07,0.008789312690919799,0.002469283228326648
-5.33251028806584e-07,0.008121323823563727,0.03967625467340606
-5.232510288065824e-07,0.008121323823563727,0.02479346609537227
-5.132510288065808e-07,0.008789312690920863,0.03595555752889761
-5.032510288065792e-07,0.008121323823564031,0.02851416323986718
-4.932510288065844e-07,0.008789312690920863,-0.001251413916186876
-4.832510288065828e-07,0.00778732938988516,0.03595555752889761
-4.732510288065812e-07,0.006451351655170888,0.01363137466184692
-4.632510288065796e-07,0.0077873293898844,0.03223486038438747
-4.532510288065848e-07,0.00611735722149232,0.02851416323988071
-4.432510288065832e-07,0.006785346088849456,-0.004972111060695325
-4.332510288065816e-07,0.007119340522528024,0.03595555752889761
-4.2325102880658e-07,0.005783362787813752,0.02479346609538072
-4.132510288065852e-07,0.005783362787813752,0.04339695181790605
-4.032510288065836e-07,0.005783362787813752,0.02851416323988071
-3.93251028806582e-07,0.00778732938988516,-0.004972111060695325
-3.832510288065804e-07,0.007119340522528024,0.06572113468496521
-3.732510288065855e-07,0.005783362787814359,0.009910677517363853
-3.632510288065839e-07,0.008789312690920863,0.01735207180635537
-3.532510288065823e-07,0.005783362787813752,0.03595555752889761
-3.432510288065807e-07,0.007453334956206592,0.00991067751733847
-3.332510288065791e-07,0.006785346088849456,0.03967625467339083
-3.232510288065843e-07,0.006785346088849456,0.006189980372830022
-3.132510288065827e-07,0.008121323823563727,0.03595555752889761
-3.032510288065811e-07,0.006785346088849456,0.03967625467340606
-2.932510288065795e-07,0.006785346088850216,-0.001251413916175032
-2.832510288065847e-07,0.008455318257242295,0.02479346609537227
-2.732510288065831e-07,0.006785346088849456,0.00991067751733847
-2.632510288065815e-07,0.005783362787813752,0.03595555752889761
-2.532510288065799e-07,0.006785346088850216,0.03223486038437732
-2.432510288065851e-07,0.008455318257241535,0.006189980372841866
-2.332510288065835e-07,0.008789312690920863,0.05083834610693141
-2.232510288065819e-07,0.007119340522528024,0.01363137466184692
-2.132510288065803e-07,0.00778732938988516,0.03595555752889761
-2.032510288065855e-07,0.006785346088849911,0.03223486038439086
-1.932510288065839e-07,0.00778732938988516,0.01735207180635537
-1.832510288065823e-07,0.006785346088849456,0.05083834610693141
-1.732510288065807e-07,0.007119340522528024,0.00991067751733847
-1.632510288065859e-07,0.007119340522528024,0.0247934660953655
-1.532510288065843e-07,0.006451351655170888,0.05083834610693141
-1.432510288065827e-07,0.00778732938988516,0.002469283228321573
-1.332510288065811e-07,0.006785346088849456,0.04339695181791451
-1.232510288065795e-07,0.007453334956206592,0.009910677517352006
-1.132510288065846e-07,0.007453334956206592,0.03967625467340606
-1.03251028806583e-07,0.006451351655170888,0.03595555752889761
-9.325102880658145e-08,0.006451351655170888,0.01363137466184692
-8.325102880657985e-08,0.00812132382356312,0.0471176489623925
-7.325102880658503e-08,0.006785346088850064,-0.01985489963869866
-6.325102880658343e-08,0.006451351655170888,0.03595555752889761
-5.325102880658183e-08,0.004781379486778049,0.02851416323988071
-4.325102880658023e-08,0.005115373920457224,0.006189980372848633
-3.325102880658541e-08,0.00645135165517028,0.04711764896240435
-2.325102880658381e-08,0.005783362787813752,-0.001251413916186876
-1.325102880658221e-08,0.00611735722149232,0.03223486038438916
-3.251028806580615e-09,-0.009580381161400371,1.114957729436348
6.748971193414207e-09,0.009791295991947759,3.827345947781774
1.674897119341581e-08,0.004113390619420913,2.990189090268606
2.67489711934174e-08,0.009457301558278,3.332493227563384
3.6748971193419e-08,0.01346523476242081,3.313889741840841
4.67489711934206e-08,0.01045928485931188,3.287844861829333
5.674897119341542e-08,0.006451351655170888,3.399465776164535
6.674897119341702e-08,0.002109424017349506,3.347376016141417
7.674897119341862e-08,0.002109424017349506,3.418069261887078
8.674897119342022e-08,0.002777412884706338,3.351096713285951
9.674897119341504e-08,0.002109424017349809,3.406907170453527
1.067489711934166e-07,0.001107440716313802,3.272962073251248
1.167489711934182e-07,0.004447385053099481,3.380862290441993
1.267489711934198e-07,0.006785346088850367,3.272962073251284
1.367489711934147e-07,0.008789312690919952,3.35109671328589
1.467489711934163e-07,0.005115373920456617,3.310169044696333
1.567489711934179e-07,0.009123307124599432,3.347376016141417
1.667489711934195e-07,0.008121323823563727,3.3399346218524
1.767489711934143e-07,0.004113390619422735,3.384582987586481
1.867489711934159e-07,0.003111407318385209,3.362258804719451
1.967489711934175e-07,0.001775429583670938,3.392024381875518
2.067489711934191e-07,0.003445401752063777,3.325051833274367
2.167489711934207e-07,0.004113390619420761,3.380862290441968
2.267489711934155e-07,0.003779396185742345,3.325051833274367
2.367489711934171e-07,0.005449368354135184,3.343655318996909
2.467489711934187e-07,0.00611735722149232,3.3399346218524
2.567489711934203e-07,0.008121323823562968,3.328772530418887
2.667489711934151e-07,0.006451351655171647,3.354817410430422
2.767489711934167e-07,0.005115373920456617,3.354817410430434
2.867489711934183e-07,0.004781379486778049,3.362258804719451
2.967489711934199e-07,0.005783362787812385,3.38086229044198
3.067489711934147e-07,0.002777412884708008,3.351096713285939
3.167489711934163e-07,0.004113390619420913,3.392024381875518
3.267489711934179e-07,0.003445401752063777,3.332493227563384
3.367489711934195e-07,0.006451351655170888,3.358538107574943
3.467489711934143e-07,0.004113390619421976,3.347376016141422
3.567489711934159e-07,0.006785346088849456,3.336213924707892
3.667489711934175e-07,0.008121323823563727,3.373420896152977
3.767489711934191e-07,0.007453334956206592,3.343655318996909
3.867489711934207e-07,0.007119340522527417,3.369700199008473
3.967489711934156e-07,0.005783362787813752,3.380862290441993
4.067489711934172e-07,0.007119340522528024,3.347376016141417
4.167489711934188e-07,0.006451351655170888,3.399465776164535
4.267489711934203e-07,0.006117357221491713,3.343655318996922
4.367489711934152e-07,0.004781379486778656,3.373420896152963
4.467489711934168e-07,0.006785346088849456,3.358538107574943
4.567489711934184e-07,0.006451351655170888,3.347376016141417
4.6674897119342e-07,0.008121323823563271,3.377141593297475
4.767489711934148e-07,0.00711934052252848,3.354817410430444
4.867489711934164e-07,0.009123307124599432,3.369700199008468
4.96748971193418e-07,0.005783362787813752,3.369700199008468
5.067489711934196e-07,0.006785346088849456,3.362258804719451
5.167489711934144e-07,0.006117357221492624,3.388303684730998
5.26748971193416e-07,0.006451351655170888,3.369700199008468
5.367489711934176e-07,0.005449368354135184,3.380862290441993
5.467489711934192e-07,0.006451351655170888,3.380862290441993
5.567489711934208e-07,0.006785346088850519,3.343655318996929
5.667489711934156e-07,0.009123307124599432,3.38830368473101
5.767489711934172e-07,0.008455318257242295,3.347376016141417
5.867489711934188e-07,0.009791295991956567,3.351096713285926
5.967489711934204e-07,0.007787329389886678,3.37342089615297
6.067489711934152e-07,0.01112727372667084,3.358538107574943
6.167489711934168e-07,0.01079327929299227,3.392024381875518
6.267489711934184e-07,0.0104592848593137,3.358538107574943
6.3674897119342e-07,0.009457301558277544,3.377141593297492
6.467489711934149e-07,0.008455318257242751,3.392024381875512
6.567489711934165e-07,0.01112727372667084,3.362258804719451
6.667489711934181e-07,0.009457301558278,3.392024381875518
6.767489711934197e-07,0.008121323823563727,3.351096713285926
6.867489711934145e-07,0.009791295991955808,3.377141593297473
6.967489711934161e-07,0.006451351655170888,3.369700199008468
7.067489711934177e-07,0.01012529042563514,3.358538107574943
7.167489711934193e-07,0.00778732938988516,3.392024381875518
7.267489711934209e-07,0.0077873293898844,3.36225880471946
7.367489711934157e-07,0.00611735722149232,3.380862290441993
7.467489711934173e-07,0.008455318257242295,3.380862290441993
7.567489711934189e-07,0.007453334956206592,3.358538107574943
7.667489711934205e-07,0.008789312690920103,3.373420896152973
7.767489711934153e-07,0.007119340522528024,3.36597950186396
7.867489711934169e-07,0.006785346088849456,3.36597950186396
7.967489711934185e-07,0.006451351655170888,3.369700199008468
8.067489711934201e-07,0.009457301558277393,3.358538107574951
8.167489711934149e-07,0.008121323823564335,3.377141593297476
8.267489711934165e-07,0.007119340522528024,3.358538107574943
8.367489711934181e-07,0.01012529042563514,3.377141593297485
8.467489711934197e-07,0.008121323823563727,3.362258804719451
8.567489711934145e-07,0.01045928485931264,3.369700199008464
8.667489711934161e-07,0.009457301558278,3.384582987586502
8.767489711934177e-07,0.008455318257242295,3.358538107574943
8.867489711934193e-07,0.008789312690920863,3.369700199008468
8.967489711934142e-07,0.008455318257242448,3.362258804719455
9.067489711934158e-07,0.0104592848593137,3.343655318996909
9.167489711934174e-07,0.01079327929299227,3.403186473309044
9.26748971193419e-07,0.008789312690920863,3.351096713285926
9.367489711934205e-07,0.007453334956206744,3.369700199008471
9.467489711934154e-07,0.00778732938988516,3.377141593297485
9.56748971193417e-07,0.01012529042563514,3.343655318996909
9.667489711934186e-07,0.008455318257242295,3.384582987586502
9.767489711934202e-07,0.00778732938988592,3.365979501863972
9.86748971193415e-07,0.00945730155827724,3.392024381875506
9.967489711934166e-07,0.006785346088849456,3.384582987586502
1.006748971193418e-06,0.009457301558278,3.354817410430434
1.01674897119342e-06,0.008121323823564487,3.403186473309027
1.026748971193415e-06,0.009791295991955808,3.365979501863976
1.036748971193416e-06,0.00778732938988516,3.384582987586502
1.046748971193418e-06,0.00778732938988516,3.373420896152977
1.056748971193419e-06,0.00778732938988516,3.362258804719451
1.066748971193414e-06,0.00945730155827724,3.410627867598039
1.076748971193416e-06,0.006451351655170888,3.384582987586502
1.086748971193417e-06,0.009457301558278,3.399465776164535
1.096748971193419e-06,0.006451351655170888,3.403186473309044
1.106748971193421e-06,0.007453334956206744,3.362258804719468
1.116748971193415e-06,0.00778732938988516,3.399465776164535
1.126748971193417e-06,0.008455318257242295,3.36597950186396
1.136748971193419e-06,0.007453334956206592,3.392024381875518
1.14674897119342e-06,0.00711934052252848,3.380862290441991
1.156748971193415e-06,0.008121323823563271,3.377141593297487
1.166748971193417e-06,0.009123307124599432,3.395745079020027
1.176748971193418e-06,0.00778732938988516,3.377141593297485
1.18674897119342e-06,0.007119340522528784,3.395745079020025
1.196748971193415e-06,0.008789312690920103,3.39202438187552
1.206748971193416e-06,0.009457301558278,3.377141593297485
1.216748971193418e-06,0.01012529042563514,3.392024381875518
1.226748971193419e-06,0.009457301558278,3.362258804719451
1.236748971193414e-06,0.008455318257242751,3.392024381875505
1.246748971193416e-06,0.007453334956206592,3.392024381875518
1.256748971193417e-06,0.008789312690920863,3.347376016141417
1.266748971193419e-06,0.009791295991956567,3.406907170453553
1.276748971193421e-06,0.006451351655171952,3.373420896152983
1.286748971193416e-06,0.008789312690920863,3.38830368473101
1.296748971193417e-06,0.006451351655170888,3.403186473309044
1.306748971193419e-06,0.008455318257242295,3.362258804719451
1.31674897119342e-06,0.007787329389885008,3.395745079020014
1.326748971193415e-06,0.007453334956206744,3.365979501863973
1.336748971193417e-06,0.007453334956206592,3.392024381875518
1.346748971193418e-06,0.007453334956206592,3.392024381875518
1.35674897119342e-06,0.006785346088849759,3.380862290442003
1.366748971193415e-06,0.007453334956206288,3.403186473309034
1.376748971193416e-06,0.00611735722149232,3.380862290441993
1.386748971193418e-06,0.005449368354135184,3.395745079020027
1.39674897119342e-06,0.005449368354135184,3.392024381875518
1.406748971193414e-06,0.006451351655170433,3.354817410430451
1.416748971193416e-06,0.006451351655170888,3.399465776164535
1.426748971193418e-06,0.006451351655170888,3.362258804719451
1.436748971193419e-06,0.006451351655170888,3.38830368473101
1.446748971193421e-06,0.00511537392045768,3.380862290441985
1.456748971193416e-06,0.007453334956206592,3.362258804719451
1.466748971193417e-06,0.00611735722149232,3.392024381875518
1.476748971193419e-06,0.005783362787813752,3.362258804719451
1.48674897119342e-06,0.006117357221491561,3.380862290441997
1.496748971193415e-06,0.004447385053100241,3.388303684731007
1.506748971193417e-06,0.006451351655170888,3.369700199008468
1.516748971193418e-06,0.006451351655170888,3.377141593297485
1.52674897119342e-06,0.006451351655171648,3.358538107574947
1.536748971193415e-06,0.008121323823562968,3.369700199008463
1.546748971193416e-06,0.007119340522528024,3.380862290441993
1.556748971193418e-06,0.00778732938988516,3.358538107574943
1.56674897119342e-06,0.007453334956206592,3.38830368473101
1.576748971193414e-06,0.006451351655171344,3.36597950186397
1.586748971193416e-06,0.007119340522528024,3.354817410430434
1.596748971193418e-06,0.004781379486778049,3.384582987586502
1.606748971193419e-06,0.005783362787813752,3.362258804719451
1.616748971193421e-06,0.007453334956205985,3.369700199008463
1.626748971193416e-06,0.00611735722149232,3.358538107574943
1.636748971193417e-06,0.006451351655170888,3.377141593297485
1.646748971193419e-06,0.006451351655170888,3.380862290441993
1.65674897119342e-06,0.006785346088849608,3.351096713285942
1.666748971193415e-06,0.007119340522528024,3.38830368473101
1.676748971193417e-06,0.007453334956206592,3.36597950186396
1.686748971193418e-06,0.00611735722149232,3.38830368473101
1.69674897119342e-06,0.0064513516551718,3.384582987586493
1.706748971193415e-06,0.008455318257241384,3.365979501863968
1.716748971193416e-06,0.007119340522528024,3.380862290441993
1.726748971193418e-06,0.008121323823563727,3.362258804719451
1.73674897119342e-06,0.007453334956206592,3.38830368473101
1.746748971193414e-06,0.006451351655171344,3.380862290441997
1.756748971193416e-06,0.007119340522528024,3.36597950186396
1.766748971193418e-06,0.007453334956206592,3.399465776164535
1.776748971193419e-06,0.005449368354135184,3.36597950186396
1.786748971193414e-06,0.007453334956205681,3.373420896152973
1.796748971193416e-06,0.007453334956206592,3.384582987586502
1.806748971193417e-06,0.00611735722149232,3.354817410430434
1.816748971193419e-06,0.007119340522528024,3.406907170453553
1.82674897119342e-06,0.006785346088849759,3.373420896152987
1.836748971193415e-06,0.007453334956206592,3.395745079020027
1.846748971193417e-06,0.005783362787813752,3.392024381875518
1.856748971193419e-06,0.006451351655170888,3.369700199008468
1.86674897119342e-06,0.00812132382356312,3.39946577616452
1.876748971193415e-06,0.006785346088850064,3.365979501863975
1.886748971193417e-06,0.006785346088849456,3.380862290441993
1.896748971193418e-06,0.007119340522528024,3.384582987586502
1.90674897119342e-06,0.005449368354135184,3.373420896152977
1.916748971193415e-06,0.006785346088848848,3.395745079020017
1.926748971193416e-06,0.006785346088849456,3.354817410430434
1.936748971193418e-06,0.007453334956206592,3.380862290441993
1.946748971193419e-06,0.00611735722149232,3.384582987586502
1.956748971193414e-06,0.007453334956205985,3.369700199008475
1.966748971193416e-06,0.007453334956206592,3.395745079020027
1.976748971193417e-06,0.006451351655170888,3.373420896152977
1.986748971193419e-06,0.007453334956206592,3.377141593297485
1.996748971193421e-06,0.00544936835413564,3.384582987586492
2.006748971193415e-06,0.006451351655170888,3.362258804719451
2.016748971193417e-06,0.006785346088849456,3.403186473309044
2.026748971193419e-06,0.00611735722149232,3.373420896152977
2.03674897119342e-06,0.006451351655169673,3.403186473309035
2.046748971193415e-06,0.00377939618574356,3.38458298758651
2.056748971193417e-06,0.006451351655170888,3.36597950186396
2.066748971193418e-06,0.00778732938988516,3.395745079020027
2.07674897119342e-06,0.005449368354135488,3.36970019900847
2.086748971193415e-06,0.006117357221492017,3.373420896152975
2.096748971193416e-06,0.007119340522528024,3.377141593297485
2.106748971193418e-06,0.006451351655170888,3.354817410430434
2.116748971193419e-06,0.007453334956206592,3.38830368473101
2.126748971193414e-06,0.007453334956206592,3.373420896152983
2.136748971193416e-06,0.007453334956206592,3.377141593297485
2.146748971193417e-06,0.006785346088849456,3.392024381875518
2.156748971193419e-06,0.006451351655170888,3.36597950186396
2.166748971193421e-06,0.007787329389885311,3.399465776164519
2.176748971193415e-06,0.008121323823563727,3.362258804719451
2.186748971193417e-06,0.007453334956206592,3.377141593297485
2.196748971193419e-06,0.005783362787813752,3.392024381875518
2.20674897119342e-06,0.007453334956206896,3.354817410430458
