traces_bank_current_trigger/sampling_freq_100MHz/POP/pop_4.csv

#Digilent WaveForms Oscilloscope Acquisition
#Device Name: Discovery2
#Serial Number: SN:210321B3D813
#Date Time: 2023-07-18 14:37:29.090
#Sample rate: 1e+08Hz
#Samples: 8192
#Trigger: Source: Channel 2 Type: Edge Condition: Rising Level: 2 V Hyst.: Auto HoldOff: 0 s
#Channel 1: Range: 10 mV/div Offset: 0 V Attenuation: 1 X Sample Mode: Average
#Channel 2: Range: 5 V/div Offset: 0 V Attenuation: 1 X Sample Mode: Average

Time (s),Channel 1 (V),Channel 2 (V)
-9.53866498740553e-07,0.00611735722149232,0.03967625467340606
-9.438664987405514e-07,0.006785346088849456,0.02107276895086382
-9.338664987405498e-07,0.007453334956205985,0.0396762546733976
-9.23866498740555e-07,0.006117357221492929,0.02107276895087228
-9.138664987405534e-07,0.006451351655170888,0.04339695181791451
-9.038664987405518e-07,0.006785346088849456,0.02479346609537227
-8.938664987405502e-07,0.00778732938988516,0.006189980372830022
-8.838664987405553e-07,0.00778732938988516,0.03967625467339083
-8.738664987405537e-07,0.005783362787813752,0.01735207180635537
-8.638664987405521e-07,0.007119340522528024,0.04711764896242296
-8.538664987405505e-07,0.006785346088849456,0.02851416323988071
-8.438664987405489e-07,0.007119340522527417,0.02107276895087735
-8.338664987405541e-07,0.005783362787813752,0.05083834610693141
-8.238664987405525e-07,0.00778732938988516,0.01363137466184692
-8.138664987405509e-07,0.005783362787813752,0.03223486038438916
-8.038664987405493e-07,0.008455318257241081,0.03595555752888577
-7.938664987405545e-07,0.005783362787814967,0.009910677517350315
-7.838664987405529e-07,0.008789312690920863,0.04339695181791451
-7.738664987405513e-07,0.007119340522528024,0.01363137466184692
-7.638664987405497e-07,0.005783362787813448,0.02479346609537734
-7.538664987405549e-07,0.00511537392045692,0.03595555752889254
-7.438664987405533e-07,0.007453334956206592,0.01735207180635537
-7.338664987405517e-07,0.00611735722149232,0.04339695181791451
-7.238664987405501e-07,0.005783362787813752,0.002469283228321573
-7.138664987405553e-07,0.00511537392045692,0.02851416323986887
-7.038664987405537e-07,0.005783362787813752,0.03595555752889761
-6.938664987405521e-07,0.005449368354135184,0.00991067751733847
-6.838664987405505e-07,0.007119340522528024,0.03595555752889761
-6.738664987405489e-07,0.004781379486778049,-0.008692808205181778
-6.638664987405541e-07,0.004781379486778049,0.03967625467340606
-6.538664987405525e-07,0.004447385053099481,0.02851416323988071
-6.438664987405509e-07,0.004781379486778049,0.02851416323988071
-6.338664987405493e-07,0.005783362787813297,0.02851416323986549
-6.238664987405544e-07,0.004781379486778504,-0.004972111060680094
-6.138664987405528e-07,0.005115373920456617,0.04711764896242296
-6.038664987405512e-07,0.005783362787813752,0.002469283228321573
-5.938664987405496e-07,0.006117357221492169,-0.008692808205188546
-5.838664987405548e-07,0.005783362787813904,0.02479346609535703
-5.738664987405532e-07,0.00611735722149232,-0.01241350534971222
-5.638664987405516e-07,0.006451351655170888,0.03967625467340606
-5.5386649874055e-07,0.005783362787813752,0.02479346609537227
-5.438664987405552e-07,0.007119340522527417,-0.001251413916175032
-5.338664987405536e-07,0.005449368354135184,0.03595555752889761
-5.23866498740552e-07,0.006785346088849456,-0.008692808205203774
-5.138664987405504e-07,0.00611735722149232,0.02851416323988071
-5.038664987405488e-07,0.00544936835413564,0.01363137466184184
-4.93866498740554e-07,0.006451351655170888,0.002469283228321573
-4.838664987405524e-07,0.006451351655170888,0.03223486038438916
-4.738664987405508e-07,0.005115373920456617,-0.004972111060695325
-4.638664987405492e-07,0.005115373920456617,0.009910677517340162
-4.538664987405544e-07,0.005115373920456617,0.01363137466184692
-4.438664987405528e-07,0.00611735722149232,-0.004972111060695325
-4.338664987405512e-07,0.006785346088849456,0.04339695181791451
-4.238664987405496e-07,0.006117357221492017,-0.01241350534969192
-4.138664987405548e-07,0.005449368354135488,0.03223486038436886
-4.038664987405532e-07,0.004447385053099481,0.01735207180635537
-3.938664987405516e-07,0.005783362787813752,-0.01613420249422067
-3.8386649874055e-07,0.005783362787813752,0.04339695181791451
-3.738664987405551e-07,0.005783362787813752,-0.01241350534968684
-3.638664987405535e-07,0.007119340522528024,0.01363137466184692
-3.538664987405519e-07,0.005115373920456617,0.006189980372830022
-3.438664987405503e-07,0.007453334956206592,-0.01241350534971222
-3.338664987405487e-07,0.007453334956205985,0.02107276895085367
-3.238664987405539e-07,0.00611735722149232,-0.001251413916186876
-3.138664987405523e-07,0.00778732938988516,0.02107276895086382
-3.038664987405507e-07,0.005449368354135184,0.02479346609537227
-2.938664987405491e-07,0.007787329389885311,-0.01613420249420037
-2.838664987405543e-07,0.008121323823563727,0.02851416323988071
-2.738664987405527e-07,0.007453334956206592,-0.01985489963872912
-2.638664987405511e-07,0.006451351655170888,0.02479346609537227
-2.538664987405495e-07,0.005449368354136248,0.00618998037281987
-2.438664987405547e-07,0.007787329389884096,-0.01613420249421052
-2.338664987405531e-07,0.007119340522528024,0.03595555752889761
-2.238664987405515e-07,0.006451351655170888,-0.001251413916186876
-2.138664987405499e-07,0.005783362787813752,0.02479346609537227
-2.038664987405551e-07,0.004781379486778504,-0.008692808205188543
-1.938664987405535e-07,0.008455318257242295,0.002469283228321573
-1.838664987405519e-07,0.007453334956206592,0.01363137466184692
-1.738664987405503e-07,0.00611735722149232,-0.01985489963872912
-1.638664987405555e-07,0.005115373920457072,0.02107276895084521
-1.538664987405539e-07,0.006451351655170888,0.006189980372830022
-1.438664987405523e-07,0.007119340522528024,-0.01613420249422067
-1.338664987405507e-07,0.007119340522528024,0.03223486038438916
-1.238664987405491e-07,0.006451351655170888,-0.01241350534969869
-1.138664987405542e-07,0.006451351655170888,0.01735207180635537
-1.038664987405526e-07,0.006785346088849456,-0.001251413916186876
-9.386649874055104e-08,0.005783362787813752,-0.001251413916186876
-8.386649874054944e-08,0.006117357221492472,0.01735207180633845
-7.386649874055462e-08,0.006451351655170736,-0.0198548996387122
-6.386649874055302e-08,0.006451351655170888,0.01735207180635537
-5.386649874055142e-08,0.007119340522528024,-0.001251413916186876
-4.386649874054983e-08,0.006117357221492472,-0.012413505349697
-3.3866498740555e-08,0.006451351655170736,0.02107276895084859
-2.38664987405534e-08,0.005783362787813752,-0.01241350534971222
-1.386649874055181e-08,0.005783362787813752,0.02479346609537227
-3.866498740550208e-09,-0.00323448692150758,0.8545089293207564
6.133501259444614e-09,0.004447385053095988,3.808742462059122
1.613350125944621e-08,0.008121323823563727,2.952982118823522
2.613350125944781e-08,0.009457301558278,3.321331136129858
3.613350125944941e-08,0.01313124032874225,3.272962073251248
4.613350125945101e-08,0.008455318257241991,3.295286256118328
5.613350125944583e-08,0.00778732938988516,3.358538107574943
6.613350125944743e-08,0.002777412884706641,3.362258804719451
7.613350125944903e-08,0.002109424017349506,3.384582987586502
8.613350125945062e-08,0.001107440716314561,3.343655318996917
9.613350125944545e-08,0.002777412884705882,3.362258804719443
1.06133501259447e-07,0.002443418451028074,3.287844861829282
1.161335012594486e-07,0.006451351655170888,3.347376016141417
1.261335012594502e-07,0.007119340522528936,3.280403467540289
1.361335012594451e-07,0.009123307124598521,3.33249322756336
1.461335012594467e-07,0.006451351655170888,3.310169044696333
1.561335012594483e-07,0.009123307124599432,3.321331136129858
1.661335012594499e-07,0.00778732938988516,3.369700199008468
1.761335012594447e-07,0.005115373920457832,3.351096713285934
1.861335012594463e-07,0.005115373920456617,3.362258804719451
1.961335012594479e-07,0.003111407318385209,3.369700199008468
2.061335012594495e-07,0.004113390619420913,3.343655318996909
2.161335012594511e-07,0.003445401752064537,3.358538107574919
2.261335012594459e-07,0.005115373920456617,3.306448347551824
2.361335012594475e-07,0.00611735722149232,3.351096713285926
2.461335012594491e-07,0.005783362787813752,3.321331136129858
2.561335012594507e-07,0.009123307124597609,3.321331136129873
2.661335012594455e-07,0.005115373920458439,3.354817410430419
2.761335012594471e-07,0.00611735722149232,3.3399346218524
2.861335012594487e-07,0.004781379486778049,3.384582987586502
2.961335012594503e-07,0.004781379486777745,3.377141593297468
3.061335012594451e-07,0.004113390619421216,3.339934621852417
3.161335012594467e-07,0.005783362787813752,3.373420896152977
3.261335012594483e-07,0.004781379486778049,3.328772530418875
3.361335012594499e-07,0.005783362787813752,3.362258804719451
3.461335012594447e-07,0.004447385053100088,3.33993462185241
3.561335012594463e-07,0.007119340522528024,3.347376016141417
3.661335012594479e-07,0.007453334956206592,3.373420896152977
3.761335012594495e-07,0.00611735722149232,3.347376016141417
3.861335012594511e-07,0.006117357221491561,3.384582987586485
3.96133501259446e-07,0.004447385053099481,3.347376016141417
4.061335012594476e-07,0.00611735722149232,3.369700199008468
4.161335012594492e-07,0.006451351655170888,3.384582987586502
4.261335012594508e-07,0.005115373920457376,3.354817410430451
4.361335012594456e-07,0.006785346088848697,3.392024381875502
4.461335012594472e-07,0.006785346088849456,3.358538107574943
4.561335012594488e-07,0.008789312690920863,3.351096713285926
4.661335012594504e-07,0.006785346088849,3.37714159329748
4.761335012594452e-07,0.005783362787814207,3.365979501863964
4.861335012594468e-07,0.008121323823563727,3.38830368473101
4.961335012594484e-07,0.006785346088849456,3.373420896152977
5.0613350125945e-07,0.009123307124599432,3.36597950186396
5.161335012594448e-07,0.007119340522528935,3.39946577616452
5.261335012594464e-07,0.008455318257242295,3.36597950186396
5.36133501259448e-07,0.007119340522528024,3.38830368473101
5.461335012594496e-07,0.007453334956206592,3.362258804719451
5.561335012594512e-07,0.008121323823564335,3.365979501863966
5.66133501259446e-07,0.009457301558278,3.380862290441993
5.761335012594476e-07,0.00778732938988516,3.351096713285926
5.861335012594492e-07,0.008121323823563727,3.395745079020027
5.961335012594508e-07,0.007787329389884856,3.377141593297478
6.061335012594456e-07,0.007119340522528024,3.362258804719451
6.161335012594472e-07,0.008455318257242295,3.395745079020027
6.261335012594488e-07,0.007119340522528024,3.343655318996909
6.361335012594504e-07,0.006451351655171192,3.392024381875515
6.461335012594453e-07,0.007119340522527721,3.384582987586505
6.561335012594469e-07,0.006451351655170888,3.362258804719451
6.661335012594485e-07,0.008789312690920863,3.384582987586502
6.761335012594501e-07,0.006785346088849456,3.358538107574943
6.861335012594449e-07,0.007453334956206288,3.38458298758649
6.961335012594465e-07,0.00778732938988516,3.377141593297485
7.061335012594481e-07,0.00778732938988516,3.354817410430434
7.161335012594497e-07,0.008455318257242295,3.380862290441993
7.261335012594513e-07,0.008121323823562513,3.339934621852424
7.361335012594461e-07,0.005449368354135184,3.392024381875518
7.461335012594477e-07,0.006451351655170888,3.369700199008468
7.561335012594493e-07,0.008121323823563727,3.362258804719451
7.661335012594509e-07,0.009123307124599432,3.403186473309018
7.761335012594457e-07,0.009123307124599432,3.347376016141417
7.861335012594473e-07,0.007119340522528024,3.395745079020027
7.961335012594489e-07,0.008789312690920863,3.377141593297485
8.061335012594505e-07,0.006785346088850519,3.369700199008473
8.161335012594453e-07,0.009123307124598369,3.380862290441988
8.261335012594469e-07,0.008455318257242295,3.362258804719451
8.361335012594485e-07,0.008789312690920863,3.392024381875518
8.461335012594501e-07,0.006785346088849456,3.384582987586502
8.561335012594449e-07,0.009123307124598369,3.343655318996928
8.661335012594465e-07,0.008121323823563727,3.384582987586502
8.761335012594481e-07,0.007453334956206592,3.351096713285926
8.861335012594497e-07,0.009457301558278,3.38830368473101
8.961335012594446e-07,0.006451351655172255,3.373420896152983
9.061335012594462e-07,0.009123307124599432,3.373420896152977
9.161335012594478e-07,0.009123307124599432,3.38830368473101
9.261335012594494e-07,0.008789312690920863,3.354817410430434
9.36133501259451e-07,0.00745333495620644,3.395745079020019
9.461335012594458e-07,0.007119340522528024,3.377141593297485
9.561335012594474e-07,0.009457301558278,3.362258804719451
9.66133501259449e-07,0.009457301558278,3.392024381875518
9.761335012594506e-07,0.008121323823564335,3.358538107574956
9.861335012594454e-07,0.009457301558277393,3.388303684730997
9.96133501259447e-07,0.00778732938988516,3.373420896152977
1.006133501259449e-06,0.007119340522528024,3.369700199008468
1.01613350125945e-06,0.01012529042563468,3.377141593297475
1.026133501259445e-06,0.009123307124599888,3.354817410430444
1.036133501259447e-06,0.01012529042563514,3.36597950186396
1.046133501259448e-06,0.007119340522528024,3.384582987586502
1.05613350125945e-06,0.00778732938988516,3.351096713285926
1.066133501259445e-06,0.008455318257241991,3.399465776164513
1.076133501259446e-06,0.007453334956206592,3.36597950186396
1.086133501259448e-06,0.006785346088849456,3.38830368473101
1.096133501259449e-06,0.00611735722149232,3.373420896152977
1.106133501259451e-06,0.006785346088849608,3.373420896152983
1.116133501259446e-06,0.007119340522528024,3.38830368473101
1.126133501259447e-06,0.005449368354135184,3.354817410430434
1.136133501259449e-06,0.005783362787813752,3.395745079020027
1.146133501259451e-06,0.004447385053101152,3.384582987586495
1.156133501259445e-06,0.008121323823562057,3.369700199008475
1.166133501259447e-06,0.006785346088849456,3.41434856474257
1.176133501259449e-06,0.00611735722149232,3.351096713285926
1.18613350125945e-06,0.007453334956205985,3.392024381875518
1.196133501259445e-06,0.006117357221492929,3.392024381875518
1.206133501259447e-06,0.005115373920456617,3.36597950186396
1.216133501259448e-06,0.006451351655170888,3.403186473309044
1.22613350125945e-06,0.006785346088849456,3.36597950186396
1.236133501259445e-06,0.00645135165517104,3.392024381875506
1.246133501259446e-06,0.006785346088849456,3.38830368473101
1.256133501259448e-06,0.007119340522528024,3.384582987586502
1.266133501259449e-06,0.006451351655170888,3.406907170453553
1.276133501259451e-06,0.006451351655170736,3.373420896152989
1.286133501259446e-06,0.00611735722149232,3.399465776164535
1.296133501259448e-06,0.005115373920456617,3.384582987586502
1.306133501259449e-06,0.006451351655170888,3.373420896152977
1.316133501259451e-06,0.007119340522527569,3.399465776164527
1.326133501259446e-06,0.006117357221492776,3.380862290442002
1.336133501259447e-06,0.006785346088849456,3.395745079020027
1.346133501259449e-06,0.006785346088849456,3.384582987586502
1.35613350125945e-06,0.006117357221493232,3.373420896153
1.366133501259445e-06,0.008121323823562817,3.425510656176071
1.376133501259447e-06,0.006451351655170888,3.369700199008468
1.386133501259448e-06,0.007119340522528024,3.403186473309044
1.39613350125945e-06,0.006451351655170888,3.392024381875518
1.406133501259445e-06,0.007787329389884553,3.384582987586505
1.416133501259446e-06,0.00778732938988516,3.406907170453553
1.426133501259448e-06,0.006785346088849456,3.36597950186396
1.43613350125945e-06,0.006451351655170888,3.406907170453553
1.446133501259451e-06,0.005783362787814207,3.38086229044199
1.456133501259446e-06,0.006785346088849456,3.373420896152977
1.466133501259448e-06,0.006451351655170888,3.410627867598061
1.476133501259449e-06,0.006451351655170888,3.362258804719451
1.486133501259451e-06,0.006117357221492472,3.388303684731012
1.496133501259446e-06,0.006451351655170736,3.392024381875517
1.506133501259447e-06,0.006785346088849456,3.369700199008468
1.516133501259449e-06,0.00778732938988516,3.395745079020027
1.52613350125945e-06,0.007453334956207352,3.388303684731012
1.536133501259445e-06,0.009123307124598672,3.392024381875517
1.546133501259447e-06,0.005449368354135184,3.392024381875518
1.556133501259448e-06,0.007119340522528024,3.362258804719451
1.56613350125945e-06,0.009457301558278,3.406907170453553
1.576133501259445e-06,0.006117357221493839,3.358538107574965
1.586133501259446e-06,0.006785346088849456,3.38830368473101
1.596133501259448e-06,0.006785346088849456,3.369700199008468
1.60613350125945e-06,0.007119340522528024,3.384582987586502
1.616133501259451e-06,0.006451351655170585,3.392024381875506
1.626133501259446e-06,0.005783362787813752,3.36597950186396
1.636133501259448e-06,0.006785346088849456,3.406907170453553
1.646133501259449e-06,0.006785346088849456,3.377141593297485
1.656133501259451e-06,0.007453334956206592,3.380862290442002
1.666133501259446e-06,0.007453334956206592,3.399465776164535
1.676133501259447e-06,0.007453334956206592,3.354817410430434
1.686133501259449e-06,0.006785346088849456,3.403186473309044
1.69613350125945e-06,0.006117357221492928,3.36970019900847
1.706133501259445e-06,0.007453334956205985,3.373420896152975
1.716133501259447e-06,0.00778732938988516,3.406907170453553
1.726133501259448e-06,0.006785346088849456,3.362258804719451
1.73613350125945e-06,0.005783362787813752,3.399465776164535
1.746133501259445e-06,0.005783362787813752,3.369700199008481
1.756133501259446e-06,0.007453334956206592,3.36597950186396
1.766133501259448e-06,0.00611735722149232,3.406907170453553
1.77613350125945e-06,0.008789312690920863,3.354817410430434
1.786133501259445e-06,0.008789312690920863,3.406907170453529
1.796133501259446e-06,0.007119340522528024,3.369700199008468
1.806133501259448e-06,0.008789312690920863,3.362258804719451
1.816133501259449e-06,0.008789312690920863,3.399465776164535
1.826133501259451e-06,0.008121323823563575,3.369700199008475
1.836133501259446e-06,0.00778732938988516,3.384582987586502
1.846133501259447e-06,0.008121323823563727,3.395745079020027
1.856133501259449e-06,0.007453334956206592,3.362258804719451
1.866133501259451e-06,0.006785346088849304,3.395745079020015
1.876133501259445e-06,0.00645135165517104,3.36970019900848
1.886133501259447e-06,0.007119340522528024,3.395745079020027
1.896133501259449e-06,0.007453334956206592,3.392024381875518
1.90613350125945e-06,0.00778732938988516,3.377141593297485
1.916133501259445e-06,0.008121323823563575,3.399465776164525
1.926133501259447e-06,0.007119340522528024,3.36597950186396
1.936133501259448e-06,0.007453334956206592,3.395745079020027
1.94613350125945e-06,0.007119340522528024,3.399465776164535
1.956133501259445e-06,0.008789312690920103,3.369700199008481
1.966133501259446e-06,0.006451351655170888,3.403186473309044
1.976133501259448e-06,0.00778732938988516,3.380862290441993
1.986133501259449e-06,0.008121323823563727,3.410627867598061
1.996133501259451e-06,0.008121323823564031,3.399465776164527
2.006133501259446e-06,0.008789312690920863,3.380862290441993
2.016133501259447e-06,0.008789312690920863,3.403186473309044
2.026133501259449e-06,0.008121323823563727,3.373420896152977
2.036133501259451e-06,0.007787329389885767,3.403186473309044
2.046133501259445e-06,0.009123307124598825,3.403186473309044
2.056133501259447e-06,0.006785346088849456,3.373420896152977
2.066133501259449e-06,0.008455318257242295,3.403186473309044
2.07613350125945e-06,0.007787329389885615,3.384582987586514
2.086133501259445e-06,0.008789312690920406,3.410627867598049
2.096133501259447e-06,0.005783362787813752,3.380862290441993
2.106133501259448e-06,0.006785346088849456,3.362258804719451
2.11613350125945e-06,0.008455318257242295,3.403186473309044
2.126133501259445e-06,0.007119340522528632,3.36225880471947
2.136133501259446e-06,0.007453334956206592,3.392024381875518
2.146133501259448e-06,0.007453334956206592,3.392024381875518
2.156133501259449e-06,0.00778732938988516,3.369700199008468
2.166133501259451e-06,0.009123307124598218,3.392024381875508
2.176133501259446e-06,0.006451351655170888,3.369700199008468
2.186133501259447e-06,0.008789312690920863,3.395745079020027
2.196133501259449e-06,0.006451351655170888,3.384582987586502
2.206133501259451e-06,0.008455318257242142,3.3845829875865
