traces_bank_current_trigger/sampling_freq_100MHz/POP/pop_1.csv

#Digilent WaveForms Oscilloscope Acquisition
#Device Name: Discovery2
#Serial Number: SN:210321B3D813
#Date Time: 2023-07-18 14:20:31.166
#Sample rate: 1e+08Hz
#Samples: 8192
#Trigger: Source: Channel 2 Type: Edge Condition: Rising Level: 2 V Hyst.: Auto HoldOff: 0 s
#Channel 1: Range: 10 mV/div Offset: 0 V Attenuation: 1 X Sample Mode: Average
#Channel 2: Range: 5 V/div Offset: 0 V Attenuation: 1 X Sample Mode: Average

Time (s),Channel 1 (V),Channel 2 (V)
-9.509266409266385e-07,0.009123307124599432,0.02851416323988071
-9.409266409266369e-07,0.009123307124599432,-0.004972111060695325
-9.309266409266353e-07,0.008789312690920863,0.03223486038438578
-9.209266409266405e-07,0.008789312690920863,0.02479346609537565
-9.109266409266389e-07,0.00778732938988516,0.01735207180635537
-9.009266409266373e-07,0.008121323823563727,0.02479346609537227
-8.909266409266357e-07,0.008789312690920863,-0.001251413916186876
-8.809266409266409e-07,0.008121323823564031,-0.004972111060693634
-8.709266409266393e-07,0.009123307124599432,0.002469283228321573
-8.609266409266377e-07,0.006785346088849456,-0.001251413916186876
-8.509266409266361e-07,0.008789312690920863,0.02851416323988071
-8.409266409266345e-07,0.007453334956206592,0.002469283228330032
-8.309266409266397e-07,0.007453334956206592,0.02107276895086382
-8.209266409266381e-07,0.007119340522528024,0.006189980372830022
-8.109266409266365e-07,0.006785346088849456,-0.02357559678323757
-8.009266409266349e-07,0.007453334956206896,0.02107276895084351
-7.909266409266401e-07,0.008121323823563424,-0.02357559678321727
-7.809266409266385e-07,0.008455318257242295,0.01735207180635537
-7.709266409266369e-07,0.009457301558278,0.002469283228321573
-7.609266409266353e-07,0.008455318257241839,-0.01613420249420206
-7.509266409266404e-07,0.007453334956207047,0.02479346609535366
-7.409266409266388e-07,0.007453334956206592,-0.004972111060695325
-7.309266409266372e-07,0.008121323823563727,0.03223486038438916
-7.209266409266356e-07,0.007119340522528024,0.00991067751733847
-7.109266409266408e-07,0.006117357221492776,-0.0012514139161818
-7.009266409266392e-07,0.006785346088849456,0.01363137466184692
-6.909266409266376e-07,0.006785346088849456,-0.02357559678323757
-6.80926640926636e-07,0.006451351655170888,0.02107276895086382
-6.709266409266344e-07,0.006785346088849304,0.002469283228316497
-6.609266409266396e-07,0.006451351655170888,-0.008692808205203774
-6.50926640926638e-07,0.00611735722149232,0.02479346609537227
-6.409266409266364e-07,0.008121323823563727,-0.008692808205203774
-6.309266409266348e-07,0.00778732938988516,0.006189980372821561
-6.2092664092664e-07,0.00778732938988516,-0.01241350534970376
-6.109266409266384e-07,0.006785346088849456,-0.004972111060695325
-6.009266409266368e-07,0.006451351655170888,0.01735207180635537
-5.909266409266352e-07,0.00778732938988592,-0.02357559678321896
-5.809266409266404e-07,0.00945730155827724,0.01735207180633676
-5.709266409266388e-07,0.008789312690920863,-0.004972111060695325
-5.609266409266372e-07,0.008789312690920863,-0.01613420249422067
-5.509266409266356e-07,0.00778732938988516,0.006189980372830022
-5.409266409266408e-07,0.007453334956206744,-0.03101699107223755
-5.309266409266392e-07,0.01012529042563514,-0.001251413916186876
-5.209266409266376e-07,0.007453334956206592,0.02107276895086382
-5.10926640926636e-07,0.00778732938988516,-0.01241350534971222
-5.009266409266344e-07,0.007787329389884553,0.02107276895084521
-4.909266409266395e-07,0.006451351655170888,-0.01985489963872912
-4.809266409266379e-07,0.007453334956206592,0.02479346609537227
-4.709266409266363e-07,0.00611735722149232,0.006189980372830022
-4.609266409266347e-07,0.00645135165517104,-0.008692808205183471
-4.509266409266399e-07,0.006785346088849456,0.03595555752889761
-4.409266409266383e-07,0.006451351655170888,-0.01985489963872912
-4.309266409266367e-07,0.006451351655170888,0.02107276895086382
-4.209266409266351e-07,0.007119340522527721,0.002469283228319881
-4.109266409266403e-07,0.006451351655171192,-0.001251413916185184
-4.009266409266387e-07,0.007119340522528024,0.02107276895086382
-3.909266409266371e-07,0.005449368354135184,-0.008692808205203774
-3.809266409266355e-07,0.00778732938988516,0.00991067751733847
-3.709266409266407e-07,0.008789312690920406,0.01363137466184523
-3.609266409266391e-07,0.006451351655170888,0.02479346609537227
-3.509266409266375e-07,0.00778732938988516,0.03595555752889761
-3.409266409266359e-07,0.006785346088849456,-0.004972111060695325
-3.309266409266343e-07,0.008455318257241991,0.04339695181789421
-3.209266409266395e-07,0.00778732938988516,-0.001251413916186876
-3.109266409266379e-07,0.009123307124599432,-0.004972111060695325
-3.009266409266363e-07,0.00611735722149232,0.02479346609537227
-2.909266409266347e-07,0.007787329389885311,-0.008692808205186853
-2.809266409266399e-07,0.008121323823563727,0.02851416323988071
-2.709266409266383e-07,0.006451351655170888,0.00991067751733847
-2.609266409266367e-07,0.00778732938988516,0.006189980372830022
-2.509266409266351e-07,0.006117357221492472,0.0247934660953655
-2.409266409266402e-07,0.006451351655170736,0.009910677517345238
-2.309266409266386e-07,0.009123307124599432,0.01735207180635537
-2.20926640926637e-07,0.007453334956206592,0.02107276895086382
-2.109266409266354e-07,0.006785346088849456,0.01363137466184692
-2.009266409266406e-07,0.006117357221492624,0.05455904325142125
-1.90926640926639e-07,0.005783362787813752,-0.004972111060695325
-1.809266409266374e-07,0.006785346088849456,0.03595555752889761
-1.709266409266358e-07,0.006451351655170888,0.03595555752889761
-1.60926640926641e-07,0.006451351655170888,0.01363137466185707
-1.509266409266394e-07,0.006785346088849456,0.05083834610693141
-1.409266409266378e-07,0.005783362787813752,-0.01241350534971222
-1.309266409266362e-07,0.00778732938988516,0.02851416323988071
-1.209266409266346e-07,0.006451351655170888,0.03595555752888915
-1.109266409266398e-07,0.006451351655170888,0.01735207180635537
-1.009266409266382e-07,0.005115373920456617,0.04711764896242296
-9.09266409266366e-08,0.00611735722149232,0.02107276895086382
-8.0926640926635e-08,0.005783362787813752,0.02851416323988241
-7.092664092664018e-08,0.005783362787813752,0.03223486038438747
-6.092664092663858e-08,0.006785346088849456,0.01363137466184692
-5.092664092663698e-08,0.005115373920456617,0.05083834610693141
-4.092664092663538e-08,0.005115373920457224,0.01735207180636383
-3.092664092664056e-08,0.00645135165517028,0.03595555752888915
-2.092664092663896e-08,0.004781379486778049,0.02851416323988071
-1.092664092663736e-08,0.004447385053099481,0.01735207180635537
-9.266409266357636e-10,-0.01258633106450748,1.818169489748445
9.073359073359058e-09,0.0121292570276953,3.745490610602945
1.907335907336066e-08,0.005115373920456617,3.019954667424674
2.907335907336226e-08,0.01112727372667084,3.354817410430434
3.907335907336385e-08,0.00611735722149232,3.321331136129858
4.907335907336545e-08,0.01079327929298969,3.317610438985395
5.907335907336027e-08,0.005115373920456617,3.418069261887078
6.907335907336187e-08,0.003111407318385209,3.377141593297485
7.907335907336347e-08,-0.001564514753114741,3.458996930476671
8.907335907336507e-08,0.002109424017348595,3.317610438985398
9.907335907335989e-08,0.0001054574152790093,3.425510656176046
1.090733590733615e-07,0.002777412884706641,3.272962073251248
1.190733590733631e-07,0.003779396185742345,3.369700199008468
1.290733590733647e-07,0.005783362787814512,3.287844861829311
1.390733590733595e-07,0.007453334956205832,3.351096713285897
1.490733590733611e-07,0.007119340522528024,3.332493227563384
1.590733590733627e-07,0.005783362787813752,3.377141593297485
1.690733590733643e-07,0.007119340522528024,3.347376016141417
1.790733590733591e-07,0.003779396185743864,3.425510656176059
1.890733590733607e-07,0.002777412884706641,3.354817410430434
1.990733590733623e-07,0.0004394518489566662,3.410627867598061
2.090733590733639e-07,0.004447385053099481,3.347376016141417
2.190733590733655e-07,0.002777412884706793,3.388303684730988
2.290733590733603e-07,0.003111407318385209,3.3399346218524
2.390733590733619e-07,0.003445401752063777,3.332493227563384
2.490733590733635e-07,0.00611735722149232,3.362258804719451
2.590733590733651e-07,0.004447385053101,3.347376016141431
2.6907335907336e-07,0.007787329389883641,3.377141593297472
2.790733590733616e-07,0.003445401752063777,3.377141593297485
2.890733590733632e-07,0.004447385053099481,3.343655318996909
2.990733590733648e-07,0.001775429583671393,3.418069261887044
3.090733590733596e-07,0.002777412884706186,3.343655318996943
3.190733590733612e-07,0.003111407318385209,3.38830368473101
3.290733590733628e-07,0.004113390619420913,3.36597950186396
3.390733590733644e-07,0.004781379486778049,3.3399346218524
3.490733590733592e-07,0.006117357221491712,3.369700199008455
3.590733590733608e-07,0.005449368354135184,3.336213924707892
3.690733590733624e-07,0.00611735722149232,3.369700199008468
3.79073359073364e-07,0.005449368354135184,3.36597950186396
3.890733590733656e-07,0.007119340522527569,3.343655318996932
3.990733590733604e-07,0.00611735722149232,3.395745079020027
4.09073359073362e-07,0.005783362787813752,3.354817410430434
4.190733590733636e-07,0.005783362787813752,3.377141593297485
4.290733590733652e-07,0.005783362787814207,3.377141593297473
4.3907335907336e-07,0.006785346088849,3.351096713285938
4.490733590733616e-07,0.005783362787813752,3.373420896152977
4.590733590733632e-07,0.00778732938988516,3.336213924707892
4.690733590733648e-07,0.008789312690919496,3.373420896152975
4.790733590733596e-07,0.005783362787815119,3.36970019900847
4.890733590733612e-07,0.006451351655170888,3.358538107574943
4.990733590733628e-07,0.007119340522528024,3.403186473309044
5.090733590733644e-07,0.00611735722149232,3.354817410430434
5.190733590733593e-07,0.0077873293898844,3.392024381875502
5.290733590733609e-07,0.004447385053099481,3.373420896152977
5.390733590733625e-07,0.005115373920456617,3.369700199008468
5.490733590733641e-07,0.006785346088849456,3.395745079020027
5.590733590733657e-07,0.006451351655171344,3.351096713285936
5.690733590733605e-07,0.007453334956206592,3.373420896152977
5.790733590733621e-07,0.007453334956206592,3.369700199008468
5.890733590733637e-07,0.008455318257242295,3.347376016141417
5.990733590733653e-07,0.006785346088849,3.384582987586489
6.090733590733601e-07,0.005783362787813752,3.354817410430434
6.190733590733617e-07,0.006451351655170888,3.369700199008468
6.290733590733633e-07,0.005449368354135184,3.384582987586502
6.390733590733649e-07,0.006785346088848392,3.347376016141438
6.490733590733597e-07,0.004447385053100545,3.392024381875498
6.590733590733613e-07,0.005783362787813752,3.362258804719451
6.690733590733629e-07,0.005115373920456617,3.377141593297485
6.790733590733645e-07,0.005783362787813752,3.369700199008468
6.890733590733593e-07,0.004113390619421672,3.354817410430441
6.990733590733609e-07,0.005115373920456617,3.41434856474257
7.090733590733625e-07,0.006785346088849456,3.3399346218524
7.190733590733641e-07,0.007119340522528024,3.384582987586502
7.290733590733657e-07,0.005115373920456617,3.373420896152977
7.390733590733605e-07,0.005115373920456617,3.373420896152977
7.490733590733621e-07,0.006785346088849456,3.392024381875518
7.590733590733637e-07,0.005115373920456617,3.362258804719451
7.690733590733653e-07,0.006451351655170585,3.365979501863963
7.790733590733602e-07,0.005783362787813752,3.373420896152977
7.890733590733618e-07,0.00611735722149232,3.354817410430434
7.990733590733634e-07,0.006451351655170888,3.380862290441993
8.09073359073365e-07,0.005449368354135336,3.339934621852424
8.190733590733598e-07,0.0057833627878136,3.392024381875495
8.290733590733614e-07,0.003111407318385209,3.373420896152977
8.39073359073363e-07,0.007453334956206592,3.362258804719451
8.490733590733646e-07,0.004781379486778049,3.38830368473101
8.590733590733594e-07,0.005449368354134881,3.36597950186397
8.69073359073361e-07,0.005783362787813752,3.392024381875518
8.790733590733626e-07,0.004781379486778049,3.377141593297485
8.890733590733642e-07,0.005115373920456617,3.358538107574943
8.99073359073359e-07,0.004447385053099785,3.39574507902001
9.090733590733606e-07,0.004781379486778049,3.369700199008468
9.190733590733622e-07,0.005449368354135184,3.36597950186396
9.290733590733638e-07,0.004447385053099481,3.392024381875518
9.390733590733654e-07,0.004781379486776834,3.362258804719473
9.490733590733602e-07,0.002109424017349506,3.410627867598061
9.590733590733618e-07,0.005115373920456617,3.358538107574943
9.690733590733634e-07,0.004781379486778049,3.395745079020027
9.79073359073365e-07,0.004781379486778049,3.380862290441995
9.890733590733598e-07,0.004781379486778049,3.3845829875865
9.990733590733614e-07,0.003445401752063777,3.38830368473101
1.009073359073363e-06,0.004781379486778049,3.36597950186396
1.019073359073365e-06,0.005115373920457072,3.399465776164534
1.029073359073359e-06,0.006117357221491865,3.395745079020029
1.039073359073361e-06,0.004781379486778049,3.377141593297485
1.049073359073363e-06,0.005783362787813752,3.384582987586502
1.059073359073364e-06,0.004781379486778049,3.380862290441993
1.069073359073359e-06,0.005783362787813297,3.395745079020021
1.079073359073361e-06,0.005115373920456617,3.38830368473101
1.089073359073362e-06,0.005115373920456617,3.38830368473101
1.099073359073364e-06,0.005115373920456617,3.410627867598061
1.109073359073365e-06,0.005783362787814207,3.377141593297495
1.11907335907336e-06,0.006785346088849456,3.399465776164535
1.129073359073362e-06,0.00611735722149232,3.392024381875518
1.139073359073363e-06,0.004781379486778049,3.369700199008468
1.149073359073365e-06,0.005115373920457072,3.399465776164515
1.15907335907336e-06,0.006117357221491865,3.354817410430455
1.169073359073362e-06,0.007453334956206592,3.395745079020027
1.179073359073363e-06,0.005115373920456617,3.38830368473101
1.189073359073365e-06,0.006451351655171192,3.377141593297495
1.19907335907336e-06,0.007119340522527721,3.399465776164525
1.209073359073361e-06,0.005783362787813752,3.362258804719451
1.219073359073363e-06,0.007119340522528024,3.392024381875518
1.229073359073364e-06,0.006451351655170888,3.384582987586502
1.239073359073359e-06,0.005783362787814056,3.373420896152981
1.249073359073361e-06,0.005115373920456617,3.406907170453553
1.259073359073362e-06,0.005115373920456617,3.362258804719451
1.269073359073364e-06,0.006785346088849456,3.38830368473101
1.279073359073366e-06,0.005783362787814056,3.39202438187551
1.28907335907336e-06,0.006451351655170888,3.373420896152977
1.299073359073362e-06,0.005449368354135184,3.395745079020027
1.309073359073364e-06,0.005783362787813752,3.38830368473101
1.319073359073365e-06,0.004113390619421065,3.388303684731008
1.32907335907336e-06,0.00444738505309933,3.384582987586504
1.339073359073362e-06,0.005783362787813752,3.373420896152977
1.349073359073363e-06,0.005449368354135184,3.418069261887078
1.359073359073365e-06,0.00611735722149232,3.39202438187552
1.36907335907336e-06,0.00611735722149232,3.395745079020025
1.379073359073361e-06,0.00611735722149232,3.395745079020027
1.389073359073363e-06,0.005783362787813752,3.380862290441993
1.399073359073364e-06,0.00611735722149232,3.41434856474257
1.409073359073359e-06,0.006451351655170736,3.369700199008488
1.419073359073361e-06,0.00611735722149232,3.395745079020027
1.429073359073362e-06,0.006451351655170888,3.38830368473101
1.439073359073364e-06,0.006451351655170888,3.36597950186396
1.449073359073366e-06,0.006451351655170736,3.414348564742551
1.45907335907336e-06,0.00611735722149232,3.373420896152977
1.469073359073362e-06,0.006785346088849456,3.395745079020027
1.479073359073364e-06,0.00611735722149232,3.373420896152977
1.489073359073365e-06,0.006117357221492017,3.38086229044201
1.49907335907336e-06,0.005449368354135488,3.418069261887061
1.509073359073362e-06,0.003779396185742345,3.377141593297485
1.519073359073363e-06,0.006451351655170888,3.384582987586502
1.529073359073365e-06,0.005115373920456009,3.388303684731
1.53907335907336e-06,0.003779396185742953,3.36597950186397
1.549073359073361e-06,0.003445401752063777,3.421789959031586
1.559073359073363e-06,0.003111407318385209,3.369700199008468
1.569073359073364e-06,0.004781379486778049,3.38830368473101
1.579073359073359e-06,0.003445401752064385,3.373420896152983
1.589073359073361e-06,0.005783362787813752,3.369700199008468
1.599073359073362e-06,0.004781379486778049,3.395745079020027
1.609073359073364e-06,0.007119340522528024,3.358538107574943
1.619073359073366e-06,0.006117357221491409,3.395745079020024
1.62907335907336e-06,0.004113390619420913,3.38830368473101
1.639073359073362e-06,0.004781379486778049,3.36597950186396
1.649073359073364e-06,0.004781379486778049,3.399465776164535
1.659073359073365e-06,0.004781379486778504,3.373420896152977
1.66907335907336e-06,0.005783362787813752,3.373420896152977
1.679073359073362e-06,0.005115373920456617,3.373420896152977
1.689073359073363e-06,0.008121323823563727,3.347376016141417
1.699073359073365e-06,0.004113390619421673,3.384582987586492
1.70907335907336e-06,0.005783362787812992,3.362258804719461
1.719073359073361e-06,0.004781379486778049,3.403186473309044
1.729073359073363e-06,0.004113390619420913,3.399465776164535
1.739073359073365e-06,0.003445401752063777,3.373420896152977
1.749073359073359e-06,0.004113390619420609,3.395745079020017
1.759073359073361e-06,0.005115373920456617,3.358538107574943
1.769073359073363e-06,0.00611735722149232,3.36597950186396
1.779073359073364e-06,0.007119340522528024,3.362258804719451
1.789073359073359e-06,0.008121323823563271,3.33993462185241
1.799073359073361e-06,0.005449368354135184,3.38830368473101
1.809073359073362e-06,0.00611735722149232,3.351096713285926
1.819073359073364e-06,0.006451351655170888,3.392024381875518
1.829073359073365e-06,0.0057833627878136,3.380862290441985
1.83907335907336e-06,0.005449368354135184,3.362258804719451
1.849073359073362e-06,0.00611735722149232,3.392024381875518
1.859073359073363e-06,0.005783362787813752,3.354817410430434
1.869073359073365e-06,0.00611735722149232,3.38086229044199
1.87907335907336e-06,0.00611735722149232,3.37342089615298
1.889073359073361e-06,0.005449368354135184,3.3399346218524
1.899073359073363e-06,0.005783362787813752,3.377141593297485
1.909073359073365e-06,0.005449368354135184,3.369700199008468
1.919073359073359e-06,0.007119340522527265,3.373420896152975
1.929073359073361e-06,0.005115373920456617,3.373420896152977
1.939073359073363e-06,0.007453334956206592,3.362258804719451
1.949073359073364e-06,0.006451351655170888,3.399465776164535
1.959073359073359e-06,0.004447385053100392,3.369700199008481
1.969073359073361e-06,0.006451351655170888,3.384582987586502
1.979073359073362e-06,0.003445401752063777,3.384582987586502
1.989073359073364e-06,0.006785346088849456,3.358538107574943
1.999073359073365e-06,0.00544936835413564,3.388303684730988
2.00907335907336e-06,0.006451351655170888,3.3399346218524
2.019073359073362e-06,0.007119340522528024,3.377141593297485
2.029073359073363e-06,0.005115373920456617,3.392024381875518
2.039073359073365e-06,0.004781379486778353,3.365979501863975
2.04907335907336e-06,0.005449368354134881,3.39946577616452
2.059073359073361e-06,0.005449368354135184,3.358538107574943
2.069073359073363e-06,0.00778732938988516,3.380862290441993
2.079073359073365e-06,0.006117357221492472,3.377141593297472
2.089073359073359e-06,0.006451351655170736,3.347376016141431
2.099073359073361e-06,0.006451351655170888,3.399465776164535
2.109073359073363e-06,0.00611735722149232,3.351096713285926
2.119073359073364e-06,0.005449368354135184,3.380862290441993
2.129073359073359e-06,0.006451351655170433,3.3845829875865
2.139073359073361e-06,0.005115373920456617,3.36597950186396
2.149073359073362e-06,0.006451351655170888,3.395745079020027
2.159073359073364e-06,0.00778732938988516,3.362258804719451
2.169073359073365e-06,0.005449368354136248,3.373420896152978
2.17907335907336e-06,0.00778732938988516,3.377141593297485
2.189073359073362e-06,0.006451351655170888,3.373420896152977
2.199073359073364e-06,0.006785346088849456,3.403186473309044
2.209073359073365e-06,0.006117357221492472,3.358538107574963
