traces_bank_current_trigger/sampling_freq_100MHz/POP/pop_2.csv

#Digilent WaveForms Oscilloscope Acquisition
#Device Name: Discovery2
#Serial Number: SN:210321B3D813
#Date Time: 2023-07-18 14:26:05.713
#Sample rate: 1e+08Hz
#Samples: 8192
#Trigger: Source: Channel 2 Type: Edge Condition: Rising Level: 2 V Hyst.: Auto HoldOff: 0 s
#Channel 1: Range: 10 mV/div Offset: 0 V Attenuation: 1 X Sample Mode: Average
#Channel 2: Range: 5 V/div Offset: 0 V Attenuation: 1 X Sample Mode: Average

Time (s),Channel 1 (V),Channel 2 (V)
-9.571291208791205e-07,0.0104592848593137,0.006189980372830022
-9.471291208791189e-07,0.009457301558278,0.04711764896242296
-9.371291208791173e-07,0.009791295991956871,0.006189980372831714
-9.271291208791225e-07,0.0104592848593134,0.009910677517336779
-9.171291208791209e-07,0.009123307124599432,0.03223486038438916
-9.071291208791193e-07,0.00778732938988516,-0.004972111060695325
-8.971291208791177e-07,0.008789312690920863,0.03223486038438916
-8.871291208791229e-07,0.009123307124599279,0.01735207180636213
-8.771291208791213e-07,0.008121323823563727,0.01735207180635537
-8.671291208791197e-07,0.009123307124599432,0.02851416323988071
-8.571291208791181e-07,0.006785346088849456,-0.004972111060695325
-8.471291208791165e-07,0.009457301558277393,0.03967625467339252
-8.371291208791217e-07,0.008121323823563727,0.00991067751733847
-8.271291208791201e-07,0.008121323823563727,0.00991067751733847
-8.171291208791185e-07,0.008455318257242295,0.03595555752889761
-8.071291208791169e-07,0.008455318257242142,-0.01241350534968515
-7.971291208791221e-07,0.00812132382356388,0.04711764896239589
-7.871291208791205e-07,0.009123307124599432,0.006189980372830022
-7.771291208791189e-07,0.006785346088849456,0.01363137466184692
-7.671291208791173e-07,0.00812132382356312,0.03967625467338406
-7.571291208791225e-07,0.006785346088850064,-0.008692808205181778
-7.471291208791209e-07,0.007453334956206592,0.05083834610693141
-7.371291208791193e-07,0.007453334956206592,0.03223486038438916
-7.271291208791177e-07,0.00778732938988516,0.01735207180635537
-7.171291208791228e-07,0.00778732938988516,0.03967625467339591
-7.071291208791212e-07,0.007119340522528024,0.00991067751733847
-6.971291208791196e-07,0.006785346088849456,0.03223486038438916
-6.87129120879118e-07,0.006785346088849456,0.02479346609537227
-6.771291208791165e-07,0.005783362787814359,0.002469283228341876
-6.671291208791216e-07,0.007119340522528024,0.04711764896242296
-6.5712912087912e-07,0.005115373920456617,-0.01241350534971222
-6.471291208791184e-07,0.00778732938988516,0.03967625467340606
-6.371291208791168e-07,0.008121323823563271,0.02107276895086043
-6.27129120879122e-07,0.00711934052252848,0.0136313746618503
-6.171291208791204e-07,0.007119340522528024,0.05083834610693141
-6.071291208791188e-07,0.006785346088849456,-0.004972111060695325
-5.971291208791172e-07,0.008121323823563727,0.04339695181790436
-5.871291208791224e-07,0.008121323823563727,0.02107276895087397
-5.771291208791208e-07,0.007453334956206592,0.01363137466184692
-5.671291208791192e-07,0.006451351655170888,0.02851416323988071
-5.571291208791176e-07,0.007453334956206592,-0.004972111060695325
-5.471291208791228e-07,0.007787329389885008,0.02107276895085197
-5.371291208791212e-07,0.008455318257242295,0.002469283228321573
-5.271291208791196e-07,0.007453334956206592,0.006189980372830022
-5.17129120879118e-07,0.007453334956206592,0.03595555752889761
-5.071291208791164e-07,0.006117357221492624,-0.03101699107222401
-4.971291208791216e-07,0.006785346088849456,0.03595555752889761
-4.8712912087912e-07,0.006451351655170888,0.00991067751733847
-4.771291208791184e-07,0.005783362787813752,0.00991067751733847
-4.671291208791168e-07,0.006785346088849304,0.02479346609535873
-4.571291208791219e-07,0.006451351655170888,-0.004972111060695325
-4.471291208791203e-07,0.007453334956206592,0.02107276895086382
-4.371291208791187e-07,0.005449368354135184,-0.004972111060695325
-4.271291208791172e-07,0.007787329389884096,0.006189980372840173
-4.171291208791223e-07,0.005449368354136248,0.02851416323987056
-4.071291208791207e-07,0.006451351655170888,-0.004972111060695325
-3.971291208791191e-07,0.007119340522528024,0.02851416323988071
-3.871291208791175e-07,0.00611735722149232,-0.004972111060695325
-3.771291208791227e-07,0.008121323823562817,0.006189980372824946
-3.671291208791211e-07,0.006451351655170888,0.04711764896242296
-3.571291208791195e-07,0.008455318257242295,-0.008692808205203774
-3.471291208791179e-07,0.006785346088849456,0.04339695181791451
-3.371291208791163e-07,0.006117357221492776,0.02107276895087059
-3.271291208791215e-07,0.007119340522528024,0.03595555752889761
-3.171291208791199e-07,0.006451351655170888,0.04339695181791451
-3.071291208791183e-07,0.005783362787813752,-0.001251413916186876
-2.971291208791167e-07,0.007453334956206137,0.0359555575288807
-2.871291208791219e-07,0.006451351655170888,-0.001251413916186876
-2.771291208791203e-07,0.009123307124599432,-0.01241350534971222
-2.671291208791187e-07,0.008789312690920863,0.02479346609537227
-2.571291208791171e-07,0.009457301558277544,-0.02729629392771556
-2.471291208791223e-07,0.008455318257242751,0.0396762546733756
-2.371291208791207e-07,0.006785346088849456,0.01735207180635537
-2.271291208791191e-07,0.007119340522528024,0.01735207180635537
-2.171291208791175e-07,0.006785346088849456,0.03223486038438916
-2.071291208791226e-07,0.006785346088849456,-0.01241350534969192
-1.97129120879121e-07,0.008789312690920863,0.01735207180635537
-1.871291208791194e-07,0.008121323823563727,-0.004972111060695325
-1.771291208791178e-07,0.008789312690920863,-0.004972111060695325
-1.67129120879123e-07,0.008789312690920863,0.03967625467338576
-1.571291208791214e-07,0.008121323823563727,-0.004972111060695325
-1.471291208791198e-07,0.007453334956206592,0.05083834610693141
-1.371291208791182e-07,0.005783362787813752,0.03967625467340606
-1.271291208791166e-07,0.006451351655171344,0.009910677517357082
-1.171291208791218e-07,0.007453334956206592,0.05083834610693141
-1.071291208791202e-07,0.006451351655170888,0.002469283228321573
-9.712912087911862e-08,0.009457301558278,0.02479346609537227
-8.712912087911702e-08,0.00812132382356388,0.002469283228321573
-7.71291208791222e-08,0.008455318257242142,0.002469283228321573
-6.71291208791206e-08,0.008789312690920863,0.03595555752889761
-5.7129120879119e-08,0.007119340522528024,0.002469283228321573
-4.71291208791174e-08,0.006451351655170736,0.04711764896240942
-3.712912087912258e-08,0.006117357221492472,0.0173520718063689
-2.712912087912098e-08,0.00611735722149232,0.02479346609537227
-1.712912087911938e-08,0.00611735722149232,0.02479346609537227
-7.129120879117783e-09,0.005449368354135184,0.06572113468496521
2.870879120877039e-09,-0.01024837002875037,2.774388655885884
1.287087912087864e-08,0.01313124032874225,3.399465776164535
2.287087912088024e-08,0.005783362787813752,3.142737673193452
3.287087912088183e-08,0.01580319579817079,3.280403467540265
4.287087912088343e-08,0.007453334956208414,3.302727650407324
5.287087912087825e-08,0.01146126816034941,3.321331136129858
6.287087912087985e-08,0.004113390619420913,3.41434856474257
7.287087912088145e-08,0.006451351655170888,3.332493227563384
8.287087912088305e-08,-0.0002285370183992545,3.455276233332091
9.287087912087787e-08,0.002443418451026858,3.299006953262878
1.028708791208795e-07,0.0007734462826352341,3.399465776164535
1.128708791208811e-07,0.004113390619420913,3.26924137610674
1.228708791208827e-07,0.003779396185745079,3.328772530418856
1.328708791208775e-07,0.009791295991953834,3.287844861829301
1.428708791208791e-07,0.007119340522528024,3.313889741840841
1.528708791208807e-07,0.01112727372667084,3.313889741840841
1.628708791208823e-07,0.005783362787813752,3.36597950186396
1.728708791208771e-07,0.008121323823562664,3.306448347551851
1.828708791208787e-07,0.005449368354135184,3.399465776164535
1.928708791208803e-07,0.005449368354135184,3.302727650407316
2.028708791208819e-07,0.003445401752063777,3.399465776164535
2.128708791208835e-07,0.004781379486777442,3.310169044696343
2.228708791208783e-07,0.003445401752063777,3.332493227563384
2.328708791208799e-07,0.00778732938988516,3.321331136129858
2.428708791208815e-07,0.004781379486778049,3.313889741840841
2.528708791208831e-07,0.007119340522527569,3.321331136129875
2.628708791208779e-07,0.006117357221492776,3.358538107574926
2.728708791208795e-07,0.007453334956206592,3.3399346218524
2.828708791208811e-07,0.005115373920456617,3.377141593297485
2.928708791208827e-07,0.00377939618574356,3.339934621852426
3.028708791208776e-07,0.006451351655169673,3.395745079020002
3.128708791208792e-07,0.002443418451028074,3.3399346218524
3.228708791208808e-07,0.005449368354135184,3.3399346218524
3.328708791208823e-07,0.004113390619420913,3.362258804719451
3.428708791208772e-07,0.006451351655169825,3.32877253041889
3.528708791208788e-07,0.007453334956206592,3.354817410430434
3.628708791208804e-07,0.006451351655170888,3.351096713285926
3.72870879120882e-07,0.006451351655170888,3.3399346218524
3.828708791208836e-07,0.007787329389884553,3.395745079020007
3.928708791208784e-07,0.006451351655170888,3.351096713285926
4.0287087912088e-07,0.006451351655170888,3.406907170453553
4.128708791208816e-07,0.005449368354135184,3.354817410430434
4.228708791208832e-07,0.004781379486779416,3.365979501863956
4.32870879120878e-07,0.007787329389883793,3.358538107574946
4.428708791208796e-07,0.005449368354135184,3.3399346218524
4.528708791208812e-07,0.008121323823563727,3.377141593297485
4.628708791208828e-07,0.005115373920457528,3.37714159329747
4.728708791208776e-07,0.007119340522527114,3.343655318996924
4.828708791208792e-07,0.00611735722149232,3.395745079020027
4.928708791208808e-07,0.00611735722149232,3.351096713285926
5.028708791208824e-07,0.00611735722149232,3.38830368473101
5.128708791208772e-07,0.006451351655170736,3.380862290441997
5.228708791208788e-07,0.005783362787813752,3.384582987586502
5.328708791208804e-07,0.007119340522528024,3.406907170453553
5.42870879120882e-07,0.005783362787813752,3.3399346218524
5.528708791208836e-07,0.006117357221492472,3.388303684731002
5.628708791208785e-07,0.006451351655170888,3.369700199008468
5.728708791208801e-07,0.00778732938988516,3.362258804719451
5.828708791208816e-07,0.006451351655170888,3.399465776164535
5.928708791208832e-07,0.006785346088849304,3.339934621852431
6.028708791208781e-07,0.006451351655170888,3.406907170453553
6.128708791208797e-07,0.004447385053099481,3.369700199008468
6.228708791208813e-07,0.004781379486778049,3.369700199008468
6.328708791208829e-07,0.005449368354134881,3.403186473309015
6.428708791208777e-07,0.004781379486778353,3.339934621852429
6.528708791208793e-07,0.005449368354135184,3.395745079020027
6.628708791208809e-07,0.005115373920456617,3.36597950186396
6.728708791208825e-07,0.006785346088849456,3.362258804719451
6.828708791208773e-07,0.00645135165517104,3.395745079020012
6.928708791208789e-07,0.004447385053099481,3.358538107574943
7.028708791208805e-07,0.004447385053099481,3.38830368473101
7.128708791208821e-07,0.003779396185742345,3.351096713285926
7.228708791208837e-07,0.005115373920456617,3.377141593297493
7.328708791208785e-07,0.005115373920456617,3.395745079020027
7.428708791208801e-07,0.003445401752063777,3.358538107574943
7.528708791208817e-07,0.003445401752063777,3.399465776164535
7.628708791208833e-07,0.004781379486778504,3.369700199008476
7.728708791208781e-07,0.005783362787813752,3.38830368473101
7.828708791208797e-07,0.005449368354135184,3.384582987586502
7.928708791208813e-07,0.004781379486778049,3.358538107574943
8.028708791208829e-07,0.005783362787813752,3.395745079020022
8.128708791208778e-07,0.005783362787813752,3.384582987586507
8.228708791208794e-07,0.007453334956206592,3.362258804719451
8.32870879120881e-07,0.006451351655170888,3.410627867598061
8.428708791208825e-07,0.006785346088849456,3.354817410430434
8.528708791208774e-07,0.006117357221492624,3.410627867598035
8.62870879120879e-07,0.006451351655170888,3.392024381875518
8.728708791208806e-07,0.009123307124599432,3.36597950186396
8.828708791208822e-07,0.007119340522528024,3.410627867598061
8.92870879120877e-07,0.007787329389884856,3.35481741043046
9.028708791208786e-07,0.005115373920456617,3.392024381875518
9.128708791208802e-07,0.006451351655170888,3.403186473309044
9.228708791208818e-07,0.005449368354135184,3.373420896152977
9.328708791208834e-07,0.007119340522527721,3.418069261887049
9.428708791208782e-07,0.006451351655170888,3.354817410430434
9.528708791208798e-07,0.004447385053099481,3.41434856474257
9.628708791208814e-07,0.006785346088849456,3.384582987586502
9.72870879120883e-07,0.005783362787814359,3.388303684731025
9.828708791208778e-07,0.007119340522527417,3.421789959031571
9.928708791208794e-07,0.00611735722149232,3.373420896152977
1.002870879120881e-06,0.00611735722149232,3.403186473309044
1.012870879120883e-06,0.00611735722149232,3.406907170453532
1.022870879120877e-06,0.00611735722149232,3.362258804719472
1.032870879120879e-06,0.005783362787813752,3.425510656176095
1.042870879120881e-06,0.00611735722149232,3.347376016141417
1.052870879120882e-06,0.003779396185742345,3.406907170453553
1.062870879120877e-06,0.005449368354134424,3.380862290442005
1.072870879120879e-06,0.00611735722149232,3.36597950186396
1.08287087912088e-06,0.006785346088849456,3.418069261887078
1.092870879120882e-06,0.004781379486778049,3.351096713285926
1.102870879120883e-06,0.006117357221491713,3.406907170453541
1.112870879120878e-06,0.004781379486778049,3.380862290441993
1.12287087912088e-06,0.005115373920456617,3.369700199008468
1.132870879120881e-06,0.00611735722149232,3.406907170453553
1.142870879120883e-06,0.006785346088849304,3.365979501863976
1.152870879120878e-06,0.00645135165517104,3.403186473309027
1.162870879120879e-06,0.00611735722149232,3.377141593297485
1.172870879120881e-06,0.005449368354135184,3.358538107574943
1.182870879120883e-06,0.006451351655170128,3.406907170453534
1.192870879120878e-06,0.004781379486778809,3.365979501863978
1.202870879120879e-06,0.00778732938988516,3.395745079020027
1.212870879120881e-06,0.00611735722149232,3.380862290441993
1.222870879120882e-06,0.006451351655170888,3.373420896152977
1.232870879120877e-06,0.006117357221492472,3.410627867598044
1.242870879120879e-06,0.00611735722149232,3.36597950186396
1.25287087912088e-06,0.007119340522528024,3.418069261887078
1.262870879120882e-06,0.004781379486778049,3.395745079020027
1.272870879120884e-06,0.005783362787813904,3.392024381875529
1.282870879120878e-06,0.00611735722149232,3.41434856474257
1.29287087912088e-06,0.005115373920456617,3.377141593297485
1.302870879120882e-06,0.005449368354135184,3.429231353320603
1.312870879120883e-06,0.005783362787814056,3.392024381875515
1.322870879120878e-06,0.006451351655170585,3.384582987586505
1.33287087912088e-06,0.006451351655170888,3.410627867598061
1.342870879120881e-06,0.007453334956206592,3.384582987586502
1.352870879120883e-06,0.006785346088849304,3.410627867598044
1.362870879120878e-06,0.00645135165517104,3.373420896152993
1.372870879120879e-06,0.007119340522528024,3.392024381875518
1.382870879120881e-06,0.007453334956206592,3.425510656176095
1.392870879120882e-06,0.005783362787813752,3.36597950186396
1.402870879120877e-06,0.007453334956205832,3.395745079020014
1.412870879120879e-06,0.006451351655170888,3.392024381875518
1.42287087912088e-06,0.007119340522528024,3.369700199008468
1.432870879120882e-06,0.007453334956206592,3.406907170453553
1.442870879120884e-06,0.004113390619421824,3.365979501863982
1.452870879120878e-06,0.00611735722149232,3.41434856474257
1.46287087912088e-06,0.00778732938988516,3.377141593297485
1.472870879120882e-06,0.007119340522528024,3.384582987586502
1.482870879120883e-06,0.006451351655170281,3.421789959031561
1.492870879120878e-06,0.005115373920457224,3.365979501863985
1.50287087912088e-06,0.00778732938988516,3.410627867598061
1.512870879120881e-06,0.005449368354135184,3.380862290441993
1.522870879120883e-06,0.006451351655170888,3.380862290442008
1.532870879120878e-06,0.006451351655170888,3.414348564742554
1.542870879120879e-06,0.00611735722149232,3.384582987586502
1.552870879120881e-06,0.006451351655170888,3.403186473309044
1.562870879120882e-06,0.006451351655170888,3.380862290441993
1.572870879120877e-06,0.006785346088849304,3.392024381875514
1.582870879120879e-06,0.006785346088849456,3.410627867598061
1.59287087912088e-06,0.006451351655170888,3.36597950186396
1.602870879120882e-06,0.006785346088849456,3.410627867598061
1.612870879120884e-06,0.006117357221492472,3.388303684731007
1.622870879120878e-06,0.006451351655170888,3.380862290441993
1.63287087912088e-06,0.006785346088849456,3.41434856474257
1.642870879120882e-06,0.00611735722149232,3.358538107574943
1.652870879120883e-06,0.00812132382356236,3.414348564742559
1.662870879120878e-06,0.005115373920456617,3.392024381875518
1.67287087912088e-06,0.006785346088849456,3.384582987586502
1.682870879120881e-06,0.006451351655170888,3.403186473309044
1.692870879120883e-06,0.004113390619421976,3.369700199008495
1.702870879120878e-06,0.006451351655169825,3.429231353320576
1.712870879120879e-06,0.004447385053099481,3.392024381875518
1.722870879120881e-06,0.00611735722149232,3.377141593297485
1.732870879120882e-06,0.005783362787813752,3.429231353320603
1.742870879120877e-06,0.004447385053100088,3.369700199008495
1.752870879120879e-06,0.006451351655170888,3.406907170453553
1.762870879120881e-06,0.005783362787813752,3.380862290441993
1.772870879120882e-06,0.006785346088849456,3.384582987586502
1.782870879120877e-06,0.005449368354135791,3.421789959031569
1.792870879120879e-06,0.005449368354135184,3.373420896152977
1.80287087912088e-06,0.00778732938988516,3.41434856474257
1.812870879120882e-06,0.00611735722149232,3.377141593297485
1.822870879120883e-06,0.006451351655170888,3.377141593297493
1.832870879120878e-06,0.006451351655170888,3.395745079020027
1.84287087912088e-06,0.006451351655170888,3.354817410430434
1.852870879120881e-06,0.006451351655170888,3.410627867598061
1.862870879120883e-06,0.007453334956205985,3.392024381875506
1.872870879120878e-06,0.006117357221492929,3.365979501863972
1.882870879120879e-06,0.005449368354135184,3.425510656176095
1.892870879120881e-06,0.00778732938988516,3.362258804719451
1.902870879120883e-06,0.007453334956206592,3.399465776164535
1.912870879120877e-06,0.008121323823563424,3.392024381875522
1.922870879120879e-06,0.005449368354135184,3.392024381875518
1.932870879120881e-06,0.00778732938988516,3.421789959031586
1.942870879120882e-06,0.005783362787813752,3.354817410430434
1.952870879120877e-06,0.008121323823562664,3.421789959031555
1.962870879120879e-06,0.00611735722149232,3.380862290441993
1.97287087912088e-06,0.00778732938988516,3.354817410430434
1.982870879120882e-06,0.008121323823563727,3.425510656176095
1.992870879120883e-06,0.005783362787814512,3.369700199008481
2.002870879120878e-06,0.007453334956206592,3.399465776164535
2.01287087912088e-06,0.00611735722149232,3.377141593297485
2.022870879120881e-06,0.008121323823563727,3.373420896152977
2.032870879120883e-06,0.007453334956206592,3.40318647330902
2.042870879120878e-06,0.007453334956206592,3.351096713285949
2.052870879120879e-06,0.007453334956206592,3.395745079020027
2.062870879120881e-06,0.005783362787813752,3.399465776164535
2.072870879120883e-06,0.006785346088849759,3.373420896152995
2.082870879120877e-06,0.007453334956206288,3.414348564742551
2.092870879120879e-06,0.005449368354135184,3.362258804719451
2.102870879120881e-06,0.007453334956206592,3.406907170453553
2.112870879120882e-06,0.006785346088849456,3.395745079020027
2.122870879120877e-06,0.00645135165517104,3.384582987586507
2.132870879120879e-06,0.007119340522528024,3.406907170453553
2.14287087912088e-06,0.006451351655170888,3.354817410430434
2.152870879120882e-06,0.006785346088849456,3.399465776164535
2.162870879120883e-06,0.006117357221492776,3.399465776164525
2.172870879120878e-06,0.007119340522528024,3.377141593297485
2.18287087912088e-06,0.00778732938988516,3.418069261887078
2.192870879120881e-06,0.005783362787813752,3.358538107574943
2.202870879120883e-06,0.008455318257240928,3.40690717045353
