traces_bank_current_trigger/time_analysis/LDR_275.csv

#Digilent WaveForms Oscilloscope Acquisition
#Device Name: Discovery2
#Serial Number: SN:210321B3D813
#Date Time: 2023-06-15 10:00:38.548
#Sample rate: 1e+08Hz
#Samples: 8192
#Trigger: Source: Channel 2 Type: Edge Condition: Rising Level: 2 V Hyst.: Auto HoldOff: 0 s
#Channel 1: Range: 5 mV/div Offset: 0 V Attenuation: 1 X Sample Mode: Average
#Channel 2: Range: 2 V/div Offset: 0 V Attenuation: 1 X Sample Mode: Average

Time (s),Channel 1 (V),Channel 2 (V)
-9.563270440251576e-07,0.007453334956206592,-0.01613420249422067
-9.46327044025156e-07,0.007119340522528024,0.02851416323988071
-9.363270440251544e-07,0.007453334956206896,0.006189980372826638
-9.263270440251596e-07,0.008121323823563424,-0.001251413916183493
-9.16327044025158e-07,0.00778732938988516,0.03595555752889761
-9.063270440251564e-07,0.005783362787813752,-0.01241350534971222
-8.963270440251548e-07,0.008455318257242295,0.02107276895086382
-8.8632704402516e-07,0.0064513516551718,0.01735207180635706
-8.763270440251584e-07,0.007119340522528024,0.002469283228321573
-8.663270440251568e-07,0.007119340522528024,0.006189980372830022
-8.563270440251552e-07,0.00611735722149232,-0.01241350534971222
-8.463270440251536e-07,0.008455318257241535,0.03223486038437563
-8.363270440251588e-07,0.006785346088849456,0.002469283228321573
-8.263270440251572e-07,0.007119340522528024,-0.01241350534971222
-8.163270440251556e-07,0.00778732938988516,0.01363137466184692
-8.06327044025154e-07,0.006785346088850216,-0.02357559678321388
-7.963270440251592e-07,0.008455318257241535,0.02851416323985703
-7.863270440251576e-07,0.00611735722149232,-0.004972111060695325
-7.76327044025156e-07,0.007119340522528024,-0.008692808205203774
-7.663270440251544e-07,0.007119340522527873,0.02479346609535196
-7.563270440251595e-07,0.006785346088849608,-0.01985489963870882
-7.463270440251579e-07,0.009457301558278,0.002469283228321573
-7.363270440251563e-07,0.00778732938988516,0.006189980372830022
-7.263270440251548e-07,0.007453334956206592,-0.01241350534971222
-7.163270440251599e-07,0.007787329389885008,0.03967625467338237
-7.063270440251583e-07,0.006451351655170888,-0.02357559678323757
-6.963270440251567e-07,0.006785346088849456,0.02479346609537227
-6.863270440251551e-07,0.005115373920456617,-0.001251413916186876
-6.763270440251535e-07,0.005783362787813904,-0.0235755967832105
-6.663270440251587e-07,0.00611735722149232,0.03595555752889761
-6.563270440251571e-07,0.00611735722149232,-0.01241350534971222
-6.463270440251555e-07,0.007453334956206592,-0.001251413916186876
-6.363270440251539e-07,0.006117357221493536,-0.001251413916191952
-6.263270440251591e-07,0.008789312690919648,-0.01241350534970715
-6.163270440251575e-07,0.00611735722149232,0.03595555752889761
-6.063270440251559e-07,0.006451351655170888,-0.01241350534971222
-5.963270440251543e-07,0.005449368354135944,0.02479346609536719
-5.863270440251595e-07,0.007119340522527265,0.013631374661852
-5.763270440251579e-07,0.007119340522528024,-0.01241350534971222
-5.663270440251563e-07,0.006451351655170888,0.04339695181791451
-5.563270440251547e-07,0.00611735722149232,-0.02357559678323757
-5.463270440251599e-07,0.009457301558276482,0.03223486038436378
-5.363270440251583e-07,0.006451351655170888,0.01363137466184692
-5.263270440251567e-07,0.006785346088849456,-0.001251413916186876
-5.163270440251551e-07,0.007119340522528024,0.02851416323988071
-5.063270440251535e-07,0.005449368354135336,-0.01613420249420206
-4.963270440251586e-07,0.005783362787813752,0.02479346609537227
-4.86327044025157e-07,0.006451351655170888,0.006189980372830022
-4.763270440251555e-07,0.005115373920456617,-0.01613420249422067
-4.663270440251539e-07,0.006117357221491713,0.03967625467338406
-4.56327044025159e-07,0.004781379486778049,-0.008692808205203774
-4.463270440251574e-07,0.00611735722149232,0.02479346609537227
-4.363270440251558e-07,0.004447385053099481,0.006189980372830022
-4.263270440251542e-07,0.005783362787813752,-0.004972111060671637
-4.163270440251594e-07,0.005783362787813752,0.04711764896239927
-4.063270440251578e-07,0.005449368354135184,-0.01985489963872912
-3.963270440251562e-07,0.008455318257242295,0.03595555752889761
-3.863270440251546e-07,0.00611735722149232,-0.001251413916186876
-3.763270440251598e-07,0.005115373920457072,0.002469283228319881
-3.663270440251582e-07,0.00611735722149232,0.03967625467340606
-3.563270440251566e-07,0.005449368354135184,-0.01613420249422067
-3.46327044025155e-07,0.006451351655170888,0.02851416323988071
-3.363270440251534e-07,0.005783362787814359,0.01735207180634691
-3.263270440251586e-07,0.007119340522528024,-0.001251413916186876
-3.16327044025157e-07,0.008121323823563727,0.03595555752889761
-3.063270440251554e-07,0.00611735722149232,-0.01241350534971222
-2.963270440251538e-07,0.007787329389883793,0.0247934660953655
-2.86327044025159e-07,0.004781379486778049,0.00991067751733847
-2.763270440251574e-07,0.00778732938988516,0.002469283228321573
-2.663270440251558e-07,0.007119340522528024,0.03967625467340606
-2.563270440251542e-07,0.007119340522528632,-0.008692808205181778
-2.463270440251593e-07,0.008455318257241688,0.03967625467338406
-2.363270440251577e-07,0.005115373920456617,0.02479346609537227
-2.263270440251562e-07,0.007119340522528024,-0.01241350534971222
-2.163270440251546e-07,0.007453334956206592,0.03967625467340606
-2.063270440251597e-07,0.007119340522528176,-0.01985489963870205
-1.963270440251581e-07,0.00778732938988516,0.03223486038438916
-1.863270440251565e-07,0.006451351655170888,0.01363137466184692
-1.763270440251549e-07,0.00611735722149232,-0.004972111060695325
-1.663270440251601e-07,0.007119340522527569,0.02479346609535873
-1.563270440251585e-07,0.006785346088849456,-0.001251413916186876
-1.463270440251569e-07,0.005449368354135184,0.03223486038438916
-1.363270440251553e-07,0.006785346088849456,0.02107276895086382
-1.263270440251537e-07,0.006785346088849304,-0.008692808205180086
-1.163270440251589e-07,0.006451351655170888,0.04339695181791451
-1.063270440251573e-07,0.007453334956206592,-0.01241350534971222
-9.63270440251557e-08,0.00611735722149232,0.03223486038438916
-8.63270440251541e-08,0.004447385053100393,0.009910677517331703
-7.632704402515928e-08,0.006451351655169977,-0.004972111060688558
-6.632704402515768e-08,0.006785346088849456,0.05827974039594831
-5.632704402515608e-08,0.005783362787813752,-0.01613420249422067
-4.632704402515449e-08,0.007453334956205529,0.03223486038438747
-3.632704402515966e-08,0.00511537392045768,0.02851416323988241
-2.632704402515807e-08,0.00611735722149232,-0.004972111060695325
-1.632704402515647e-08,0.00611735722149232,0.04339695181791451
-6.327044025154869e-09,0.003111407318385209,0.1252522889971004
3.672955974839953e-09,-0.01292032549817876,3.083206518879972
1.367295597484155e-08,0.01346523476242081,3.302727650407316
2.367295597484315e-08,0.007119340522528024,3.213430918939113
3.367295597484475e-08,0.01713917353288506,3.306448347551824
4.367295597484635e-08,0.00210942401735391,3.328772530418873
5.367295597484117e-08,0.01179526259402797,3.325051833274367
6.367295597484277e-08,0.002443418451028074,3.410627867598061
7.367295597484437e-08,0.006451351655170888,3.354817410430434
8.367295597484596e-08,-0.003568481355183566,3.440393444754069
9.367295597484079e-08,0.002109424017346923,3.310169044696392
1.036729559748424e-07,0.0007734462826352341,3.38830368473101
1.13672955974844e-07,0.005115373920456617,3.31761043898535
1.236729559748456e-07,0.002109424017352543,3.33249322756338
1.336729559748404e-07,0.008789312690917825,3.32505183327437
1.43672955974842e-07,0.005449368354135184,3.3399346218524
1.536729559748436e-07,0.0104592848593137,3.351096713285926
1.636729559748452e-07,0.004113390619420913,3.373420896152977
1.7367295597484e-07,0.006451351655169825,3.351096713285936
1.836729559748416e-07,0.005783362787813752,3.43667274760962
1.936729559748432e-07,0.004113390619420913,3.343655318996909
2.036729559748448e-07,0.003111407318385209,3.410627867598061
2.136729559748464e-07,0.004113390619421368,3.354817410430428
2.236729559748412e-07,0.005115373920456617,3.3399346218524
2.336729559748428e-07,0.006451351655170888,3.373420896152977
2.436729559748444e-07,0.005115373920456617,3.302727650407316
2.53672955974846e-07,0.01045928485931249,3.358538107574943
2.636729559748409e-07,0.007787329389886375,3.358538107574943
2.736729559748425e-07,0.008121323823563727,3.343655318996909
2.83672955974844e-07,0.007119340522528024,3.410627867598061
2.936729559748456e-07,0.002777412884708616,3.336213924707921
3.036729559748405e-07,0.00711934052252605,3.399465776164507
3.136729559748421e-07,0.003445401752063777,3.369700199008468
3.236729559748437e-07,0.005115373920456617,3.343655318996909
3.336729559748453e-07,0.00611735722149232,3.392024381875518
3.436729559748401e-07,0.007453334956205985,3.32133113612989
3.536729559748417e-07,0.009123307124599432,3.369700199008468
3.636729559748433e-07,0.008455318257242295,3.336213924707892
3.736729559748449e-07,0.00778732938988516,3.325051833274367
3.836729559748465e-07,0.008789312690920256,3.38458298758648
3.936729559748413e-07,0.007453334956206592,3.336213924707892
4.036729559748429e-07,0.007119340522528024,3.380862290441993
4.136729559748445e-07,0.00611735722149232,3.358538107574943
4.236729559748461e-07,0.006451351655172103,3.336213924707907
4.336729559748409e-07,0.009123307124598218,3.369700199008453
4.436729559748425e-07,0.007119340522528024,3.325051833274367
4.536729559748441e-07,0.008789312690920863,3.373420896152977
4.636729559748457e-07,0.008121323823564184,3.343655318996904
4.736729559748405e-07,0.009123307124598976,3.332493227563389
4.836729559748421e-07,0.008121323823563727,3.384582987586502
4.936729559748437e-07,0.007119340522528024,3.325051833274367
5.036729559748453e-07,0.01112727372667084,3.384582987586502
5.136729559748402e-07,0.007787329389886678,3.377141593297488
5.236729559748418e-07,0.007119340522528024,3.336213924707892
5.336729559748433e-07,0.007453334956206592,3.399465776164535
5.436729559748449e-07,0.007453334956206592,3.321331136129858
5.536729559748465e-07,0.009123307124599736,3.365979501863951
5.636729559748414e-07,0.009791295991956567,3.347376016141417
5.73672955974843e-07,0.009457301558278,3.347376016141417
5.836729559748446e-07,0.0104592848593137,3.392024381875518
5.936729559748462e-07,0.009457301558278152,3.343655318996917
6.03672955974841e-07,0.009791295991956567,3.362258804719451
6.136729559748426e-07,0.008121323823563727,3.369700199008468
6.236729559748442e-07,0.00778732938988516,3.354817410430434
6.336729559748458e-07,0.008789312690920559,3.392024381875498
6.436729559748406e-07,0.008121323823564031,3.347376016141438
6.536729559748422e-07,0.008789312690920863,3.380862290441993
6.636729559748438e-07,0.008789312690920863,3.373420896152977
6.736729559748454e-07,0.008121323823563727,3.354817410430434
6.836729559748402e-07,0.008789312690920559,3.384582987586489
6.936729559748418e-07,0.007119340522528024,3.343655318996909
7.036729559748434e-07,0.009123307124599432,3.380862290441993
7.13672955974845e-07,0.00778732938988516,3.384582987586502
7.236729559748466e-07,0.007119340522528632,3.347376016141441
7.336729559748414e-07,0.008455318257242295,3.399465776164535
7.43672955974843e-07,0.009123307124599432,3.336213924707892
7.536729559748446e-07,0.00778732938988516,3.392024381875518
7.636729559748462e-07,0.00511537392045768,3.373420896152972
7.736729559748411e-07,0.007453334956206592,3.362258804719451
7.836729559748426e-07,0.006785346088849456,3.399465776164535
7.936729559748442e-07,0.007119340522528024,3.336213924707892
8.036729559748458e-07,0.007453334956206896,3.395745079020012
8.136729559748407e-07,0.008121323823563424,3.362258804719466
8.236729559748423e-07,0.006785346088849456,3.36597950186396
8.336729559748439e-07,0.007453334956206592,3.395745079020027
8.436729559748455e-07,0.005115373920456617,3.347376016141417
8.536729559748403e-07,0.007787329389883945,3.392024381875498
8.636729559748419e-07,0.00611735722149232,3.384582987586502
8.736729559748435e-07,0.008455318257242295,3.358538107574943
8.836729559748451e-07,0.008455318257242295,3.406907170453553
8.936729559748399e-07,0.007453334956207047,3.351096713285951
9.036729559748415e-07,0.009791295991956567,3.403186473309044
9.136729559748431e-07,0.006451351655170888,3.38830368473101
9.236729559748447e-07,0.008455318257242295,3.354817410430434
9.336729559748463e-07,0.0077873293898844,3.40318647330902
9.436729559748411e-07,0.00611735722149232,3.351096713285926
9.536729559748427e-07,0.007453334956206592,3.399465776164535
9.636729559748443e-07,0.005783362787813752,3.392024381875518
9.736729559748459e-07,0.006117357221492624,3.369700199008486
9.836729559748407e-07,0.006785346088849152,3.410627867598042
9.936729559748423e-07,0.00611735722149232,3.358538107574943
1.003672955974844e-06,0.006451351655170888,3.384582987586502
1.013672955974846e-06,0.005783362787813904,3.392024381875506
1.02367295597484e-06,0.006117357221492169,3.365979501863972
1.033672955974842e-06,0.008121323823563727,3.41434856474257
1.043672955974844e-06,0.00611735722149232,3.362258804719451
1.053672955974845e-06,0.005449368354135184,3.395745079020027
1.06367295597484e-06,0.005115373920456768,3.39202438187552
1.073672955974842e-06,0.005449368354135184,3.362258804719451
1.083672955974843e-06,0.004447385053099481,3.418069261887078
1.093672955974845e-06,0.004781379486778049,3.351096713285926
1.103672955974846e-06,0.005115373920455553,3.403186473309032
1.113672955974841e-06,0.002777412884706641,3.377141593297485
1.123672955974843e-06,0.005449368354135184,3.358538107574943
1.133672955974844e-06,0.005783362787813752,3.403186473309044
1.143672955974846e-06,0.004781379486778809,3.339934621852426
1.153672955974841e-06,0.006451351655170129,3.395745079020002
1.163672955974842e-06,0.005115373920456617,3.384582987586502
1.173672955974844e-06,0.005449368354135184,3.351096713285926
1.183672955974846e-06,0.006117357221490802,3.406907170453532
1.19367295597484e-06,0.00277741288470816,3.362258804719472
1.203672955974842e-06,0.006451351655170888,3.377141593297485
1.213672955974844e-06,0.005115373920456617,3.392024381875518
1.223672955974845e-06,0.005783362787813752,3.362258804719451
1.23367295597484e-06,0.007119340522527417,3.399465776164519
1.243672955974842e-06,0.003445401752063777,3.3399346218524
1.253672955974843e-06,0.007119340522528024,3.410627867598061
1.263672955974845e-06,0.003445401752063777,3.369700199008468
1.273672955974846e-06,0.0057833627878136,3.351096713285948
1.283672955974841e-06,0.005449368354135184,3.399465776164535
1.293672955974843e-06,0.00611735722149232,3.347376016141417
1.303672955974844e-06,0.00611735722149232,3.399465776164535
1.313672955974846e-06,0.004781379486778809,3.365979501863958
1.323672955974841e-06,0.006451351655170129,3.362258804719453
1.333672955974842e-06,0.007119340522528024,3.406907170453553
1.343672955974844e-06,0.006451351655170888,3.343655318996909
1.353672955974846e-06,0.006785346088849152,3.39202438187552
1.36367295597484e-06,0.006117357221492624,3.395745079020025
1.373672955974842e-06,0.005783362787813752,3.358538107574943
1.383672955974844e-06,0.006785346088849456,3.403186473309044
1.393672955974845e-06,0.004447385053099481,3.358538107574943
1.40367295597484e-06,0.006451351655169977,3.399465776164517
1.413672955974842e-06,0.005783362787813752,3.38830368473101
1.423672955974843e-06,0.004781379486778049,3.347376016141417
1.433672955974845e-06,0.006451351655170888,3.399465776164535
1.443672955974846e-06,0.005449368354134881,3.354817410430444
1.453672955974841e-06,0.004781379486778049,3.377141593297485
1.463672955974843e-06,0.005115373920456617,3.36597950186396
1.473672955974845e-06,0.00611735722149232,3.36597950186396
1.483672955974846e-06,0.004113390619421824,3.399465776164515
1.493672955974841e-06,0.006117357221491409,3.354817410430455
1.503672955974843e-06,0.006451351655170888,3.392024381875518
1.513672955974844e-06,0.005783362787813752,3.358538107574943
1.523672955974846e-06,0.006451351655170128,3.343655318996943
1.533672955974841e-06,0.004781379486778809,3.418069261887044
1.543672955974842e-06,0.004113390619420913,3.351096713285926
1.553672955974844e-06,0.00611735722149232,3.38830368473101
1.563672955974845e-06,0.003111407318385209,3.369700199008468
1.57367295597484e-06,0.004113390619420457,3.380862290441988
1.583672955974842e-06,0.005449368354135184,3.399465776164535
1.593672955974843e-06,0.003779396185742345,3.343655318996909
1.603672955974845e-06,0.00611735722149232,3.395745079020027
1.613672955974847e-06,0.004447385053099633,3.38458298758649
1.623672955974841e-06,0.004781379486778049,3.358538107574943
1.633672955974843e-06,0.004781379486778049,3.410627867598061
1.643672955974845e-06,0.005783362787813752,3.3399346218524
1.653672955974846e-06,0.004781379486777442,3.399465776164529
1.663672955974841e-06,0.003445401752063777,3.384582987586502
1.673672955974843e-06,0.005115373920456617,3.369700199008468
1.683672955974844e-06,0.004113390619420913,3.395745079020027
1.693672955974846e-06,0.005449368354135488,3.347376016141443
1.703672955974841e-06,0.006117357221492017,3.403186473309018
1.713672955974842e-06,0.004781379486778049,3.380862290441993
1.723672955974844e-06,0.004781379486778049,3.354817410430434
1.733672955974845e-06,0.006451351655170888,3.410627867598061
1.74367295597484e-06,0.005115373920457224,3.34365531899694
1.753672955974842e-06,0.00611735722149232,3.380862290441993
1.763672955974843e-06,0.004781379486778049,3.384582987586502
1.773672955974845e-06,0.007453334956206592,3.351096713285926
1.78367295597484e-06,0.005783362787814512,3.399465776164513
1.793672955974841e-06,0.006785346088849456,3.358538107574943
1.803672955974843e-06,0.006451351655170888,3.384582987586502
1.813672955974845e-06,0.005783362787813752,3.377141593297485
1.823672955974846e-06,0.004447385053100545,3.362258804719468
1.833672955974841e-06,0.006785346088849456,3.399465776164535
1.843672955974843e-06,0.00611735722149232,3.343655318996909
1.853672955974844e-06,0.005115373920456617,3.392024381875518
1.863672955974846e-06,0.005449368354134881,3.373420896152972
1.873672955974841e-06,0.004781379486778353,3.362258804719456
1.883672955974842e-06,0.00611735722149232,3.384582987586502
1.893672955974844e-06,0.005449368354135184,3.343655318996909
1.903672955974845e-06,0.007119340522528024,3.380862290441993
1.91367295597484e-06,0.00411339061942228,3.365979501863966
1.923672955974842e-06,0.005783362787813752,3.351096713285926
1.933672955974843e-06,0.00611735722149232,3.399465776164535
1.943672955974845e-06,0.006785346088849456,3.3399346218524
1.95367295597484e-06,0.006117357221492624,3.395745079020002
1.963672955974842e-06,0.005115373920456617,3.384582987586502
1.973672955974843e-06,0.005449368354135184,3.362258804719451
1.983672955974845e-06,0.005783362787813752,3.403186473309044
1.993672955974846e-06,0.00544936835413564,3.358538107574953
2.003672955974841e-06,0.006451351655170888,3.380862290441993
2.013672955974843e-06,0.005115373920456617,3.395745079020027
2.023672955974844e-06,0.005783362787813752,3.36597950186396
2.033672955974846e-06,0.006451351655169673,3.395745079020005
2.043672955974841e-06,0.00377939618574356,3.347376016141439
2.053672955974842e-06,0.006785346088849456,3.395745079020027
2.063672955974844e-06,0.005115373920456617,3.36597950186396
2.073672955974846e-06,0.006785346088848849,3.358538107574965
2.08367295597484e-06,0.005449368354135791,3.40690717045353
2.093672955974842e-06,0.004781379486778049,3.354817410430434
2.103672955974844e-06,0.005783362787813752,3.38830368473101
2.113672955974845e-06,0.005449368354135184,3.373420896152977
2.12367295597484e-06,0.004781379486778353,3.358538107574949
2.133672955974842e-06,0.00611735722149232,3.410627867598061
2.143672955974843e-06,0.004113390619420913,3.354817410430434
2.153672955974845e-06,0.006451351655170888,3.38830368473101
2.163672955974846e-06,0.004781379486778809,3.358538107574943
2.173672955974841e-06,0.006451351655170888,3.358538107574943
2.183672955974843e-06,0.005449368354135184,3.392024381875518
2.193672955974844e-06,0.005115373920456617,3.351096713285926
