traces_bank_current_trigger/time_analysis/LDR_350.csv

#Digilent WaveForms Oscilloscope Acquisition
#Device Name: Discovery2
#Serial Number: SN:210321B3D813
#Date Time: 2023-06-15 10:03:55.355
#Sample rate: 1e+08Hz
#Samples: 8192
#Trigger: Source: Channel 2 Type: Edge Condition: Rising Level: 2 V Hyst.: Auto HoldOff: 0 s
#Channel 1: Range: 5 mV/div Offset: 0 V Attenuation: 1 X Sample Mode: Average
#Channel 2: Range: 2 V/div Offset: 0 V Attenuation: 1 X Sample Mode: Average

Time (s),Channel 1 (V),Channel 2 (V)
-9.579607250755279e-07,0.009123307124599432,-0.01985489963872912
-9.479607250755263e-07,0.01012529042563514,0.04339695181791451
-9.379607250755247e-07,0.008789312690920863,0.009910677517343546
-9.279607250755299e-07,0.008789312690920863,0.02107276895085874
-9.179607250755283e-07,0.009457301558278,0.03223486038438916
-9.079607250755267e-07,0.008455318257242295,0.006189980372830022
-8.979607250755251e-07,0.008455318257242295,0.06572113468496521
-8.879607250755303e-07,0.007787329389885463,0.002469283228350341
-8.779607250755287e-07,0.008455318257242295,0.02479346609537227
-8.679607250755271e-07,0.008455318257242295,0.03595555752889761
-8.579607250755255e-07,0.008121323823563727,0.02479346609537227
-8.479607250755239e-07,0.009123307124599585,0.03967625467339422
-8.379607250755291e-07,0.009457301558278,0.01363137466184692
-8.279607250755275e-07,0.008455318257242295,0.03223486038438916
-8.179607250755259e-07,0.009123307124599432,0.04711764896242296
-8.079607250755243e-07,0.007453334956207655,0.02107276895088074
-7.979607250755295e-07,0.009791295991955504,0.05827974039593139
-7.879607250755279e-07,0.008121323823563727,0.02851416323988071
-7.779607250755263e-07,0.008121323823563727,0.02107276895086382
-7.679607250755247e-07,0.006451351655171344,0.05455904325141617
-7.579607250755299e-07,0.007453334956206137,0.002469283228345262
-7.479607250755283e-07,0.009123307124599432,0.04339695181791451
-7.379607250755267e-07,0.007453334956206592,0.01735207180635537
-7.279607250755251e-07,0.01012529042563514,0.002469283228321573
-7.179607250755302e-07,0.008121323823564638,0.03223486038437563
-7.079607250755286e-07,0.008121323823563727,-0.004972111060695325
-6.97960725075527e-07,0.00778732938988516,0.04711764896242296
-6.879607250755254e-07,0.007453334956206592,0.03223486038438916
-6.779607250755238e-07,0.007453334956206744,0.02479346609537396
-6.67960725075529e-07,0.00778732938988516,0.02851416323988071
-6.579607250755274e-07,0.006451351655170888,0.002469283228321573
-6.479607250755258e-07,0.008121323823563727,0.03595555752889761
-6.379607250755242e-07,0.006785346088850063,-0.001251413916186876
-6.279607250755294e-07,0.00812132382356312,-0.001251413916186876
-6.179607250755278e-07,0.00611735722149232,0.02851416323988071
-6.079607250755262e-07,0.008455318257242295,-0.02357559678323757
-5.979607250755246e-07,0.006785346088849911,0.01363137466183846
-5.879607250755298e-07,0.007787329389884704,-0.004972111060686867
-5.779607250755282e-07,0.008455318257242295,0.00991067751733847
-5.679607250755266e-07,0.008121323823563727,0.03223486038438916
-5.57960725075525e-07,0.006451351655170888,-0.02729629392774602
-5.479607250755302e-07,0.008455318257241384,0.02107276895084182
-5.379607250755286e-07,0.006785346088849456,-0.008692808205203774
-5.27960725075527e-07,0.008789312690920863,-0.001251413916186876
-5.179607250755254e-07,0.008121323823563727,0.00991067751733847
-5.079607250755238e-07,0.00711934052252848,-0.01985489963870543
-4.97960725075529e-07,0.008121323823563727,0.03223486038438916
-4.879607250755274e-07,0.005783362787813752,-0.008692808205203774
-4.779607250755258e-07,0.006451351655170888,0.00991067751733847
-4.679607250755242e-07,0.00645135165517104,0.00991067751732155
-4.579607250755293e-07,0.006785346088849456,-0.02729629392774602
-4.479607250755277e-07,0.006785346088849456,0.006189980372830022
-4.379607250755261e-07,0.005783362787813752,-0.008692808205203774
-4.279607250755245e-07,0.006451351655171344,-0.01985489963871051
-4.179607250755297e-07,0.007453334956206137,0.02107276895084521
-4.079607250755281e-07,0.00611735722149232,-0.01613420249422067
-3.979607250755265e-07,0.008121323823563727,0.03595555752889761
-3.879607250755249e-07,0.005115373920456617,-0.008692808205203774
-3.779607250755301e-07,0.007787329389883945,0.006189980372823254
-3.679607250755285e-07,0.006785346088849456,0.02479346609537227
-3.579607250755269e-07,0.006451351655170888,-0.01241350534971222
-3.479607250755253e-07,0.008455318257242295,0.04339695181791451
-3.379607250755237e-07,0.005783362787814815,-0.008692808205198698
-3.279607250755289e-07,0.008121323823563727,0.002469283228321573
-3.179607250755273e-07,0.007119340522528024,0.03223486038438916
-3.079607250755257e-07,0.007453334956206592,-0.03473768821676292
-2.979607250755241e-07,0.007119340522527721,0.02479346609536211
-2.879607250755293e-07,0.006451351655170888,0.002469283228321573
-2.779607250755277e-07,0.007119340522528024,-0.01241350534971222
-2.679607250755261e-07,0.008789312690920863,0.02851416323988071
-2.579607250755245e-07,0.005115373920457528,-0.03101699107223247
-2.479607250755297e-07,0.007119340522527114,0.01735207180633337
-2.379607250755281e-07,0.007453334956206592,-0.001251413916186876
-2.279607250755265e-07,0.008121323823563727,0.00991067751733847
-2.179607250755249e-07,0.006451351655170888,0.02107276895086382
-2.0796072507553e-07,0.007453334956206137,-0.0384583853612443
-1.979607250755284e-07,0.006451351655170888,0.03595555752889761
-1.879607250755268e-07,0.00778732938988516,-0.01241350534971222
-1.779607250755252e-07,0.009123307124599432,-0.02357559678323757
-1.679607250755304e-07,0.006785346088850519,0.02479346609535027
-1.579607250755288e-07,0.005783362787813752,-0.02357559678323757
-1.479607250755272e-07,0.008455318257242295,0.006189980372830022
-1.379607250755256e-07,0.006451351655170888,-0.03101699107225447
-1.27960725075524e-07,0.008121323823562968,-0.01241350534970376
-1.179607250755292e-07,0.006451351655170888,0.006189980372830022
-1.079607250755276e-07,0.007453334956206592,-0.03101699107225447
-9.7960725075526e-08,0.006785346088849456,0.02851416323988071
-8.796072507552441e-08,0.005449368354136248,0.002469283228314805
-7.796072507552958e-08,0.007787329389884096,-0.01241350534970546
-6.796072507552799e-08,0.006785346088849456,0.02107276895086382
-5.796072507552639e-08,0.006451351655170888,-0.01241350534971222
-4.796072507552479e-08,0.005115373920456617,0.02107276895085197
-3.796072507552997e-08,0.005115373920456617,-0.00497211106068348
-2.796072507552837e-08,0.006451351655170888,0.006189980372830022
-1.796072507552677e-08,0.006451351655170888,0.03223486038438916
-7.960725075525173e-09,0.003779396185742345,0.03595555752889761
2.039274924469649e-09,-0.01525828653392737,2.499057067192371
1.203927492447125e-08,0.01580319579817079,3.514807387644297
2.203927492447285e-08,0.005115373920456617,3.120413490326402
3.203927492447444e-08,0.01680517909920649,3.313889741840841
4.203927492447604e-08,0.004113390619425621,3.310169044696333
5.203927492447086e-08,0.01446721806345652,3.310169044696333
6.203927492447246e-08,0.004447385053099481,3.395745079020027
7.203927492447406e-08,0.006451351655170888,3.31761043898535
8.203927492447566e-08,-0.001230520319434199,3.432952050465039
9.203927492447048e-08,0.003111407318383235,3.272962073251321
1.020392749244721e-07,0.001107440716313802,3.403186473309044
1.120392749244737e-07,0.003779396185742345,3.306448347551824
1.220392749244753e-07,0.002777412884709527,3.351096713285898
1.320392749244701e-07,0.009123307124596546,3.291565558973818
1.420392749244717e-07,0.008121323823563727,3.310169044696333
1.520392749244733e-07,0.009791295991956567,3.328772530418875
1.620392749244749e-07,0.005783362787813752,3.369700199008468
1.720392749244697e-07,0.008121323823562664,3.354817410430441
1.820392749244713e-07,0.005783362787813752,3.395745079020027
1.920392749244729e-07,0.00144143514999237,3.328772530418875
2.020392749244745e-07,0.00144143514999237,3.395745079020027
2.120392749244761e-07,0.0007734462826370567,3.33249322756339
2.220392749244709e-07,0.004781379486778049,3.347376016141417
2.320392749244725e-07,0.005115373920456617,3.3399346218524
2.420392749244741e-07,0.005783362787813752,3.31761043898535
2.520392749244757e-07,0.008121323823563424,3.358538107574932
2.620392749244705e-07,0.007453334956206896,3.336213924707902
2.720392749244721e-07,0.006785346088849456,3.3399346218524
2.820392749244737e-07,0.005783362787813752,3.395745079020027
2.920392749244753e-07,0.004113390619419849,3.343655318996932
3.020392749244702e-07,0.001775429583672001,3.395745079020004
3.120392749244718e-07,0.003779396185742345,3.358538107574943
3.220392749244734e-07,0.002777412884706641,3.354817410430434
3.32039274924475e-07,0.00611735722149232,3.36597950186396
3.420392749244698e-07,0.005449368354135488,3.325051833274385
3.520392749244714e-07,0.00611735722149232,3.362258804719451
3.62039274924473e-07,0.005783362787813752,3.332493227563384
3.720392749244746e-07,0.007453334956206592,3.343655318996909
3.820392749244762e-07,0.005115373920457224,3.380862290441971
3.92039274924471e-07,0.006451351655170888,3.332493227563384
4.020392749244726e-07,0.005449368354135184,3.38830368473101
4.120392749244742e-07,0.004447385053099481,3.36597950186396
4.220392749244758e-07,0.005783362787813904,3.358538107574955
4.320392749244706e-07,0.006117357221492169,3.38458298758649
4.420392749244722e-07,0.005449368354135184,3.3399346218524
4.520392749244738e-07,0.005783362787813752,3.369700199008468
4.620392749244754e-07,0.006117357221492624,3.339934621852404
4.720392749244702e-07,0.006785346088849152,3.347376016141414
4.820392749244718e-07,0.00611735722149232,3.384582987586502
4.920392749244734e-07,0.007453334956206592,3.321331136129858
5.02039274924475e-07,0.004447385053099481,3.392024381875518
5.120392749244698e-07,0.004781379486777897,3.347376016141438
5.220392749244714e-07,0.005783362787813752,3.354817410430434
5.32039274924473e-07,0.003779396185742345,3.377141593297485
5.420392749244746e-07,0.004781379486778049,3.343655318996909
5.520392749244762e-07,0.005115373920456617,3.384582987586487
5.620392749244711e-07,0.005115373920456617,3.351096713285926
5.720392749244727e-07,0.007119340522528024,3.362258804719451
5.820392749244743e-07,0.008121323823563727,3.384582987586502
5.920392749244759e-07,0.005449368354135944,3.343655318996932
6.020392749244707e-07,0.007119340522528024,3.395745079020027
6.120392749244723e-07,0.005783362787813752,3.351096713285926
6.220392749244739e-07,0.007453334956206592,3.384582987586502
6.320392749244755e-07,0.006451351655170128,3.399465776164507
6.420392749244703e-07,0.004781379486778809,3.336213924707921
6.520392749244719e-07,0.008121323823563727,3.395745079020027
6.620392749244735e-07,0.006451351655170888,3.358538107574943
6.720392749244751e-07,0.005115373920456617,3.373420896152977
6.820392749244699e-07,0.007119340522527114,3.384582987586497
6.920392749244715e-07,0.005783362787813752,3.351096713285926
7.020392749244731e-07,0.006451351655170888,3.392024381875518
7.120392749244747e-07,0.00611735722149232,3.362258804719451
7.220392749244763e-07,0.006451351655170585,3.358538107574953
7.320392749244711e-07,0.005783362787813752,3.380862290441993
7.420392749244727e-07,0.005783362787813752,3.358538107574943
7.520392749244743e-07,0.005449368354135184,3.410627867598061
7.620392749244759e-07,0.005449368354135336,3.369700199008471
7.720392749244707e-07,0.005783362787813752,3.377141593297485
7.820392749244723e-07,0.00611735722149232,3.377141593297485
7.920392749244739e-07,0.005449368354135184,3.354817410430434
8.020392749244755e-07,0.007787329389884248,3.406907170453537
8.120392749244704e-07,0.005783362787814663,3.373420896152992
8.22039274924472e-07,0.008121323823563727,3.38830368473101
8.320392749244736e-07,0.007453334956206592,3.403186473309044
8.420392749244752e-07,0.006785346088849456,3.347376016141417
8.5203927492447e-07,0.007453334956206288,3.414348564742539
8.620392749244716e-07,0.00611735722149232,3.38830368473101
8.720392749244732e-07,0.008789312690920863,3.373420896152977
8.820392749244748e-07,0.007119340522528024,3.399465776164535
8.920392749244696e-07,0.008455318257241688,3.369700199008481
9.020392749244712e-07,0.008789312690920863,3.421789959031586
9.120392749244728e-07,0.007119340522528024,3.377141593297485
9.220392749244744e-07,0.008789312690920863,3.403186473309044
9.32039274924476e-07,0.006451351655170888,3.418069261887056
9.420392749244708e-07,0.006451351655170888,3.369700199008468
9.520392749244724e-07,0.007453334956206592,3.421789959031586
9.62039274924474e-07,0.005783362787813752,3.399465776164535
9.720392749244756e-07,0.007119340522528024,3.403186473309047
9.820392749244704e-07,0.007119340522528024,3.410627867598057
9.92039274924472e-07,0.006451351655170888,3.369700199008468
1.002039274924474e-06,0.007453334956206592,3.432952050465111
1.012039274924475e-06,0.006451351655171344,3.380862290442006
1.02203927492447e-06,0.007453334956206137,3.410627867598047
1.032039274924472e-06,0.00611735722149232,3.440393444754128
1.042039274924473e-06,0.004781379486778049,3.399465776164535
1.052039274924475e-06,0.004447385053099481,3.43667274760962
1.06203927492447e-06,0.006451351655169977,3.399465776164552
1.072039274924471e-06,0.008121323823563727,3.377141593297485
1.082039274924473e-06,0.00778732938988516,3.418069261887078
1.092039274924474e-06,0.00778732938988516,3.384582987586502
1.102039274924476e-06,0.00745333495620644,3.444114141898618
1.112039274924471e-06,0.007119340522528024,3.403186473309044
1.122039274924472e-06,0.005783362787813752,3.403186473309044
1.132039274924474e-06,0.004781379486778049,3.425510656176095
1.142039274924476e-06,0.005449368354135944,3.38086229044202
1.15203927492447e-06,0.007119340522527265,3.440393444754101
1.162039274924472e-06,0.005115373920456617,3.384582987586502
1.172039274924474e-06,0.009123307124599432,3.38830368473101
1.182039274924475e-06,0.008121323823562968,3.403186473309037
1.19203927492447e-06,0.006451351655171647,3.388303684731017
1.202039274924472e-06,0.008789312690920863,3.421789959031586
1.212039274924473e-06,0.006785346088849456,3.392024381875518
1.222039274924475e-06,0.007453334956206592,3.395745079020027
1.23203927492447e-06,0.006451351655171344,3.421789959031574
1.242039274924471e-06,0.008455318257242295,3.373420896152977
1.252039274924473e-06,0.008789312690920863,3.425510656176095
1.262039274924475e-06,0.006785346088849456,3.399465776164535
1.272039274924476e-06,0.007119340522528784,3.395745079020036
1.282039274924471e-06,0.008789312690920863,3.41434856474257
1.292039274924473e-06,0.006451351655170888,3.362258804719451
1.302039274924474e-06,0.009457301558278,3.43667274760962
1.312039274924476e-06,0.007119340522528784,3.373420896152983
1.322039274924471e-06,0.008789312690920103,3.388303684731004
1.332039274924472e-06,0.009123307124599432,3.41434856474257
1.342039274924474e-06,0.006451351655170888,3.369700199008468
1.352039274924475e-06,0.008121323823562968,3.414348564742558
1.36203927492447e-06,0.006451351655171647,3.388303684731022
1.372039274924472e-06,0.006451351655170888,3.399465776164535
1.382039274924473e-06,0.00778732938988516,3.410627867598061
1.392039274924475e-06,0.007119340522528024,3.351096713285926
1.40203927492447e-06,0.008789312690920103,3.421789959031554
1.412039274924471e-06,0.006451351655170888,3.362258804719451
1.422039274924473e-06,0.009791295991956567,3.384582987586502
1.432039274924475e-06,0.008121323823563727,3.410627867598061
1.442039274924476e-06,0.006117357221493384,3.362258804719472
1.452039274924471e-06,0.008455318257242295,3.406907170453553
1.462039274924473e-06,0.007119340522528024,3.36597950186396
1.472039274924474e-06,0.008455318257242295,3.384582987586502
1.482039274924476e-06,0.009457301558277393,3.40690717045353
1.492039274924471e-06,0.008121323823564335,3.358538107574965
1.502039274924472e-06,0.00778732938988516,3.406907170453553
1.512039274924474e-06,0.005783362787813752,3.36597950186396
1.522039274924475e-06,0.007453334956206896,3.377141593297493
1.53203927492447e-06,0.008121323823563424,3.395745079020019
1.542039274924472e-06,0.007453334956206592,3.354817410430434
1.552039274924473e-06,0.008455318257242295,3.410627867598061
1.562039274924475e-06,0.007119340522528024,3.36597950186396
1.57203927492447e-06,0.007787329389884856,3.373420896152973
1.582039274924471e-06,0.006451351655170888,3.392024381875518
1.592039274924473e-06,0.005783362787813752,3.362258804719451
1.602039274924475e-06,0.006451351655170888,3.410627867598061
1.612039274924476e-06,0.003445401752065752,3.373420896152977
1.622039274924471e-06,0.00778732938988516,3.373420896152977
1.632039274924473e-06,0.006451351655170888,3.406907170453553
1.642039274924474e-06,0.006785346088849456,3.351096713285926
1.652039274924476e-06,0.006117357221492624,3.414348564742549
1.662039274924471e-06,0.006785346088849456,3.369700199008468
1.672039274924472e-06,0.006451351655170888,3.369700199008468
1.682039274924474e-06,0.005115373920456617,3.403186473309044
1.692039274924475e-06,0.007119340522527721,3.347376016141443
1.70203927492447e-06,0.006451351655171192,3.403186473309018
1.712039274924472e-06,0.006451351655170888,3.362258804719451
1.722039274924474e-06,0.006785346088849456,3.373420896152977
1.732039274924475e-06,0.005449368354135184,3.399465776164535
1.74203927492447e-06,0.004781379486778353,3.358538107574961
1.752039274924472e-06,0.00611735722149232,3.406907170453553
1.762039274924473e-06,0.006451351655170888,3.377141593297485
1.772039274924475e-06,0.005783362787813752,3.384582987586502
1.78203927492447e-06,0.006451351655170585,3.410627867598049
1.792039274924471e-06,0.005783362787813752,3.362258804719451
1.802039274924473e-06,0.005449368354135184,3.421789959031586
1.812039274924474e-06,0.005449368354135184,3.373420896152977
1.822039274924476e-06,0.007453334956205832,3.380862290442003
1.832039274924471e-06,0.005783362787813752,3.403186473309044
1.842039274924472e-06,0.006785346088849456,3.3399346218524
1.852039274924474e-06,0.006451351655170888,3.399465776164535
1.862039274924476e-06,0.003445401752064993,3.373420896152981
1.87203927492447e-06,0.006117357221491105,3.384582987586497
1.882039274924472e-06,0.005115373920456617,3.403186473309044
1.892039274924474e-06,0.005449368354135184,3.354817410430434
1.902039274924475e-06,0.006451351655170888,3.399465776164535
1.91203927492447e-06,0.005115373920457224,3.384582987586509
1.922039274924472e-06,0.00611735722149232,3.377141593297485
1.932039274924473e-06,0.006451351655170888,3.395745079020027
1.942039274924475e-06,0.005449368354135184,3.358538107574943
1.95203927492447e-06,0.004781379486778353,3.40690717045353
1.962039274924471e-06,0.005449368354135184,3.38830368473101
1.972039274924473e-06,0.005115373920456617,3.377141593297485
1.982039274924474e-06,0.00611735722149232,3.403186473309044
1.992039274924476e-06,0.004447385053100545,3.36225880471947
2.002039274924471e-06,0.006785346088849456,3.403186473309044
2.012039274924472e-06,0.005115373920456617,3.380862290441993
2.022039274924474e-06,0.005783362787813752,3.373420896152977
2.032039274924476e-06,0.003445401752064689,3.403186473309022
2.04203927492447e-06,0.005449368354134274,3.354817410430456
2.052039274924472e-06,0.005115373920456617,3.392024381875518
2.062039274924474e-06,0.004781379486778049,3.380862290441993
2.072039274924475e-06,0.005783362787813297,3.377141593297505
2.08203927492447e-06,0.004781379486778504,3.421789959031566
2.092039274924472e-06,0.005449368354135184,3.354817410430434
2.102039274924473e-06,0.005449368354135184,3.410627867598061
2.112039274924475e-06,0.004781379486778049,3.362258804719451
2.12203927492447e-06,0.006451351655170129,3.384582987586492
2.132039274924471e-06,0.00611735722149232,3.410627867598061
2.142039274924473e-06,0.005783362787813752,3.351096713285926
2.152039274924474e-06,0.005783362787813752,3.418069261887078
2.162039274924476e-06,0.005783362787813752,3.384582987586497
2.172039274924471e-06,0.005783362787813752,3.373420896152977
2.182039274924472e-06,0.007119340522528024,3.41434856474257
2.192039274924474e-06,0.006451351655170888,3.358538107574943
