traces_bank_current_trigger/time_analysis/LDR_212.csv

#Digilent WaveForms Oscilloscope Acquisition
#Device Name: Discovery2
#Serial Number: SN:210321B3D813
#Date Time: 2023-06-15 10:37:04.023
#Sample rate: 1e+08Hz
#Samples: 8192
#Trigger: Source: Channel 2 Type: Edge Condition: Rising Level: 2 V Hyst.: Auto HoldOff: 0 s
#Channel 1: Range: 5 mV/div Offset: 0 V Attenuation: 1 X Sample Mode: Average
#Channel 2: Range: 2 V/div Offset: 0 V Attenuation: 1 X Sample Mode: Average

Time (s),Channel 1 (V),Channel 2 (V)
-9.547805456702239e-07,0.007119340522528024,0.01735207180635537
-9.447805456702223e-07,0.009457301558278,0.02107276895086382
-9.347805456702207e-07,0.006785346088850216,0.03595555752888915
-9.247805456702259e-07,0.008455318257241535,0.01735207180636383
-9.147805456702243e-07,0.008121323823563727,0.03595555752889761
-9.047805456702227e-07,0.00611735722149232,0.03223486038438916
-8.947805456702211e-07,0.008455318257242295,0.02851416323988071
-8.847805456702263e-07,0.00812132382356388,0.0471176489624145
-8.747805456702247e-07,0.008121323823563727,0.006189980372830022
-8.647805456702231e-07,0.009123307124599432,0.03595555752889761
-8.547805456702215e-07,0.008455318257242295,0.00991067751733847
-8.447805456702199e-07,0.007787329389885311,0.02107276895087228
-8.347805456702251e-07,0.008121323823563727,0.03967625467340606
-8.247805456702235e-07,0.008789312690920863,0.006189980372830022
-8.147805456702219e-07,0.007453334956206592,0.03967625467340606
-8.047805456702203e-07,0.007453334956207352,0.01735207180636214
-7.947805456702255e-07,0.009123307124598672,0.0322348603843824
-7.847805456702239e-07,0.00778732938988516,0.05827974039594831
-7.747805456702223e-07,0.006451351655170888,0.02107276895086382
-7.647805456702207e-07,0.006451351655170433,0.05455904325141955
-7.547805456702258e-07,0.00544936835413564,0.009910677517358774
-7.447805456702242e-07,0.008121323823563727,0.03595555752889761
-7.347805456702226e-07,0.006785346088849456,0.04711764896242296
-7.24780545670221e-07,0.007453334956206592,0.01735207180635537
-7.147805456702262e-07,0.006785346088849759,0.04339695181790267
-7.047805456702246e-07,0.006451351655170888,0.02851416323988071
-6.94780545670223e-07,0.008121323823563727,0.03223486038438916
-6.847805456702214e-07,0.005783362787813752,0.05827974039594831
-6.747805456702198e-07,0.005783362787814056,0.02107276895088243
-6.64780545670225e-07,0.006451351655170888,0.06200043754045675
-6.547805456702234e-07,0.005783362787813752,0.006189980372830022
-6.447805456702218e-07,0.006451351655170888,0.03967625467340606
-6.347805456702202e-07,0.006785346088849,0.04339695181790605
-6.247805456702254e-07,0.005783362787814207,0.02479346609538072
-6.147805456702238e-07,0.006451351655170888,0.04711764896242296
-6.047805456702222e-07,0.003111407318385209,0.00991067751733847
-5.947805456702206e-07,0.009123307124598065,0.0322348603844027
-5.847805456702258e-07,0.006117357221493687,0.06200043754044322
-5.747805456702242e-07,0.00611735722149232,0.01363137466184692
-5.647805456702226e-07,0.006785346088849456,0.06200043754045675
-5.54780545670221e-07,0.004781379486778049,0.02479346609537227
-5.447805456702262e-07,0.006451351655170129,0.02851416323987902
-5.347805456702246e-07,0.006451351655170888,0.05083834610693141
-5.24780545670223e-07,0.005783362787813752,0.01735207180635537
-5.147805456702214e-07,0.006451351655170888,0.06200043754045675
-5.047805456702198e-07,0.00377939618574356,0.009910677517352006
-4.947805456702249e-07,0.006451351655170888,0.03967625467340606
-4.847805456702233e-07,0.005115373920456617,0.05083834610693141
-4.747805456702217e-07,0.004781379486778049,0.01735207180635537
-4.647805456702201e-07,0.004447385053099026,0.05827974039593985
-4.547805456702253e-07,0.003445401752063777,0.03967625467340606
-4.447805456702237e-07,0.005783362787813752,0.03967625467340606
-4.347805456702221e-07,0.004113390619420913,0.05083834610693141
-4.247805456702205e-07,0.003779396185743104,0.02479346609539426
-4.147805456702257e-07,0.005449368354134424,0.0731625289739601
-4.047805456702241e-07,0.004781379486778049,0.02107276895086382
-3.947805456702225e-07,0.007119340522528024,0.05083834610693141
-3.847805456702209e-07,0.004781379486778049,0.06572113468496521
-3.747805456702261e-07,0.005783362787813297,0.002469283228350341
-3.647805456702245e-07,0.007119340522528024,0.06944183182947365
-3.547805456702229e-07,0.006785346088849456,0.02851416323988071
-3.447805456702213e-07,0.007453334956206592,0.03967625467340606
-3.347805456702197e-07,0.005783362787814056,0.06200043754043814
-3.247805456702249e-07,0.006451351655170888,0.02107276895086382
-3.147805456702233e-07,0.007453334956206592,0.03595555752889761
-3.047805456702217e-07,0.005783362787813752,0.03223486038438916
-2.947805456702201e-07,0.009123307124598218,0.02851416323988917
-2.847805456702253e-07,0.006451351655170888,0.04711764896242296
-2.747805456702237e-07,0.005449368354135184,0.02107276895086382
-2.647805456702221e-07,0.008455318257242295,0.04711764896242296
-2.547805456702205e-07,0.005783362787815574,0.006189980372833405
-2.447805456702256e-07,0.009791295991954746,0.01363137466184354
-2.34780545670224e-07,0.008789312690920863,0.04339695181791451
-2.247805456702224e-07,0.008789312690920863,0.02107276895086382
-2.147805456702208e-07,0.009123307124599432,0.04711764896242296
-2.04780545670226e-07,0.008789312690921015,0.009910677517355387
-1.947805456702244e-07,0.0104592848593137,0.02107276895086382
-1.847805456702228e-07,0.008455318257242295,0.05083834610693141
-1.747805456702212e-07,0.008455318257242295,-0.001251413916186876
-1.647805456702264e-07,0.008455318257242295,0.03967625467338745
-1.547805456702248e-07,0.008455318257242295,0.01363137466184692
-1.447805456702232e-07,0.007453334956206592,0.02107276895086382
-1.347805456702216e-07,0.008789312690920863,0.03595555752889761
-1.2478054567022e-07,0.008121323823564184,0.01363137466185876
-1.147805456702252e-07,0.009123307124599432,0.03967625467340606
-1.047805456702236e-07,0.00778732938988516,0.00991067751733847
-9.478054567022199e-08,0.009123307124599432,0.01363137466184692
-8.478054567022039e-08,0.009457301558277089,0.05083834610690603
-7.478054567022557e-08,0.007453334956207503,-0.004972111060669943
-6.478054567022397e-08,0.008789312690920863,0.04339695181791451
-5.478054567022237e-08,0.005783362787813752,-0.004972111060695325
-4.478054567022077e-08,0.007787329389883945,0.02479346609538411
-3.478054567022595e-08,0.005115373920457832,0.05083834610691956
-2.478054567022435e-08,0.005115373920456617,0.00991067751733847
-1.478054567022276e-08,0.006451351655170888,0.03595555752889761
-4.780545670221158e-09,-0.001230520319436173,0.4973220034479452
5.219454329773664e-09,0.0001054574152774908,3.633869696267142
1.521945432977526e-08,0.007453334956206592,3.068323730303284
2.521945432977686e-08,0.01112727372667084,3.299006953262807
3.521945432977846e-08,0.01680517909920649,3.325051833274367
4.521945432978006e-08,0.007787329389885311,3.317610438985382
5.521945432977488e-08,0.008121323823563727,3.38830368473101
6.521945432977648e-08,0.003445401752063777,3.38830368473101
7.521945432977808e-08,0.004781379486778049,3.373420896152977
8.521945432977967e-08,0.0004394518489565143,3.373420896152965
9.52194543297745e-08,0.0001054574152782503,3.347376016141429
1.052194543297761e-07,0.002443418451028074,3.310169044696333
1.152194543297777e-07,0.005783362787813752,3.3399346218524
1.252194543297793e-07,0.005115373920457224,3.302727650407341
1.352194543297741e-07,0.00645135165517028,3.358538107574917
1.452194543297757e-07,0.007453334956206592,3.302727650407316
1.552194543297773e-07,0.01012529042563514,3.343655318996909
1.652194543297789e-07,0.00611735722149232,3.380862290441993
1.752194543297737e-07,0.004781379486778656,3.351096713285939
1.852194543297753e-07,0.004781379486778049,3.403186473309044
1.952194543297769e-07,0.003111407318385209,3.362258804719451
2.052194543297785e-07,0.003779396185742345,3.369700199008468
2.152194543297801e-07,0.001775429583672001,3.373420896152961
2.252194543297749e-07,0.004113390619420913,3.3399346218524
2.352194543297765e-07,0.006451351655170888,3.36597950186396
2.452194543297781e-07,0.007119340522528024,3.325051833274367
2.552194543297797e-07,0.005783362787814056,3.351096713285936
2.652194543297746e-07,0.006451351655170585,3.373420896152966
2.752194543297762e-07,0.005783362787813752,3.354817410430434
2.852194543297778e-07,0.005115373920456617,3.403186473309044
2.952194543297794e-07,0.003111407318385361,3.37714159329749
3.052194543297742e-07,0.003445401752063626,3.388303684731005
3.152194543297758e-07,0.003779396185742345,3.38830368473101
3.252194543297774e-07,0.004781379486778049,3.351096713285926
3.35219454329779e-07,0.005115373920456617,3.384582987586502
3.452194543297738e-07,0.004781379486778201,3.351096713285941
3.552194543297754e-07,0.00611735722149232,3.36597950186396
3.65219454329777e-07,0.007119340522528024,3.384582987586502
3.752194543297786e-07,0.004447385053099481,3.351096713285926
3.852194543297802e-07,0.006451351655170281,3.399465776164517
3.95219454329775e-07,0.005115373920456617,3.358538107574943
4.052194543297766e-07,0.006451351655170888,3.380862290441993
4.152194543297782e-07,0.00611735722149232,3.38830368473101
4.252194543297798e-07,0.004781379486778504,3.36225880471946
4.352194543297746e-07,0.005783362787813297,3.380862290441985
4.452194543297762e-07,0.005115373920456617,3.358538107574943
4.552194543297778e-07,0.00778732938988516,3.395745079020027
4.652194543297794e-07,0.008121323823564184,3.384582987586487
4.752194543297742e-07,0.009123307124598976,3.351096713285941
4.852194543297758e-07,0.006451351655170888,3.410627867598061
4.952194543297774e-07,0.006451351655170888,3.362258804719451
5.05219454329779e-07,0.008455318257242295,3.380862290441993
5.152194543297739e-07,0.006785346088850215,3.399465776164527
5.252194543297755e-07,0.00611735722149232,3.36597950186396
5.352194543297771e-07,0.007453334956206592,3.410627867598061
5.452194543297787e-07,0.006451351655170888,3.369700199008468
5.552194543297803e-07,0.00812132382356388,3.373420896152983
5.652194543297751e-07,0.008455318257242295,3.38830368473101
5.752194543297767e-07,0.007453334956206592,3.36597950186396
5.852194543297783e-07,0.009123307124599432,3.403186473309044
5.952194543297799e-07,0.007453334956208111,3.373420896152981
6.052194543297747e-07,0.01079327929299227,3.384582987586502
6.152194543297763e-07,0.009791295991956567,3.403186473309044
6.252194543297779e-07,0.008455318257242295,3.351096713285926
6.352194543297795e-07,0.008789312690920406,3.418069261887053
6.452194543297743e-07,0.007787329389885615,3.362258804719477
6.552194543297759e-07,0.008789312690920863,3.377141593297485
6.652194543297775e-07,0.009457301558278,3.395745079020027
6.752194543297791e-07,0.009123307124599432,3.362258804719451
6.852194543297739e-07,0.009457301558277847,3.406907170453532
6.952194543297755e-07,0.006785346088849456,3.369700199008468
7.052194543297771e-07,0.01012529042563514,3.384582987586502
7.152194543297787e-07,0.006785346088849456,3.399465776164535
7.252194543297803e-07,0.006785346088849911,3.36225880471947
7.352194543297751e-07,0.00778732938988516,3.403186473309044
7.452194543297767e-07,0.00778732938988516,3.351096713285926
7.552194543297783e-07,0.008121323823563727,3.362258804719451
7.652194543297799e-07,0.007787329389885311,3.38086229044198
7.752194543297748e-07,0.008121323823563727,3.351096713285926
7.852194543297764e-07,0.009123307124599432,3.38830368473101
7.95219454329778e-07,0.007453334956206592,3.36597950186396
8.052194543297796e-07,0.007119340522529088,3.37342089615298
8.152194543297744e-07,0.009457301558276936,3.38086229044199
8.25219454329776e-07,0.005783362787813752,3.354817410430434
8.352194543297776e-07,0.00778732938988516,3.392024381875518
8.452194543297792e-07,0.006451351655170888,3.36597950186396
8.55219454329774e-07,0.009123307124598218,3.37714159329748
8.652194543297756e-07,0.00778732938988516,3.395745079020027
8.752194543297772e-07,0.008121323823563727,3.347376016141417
8.852194543297788e-07,0.01012529042563514,3.403186473309044
8.952194543297736e-07,0.007787329389886223,3.354817410430456
9.052194543297752e-07,0.008789312690920863,3.369700199008468
9.152194543297768e-07,0.007453334956206592,3.369700199008468
9.252194543297784e-07,0.007453334956206592,3.36597950186396
9.3521945432978e-07,0.009457301558277393,3.403186473309029
9.452194543297748e-07,0.008121323823563727,3.369700199008468
9.552194543297764e-07,0.01012529042563514,3.373420896152977
9.65219454329778e-07,0.008121323823563727,3.377141593297485
9.752194543297796e-07,0.00711934052252848,3.354817410430453
9.852194543297744e-07,0.008121323823563271,3.395745079020009
9.95219454329776e-07,0.00778732938988516,3.373420896152977
1.005219454329778e-06,0.008455318257242295,3.373420896152977
1.015219454329779e-06,0.007453334956205985,3.403186473309032
1.025219454329774e-06,0.006117357221492929,3.377141593297497
1.035219454329776e-06,0.006451351655170888,3.395745079020027
1.045219454329777e-06,0.005449368354135184,3.373420896152977
1.055219454329779e-06,0.006451351655170888,3.384582987586502
1.065219454329774e-06,0.003111407318386728,3.403186473309035
1.075219454329775e-06,0.00611735722149232,3.354817410430434
1.085219454329777e-06,0.00611735722149232,3.399465776164535
1.095219454329778e-06,0.006451351655170888,3.358538107574943
1.10521945432978e-06,0.007119340522527113,3.384582987586509
1.115219454329775e-06,0.005115373920456617,3.399465776164535
1.125219454329776e-06,0.006451351655170888,3.36597950186396
1.135219454329778e-06,0.005115373920456617,3.410627867598061
1.14521945432978e-06,0.006117357221492624,3.37342089615297
1.155219454329775e-06,0.006785346088849152,3.358538107574949
1.165219454329776e-06,0.00611735722149232,3.410627867598061
1.175219454329778e-06,0.005449368354135184,3.36597950186396
1.185219454329779e-06,0.00511537392045692,3.406907170453541
1.195219454329774e-06,0.005783362787813448,3.380862290442005
1.205219454329776e-06,0.006451351655170888,3.384582987586502
1.215219454329777e-06,0.005449368354135184,3.395745079020027
1.225219454329779e-06,0.006451351655170888,3.369700199008468
1.235219454329774e-06,0.007119340522527721,3.388303684731002
1.245219454329775e-06,0.006451351655170888,3.384582987586502
1.255219454329777e-06,0.008121323823563727,3.373420896152977
1.265219454329779e-06,0.005783362787813752,3.406907170453553
1.27521945432978e-06,0.006117357221492472,3.362258804719468
1.285219454329775e-06,0.006451351655170888,3.399465776164535
1.295219454329777e-06,0.005449368354135184,3.36597950186396
1.305219454329778e-06,0.00778732938988516,3.380862290441993
1.31521945432978e-06,0.006451351655171344,3.395745079020017
1.325219454329775e-06,0.007453334956206137,3.373420896152987
1.335219454329776e-06,0.005449368354135184,3.406907170453553
1.345219454329778e-06,0.008121323823563727,3.384582987586502
1.355219454329779e-06,0.006785346088849152,3.403186473309057
1.365219454329774e-06,0.006117357221492624,3.432952050465098
1.375219454329776e-06,0.006785346088849456,3.369700199008468
1.385219454329777e-06,0.005449368354135184,3.418069261887078
1.395219454329779e-06,0.005449368354135184,3.377141593297485
1.405219454329774e-06,0.006785346088848848,3.414348564742553
1.415219454329775e-06,0.00611735722149232,3.410627867598061
1.425219454329777e-06,0.006451351655170888,3.373420896152977
1.435219454329779e-06,0.006785346088849456,3.421789959031586
1.44521945432978e-06,0.005783362787813904,3.388303684731015
1.455219454329775e-06,0.00611735722149232,3.399465776164535
1.465219454329777e-06,0.005449368354135184,3.403186473309044
1.475219454329778e-06,0.005783362787813752,3.392024381875518
1.48521945432978e-06,0.006785346088849456,3.414348564742553
1.495219454329775e-06,0.006785346088849456,3.377141593297502
1.505219454329776e-06,0.006785346088849456,3.384582987586502
1.515219454329778e-06,0.007453334956206592,3.403186473309044
1.525219454329779e-06,0.006117357221492776,3.365979501863975
1.535219454329774e-06,0.007119340522527569,3.39946577616452
1.545219454329776e-06,0.006451351655170888,3.380862290441993
1.555219454329777e-06,0.00778732938988516,3.392024381875518
1.565219454329779e-06,0.00778732938988516,3.395745079020027
1.575219454329774e-06,0.007119340522528328,3.362258804719466
1.585219454329775e-06,0.007453334956206592,3.421789959031586
1.595219454329777e-06,0.00611735722149232,3.377141593297485
1.605219454329779e-06,0.008789312690920863,3.392024381875518
1.61521945432978e-06,0.006451351655171648,3.40318647330903
1.625219454329775e-06,0.008121323823563727,3.373420896152977
1.635219454329777e-06,0.007119340522528024,3.410627867598061
1.645219454329778e-06,0.007119340522528024,3.373420896152977
1.65521945432978e-06,0.008121323823563575,3.384582987586509
1.665219454329775e-06,0.00778732938988516,3.399465776164535
1.675219454329776e-06,0.008121323823563727,3.373420896152977
1.685219454329778e-06,0.006785346088849456,3.418069261887078
1.69521945432978e-06,0.006785346088850367,3.36970019900848
1.705219454329774e-06,0.008789312690919952,3.395745079020015
1.715219454329776e-06,0.007119340522528024,3.38830368473101
1.725219454329778e-06,0.00778732938988516,3.362258804719451
1.735219454329779e-06,0.00778732938988516,3.395745079020027
1.745219454329774e-06,0.006117357221493079,3.362258804719466
1.755219454329776e-06,0.007119340522528024,3.369700199008468
1.765219454329777e-06,0.009123307124599432,3.38830368473101
1.775219454329779e-06,0.006451351655170888,3.36597950186396
1.785219454329774e-06,0.007787329389884553,3.384582987586493
1.795219454329775e-06,0.006451351655170888,3.362258804719451
1.805219454329777e-06,0.007119340522528024,3.384582987586502
1.815219454329778e-06,0.00778732938988516,3.392024381875518
1.82521945432978e-06,0.006785346088849608,3.362258804719458
1.835219454329775e-06,0.007119340522528024,3.377141593297485
1.845219454329776e-06,0.006785346088849456,3.351096713285926
1.855219454329778e-06,0.008455318257242295,3.358538107574943
1.86521945432978e-06,0.006451351655170888,3.380862290441981
1.875219454329774e-06,0.006451351655170888,3.354817410430446
1.885219454329776e-06,0.005449368354135184,3.395745079020027
1.895219454329778e-06,0.005449368354135184,3.3399346218524
1.905219454329779e-06,0.007119340522528024,3.343655318996909
1.915219454329774e-06,0.005115373920457527,3.392024381875496
1.925219454329776e-06,0.007119340522528024,3.328772530418875
1.935219454329777e-06,0.00611735722149232,3.395745079020027
1.945219454329779e-06,0.005449368354135184,3.3399346218524
1.955219454329774e-06,0.006451351655170433,3.369700199008455
1.965219454329775e-06,0.005783362787813752,3.377141593297485
1.975219454329777e-06,0.004113390619420913,3.354817410430434
1.985219454329778e-06,0.005783362787813752,3.395745079020027
1.99521945432978e-06,0.004447385053100393,3.354817410430434
2.005219454329775e-06,0.006451351655170888,3.354817410430434
2.015219454329776e-06,0.00611735722149232,3.380862290441993
2.025219454329778e-06,0.005115373920456617,3.3399346218524
2.03521945432978e-06,0.006451351655170128,3.384582987586493
2.045219454329774e-06,0.004781379486778809,3.365979501863968
2.055219454329776e-06,0.006785346088849456,3.36597950186396
2.065219454329778e-06,0.00611735722149232,3.384582987586502
2.075219454329779e-06,0.005115373920457832,3.358538107574953
2.085219454329774e-06,0.007787329389883945,3.380862290441983
2.095219454329776e-06,0.006785346088849456,3.377141593297485
2.105219454329777e-06,0.006451351655170888,3.358538107574943
2.115219454329779e-06,0.005115373920456617,3.392024381875518
2.125219454329774e-06,0.00645135165517028,3.347376016141438
2.135219454329775e-06,0.005115373920456617,3.395745079020027
2.145219454329777e-06,0.004781379486778049,3.336213924707892
2.155219454329778e-06,0.006785346088849456,3.362258804719451
2.16521945432978e-06,0.004447385053099937,3.38458298758648
2.175219454329775e-06,0.005449368354135184,3.336213924707892
2.185219454329777e-06,0.004447385053099481,3.384582987586502
2.195219454329778e-06,0.005115373920456617,3.343655318996909
2.20521945432978e-06,0.007787329389884553,3.354817410430444
