traces_bank_current_trigger/time_analysis/LDR_175.csv

#Digilent WaveForms Oscilloscope Acquisition
#Device Name: Discovery2
#Serial Number: SN:210321B3D813
#Date Time: 2023-06-15 09:54:05.217
#Sample rate: 1e+08Hz
#Samples: 8192
#Trigger: Source: Channel 2 Type: Edge Condition: Rising Level: 2 V Hyst.: Auto HoldOff: 0 s
#Channel 1: Range: 5 mV/div Offset: 0 V Attenuation: 1 X Sample Mode: Average
#Channel 2: Range: 2 V/div Offset: 0 V Attenuation: 1 X Sample Mode: Average

Time (s),Channel 1 (V),Channel 2 (V)
-9.525835866261407e-07,0.008455318257242295,0.02479346609537227
-9.425835866261391e-07,0.008789312690920863,-0.008692808205203774
-9.325835866261375e-07,0.00812132382356312,0.02479346609536211
-9.225835866261427e-07,0.006785346088850064,0.002469283228331724
-9.125835866261411e-07,0.00611735722149232,0.01735207180635537
-9.025835866261395e-07,0.005783362787813752,0.03595555752889761
-8.925835866261379e-07,0.007453334956206592,-0.008692808205203774
-8.825835866261431e-07,0.007453334956206592,0.03595555752887731
-8.725835866261415e-07,0.007453334956206592,0.00991067751733847
-8.625835866261399e-07,0.00611735722149232,0.02107276895086382
-8.525835866261383e-07,0.00611735722149232,0.02479346609537227
-8.425835866261367e-07,0.00812132382356388,0.02479346609538072
-8.325835866261418e-07,0.008455318257242295,0.04339695181791451
-8.225835866261402e-07,0.00611735722149232,0.002469283228321573
-8.125835866261386e-07,0.005783362787813752,0.02107276895086382
-8.02583586626137e-07,0.006451351655169825,0.03223486038437225
-7.925835866261422e-07,0.004113390619421976,-0.004972111060678408
-7.825835866261406e-07,0.008121323823563727,0.02479346609537227
-7.72583586626139e-07,0.006451351655170888,-0.008692808205203774
-7.625835866261374e-07,0.006117357221491561,0.01735207180636383
-7.525835866261426e-07,0.004447385053100241,0.03595555752888915
-7.42583586626141e-07,0.00611735722149232,0.00991067751733847
-7.325835866261394e-07,0.006451351655170888,0.03967625467340606
-7.225835866261378e-07,0.004781379486778049,0.01735207180635537
-7.12583586626143e-07,0.005449368354134881,0.01735207180635537
-7.025835866261414e-07,0.004781379486778049,0.04339695181791451
-6.925835866261398e-07,0.006451351655170888,0.00991067751733847
-6.825835866261382e-07,0.00611735722149232,0.04339695181791451
-6.725835866261366e-07,0.005115373920456768,0.009910677517341855
-6.625835866261418e-07,0.005449368354135184,0.01735207180635537
-6.525835866261402e-07,0.005115373920456617,0.03967625467340606
-6.425835866261386e-07,0.004447385053099481,-0.01613420249422067
-6.32583586626137e-07,0.006117357221491713,0.02479346609537227
-6.225835866261422e-07,0.004781379486778656,0.02479346609537227
-6.125835866261406e-07,0.005449368354135184,0.01735207180635537
-6.02583586626139e-07,0.004447385053099481,0.03223486038438916
-5.925835866261374e-07,0.00645135165517104,0.006189980372830022
-5.825835866261425e-07,0.006785346088849304,0.006189980372830022
-5.725835866261409e-07,0.006785346088849456,0.00991067751733847
-5.625835866261393e-07,0.00611735722149232,0.01363137466184692
-5.525835866261377e-07,0.005449368354135184,0.02851416323988071
-5.425835866261429e-07,0.0057833627878136,-0.02357559678321388
-5.325835866261413e-07,0.008121323823563727,0.02851416323988071
-5.225835866261397e-07,0.005783362787813752,0.02107276895086382
-5.125835866261381e-07,0.007119340522528024,0.006189980372830022
-5.025835866261365e-07,0.00645135165517104,0.03595555752887392
-4.925835866261417e-07,0.006785346088849456,-0.01613420249422067
-4.825835866261401e-07,0.006785346088849456,0.03595555752889761
-4.725835866261385e-07,0.007119340522528024,0.006189980372830022
-4.625835866261369e-07,0.004447385053100088,0.009910677517345238
-4.525835866261421e-07,0.005783362787813752,0.02479346609537227
-4.425835866261405e-07,0.003779396185742345,0.006189980372830022
-4.325835866261389e-07,0.006451351655170888,0.01735207180635537
-4.225835866261373e-07,0.005449368354134881,0.01735207180635367
-4.125835866261425e-07,0.004781379486778353,0.01363137466184861
-4.025835866261409e-07,0.005115373920456617,0.02479346609537227
-3.925835866261393e-07,0.00611735722149232,-0.004972111060695325
-3.825835866261377e-07,0.00611735722149232,0.01363137466184692
-3.725835866261429e-07,0.006451351655170736,0.02479346609536719
-3.625835866261413e-07,0.005783362787813752,-0.004972111060695325
-3.525835866261397e-07,0.006451351655170888,0.02479346609537227
-3.425835866261381e-07,0.007119340522528024,-0.01241350534971222
-3.325835866261365e-07,0.008121323823562664,0.03595555752888915
-3.225835866261416e-07,0.005783362787813752,0.01735207180635537
-3.1258358662614e-07,0.007453334956206592,0.01363137466184692
-3.025835866261384e-07,0.006451351655170888,0.03223486038438916
-2.925835866261368e-07,0.007787329389885008,-0.012413505349697
-2.82583586626142e-07,0.007453334956206592,0.02107276895086382
-2.725835866261404e-07,0.00611735722149232,0.01363137466184692
-2.625835866261388e-07,0.007119340522528024,0.02479346609537227
-2.525835866261372e-07,0.006451351655170888,0.04339695181789421
-2.425835866261424e-07,0.006451351655170888,-0.001251413916166573
-2.325835866261408e-07,0.009123307124599432,0.03967625467340606
-2.225835866261392e-07,0.006451351655170888,0.01363137466184692
-2.125835866261376e-07,0.008121323823563727,0.01735207180635537
-2.025835866261428e-07,0.006451351655171647,0.05083834610691618
-1.925835866261412e-07,0.00778732938988516,0.002469283228321573
-1.825835866261396e-07,0.008121323823563727,0.03967625467340606
-1.72583586626138e-07,0.00611735722149232,0.02107276895086382
-1.625835866261432e-07,0.005783362787813904,0.02107276895086382
-1.525835866261416e-07,0.00611735722149232,0.03595555752889761
-1.4258358662614e-07,0.00611735722149232,0.002469283228321573
-1.325835866261384e-07,0.007119340522528024,0.04711764896242296
-1.225835866261368e-07,0.006451351655170433,0.013631374661852
-1.12583586626142e-07,0.005449368354135184,0.02479346609537227
-1.025835866261404e-07,0.006785346088849456,0.03595555752889761
-9.258358662613876e-08,0.007119340522528024,-0.008692808205203774
-8.258358662613716e-08,0.007453334956205529,0.04711764896240435
-7.258358662614234e-08,0.00511537392045768,0.006189980372848632
-6.258358662614074e-08,0.005783362787813752,0.02107276895086382
-5.258358662613914e-08,0.00611735722149232,0.02107276895086382
-4.258358662613754e-08,0.005783362787814664,-0.00497211106067333
-3.258358662614272e-08,0.007787329389884249,0.04339695181789251
-2.258358662614112e-08,0.005449368354135184,-0.001251413916186876
-1.258358662613952e-08,0.004113390619420913,0.02851416323988071
-2.583586626137924e-09,-0.01225233663082891,1.364244438118414
7.416413373856898e-09,0.0131312403287307,3.81246315920386
1.74164133738585e-08,0.002777412884706641,2.986468393124098
2.741641337386009e-08,0.0104592848593137,3.336213924707892
3.741641337386169e-08,0.008789312690920863,3.302727650407316
4.741641337386329e-08,0.01179526259402478,3.287844861829334
5.741641337385811e-08,0.004781379486778049,3.403186473309044
6.741641337385971e-08,0.001107440716313802,3.332493227563384
7.741641337386131e-08,0.0001054574152780984,3.421789959031586
8.741641337386291e-08,0.001441435149991155,3.30272765040736
9.741641337385773e-08,-0.001230520319434958,3.399465776164492
1.074164133738593e-07,0.0001054574152780984,3.261799981817723
1.174164133738609e-07,0.003779396185742345,3.3399346218524
1.274164133738625e-07,0.007119340522527569,3.26552067896225
1.374164133738573e-07,0.006117357221492776,3.306448347551806
1.474164133738589e-07,0.005115373920456617,3.302727650407316
1.574164133738605e-07,0.006451351655170888,3.332493227563384
1.674164133738621e-07,0.00611735722149232,3.336213924707892
1.77416413373857e-07,0.002443418451029744,3.377141593297466
1.874164133738586e-07,0.002443418451028074,3.343655318996909
1.974164133738602e-07,-0.001564514753114741,3.369700199008468
2.074164133738618e-07,0.002109424017349506,3.306448347551824
2.174164133738634e-07,0.001775429583671393,3.351096713285907
2.274164133738582e-07,0.002777412884706641,3.310169044696333
2.374164133738598e-07,0.004113390619420913,3.299006953262807
2.474164133738614e-07,0.006451351655170888,3.321331136129858
2.57416413373863e-07,0.003111407318386273,3.321331136129872
2.674164133738578e-07,0.005449368354134121,3.351096713285912
2.774164133738594e-07,0.005449368354135184,3.351096713285926
2.87416413373861e-07,0.004113390619420913,3.336213924707892
2.974164133738626e-07,0.002777412884706034,3.380862290441964
3.074164133738574e-07,0.001441435149992977,3.317610438985378
3.17416413373859e-07,0.002443418451028074,3.358538107574943
3.274164133738606e-07,0.003445401752063777,3.336213924707892
3.374164133738622e-07,0.004781379486778049,3.328772530418875
3.47416413373857e-07,0.003445401752064385,3.328772530418875
3.574164133738586e-07,0.005449368354135184,3.310169044696333
3.674164133738602e-07,0.006785346088849456,3.354817410430434
3.774164133738618e-07,0.005783362787813752,3.3399346218524
3.874164133738634e-07,0.006117357221491105,3.343655318996922
3.974164133738582e-07,0.003445401752063777,3.373420896152977
4.074164133738598e-07,0.005783362787813752,3.362258804719451
4.174164133738614e-07,0.006785346088849456,3.354817410430434
4.27416413373863e-07,0.003111407318386576,3.351096713285915
4.374164133738579e-07,0.006117357221490954,3.328772530418885
4.474164133738595e-07,0.004781379486778049,3.354817410430434
4.574164133738611e-07,0.006451351655170888,3.321331136129858
4.674164133738627e-07,0.00745333495620568,3.362258804719445
4.774164133738575e-07,0.005449368354136095,3.347376016141424
4.874164133738591e-07,0.005783362787813752,3.354817410430434
4.974164133738607e-07,0.005115373920456617,3.36597950186396
5.074164133738623e-07,0.00611735722149232,3.351096713285926
5.174164133738571e-07,0.006451351655170736,3.377141593297473
5.274164133738587e-07,0.004781379486778049,3.354817410430434
5.374164133738603e-07,0.005115373920456617,3.354817410430434
5.474164133738619e-07,0.005783362787813752,3.380862290441993
5.574164133738635e-07,0.008121323823563575,3.336213924707909
5.674164133738583e-07,0.00778732938988516,3.373420896152977
5.774164133738599e-07,0.006785346088849456,3.358538107574943
5.874164133738615e-07,0.008121323823563727,3.351096713285926
5.974164133738631e-07,0.006451351655171495,3.369700199008456
6.074164133738579e-07,0.00778732938988516,3.343655318996909
6.174164133738595e-07,0.007119340522528024,3.369700199008468
6.274164133738611e-07,0.006785346088849456,3.362258804719451
6.374164133738627e-07,0.007787329389884248,3.373420896152978
6.474164133738575e-07,0.005783362787814663,3.377141593297483
6.574164133738591e-07,0.008455318257242295,3.343655318996909
6.674164133738607e-07,0.00778732938988516,3.384582987586502
6.774164133738623e-07,0.006785346088849456,3.358538107574943
6.874164133738572e-07,0.005449368354135791,3.362258804719449
6.974164133738588e-07,0.005115373920456617,3.384582987586502
7.074164133738604e-07,0.003445401752063777,3.347376016141417
7.17416413373862e-07,0.006785346088849456,3.392024381875518
7.274164133738636e-07,0.005449368354134729,3.362258804719455
7.374164133738584e-07,0.004447385053099481,3.369700199008468
7.4741641337386e-07,0.003779396185742345,3.38830368473101
7.574164133738616e-07,0.004781379486778049,3.36597950186396
7.674164133738632e-07,0.005783362787813752,3.395745079020021
7.77416413373858e-07,0.005783362787813752,3.380862290441993
7.874164133738596e-07,0.004781379486778049,3.351096713285926
7.974164133738612e-07,0.005115373920456617,3.392024381875518
8.074164133738628e-07,0.006117357221493232,3.365979501863968
8.174164133738576e-07,0.008121323823562817,3.384582987586493
8.274164133738592e-07,0.005115373920456617,3.384582987586502
8.374164133738608e-07,0.005115373920456617,3.377141593297485
8.474164133738624e-07,0.006451351655170888,3.403186473309044
8.574164133738572e-07,0.007119340522527721,3.358538107574963
8.674164133738588e-07,0.006785346088849456,3.406907170453553
8.774164133738604e-07,0.005783362787813752,3.380862290441993
8.87416413373862e-07,0.007453334956206592,3.380862290441993
8.974164133738568e-07,0.006785346088849759,3.399465776164527
9.074164133738584e-07,0.00778732938988516,3.358538107574943
9.1741641337386e-07,0.007453334956206592,3.395745079020027
9.274164133738616e-07,0.007119340522528024,3.384582987586502
9.374164133738632e-07,0.008455318257241535,3.384582987586514
9.474164133738581e-07,0.006785346088849456,3.410627867598061
9.574164133738597e-07,0.009123307124599432,3.36597950186396
9.674164133738613e-07,0.008121323823563727,3.406907170453553
9.774164133738629e-07,0.007119340522527873,3.395745079020019
9.874164133738577e-07,0.006785346088849608,3.377141593297493
9.974164133738593e-07,0.006451351655170888,3.41434856474257
1.007416413373861e-06,0.005783362787813752,3.369700199008468
1.017416413373862e-06,0.005783362787813145,3.40318647330903
1.027416413373857e-06,0.004447385053100088,3.37342089615299
1.037416413373859e-06,0.006785346088849456,3.395745079020027
1.04741641337386e-06,0.005449368354135184,3.395745079020027
1.057416413373862e-06,0.005115373920456617,3.38830368473101
1.067416413373857e-06,0.005449368354135033,3.410627867598051
1.077416413373859e-06,0.005115373920456617,3.380862290441993
1.08741641337386e-06,0.004781379486778049,3.392024381875518
1.097416413373862e-06,0.004113390619420913,3.406907170453553
1.107416413373863e-06,0.004447385053100241,3.373420896152987
1.117416413373858e-06,0.00611735722149232,3.395745079020027
1.12741641337386e-06,0.005783362787813752,3.384582987586502
1.137416413373861e-06,0.005783362787813752,3.392024381875518
1.147416413373863e-06,0.004447385053100393,3.406907170453537
1.157416413373858e-06,0.006451351655169977,3.373420896152992
1.167416413373859e-06,0.005449368354135184,3.395745079020027
1.177416413373861e-06,0.003111407318385209,3.392024381875518
1.187416413373863e-06,0.004447385053099481,3.392024381875522
1.197416413373857e-06,0.004447385053099481,3.399465776164532
1.207416413373859e-06,0.005115373920456617,3.36597950186396
1.217416413373861e-06,0.00611735722149232,3.403186473309044
1.227416413373862e-06,0.004447385053099481,3.377141593297485
1.237416413373857e-06,0.004447385053099481,3.373420896152978
1.247416413373859e-06,0.004113390619420913,3.395745079020027
1.25741641337386e-06,0.005115373920456617,3.362258804719451
1.267416413373862e-06,0.005449368354135184,3.395745079020027
1.277416413373863e-06,0.004113390619420913,3.380862290441993
1.287416413373858e-06,0.004113390619420913,3.380862290441993
1.29741641337386e-06,0.005449368354135184,3.384582987586502
1.307416413373861e-06,0.004447385053099481,3.358538107574943
1.317416413373863e-06,0.006451351655169977,3.39946577616452
1.327416413373858e-06,0.004447385053100392,3.365979501863975
1.337416413373859e-06,0.005115373920456617,3.373420896152977
1.347416413373861e-06,0.006451351655170888,3.380862290441993
1.357416413373863e-06,0.004447385053100545,3.373420896152977
1.367416413373857e-06,0.006785346088848392,3.373420896152977
1.377416413373859e-06,0.004781379486778049,3.392024381875518
1.387416413373861e-06,0.005783362787813752,3.36597950186396
1.397416413373862e-06,0.005449368354135184,3.392024381875518
1.407416413373857e-06,0.006785346088848848,3.365979501863972
1.417416413373859e-06,0.006785346088849456,3.406907170453553
1.42741641337386e-06,0.00778732938988516,3.38830368473101
1.437416413373862e-06,0.008455318257242295,3.38830368473101
1.447416413373863e-06,0.006451351655171192,3.399465776164529
1.457416413373858e-06,0.007119340522528024,3.384582987586502
1.46741641337386e-06,0.008121323823563727,3.399465776164535
1.477416413373861e-06,0.006451351655170888,3.395745079020027
1.487416413373863e-06,0.006117357221492472,3.365979501863973
1.497416413373858e-06,0.006451351655170736,3.395745079020014
1.507416413373859e-06,0.006785346088849456,3.362258804719451
1.517416413373861e-06,0.006451351655170888,3.406907170453553
1.527416413373863e-06,0.007119340522527569,3.37342089615298
1.537416413373857e-06,0.006117357221492776,3.38086229044199
1.547416413373859e-06,0.009123307124599432,3.406907170453553
1.557416413373861e-06,0.004781379486778049,3.380862290441993
1.567416413373862e-06,0.007453334956206592,3.399465776164535
1.577416413373857e-06,0.006117357221492929,3.380862290442002
1.587416413373859e-06,0.007119340522528024,3.380862290441993
1.59741641337386e-06,0.006451351655170888,3.410627867598061
1.607416413373862e-06,0.006785346088849456,3.369700199008468
1.617416413373864e-06,0.008455318257241232,3.406907170453539
1.627416413373858e-06,0.00611735722149232,3.377141593297485
1.63741641337386e-06,0.00778732938988516,3.380862290441993
1.647416413373862e-06,0.008121323823563727,3.406907170453553
1.657416413373863e-06,0.00778732938988516,3.351096713285951
1.667416413373858e-06,0.00778732938988516,3.406907170453553
1.67741641337386e-06,0.00778732938988516,3.384582987586502
1.687416413373861e-06,0.00611735722149232,3.36597950186396
1.697416413373863e-06,0.007119340522527265,3.410627867598049
1.707416413373858e-06,0.005449368354135944,3.384582987586514
1.717416413373859e-06,0.006785346088849456,3.395745079020027
1.727416413373861e-06,0.006785346088849456,3.380862290441993
1.737416413373862e-06,0.00611735722149232,3.384582987586502
1.747416413373857e-06,0.006785346088849152,3.388303684731008
1.757416413373859e-06,0.004781379486778049,3.36597950186396
1.76741641337386e-06,0.007453334956206592,3.403186473309044
1.777416413373862e-06,0.004781379486778049,3.377141593297485
1.787416413373857e-06,0.007453334956205377,3.384582987586498
1.797416413373858e-06,0.004781379486778049,3.399465776164535
1.80741641337386e-06,0.007453334956206592,3.369700199008468
1.817416413373862e-06,0.007453334956206592,3.392024381875518
1.827416413373863e-06,0.007787329389884704,3.380862290441995
1.837416413373858e-06,0.006785346088849456,3.384582987586502
1.84741641337386e-06,0.005449368354135184,3.384582987586502
1.857416413373861e-06,0.008455318257242295,3.369700199008468
1.867416413373863e-06,0.006785346088849304,3.399465776164517
1.877416413373858e-06,0.00645135165517104,3.358538107574961
1.887416413373859e-06,0.006785346088849456,3.38830368473101
1.897416413373861e-06,0.008455318257242295,3.406907170453553
1.907416413373862e-06,0.005783362787813752,3.347376016141417
1.917416413373857e-06,0.006451351655170585,3.395745079020005
1.927416413373859e-06,0.005783362787813752,3.377141593297485
1.93741641337386e-06,0.006785346088849456,3.358538107574943
1.947416413373862e-06,0.00778732938988516,3.399465776164535
1.957416413373857e-06,0.007453334956206744,3.369700199008481
1.967416413373858e-06,0.006451351655170888,3.384582987586502
1.97741641337386e-06,0.005115373920456617,3.384582987586502
1.987416413373862e-06,0.005115373920456617,3.373420896152977
1.997416413373863e-06,0.005783362787814056,3.39946577616452
2.007416413373858e-06,0.006451351655170888,3.36597950186396
2.01741641337386e-06,0.007119340522528024,3.399465776164535
2.027416413373861e-06,0.006785346088849456,3.392024381875518
2.037416413373863e-06,0.005783362787813145,3.395745079020032
2.047416413373858e-06,0.004447385053100088,3.406907170453548
2.057416413373859e-06,0.006785346088849456,3.373420896152977
2.067416413373861e-06,0.007119340522528024,3.41434856474257
2.077416413373862e-06,0.005115373920457224,3.395745079020025
2.087416413373857e-06,0.00645135165517028,3.39202438187552
2.097416413373859e-06,0.004447385053099481,3.403186473309044
2.107416413373861e-06,0.006451351655170888,3.377141593297485
2.117416413373862e-06,0.005115373920456617,3.418069261887078
2.127416413373857e-06,0.00645135165517028,3.395745079020037
2.137416413373859e-06,0.005449368354135184,3.380862290441993
2.14741641337386e-06,0.005115373920456617,3.406907170453553
2.157416413373862e-06,0.004781379486778049,3.36597950186396
2.167416413373863e-06,0.007453334956206137,3.414348564742565
2.177416413373858e-06,0.006451351655170888,3.403186473309044
2.18741641337386e-06,0.00611735722149232,3.373420896152977
2.197416413373861e-06,0.005783362787813752,3.399465776164535
2.207416413373863e-06,0.004781379486778809,3.362258804719468
