traces_bank_current_trigger/benchmark_traces/matrix_conv_50MHz/conv_0.csv

#Digilent WaveForms Oscilloscope Acquisition
#Device Name: Discovery2
#Serial Number: SN:210321B3D813
#Date Time: 2023-07-03 13:54:51.216
#Sample rate: 5e+07Hz
#Samples: 8192
#Trigger: Source: Channel 2 Type: Edge Condition: Rising Level: 2 V Hyst.: Auto HoldOff: 0 s
#Channel 1: Range: 10 mV/div Offset: 0 V Attenuation: 1 X Sample Mode: Average
#Channel 2: Range: 5 V/div Offset: 0 V Attenuation: 1 X Sample Mode: Average

Time (s),Channel 1 (V),Channel 2 (V)
-1.912080378250582e-06,0.008455318257242295,0.006189980372830022
-1.892080378250579e-06,0.007453334956206592,-0.001251413916186876
-1.872080378250576e-06,0.008455318257242295,-0.004972111060690249
-1.852080378250586e-06,0.008455318257242295,0.006189980372824946
-1.832080378250583e-06,0.008455318257242295,-0.01613420249422067
-1.81208037825058e-06,0.007453334956206592,0.00991067751733847
-1.792080378250577e-06,0.007453334956206592,0.03595555752889761
-1.772080378250587e-06,0.007119340522528176,0.009910677517350315
-1.752080378250584e-06,0.007453334956206592,-0.008692808205203774
-1.732080378250581e-06,0.007119340522528024,-0.004972111060695325
-1.712080378250578e-06,0.00611735722149232,-0.008692808205203774
-1.692080378250574e-06,0.006785346088849,0.01735207180635367
-1.672080378250585e-06,0.005783362787813752,0.01363137466184692
-1.652080378250582e-06,0.006785346088849456,-0.008692808205203774
-1.632080378250578e-06,0.007119340522528024,-0.01241350534971222
-1.612080378250575e-06,0.006451351655171495,0.006189980372831714
-1.592080378250586e-06,0.007787329389884553,0.009910677517336779
-1.572080378250582e-06,0.008789312690920863,0.00991067751733847
-1.552080378250579e-06,0.007119340522528024,0.00991067751733847
-1.532080378250576e-06,0.00778732938988516,0.01363137466184184
-1.512080378250586e-06,0.00778732938988516,0.002469283228326648
-1.492080378250583e-06,0.009457301558278,0.01363137466184692
-1.47208037825058e-06,0.008455318257242295,0.02107276895086382
-1.452080378250577e-06,0.008789312690920863,0.002469283228321573
-1.432080378250587e-06,0.006785346088850367,0.002469283228321573
-1.412080378250584e-06,0.006785346088849456,0.00991067751733847
-1.392080378250581e-06,0.007453334956206592,0.00991067751733847
-1.372080378250577e-06,0.007453334956206592,0.02851416323988071
-1.352080378250574e-06,0.007119340522528024,0.009910677517335086
-1.332080378250585e-06,0.007119340522528024,0.002469283228321573
-1.312080378250581e-06,0.006785346088849456,0.01735207180635537
-1.292080378250578e-06,0.00611735722149232,0.02479346609537227
-1.272080378250575e-06,0.006117357221492472,0.0173520718063486
-1.252080378250585e-06,0.006451351655170736,0.00246928322832834
-1.232080378250582e-06,0.007453334956206592,0.00991067751733847
-1.212080378250579e-06,0.006785346088849456,0.00991067751733847
-1.192080378250576e-06,0.006451351655171495,0.0136313746618503
-1.172080378250586e-06,0.007787329389884553,0.02107276895086043
-1.152080378250583e-06,0.007119340522528024,0.01735207180635537
-1.13208037825058e-06,0.007453334956206592,0.00991067751733847
-1.112080378250577e-06,0.00778732938988516,0.02107276895086382
-1.092080378250587e-06,0.008121323823563575,0.01735207180635706
-1.072080378250584e-06,0.009123307124599432,0.02107276895086382
-1.052080378250581e-06,0.00778732938988516,0.01363137466184692
-1.032080378250577e-06,0.008455318257242295,-0.008692808205203774
-1.012080378250574e-06,0.009123307124599432,0.009910677517348622
-9.920803782505845e-07,0.009123307124599432,0.03223486038438916
-9.720803782505813e-07,0.01012529042563514,0.02479346609537227
-9.520803782505781e-07,0.009457301558278,0.002469283228321573
-9.320803782505749e-07,0.008455318257242295,0.0247934660953655
-9.120803782505853e-07,0.008455318257242295,0.00991067751733847
-8.920803782505821e-07,0.008789312690920863,0.02479346609537227
-8.720803782505789e-07,0.01012529042563514,0.02851416323988071
-8.520803782505757e-07,0.009791295991956111,0.01735207180635367
-8.32080378250586e-07,0.008789312690921319,0.01363137466184861
-8.120803782505828e-07,0.009123307124599432,0.01363137466184692
-7.920803782505796e-07,0.009457301558278,0.02479346609537227
-7.720803782505764e-07,0.00778732938988516,0.01363137466184692
-7.520803782505868e-07,0.008121323823563575,0.009910677517340162
-7.320803782505836e-07,0.007453334956206592,-0.001251413916186876
-7.120803782505804e-07,0.008121323823563727,0.00991067751733847
-6.920803782505772e-07,0.006451351655170888,0.01363137466184692
-6.72080378250574e-07,0.006785346088849304,0.006189980372830022
-6.520803782505844e-07,0.006451351655170888,0.006189980372830022
-6.320803782505812e-07,0.006451351655170888,0.006189980372830022
-6.12080378250578e-07,0.00611735722149232,0.01363137466184692
-5.920803782505748e-07,0.006785346088849456,0.01735207180635875
-5.720803782505851e-07,0.006785346088849456,0.02479346609537227
-5.520803782505819e-07,0.00611735722149232,0.00991067751733847
-5.320803782505787e-07,0.005449368354135184,0.002469283228321573
-5.120803782505755e-07,0.007119340522527721,0.009910677517346931
-4.920803782505859e-07,0.006451351655171192,0.02851416323987226
-4.720803782505827e-07,0.006785346088849456,0.02479346609537227
-4.520803782505795e-07,0.006785346088849456,0.01735207180635537
-4.320803782505763e-07,0.006451351655170888,0.002469283228321573
-4.120803782505867e-07,0.006117357221492472,0.0173520718063486
-3.920803782505835e-07,0.006785346088849456,0.01735207180635537
-3.720803782505803e-07,0.007119340522528024,0.03223486038438916
-3.520803782505771e-07,0.006785346088849456,0.00991067751733847
-3.320803782505874e-07,0.006785346088849456,0.01735207180635199
-3.120803782505842e-07,0.006785346088849456,0.01735207180635537
-2.92080378250581e-07,0.006785346088849456,0.01735207180635537
-2.720803782505778e-07,0.00611735722149232,0.02851416323988071
-2.520803782505746e-07,0.006785346088849456,0.01735207180635367
-2.32080378250585e-07,0.006785346088849456,0.01363137466184692
-2.120803782505818e-07,0.006451351655170888,0.01735207180635537
-1.920803782505786e-07,0.00611735722149232,0.03595555752889761
-1.720803782505754e-07,0.006451351655170585,0.0322348603843807
-1.520803782505858e-07,0.005783362787814056,0.01363137466185538
-1.320803782505826e-07,0.005783362787813752,0.02107276895086382
-1.120803782505794e-07,0.004781379486778049,0.03595555752889761
-9.208037825057618e-08,0.005115373920456617,0.04339695181790774
-7.208037825058653e-08,0.005115373920456617,0.02851416323988748
-5.208037825058334e-08,0.004781379486778049,0.01363137466184692
-3.208037825058014e-08,0.004447385053099481,0.01363137466184692
-1.208037825057694e-08,0.002109424017349506,0.0954867118410328
7.9196217494127e-09,-0.0008965258857562383,3.243196496093749
2.79196217494159e-08,0.01079327929299227,3.291565558973791
4.791962174941909e-08,0.007453334956206592,3.325051833274367
6.791962174942229e-08,0.002109424017349506,3.369700199008468
8.791962174942549e-08,-0.001898509186792398,3.377141593297476
1.079196217494151e-07,0.0001054574152780984,3.358538107574943
1.279196217494183e-07,0.003445401752063777,3.336213924707892
1.479196217494215e-07,0.005449368354135184,3.313889741840841
1.679196217494247e-07,0.005449368354133362,3.347376016141427
1.879196217494144e-07,0.001441435149994192,3.369700199008458
2.079196217494176e-07,0.0001054574152780984,3.384582987586502
2.279196217494208e-07,0.001775429583670938,3.354817410430434
2.47919621749424e-07,0.004447385053099785,3.336213924707897
2.679196217494136e-07,0.005115373920456313,3.347376016141412
2.879196217494168e-07,0.003779396185742345,3.373420896152977
3.0791962174942e-07,0.001107440716313802,3.399465776164535
3.279196217494232e-07,0.001775429583670938,3.362258804719451
3.479196217494128e-07,0.003111407318384602,3.347376016141424
3.67919621749416e-07,0.005449368354135184,3.3399346218524
3.879196217494192e-07,0.005783362787813752,3.369700199008468
4.079196217494224e-07,0.005115373920456617,3.373420896152977
4.279196217494256e-07,0.005449368354134729,3.369700199008463
4.479196217494153e-07,0.004447385053099481,3.358538107574943
4.679196217494185e-07,0.005783362787813752,3.336213924707892
4.879196217494217e-07,0.006451351655170888,3.36597950186396
5.079196217494249e-07,0.006785346088849608,3.377141593297487
5.279196217494145e-07,0.007119340522527873,3.380862290441991
5.479196217494177e-07,0.006785346088849456,3.36597950186396
5.679196217494209e-07,0.006785346088849456,3.362258804719451
5.879196217494241e-07,0.006117357221493384,3.369700199008464
6.079196217494137e-07,0.008455318257241232,3.362258804719455
6.279196217494169e-07,0.008121323823563727,3.377141593297485
6.479196217494201e-07,0.007119340522528024,3.377141593297485
6.679196217494233e-07,0.00778732938988516,3.369700199008468
6.87919621749413e-07,0.007453334956206744,3.384582987586495
7.079196217494162e-07,0.007119340522528024,3.38830368473101
7.279196217494194e-07,0.007453334956206592,3.399465776164535
7.479196217494226e-07,0.005783362787813752,3.380862290441993
7.679196217494258e-07,0.005449368354134881,3.369700199008471
7.879196217494154e-07,0.004781379486778049,3.377141593297485
8.079196217494186e-07,0.005449368354135184,3.392024381875518
8.279196217494218e-07,0.007453334956206592,3.399465776164535
8.47919621749425e-07,0.006785346088849456,3.38086229044199
8.679196217494146e-07,0.006785346088849456,3.37342089615298
8.879196217494178e-07,0.005783362787813752,3.380862290441993
9.07919621749421e-07,0.006451351655170888,3.399465776164535
9.279196217494242e-07,0.006785346088849911,3.395745079020017
9.479196217494139e-07,0.007787329389884704,3.373420896152987
9.679196217494171e-07,0.00778732938988516,3.377141593297485
9.879196217494203e-07,0.005783362787813752,3.384582987586502
1.007919621749423e-06,0.007119340522528024,3.395745079020027
1.027919621749413e-06,0.008455318257241688,3.40318647330904
1.047919621749416e-06,0.009457301558278,3.38830368473101
1.067919621749419e-06,0.00778732938988516,3.380862290441993
1.087919621749423e-06,0.008121323823563727,3.395745079020027
1.107919621749426e-06,0.008455318257241688,3.392024381875518
1.127919621749416e-06,0.007119340522528024,3.392024381875518
1.147919621749419e-06,0.006451351655170888,3.384582987586502
1.167919621749422e-06,0.00778732938988516,3.377141593297485
1.187919621749425e-06,0.0077873293898844,3.384582987586507
1.207919621749415e-06,0.00611735722149232,3.395745079020027
1.227919621749418e-06,0.005783362787813752,3.395745079020027
1.247919621749421e-06,0.005783362787813752,3.373420896152977
1.267919621749424e-06,0.005783362787813145,3.380862290441998
1.287919621749414e-06,0.004447385053100088,3.392024381875514
1.307919621749417e-06,0.005115373920456617,3.38830368473101
1.32791962174942e-06,0.004447385053099481,3.38830368473101
1.347919621749424e-06,0.004447385053099481,3.369700199008468
1.367919621749413e-06,0.005449368354134729,3.384582987586495
1.387919621749416e-06,0.005115373920456617,3.380862290441993
1.40791962174942e-06,0.00611735722149232,3.392024381875518
1.427919621749423e-06,0.005449368354135184,3.392024381875518
1.447919621749426e-06,0.006451351655170888,3.384582987586498
1.467919621749416e-06,0.006451351655170888,3.377141593297485
1.487919621749419e-06,0.007453334956206592,3.38830368473101
1.507919621749422e-06,0.007119340522528024,3.384582987586502
1.527919621749425e-06,0.006785346088849456,3.38830368473101
1.547919621749415e-06,0.006785346088849456,3.38830368473101
1.567919621749418e-06,0.006785346088849456,3.384582987586502
1.587919621749421e-06,0.006785346088849456,3.399465776164535
1.607919621749424e-06,0.006451351655171192,3.418069261887073
1.627919621749414e-06,0.007119340522527721,3.406907170453557
1.647919621749417e-06,0.007453334956206592,3.395745079020027
1.667919621749421e-06,0.005783362787813752,3.384582987586502
1.687919621749424e-06,0.006785346088849456,3.384582987586502
1.707919621749413e-06,0.006785346088849456,3.410627867598049
1.727919621749417e-06,0.007453334956206592,3.403186473309044
1.74791962174942e-06,0.007119340522528024,3.384582987586502
1.767919621749423e-06,0.007453334956206592,3.36597950186396
1.787919621749413e-06,0.006451351655171344,3.395745079020014
1.807919621749416e-06,0.006451351655170888,3.395745079020027
1.827919621749419e-06,0.00778732938988516,3.392024381875518
1.847919621749422e-06,0.007453334956206592,3.384582987586502
1.867919621749425e-06,0.007119340522527721,3.377141593297495
1.887919621749415e-06,0.006451351655170888,3.399465776164535
1.907919621749418e-06,0.00611735722149232,3.392024381875518
1.927919621749421e-06,0.00611735722149232,3.399465776164535
1.947919621749425e-06,0.007119340522527417,3.38086229044199
1.967919621749414e-06,0.005783362787814359,3.37342089615298
1.987919621749417e-06,0.00611735722149232,3.384582987586502
2.007919621749421e-06,0.00611735722149232,3.399465776164535
2.027919621749424e-06,0.006451351655170736,3.395745079020017
2.047919621749413e-06,0.006117357221492472,3.373420896152987
2.067919621749417e-06,0.007119340522528024,3.373420896152977
2.08791962174942e-06,0.006785346088849456,3.384582987586502
2.107919621749423e-06,0.006451351655170888,3.395745079020027
2.127919621749413e-06,0.007119340522527721,3.388303684731014
2.147919621749416e-06,0.006785346088849456,3.373420896152977
2.167919621749419e-06,0.006785346088849456,3.373420896152977
2.187919621749422e-06,0.00611735722149232,3.384582987586502
2.207919621749426e-06,0.005449368354135488,3.392024381875517
2.227919621749415e-06,0.00611735722149232,3.38830368473101
2.247919621749418e-06,0.006785346088849456,3.36597950186396
2.267919621749422e-06,0.006785346088849456,3.373420896152977
2.287919621749425e-06,0.00711934052252848,3.380862290441998
2.307919621749414e-06,0.008121323823563271,3.392024381875514
2.327919621749418e-06,0.007119340522528024,3.392024381875518
2.347919621749421e-06,0.006451351655170888,3.377141593297485
2.367919621749424e-06,0.007453334956206592,3.365979501863964
2.387919621749414e-06,0.007453334956206592,3.37714159329748
2.407919621749417e-06,0.006785346088849456,3.38830368473101
2.42791962174942e-06,0.007119340522528024,3.380862290441993
2.447919621749423e-06,0.00611735722149232,3.362258804719451
2.467919621749413e-06,0.005449368354135488,3.365979501863958
2.487919621749416e-06,0.006451351655170888,3.373420896152977
2.507919621749419e-06,0.00611735722149232,3.399465776164535
2.527919621749422e-06,0.008121323823563727,3.395745079020027
2.547919621749426e-06,0.007787329389885615,3.377141593297481
2.567919621749415e-06,0.008789312690920863,3.369700199008468
2.587919621749418e-06,0.00778732938988516,3.377141593297485
2.607919621749422e-06,0.008121323823563727,3.403186473309044
2.627919621749425e-06,0.006785346088849456,3.403186473309029
2.647919621749415e-06,0.006785346088849456,3.369700199008483
2.667919621749418e-06,0.006451351655170888,3.373420896152977
2.687919621749421e-06,0.00778732938988516,3.384582987586502
2.707919621749424e-06,0.006451351655171648,3.395745079020025
2.727919621749414e-06,0.008121323823562968,3.39202438187552
2.747919621749417e-06,0.007119340522528024,3.362258804719451
2.76791962174942e-06,0.008121323823563727,3.358538107574943
2.787919621749423e-06,0.008789312690920863,3.373420896152977
2.807919621749413e-06,0.008455318257242448,3.38086229044199
2.827919621749416e-06,0.008789312690920863,3.377141593297485
2.847919621749419e-06,0.007453334956206592,3.358538107574943
2.867919621749423e-06,0.008121323823563727,3.358538107574943
2.887919621749426e-06,0.007119340522528784,3.365979501863966
2.907919621749415e-06,0.008789312690920863,3.380862290441993
2.927919621749419e-06,0.009123307124599432,3.380862290441993
2.947919621749422e-06,0.008455318257242295,3.36597950186396
2.967919621749425e-06,0.007787329389885008,3.351096713285934
2.987919621749415e-06,0.007453334956206744,3.369700199008459
3.007919621749418e-06,0.008121323823563727,3.373420896152977
3.027919621749421e-06,0.008121323823563727,3.377141593297485
3.047919621749424e-06,0.009457301558278,3.373420896152972
3.067919621749414e-06,0.009457301558278,3.362258804719456
3.087919621749417e-06,0.009123307124599432,3.380862290441993
3.10791962174942e-06,0.009791295991956567,3.384582987586502
3.127919621749423e-06,0.01012529042563514,3.380862290441993
3.147919621749413e-06,0.009123307124599888,3.369700199008473
3.167919621749416e-06,0.008121323823563727,3.36597950186396
3.18791962174942e-06,0.006785346088849456,3.373420896152977
3.207919621749423e-06,0.00778732938988516,3.384582987586502
3.227919621749426e-06,0.007787329389884856,3.380862290441988
3.247919621749416e-06,0.007119340522528024,3.369700199008468
3.267919621749419e-06,0.006451351655170888,3.36597950186396
3.287919621749422e-06,0.007453334956206592,3.369700199008468
3.307919621749425e-06,0.00745333495620644,3.373420896152981
3.327919621749415e-06,0.007119340522528024,3.384582987586502
3.347919621749418e-06,0.006785346088849456,3.36597950186396
3.367919621749421e-06,0.008121323823563727,3.358538107574943
3.387919621749424e-06,0.006785346088849759,3.365979501863968
3.407919621749414e-06,0.007453334956206288,3.384582987586493
3.427919621749417e-06,0.008121323823563727,3.380862290441993
3.44791962174942e-06,0.008121323823563727,3.362258804719451
3.467919621749424e-06,0.008121323823563727,3.351096713285926
3.487919621749413e-06,0.007787329389885311,3.362258804719446
3.507919621749416e-06,0.00778732938988516,3.380862290441993
3.52791962174942e-06,0.008789312690920863,3.377141593297485
3.547919621749423e-06,0.008455318257242295,3.36597950186396
3.567919621749412e-06,0.00878931269092071,3.347376016141426
3.587919621749416e-06,0.007453334956206592,3.36597950186396
3.607919621749419e-06,0.009123307124599432,3.384582987586502
3.627919621749422e-06,0.008455318257242295,3.377141593297485
3.647919621749425e-06,0.009123307124598976,3.373420896152975
3.667919621749415e-06,0.008121323823563727,3.369700199008468
3.687919621749418e-06,0.008121323823563727,3.377141593297485
3.707919621749421e-06,0.00778732938988516,3.392024381875518
3.727919621749425e-06,0.007787329389884704,3.395745079020022
3.747919621749414e-06,0.006785346088849911,3.384582987586507
3.767919621749417e-06,0.005783362787813752,3.377141593297485
3.787919621749421e-06,0.006451351655170888,3.392024381875518
3.807919621749424e-06,0.006785346088849456,3.392024381875518
3.827919621749413e-06,0.007787329389884704,3.399465776164532
3.847919621749417e-06,0.008121323823563727,3.392024381875518
3.86791962174942e-06,0.007453334956206592,3.380862290441993
3.887919621749423e-06,0.007119340522528024,3.392024381875518
3.907919621749413e-06,0.007119340522528024,3.403186473309039
3.927919621749416e-06,0.006451351655170888,3.399465776164535
3.947919621749419e-06,0.006451351655170888,3.395745079020027
3.967919621749422e-06,0.007119340522528024,3.399465776164535
3.987919621749425e-06,0.007453334956206744,3.406907170453551
4.007919621749415e-06,0.00778732938988516,3.403186473309044
4.027919621749418e-06,0.007119340522528024,3.392024381875518
4.047919621749421e-06,0.006451351655170888,3.399465776164535
4.067919621749425e-06,0.006451351655171344,3.384582987586502
4.087919621749414e-06,0.007453334956206137,3.384582987586502
4.107919621749417e-06,0.00778732938988516,3.399465776164535
4.127919621749421e-06,0.00611735722149232,3.392024381875518
4.147919621749424e-06,0.00611735722149232,3.369700199008473
4.167919621749414e-06,0.00611735722149232,3.380862290441988
4.187919621749417e-06,0.005783362787813752,3.377141593297485
4.20791962174942e-06,0.006451351655170888,3.395745079020027
4.227919621749423e-06,0.00611735722149232,3.392024381875518
4.247919621749413e-06,0.005449368354135488,3.373420896152985
4.267919621749416e-06,0.006451351655170888,3.362258804719451
4.287919621749419e-06,0.006451351655170888,3.380862290441993
4.307919621749422e-06,0.007119340522528024,3.392024381875518
4.327919621749426e-06,0.006785346088849456,3.39202438187551
4.347919621749415e-06,0.006785346088849456,3.373420896152977
4.367919621749418e-06,0.006451351655170888,3.373420896152977
4.387919621749422e-06,0.005783362787813752,3.373420896152977
4.407919621749425e-06,0.005449368354134881,3.395745079020025
