traces_bank_current_trigger/benchmark_traces/matrix_conv_50MHz/conv_5.csv

#Digilent WaveForms Oscilloscope Acquisition
#Device Name: Discovery2
#Serial Number: SN:210321B3D813
#Date Time: 2023-07-13 10:36:41.864
#Sample rate: 5e+07Hz
#Samples: 8192
#Trigger: Source: Channel 2 Type: Edge Condition: Rising Level: 2 V Hyst.: Auto HoldOff: 0 s
#Channel 1: Range: 10 mV/div Offset: 0 V Attenuation: 1 X Sample Mode: Average
#Channel 2: Range: 5 V/div Offset: 0 V Attenuation: 1 X Sample Mode: Average

Time (s),Channel 1 (V),Channel 2 (V)
-1.908248407643301e-06,0.00611735722149232,0.002469283228321573
-1.888248407643298e-06,0.006785346088849456,-0.01241350534971222
-1.868248407643295e-06,0.005783362787812689,-0.004972111060690249
-1.848248407643305e-06,0.003445401752064841,0.006189980372824946
-1.828248407643302e-06,0.003779396185742345,0.006189980372830022
-1.808248407643298e-06,0.005115373920456617,0.006189980372830022
-1.788248407643295e-06,0.006451351655170888,-0.01241350534971222
-1.768248407643306e-06,0.005115373920457224,-0.004972111060698709
-1.748248407643302e-06,0.004781379486778049,0.00991067751733847
-1.728248407643299e-06,0.006451351655170888,0.02107276895086382
-1.708248407643296e-06,0.006451351655170888,0.01363137466184692
-1.688248407643293e-06,0.007119340522527417,0.002469283228318189
-1.668248407643303e-06,0.005783362787813752,-0.004972111060695325
-1.6482484076433e-06,0.00611735722149232,-0.001251413916186876
-1.628248407643297e-06,0.006785346088849456,0.006189980372830022
-1.608248407643294e-06,0.008121323823563424,0.01363137466184353
-1.588248407643304e-06,0.007453334956206896,0.006189980372833405
-1.568248407643301e-06,0.00778732938988516,-0.01241350534971222
-1.548248407643298e-06,0.007119340522528024,-0.004972111060695325
-1.528248407643294e-06,0.009123307124598825,0.009910677517335086
-1.508248407643305e-06,0.007787329389885767,0.002469283228324956
-1.488248407643302e-06,0.009123307124599432,0.006189980372830022
-1.468248407643298e-06,0.00778732938988516,-0.008692808205203774
-1.448248407643295e-06,0.007119340522528024,-0.001251413916186876
-1.428248407643306e-06,0.006785346088849608,0.002469283228319881
-1.408248407643302e-06,0.00611735722149232,0.01735207180635537
-1.388248407643299e-06,0.006785346088849456,0.00991067751733847
-1.368248407643296e-06,0.005783362787813752,-0.008692808205203774
-1.348248407643293e-06,0.006117357221492017,0.002469283228330032
-1.328248407643303e-06,0.005449368354135184,0.02107276895086382
-1.3082484076433e-06,0.005783362787813752,0.002469283228321573
-1.288248407643297e-06,0.006785346088849456,0.006189980372830022
-1.268248407643294e-06,0.006451351655170888,-0.01241350534970546
-1.248248407643304e-06,0.006451351655170888,0.002469283228314805
-1.228248407643301e-06,0.007119340522528024,0.00991067751733847
-1.208248407643297e-06,0.006785346088849456,0.01363137466184692
-1.188248407643294e-06,0.008121323823563424,0.00991067751733847
-1.168248407643305e-06,0.007453334956206896,0.00991067751733847
-1.148248407643301e-06,0.007119340522528024,0.01363137466184692
-1.128248407643298e-06,0.007453334956206592,0.01735207180635537
-1.108248407643295e-06,0.007453334956206592,0.02107276895086382
-1.088248407643305e-06,0.007453334956206592,0.0136313746618503
-1.068248407643302e-06,0.007119340522528024,0.00991067751733847
-1.048248407643299e-06,0.007119340522528024,0.00991067751733847
-1.028248407643296e-06,0.008121323823563727,0.02479346609537227
-1.008248407643293e-06,0.007787329389884704,0.01735207180635367
-9.88248407643303e-07,0.006785346088849456,0.01363137466184692
-9.682484076432998e-07,0.00778732938988516,0.01363137466184692
-9.482484076432966e-07,0.006785346088849456,0.01363137466184692
-9.282484076432934e-07,0.007453334956205832,0.0322348603843824
-9.082484076433037e-07,0.005783362787813752,0.01735207180635537
-8.882484076433005e-07,0.00611735722149232,0.01363137466184692
-8.682484076432973e-07,0.00778732938988516,-0.001251413916186876
-8.482484076432941e-07,0.006785346088849608,0.01735207180635706
-8.282484076433045e-07,0.007119340522527873,0.02107276895086212
-8.082484076433013e-07,0.00611735722149232,0.01363137466184692
-7.882484076432981e-07,0.005449368354135184,0.002469283228321573
-7.682484076432949e-07,0.00611735722149232,0.006189980372830022
-7.482484076433053e-07,0.004113390619421824,0.006189980372830022
-7.282484076433021e-07,0.006785346088849456,0.01363137466184692
-7.082484076432989e-07,0.006451351655170888,0.00991067751733847
-6.882484076432957e-07,0.006785346088849456,-0.008692808205203774
-6.682484076432925e-07,0.005115373920456465,-0.01985489963872574
-6.482484076433028e-07,0.004781379486778049,-0.01241350534971222
-6.282484076432996e-07,0.005783362787813752,0.01363137466184692
-6.082484076432964e-07,0.005783362787813752,0.00991067751733847
-5.882484076432932e-07,0.005449368354134881,-0.008692808205205465
-5.682484076433036e-07,0.004781379486778049,-0.01241350534971222
-5.482484076433004e-07,0.005449368354135184,0.006189980372830022
-5.282484076432972e-07,0.00611735722149232,0.01363137466184692
-5.08248407643294e-07,0.006117357221491409,0.009910677517335086
-4.882484076433044e-07,0.004113390619421824,0.002469283228324956
-4.682484076433012e-07,0.005449368354135184,-0.001251413916186876
-4.48248407643298e-07,0.004447385053099481,0.00991067751733847
-4.282484076432948e-07,0.005115373920456617,0.002469283228321573
-4.082484076433051e-07,0.004447385053099785,0.0173520718063486
-3.882484076433019e-07,0.006451351655170888,0.002469283228321573
-3.682484076432987e-07,0.005115373920456617,0.002469283228321573
-3.482484076432955e-07,0.00611735722149232,0.002469283228321573
-3.282484076433059e-07,0.006451351655170736,0.02107276895085536
-3.082484076433027e-07,0.00611735722149232,0.01735207180635537
-2.882484076432995e-07,0.007119340522528024,0.00991067751733847
-2.682484076432963e-07,0.005783362787813752,0.002469283228321573
-2.482484076432931e-07,0.006451351655171495,0.006189980372831714
-2.282484076433035e-07,0.00778732938988516,0.00991067751733847
-2.082484076433003e-07,0.006785346088849456,0.02851416323988071
-1.882484076432971e-07,0.007453334956206592,-0.001251413916186876
-1.682484076432939e-07,0.006451351655171192,0.002469283228324957
-1.482484076433042e-07,0.007119340522527721,0.009910677517335088
-1.28248407643301e-07,0.006785346088849456,0.02851416323988071
-1.082484076432978e-07,0.006785346088849456,0.02851416323988071
-8.824840764329463e-08,0.006785346088849304,0.01735207180635199
-6.824840764330499e-08,0.00645135165517104,0.009910677517341853
-4.824840764330179e-08,0.006785346088849456,0.01363137466184692
-2.82484076432986e-08,0.007119340522528024,0.02851416323988071
-8.248407643295401e-09,-0.005906442390936123,1.033102392257162
1.175159235669424e-08,0.009457301558271012,3.369700199007405
3.175159235669744e-08,0.01212925702770654,3.358538107574943
5.175159235670064e-08,0.009123307124599432,3.351096713285926
7.175159235670383e-08,0.002777412884706641,3.362258804719451
9.175159235670703e-08,0.001441435149993433,3.325051833274353
1.117515923566967e-07,0.003779396185742345,3.295286256118299
1.317515923566999e-07,0.007453334956206592,3.306448347551824
1.517515923567031e-07,0.006785346088849456,3.321331136129858
1.717515923567063e-07,0.005449368354134121,3.33249322756339
1.917515923566959e-07,0.003111407318386273,3.347376016141411
2.117515923566991e-07,0.002443418451028074,3.321331136129858
2.317515923567023e-07,0.005115373920456617,3.310169044696333
2.517515923567055e-07,0.006451351655170433,3.339934621852404
2.717515923566951e-07,0.00544936835413564,3.347376016141414
2.917515923566983e-07,0.004113390619420913,3.351096713285926
3.117515923567015e-07,0.003445401752063777,3.351096713285926
3.317515923567047e-07,0.003779396185742345,3.3399346218524
3.517515923566944e-07,0.005783362787812841,3.351096713285921
3.717515923566976e-07,0.006451351655170888,3.369700199008468
3.917515923567008e-07,0.00611735722149232,3.373420896152977
4.11751592356704e-07,0.005783362787813752,3.358538107574943
4.317515923567072e-07,0.005783362787813904,3.347376016141421
4.517515923566968e-07,0.00611735722149232,3.354817410430434
4.717515923567e-07,0.006785346088849456,3.36597950186396
4.917515923567032e-07,0.007119340522528024,3.373420896152977
5.117515923567064e-07,0.006785346088848696,3.362258804719448
5.31751592356696e-07,0.005115373920457376,3.354817410430438
5.517515923566992e-07,0.006451351655170888,3.362258804719451
5.717515923567024e-07,0.006785346088849456,3.36597950186396
5.917515923567056e-07,0.006117357221492776,3.373420896152975
6.117515923566953e-07,0.007119340522527569,3.36970019900847
6.317515923566985e-07,0.008455318257242295,3.358538107574943
6.517515923567017e-07,0.00611735722149232,3.362258804719451
6.717515923567049e-07,0.007453334956206592,3.380862290441993
6.917515923566945e-07,0.005783362787814512,3.377141593297487
7.117515923566977e-07,0.007119340522528024,3.362258804719451
7.317515923567009e-07,0.00611735722149232,3.362258804719451
7.517515923567041e-07,0.003779396185742345,3.362258804719451
7.717515923567073e-07,0.006117357221491865,3.377141593297481
7.917515923566969e-07,0.005115373920456617,3.369700199008468
8.117515923567001e-07,0.00611735722149232,3.351096713285926
8.317515923567033e-07,0.006785346088849456,3.343655318996909
8.517515923567065e-07,0.006117357221492472,3.358538107574946
8.717515923566962e-07,0.006451351655170736,3.365979501863956
8.917515923566994e-07,0.006785346088849456,3.369700199008468
9.117515923567026e-07,0.00611735722149232,3.354817410430434
9.317515923567058e-07,0.0057833627878136,3.354817410430443
9.517515923566954e-07,0.005449368354135336,3.373420896152968
9.717515923566986e-07,0.006451351655170888,3.377141593297485
9.917515923567018e-07,0.00611735722149232,3.380862290441993
1.011751592356705e-06,0.00778732938988516,3.362258804719451
1.031751592356695e-06,0.006451351655171496,3.365979501863958
1.051751592356698e-06,0.005783362787813752,3.369700199008468
1.071751592356701e-06,0.00778732938988516,3.38830368473101
1.091751592356704e-06,0.006785346088849456,3.380862290441993
1.111751592356707e-06,0.006785346088849152,3.354817410430438
1.131751592356697e-06,0.00611735722149232,3.362258804719451
1.1517515923567e-06,0.006451351655170888,3.377141593297485
1.171751592356703e-06,0.007119340522528024,3.380862290441993
1.191751592356707e-06,0.007453334956206137,3.399465776164524
1.211751592356696e-06,0.006451351655170888,3.373420896152977
1.2317515923567e-06,0.00611735722149232,3.373420896152977
1.251751592356703e-06,0.005449368354135184,3.380862290441993
1.271751592356706e-06,0.005783362787813448,3.384582987586504
1.291751592356696e-06,0.00511537392045692,3.388303684731008
1.311751592356699e-06,0.005115373920456617,3.369700199008468
1.331751592356702e-06,0.004113390619420913,3.369700199008468
1.351751592356705e-06,0.005115373920456617,3.377141593297485
1.371751592356695e-06,0.004447385053099785,3.392024381875512
1.391751592356698e-06,0.004113390619420913,3.380862290441993
1.411751592356701e-06,0.005783362787813752,3.369700199008468
1.431751592356704e-06,0.005783362787813752,3.373420896152977
1.451751592356708e-06,0.005449368354135791,3.365979501863961
1.471751592356697e-06,0.006785346088849456,3.369700199008468
1.4917515923567e-06,0.007453334956206592,3.369700199008468
1.511751592356704e-06,0.006785346088849456,3.347376016141417
1.531751592356707e-06,0.006785346088849304,3.35109671328593
1.551751592356696e-06,0.006451351655170888,3.362258804719451
1.5717515923567e-06,0.006785346088849456,3.377141593297485
1.591751592356703e-06,0.005783362787813752,3.377141593297485
1.611751592356706e-06,0.006785346088848849,3.358538107574938
1.631751592356696e-06,0.005449368354135791,3.347376016141422
1.651751592356699e-06,0.005449368354135184,3.354817410430434
1.671751592356702e-06,0.006785346088849456,3.36597950186396
1.691751592356705e-06,0.006451351655170888,3.36597950186396
1.711751592356695e-06,0.006785346088849304,3.354817410430439
1.731751592356698e-06,0.006451351655170888,3.358538107574943
1.751751592356701e-06,0.005783362787813752,3.347376016141417
1.771751592356704e-06,0.007119340522528024,3.373420896152977
1.791751592356694e-06,0.006451351655171192,3.377141593297483
1.811751592356697e-06,0.006785346088849456,3.354817410430434
1.831751592356701e-06,0.007453334956206592,3.358538107574943
1.851751592356704e-06,0.006451351655170888,3.373420896152977
1.871751592356707e-06,0.006785346088849759,3.377141593297481
1.891751592356697e-06,0.007453334956206592,3.369700199008468
1.9117515923567e-06,0.006785346088849456,3.36597950186396
1.931751592356703e-06,0.006451351655170888,3.362258804719451
1.951751592356706e-06,0.006117357221492928,3.36597950186397
1.971751592356696e-06,0.007453334956205985,3.388303684731
1.991751592356699e-06,0.00778732938988516,3.36597950186396
2.011751592356702e-06,0.008789312690920863,3.369700199008468
2.031751592356705e-06,0.008121323823562968,3.354817410430441
2.051751592356695e-06,0.006451351655171647,3.369700199008461
2.071751592356698e-06,0.007453334956206592,3.384582987586502
2.091751592356701e-06,0.00778732938988516,3.373420896152977
2.111751592356705e-06,0.008789312690920863,3.36597950186396
2.131751592356694e-06,0.008121323823564031,3.358538107574946
2.151751592356697e-06,0.007119340522528024,3.36597950186396
2.171751592356701e-06,0.007453334956206592,3.380862290441993
2.191751592356704e-06,0.007453334956206592,3.380862290441993
2.211751592356707e-06,0.006785346088849911,3.365979501863956
2.231751592356697e-06,0.00778732938988516,3.358538107574943
2.2517515923567e-06,0.008121323823563727,3.369700199008468
2.271751592356703e-06,0.008789312690920863,3.38830368473101
2.291751592356706e-06,0.008789312690921015,3.37714159329748
2.311751592356696e-06,0.009123307124599279,3.365979501863964
2.331751592356699e-06,0.007119340522528024,3.362258804719451
2.351751592356702e-06,0.007453334956206592,3.373420896152977
2.371751592356706e-06,0.008455318257241991,3.377141593297488
2.391751592356695e-06,0.007787329389885463,3.384582987586498
2.411751592356698e-06,0.008121323823563727,3.358538107574943
2.431751592356702e-06,0.008121323823563727,3.354817410430434
2.451751592356705e-06,0.006785346088849456,3.373420896152977
2.471751592356694e-06,0.007453334956206288,3.38086229044199
2.491751592356698e-06,0.007453334956206592,3.392024381875518
2.511751592356701e-06,0.008121323823563727,3.36597950186396
2.531751592356704e-06,0.008121323823563727,3.373420896152977
2.551751592356707e-06,0.008455318257242448,3.377141593297487
2.571751592356697e-06,0.008789312690920863,3.380862290441993
2.5917515923567e-06,0.00778732938988516,3.377141593297485
2.611751592356703e-06,0.006785346088849456,3.369700199008468
2.631751592356706e-06,0.006451351655170585,3.358538107574951
2.651751592356696e-06,0.005783362787814056,3.377141593297476
2.671751592356699e-06,0.00611735722149232,3.384582987586502
2.691751592356702e-06,0.005115373920456617,3.384582987586502
2.711751592356706e-06,0.005449368354134881,3.373420896152972
2.731751592356695e-06,0.004781379486778353,3.362258804719456
2.751751592356699e-06,0.005783362787813752,3.380862290441993
2.771751592356702e-06,0.00778732938988516,3.384582987586502
2.791751592356705e-06,0.005115373920456617,3.380862290441993
2.811751592356695e-06,0.005783362787813448,3.377141593297487
2.831751592356698e-06,0.005783362787813752,3.369700199008468
2.851751592356701e-06,0.005115373920456617,3.380862290441993
2.871751592356704e-06,0.005783362787813752,3.384582987586502
2.891751592356707e-06,0.003779396185742497,3.377141593297483
2.911751592356697e-06,0.004113390619420913,3.373420896152977
2.9317515923567e-06,0.004447385053099481,3.377141593297485
2.951751592356703e-06,0.003779396185742345,3.380862290441993
2.971751592356707e-06,0.005449368354134424,3.403186473309039
2.991751592356696e-06,0.003779396185743104,3.392024381875523
3.011751592356699e-06,0.004447385053099481,3.377141593297485
3.031751592356703e-06,0.005115373920456617,3.38830368473101
3.051751592356706e-06,0.006451351655170888,3.40318647330904
3.071751592356695e-06,0.006451351655170888,3.395745079020031
3.091751592356699e-06,0.006785346088849456,3.38830368473101
3.111751592356702e-06,0.00611735722149232,3.392024381875518
3.131751592356705e-06,0.00611735722149232,3.373420896152977
3.151751592356695e-06,0.005449368354135488,3.384582987586497
3.171751592356698e-06,0.006451351655170888,3.403186473309044
3.191751592356701e-06,0.005783362787813752,3.395745079020027
3.211751592356704e-06,0.005783362787813752,3.384582987586502
3.231751592356707e-06,0.005449368354135033,3.3845829875865
3.251751592356697e-06,0.005115373920456617,3.380862290441993
3.2717515923567e-06,0.005115373920456617,3.392024381875518
3.291751592356703e-06,0.005449368354135184,3.392024381875518
3.311751592356707e-06,0.005449368354135184,3.377141593297483
3.331751592356696e-06,0.005449368354135184,3.373420896152977
3.3517515923567e-06,0.005115373920456617,3.380862290441993
3.371751592356703e-06,0.005449368354135184,3.392024381875518
3.391751592356706e-06,0.0057833627878136,3.380862290441988
3.411751592356696e-06,0.005449368354135336,3.369700199008473
3.431751592356699e-06,0.005449368354135184,3.36597950186396
3.451751592356702e-06,0.00611735722149232,3.36597950186396
3.471751592356705e-06,0.005449368354135184,3.377141593297485
3.491751592356695e-06,0.006117357221492017,3.362258804719458
3.511751592356698e-06,0.006785346088849456,3.362258804719451
3.531751592356701e-06,0.006451351655170888,3.336213924707892
3.551751592356704e-06,0.005449368354135184,3.336213924707892
3.571751592356694e-06,0.006451351655170433,3.354817410430426
3.591751592356697e-06,0.007119340522528024,3.351096713285926
3.6117515923567e-06,0.007453334956206592,3.354817410430434
3.631751592356704e-06,0.006451351655170888,3.347376016141417
3.651751592356707e-06,0.007453334956206592,3.35109671328593
3.671751592356696e-06,0.007453334956206592,3.362258804719451
3.6917515923567e-06,0.006451351655170888,3.369700199008468
3.711751592356703e-06,0.007453334956206592,3.354817410430434
3.731751592356706e-06,0.006451351655170736,3.347376016141422
3.751751592356696e-06,0.006117357221492472,3.358538107574938
3.771751592356699e-06,0.007119340522528024,3.377141593297485
3.791751592356702e-06,0.006451351655170888,3.380862290441993
3.811751592356705e-06,0.008121323823563727,3.351096713285926
3.831751592356695e-06,0.007453334956206896,3.343655318996912
3.851751592356698e-06,0.006785346088849456,3.358538107574943
3.871751592356701e-06,0.007453334956206592,3.369700199008468
3.891751592356705e-06,0.007453334956206592,3.369700199008468
3.911751592356694e-06,0.008121323823563424,3.358538107574947
3.931751592356697e-06,0.007453334956206592,3.351096713285926
3.951751592356701e-06,0.007119340522528024,3.36597950186396
3.971751592356704e-06,0.006785346088849456,3.354817410430434
3.991751592356707e-06,0.006785346088849911,3.365979501863955
4.011751592356697e-06,0.00778732938988516,3.354817410430434
4.0317515923567e-06,0.008121323823563727,3.3399346218524
4.051751592356703e-06,0.008121323823563727,3.362258804719451
4.071751592356706e-06,0.007119340522528176,3.347376016141421
4.091751592356696e-06,0.00745333495620644,3.354817410430431
4.111751592356699e-06,0.007119340522528024,3.347376016141417
4.131751592356702e-06,0.00611735722149232,3.351096713285926
4.151751592356705e-06,0.00611735722149232,3.347376016141426
4.171751592356695e-06,0.00611735722149232,3.365979501863951
4.191751592356698e-06,0.005449368354135184,3.362258804719451
4.211751592356701e-06,0.006451351655170888,3.354817410430434
4.231751592356705e-06,0.00611735722149232,3.351096713285926
4.251751592356694e-06,0.005449368354135488,3.365979501863953
4.271751592356698e-06,0.00611735722149232,3.36597950186396
4.291751592356701e-06,0.007119340522528024,3.373420896152977
4.311751592356704e-06,0.006785346088849456,3.36597950186396
4.331751592356707e-06,0.006785346088849456,3.365979501863961
4.351751592356697e-06,0.006785346088849456,3.369700199008468
4.3717515923567e-06,0.005783362787813752,3.373420896152977
4.391751592356703e-06,0.006785346088849456,3.384582987586502
