traces_bank_current_trigger/benchmark_traces/matrix_conv_50MHz/conv_7.csv

#Digilent WaveForms Oscilloscope Acquisition
#Device Name: Discovery2
#Serial Number: SN:210321B3D813
#Date Time: 2023-07-13 10:48:15.137
#Sample rate: 5e+07Hz
#Samples: 8192
#Trigger: Source: Channel 2 Type: Edge Condition: Rising Level: 2 V Hyst.: Auto HoldOff: 0 s
#Channel 1: Range: 10 mV/div Offset: 0 V Attenuation: 1 X Sample Mode: Average
#Channel 2: Range: 5 V/div Offset: 0 V Attenuation: 1 X Sample Mode: Average

Time (s),Channel 1 (V),Channel 2 (V)
-1.912881355932197e-06,0.005115373920456617,0.01735207180635537
-1.892881355932194e-06,0.004781379486778049,0.02851416323988071
-1.872881355932191e-06,0.005449368354134729,0.02851416323987902
-1.852881355932201e-06,0.004447385053099937,0.02479346609537396
-1.832881355932198e-06,0.006451351655170888,0.01363137466184692
-1.812881355932195e-06,0.005115373920456617,0.006189980372830022
-1.792881355932192e-06,0.005449368354135184,0.02851416323988071
-1.772881355932202e-06,0.0057833627878136,0.01363137466185369
-1.752881355932199e-06,0.005449368354135184,0.01363137466184692
-1.732881355932196e-06,0.004447385053099481,0.002469283228321573
-1.712881355932192e-06,0.004113390619420913,0.002469283228321573
-1.692881355932189e-06,0.005449368354135944,0.006189980372835097
-1.672881355932199e-06,0.007119340522528024,0.01735207180635537
-1.652881355932196e-06,0.007119340522528024,0.01735207180635537
-1.632881355932193e-06,0.007119340522528024,0.002469283228321573
-1.61288135593219e-06,0.007119340522528328,-0.004972111060686865
-1.5928813559322e-06,0.007787329389884856,0.01363137466183846
-1.572881355932197e-06,0.007453334956206592,0.02851416323988071
-1.552881355932194e-06,0.006451351655170888,0.006189980372830022
-1.532881355932191e-06,0.007787329389885008,0.002469283228314805
-1.512881355932201e-06,0.007453334956206744,-0.01241350534970546
-1.492881355932198e-06,0.00778732938988516,0.00991067751733847
-1.472881355932195e-06,0.008121323823563727,0.01735207180635537
-1.452881355932191e-06,0.007119340522528024,0.002469283228321573
-1.432881355932202e-06,0.00745333495620644,-0.004972111060691941
-1.412881355932199e-06,0.005449368354135184,-0.008692808205203774
-1.392881355932195e-06,0.005449368354135184,0.002469283228321573
-1.372881355932192e-06,0.00611735722149232,0.01363137466184692
-1.352881355932189e-06,0.005783362787814056,0.006189980372828329
-1.332881355932199e-06,0.006451351655170888,0.002469283228321573
-1.312881355932196e-06,0.005783362787813752,0.01363137466184692
-1.292881355932193e-06,0.005115373920456617,0.02479346609537227
-1.27288135593219e-06,0.00645135165517104,0.03595555752889423
-1.2528813559322e-06,0.006785346088849304,0.0285141632398841
-1.232881355932197e-06,0.006451351655170888,0.01363137466184692
-1.212881355932194e-06,0.008121323823563727,0.00991067751733847
-1.192881355932191e-06,0.006117357221493232,0.02851416323988579
-1.172881355932201e-06,0.008121323823562817,0.03967625467340098
-1.152881355932198e-06,0.00778732938988516,0.03967625467340606
-1.132881355932194e-06,0.007453334956206592,0.01363137466184692
-1.112881355932191e-06,0.008121323823563727,0.01363137466184692
-1.092881355932202e-06,0.008455318257242142,0.02479346609536719
-1.072881355932198e-06,0.007453334956206592,0.02851416323988071
-1.052881355932195e-06,0.008455318257242295,0.01363137466184692
-1.032881355932192e-06,0.00778732938988516,0.006189980372830022
-1.012881355932189e-06,0.008121323823563727,-0.004972111060683481
-9.928813559321992e-07,0.008121323823563727,0.02107276895086382
-9.72881355932196e-07,0.00778732938988516,0.02851416323988071
-9.528813559321928e-07,0.00778732938988516,0.02107276895086382
-9.328813559321896e-07,0.007119340522527721,0.0173520718063486
-9.128813559322e-07,0.006451351655170888,0.002469283228321573
-8.928813559321968e-07,0.006451351655170888,0.02107276895086382
-8.728813559321936e-07,0.006451351655170888,0.02479346609537227
-8.528813559321904e-07,0.006117357221492776,0.02107276895085028
-8.328813559322008e-07,0.007119340522527569,-0.00869280820519024
-8.128813559321976e-07,0.005449368354135184,-0.004972111060695325
-7.928813559321944e-07,0.00611735722149232,0.02479346609537227
-7.728813559321912e-07,0.006785346088849456,0.02107276895086382
-7.528813559322015e-07,0.005449368354135791,0.009910677517343546
-7.328813559321983e-07,0.006785346088849456,0.006189980372830022
-7.128813559321951e-07,0.006451351655170888,-0.008692808205203774
-6.928813559321919e-07,0.007119340522528024,-0.004972111060695325
-6.728813559321887e-07,0.006451351655170585,0.006189980372824946
-6.528813559321991e-07,0.005783362787813752,-0.004972111060695325
-6.328813559321959e-07,0.005783362787813752,-0.004972111060695325
-6.128813559321927e-07,0.006785346088849456,-0.004972111060695325
-5.928813559321895e-07,0.005783362787814056,0.006189980372830022
-5.728813559321999e-07,0.006451351655170888,0.006189980372830022
-5.528813559321967e-07,0.005783362787813752,0.006189980372830022
-5.328813559321935e-07,0.008121323823563727,-0.001251413916186876
-5.128813559321903e-07,0.006117357221492624,-0.008692808205200389
-4.928813559322006e-07,0.006785346088849152,-0.00125141391619026
-4.728813559321974e-07,0.00611735722149232,0.02107276895086382
-4.528813559321942e-07,0.006785346088849456,0.01363137466184692
-4.32881355932191e-07,0.007119340522528024,-0.004972111060695325
-4.128813559322014e-07,0.005115373920457527,0.002469283228318189
-3.928813559321982e-07,0.005783362787813752,0.006189980372830022
-3.72881355932195e-07,0.00611735722149232,0.01735207180635537
-3.528813559321918e-07,0.006785346088849456,0.00991067751733847
-3.328813559322022e-07,0.005783362787814207,-0.01613420249420883
-3.12881355932199e-07,0.00611735722149232,-0.008692808205203774
-2.928813559321958e-07,0.007453334956206592,0.006189980372830022
-2.728813559321926e-07,0.008121323823563727,0.00991067751733847
-2.528813559321894e-07,0.006785346088849608,0.009910677517336779
-2.328813559321997e-07,0.007119340522528024,0.006189980372830022
-2.128813559321965e-07,0.007119340522528024,-0.001251413916186876
-1.928813559321933e-07,0.005783362787813752,0.002469283228321573
-1.728813559321901e-07,0.006117357221491865,0.02107276895085874
-1.528813559322005e-07,0.005115373920457072,0.009910677517343546
-1.328813559321973e-07,0.006451351655170888,0.01735207180635537
-1.128813559321941e-07,0.00611735722149232,0.00991067751733847
-9.28813559321909e-08,0.00544936835413564,0.009910677517346931
-7.288135593220126e-08,0.006451351655170433,0.02851416323987226
-5.288135593219806e-08,0.004781379486778049,0.02107276895086382
-3.288135593219486e-08,0.005115373920456617,0.006189980372830022
-1.288135593219167e-08,0.004781379486778049,0.01735207180635537
7.118644067797978e-09,0.001775429583672305,3.090647913168937
2.711864406780117e-08,0.007119340522528024,3.22087231322813
4.711864406780437e-08,0.009123307124599432,3.295286256118299
6.711864406780757e-08,0.002109424017349506,3.332493227563384
8.711864406781076e-08,0.001775429583670482,3.336213924707888
1.071186440678004e-07,0.0007734462826352341,3.328772530418875
1.271186440678036e-07,0.006451351655170888,3.3399346218524
1.471186440678068e-07,0.006451351655170888,3.3399346218524
1.6711864406781e-07,0.006451351655168761,3.332493227563394
1.871186440677996e-07,0.001775429583673064,3.354817410430424
2.071186440678028e-07,0.003111407318385209,3.3399346218524
2.27118644067806e-07,0.004113390619420913,3.347376016141417
2.471186440678092e-07,0.005783362787813904,3.332493227563385
2.671186440677989e-07,0.006117357221492169,3.33621392470789
2.871186440678021e-07,0.005115373920456617,3.343655318996909
3.071186440678053e-07,0.002443418451028074,3.351096713285926
3.271186440678085e-07,0.003779396185742345,3.362258804719451
3.471186440677981e-07,0.004781379486777594,3.35109671328593
3.671186440678013e-07,0.00611735722149232,3.351096713285926
3.871186440678045e-07,0.005783362787813752,3.343655318996909
4.071186440678077e-07,0.004781379486778049,3.362258804719451
4.271186440678109e-07,0.004781379486778201,3.380862290441983
4.471186440678005e-07,0.005115373920456617,3.358538107574943
4.671186440678037e-07,0.00611735722149232,3.351096713285926
4.871186440678069e-07,0.005783362787813752,3.354817410430434
5.071186440678101e-07,0.005783362787813448,3.358538107574946
5.271186440677998e-07,0.00511537392045692,3.365979501863956
5.47118644067803e-07,0.004447385053099481,3.373420896152977
5.671186440678062e-07,0.005115373920456617,3.354817410430434
5.871186440678094e-07,0.00511537392045692,3.358538107574947
6.07118644067799e-07,0.005783362787813448,3.369700199008463
6.271186440678022e-07,0.007119340522528024,3.373420896152977
6.471186440678054e-07,0.00611735722149232,3.358538107574943
6.671186440678086e-07,0.00778732938988516,3.343655318996909
6.871186440677982e-07,0.007453334956206744,3.347376016141415
7.071186440678014e-07,0.008121323823563727,3.373420896152977
7.271186440678046e-07,0.008789312690920863,3.373420896152977
7.471186440678078e-07,0.007119340522528024,3.36597950186396
7.67118644067811e-07,0.006785346088849152,3.362258804719453
7.871186440678007e-07,0.00611735722149232,3.36597950186396
8.071186440678039e-07,0.006451351655170888,3.373420896152977
8.271186440678071e-07,0.008121323823563727,3.36597950186396
8.471186440678103e-07,0.006451351655171952,3.36597950186396
8.671186440677999e-07,0.008789312690919799,3.36597950186396
8.871186440678031e-07,0.008455318257242295,3.354817410430434
9.071186440678063e-07,0.00778732938988516,3.380862290441993
9.271186440678095e-07,0.00812132382356388,3.384582987586498
9.471186440677991e-07,0.008455318257242142,3.377141593297488
9.671186440678023e-07,0.00778732938988516,3.373420896152977
9.871186440678055e-07,0.00778732938988516,3.36597950186396
1.007118644067809e-06,0.008121323823563727,3.380862290441993
1.027118644067798e-06,0.009457301558277393,3.380862290441993
1.047118644067802e-06,0.009791295991956567,3.380862290441993
1.067118644067805e-06,0.008455318257242295,3.373420896152977
1.087118644067808e-06,0.008455318257242295,3.373420896152977
1.107118644067811e-06,0.00711934052252848,3.373420896152989
1.127118644067801e-06,0.008121323823563727,3.399465776164535
1.147118644067804e-06,0.008455318257242295,3.384582987586502
1.167118644067807e-06,0.008455318257242295,3.380862290441993
1.18711864406781e-06,0.007787329389884856,3.373420896152983
1.2071186440678e-06,0.007119340522528024,3.38830368473101
1.227118644067803e-06,0.006451351655170888,3.392024381875518
1.247118644067806e-06,0.006785346088849456,3.384582987586502
1.26711864406781e-06,0.005783362787814664,3.377141593297483
1.287118644067799e-06,0.007787329389884249,3.373420896152978
1.307118644067802e-06,0.006785346088849456,3.380862290441993
1.327118644067806e-06,0.006451351655170888,3.38830368473101
1.347118644067809e-06,0.006785346088849456,3.373420896152977
1.367118644067799e-06,0.007119340522527873,3.365979501863963
1.387118644067802e-06,0.006785346088849456,3.362258804719451
1.407118644067805e-06,0.007119340522528024,3.369700199008468
1.427118644067808e-06,0.008455318257242295,3.384582987586502
1.447118644067811e-06,0.007787329389885463,3.380862290441985
1.467118644067801e-06,0.008455318257242295,3.362258804719451
1.487118644067804e-06,0.009123307124599432,3.358538107574943
1.507118644067807e-06,0.008121323823563727,3.373420896152977
1.527118644067811e-06,0.009791295991956111,3.395745079020017
1.5471186440678e-06,0.008789312690920863,3.373420896152977
1.567118644067803e-06,0.009123307124599432,3.373420896152977
1.587118644067807e-06,0.008455318257242295,3.351096713285926
1.60711864406781e-06,0.008121323823564335,3.37342089615298
1.627118644067799e-06,0.009457301558277393,3.38086229044199
1.647118644067803e-06,0.008121323823563727,3.358538107574943
1.667118644067806e-06,0.008121323823563727,3.354817410430434
1.687118644067809e-06,0.008789312690920863,3.358538107574943
1.707118644067799e-06,0.009123307124599279,3.37342089615297
1.727118644067802e-06,0.008789312690920863,3.373420896152977
1.747118644067805e-06,0.008121323823563727,3.362258804719451
1.767118644067808e-06,0.008789312690920863,3.351096713285926
1.787118644067798e-06,0.009123307124599279,3.358538107574939
1.807118644067801e-06,0.008455318257242295,3.377141593297485
1.827118644067804e-06,0.008789312690920863,3.377141593297485
1.847118644067807e-06,0.008789312690920863,3.369700199008468
1.867118644067811e-06,0.00778732938988516,3.369700199008463
1.8871186440678e-06,0.00778732938988516,3.358538107574943
1.907118644067804e-06,0.007453334956206592,3.377141593297485
1.927118644067807e-06,0.007453334956206592,3.384582987586502
1.94711864406781e-06,0.006785346088849911,3.384582987586497
1.9671186440678e-06,0.007787329389884704,3.373420896152981
1.987118644067803e-06,0.008789312690920863,3.362258804719451
2.007118644067806e-06,0.008121323823563727,3.373420896152977
2.027118644067809e-06,0.007787329389885463,3.384582987586495
2.047118644067799e-06,0.008455318257241991,3.369700199008475
2.067118644067802e-06,0.008455318257242295,3.373420896152977
2.087118644067805e-06,0.008789312690920863,3.369700199008468
2.107118644067808e-06,0.008789312690920863,3.380862290441993
2.127118644067798e-06,0.008455318257242448,3.395745079020021
2.147118644067801e-06,0.00778732938988516,3.392024381875518
2.167118644067804e-06,0.007453334956206592,3.380862290441993
2.187118644067808e-06,0.007119340522528024,3.384582987586502
2.207118644067811e-06,0.00711934052252848,3.38830368473101
2.2271186440678e-06,0.008121323823563727,3.38830368473101
2.247118644067804e-06,0.007119340522528024,3.395745079020027
2.267118644067807e-06,0.008455318257242295,3.377141593297485
2.28711864406781e-06,0.009123307124598976,3.373420896152985
2.3071186440678e-06,0.008121323823564184,3.39202438187551
2.327118644067803e-06,0.008455318257242295,3.384582987586502
2.347118644067806e-06,0.008455318257242295,3.392024381875518
2.367118644067809e-06,0.008455318257242142,3.377141593297483
2.387118644067799e-06,0.00812132382356388,3.373420896152978
2.407118644067802e-06,0.007453334956206592,3.38830368473101
2.427118644067805e-06,0.006451351655170888,3.399465776164535
2.447118644067808e-06,0.005783362787813752,3.392024381875518
2.467118644067798e-06,0.006451351655170585,3.380862290441998
2.487118644067801e-06,0.00611735722149232,3.377141593297485
2.507118644067805e-06,0.006451351655170888,3.373420896152977
2.527118644067808e-06,0.007119340522528024,3.395745079020027
2.547118644067811e-06,0.008121323823563271,3.399465776164524
2.567118644067801e-06,0.007119340522528024,3.373420896152977
2.587118644067804e-06,0.008455318257242295,3.369700199008468
2.607118644067807e-06,0.007119340522528024,3.373420896152977
2.62711864406781e-06,0.00812132382356312,3.3845829875865
2.6471186440678e-06,0.006785346088850064,3.380862290441995
2.667118644067803e-06,0.007453334956206592,3.36597950186396
2.687118644067806e-06,0.00611735722149232,3.369700199008468
2.707118644067809e-06,0.004781379486779264,3.38830368473101
2.727118644067799e-06,0.007453334956205377,3.38830368473101
2.747118644067802e-06,0.005783362787813752,3.373420896152977
2.767118644067805e-06,0.006451351655170888,3.36597950186396
2.787118644067809e-06,0.007453334956206592,3.358538107574943
2.807118644067798e-06,0.007453334956206592,3.380862290441983
2.827118644067801e-06,0.007119340522528024,3.395745079020027
2.847118644067805e-06,0.00611735722149232,3.380862290441993
2.867118644067808e-06,0.007119340522528024,3.369700199008468
2.887118644067811e-06,0.005783362787813904,3.358538107574949
2.907118644067801e-06,0.00611735722149232,3.373420896152977
2.927118644067804e-06,0.006451351655170888,3.384582987586502
2.947118644067807e-06,0.005783362787813752,3.369700199008468
2.96711864406781e-06,0.006785346088848849,3.362258804719449
2.9871186440678e-06,0.005449368354135791,3.358538107574944
3.007118644067803e-06,0.005449368354135184,3.377141593297485
3.027118644067806e-06,0.00611735722149232,3.384582987586502
3.04711864406781e-06,0.006117357221493384,3.37714159329748
3.067118644067799e-06,0.008455318257241232,3.365979501863964
3.087118644067802e-06,0.00778732938988516,3.358538107574943
3.107118644067806e-06,0.006785346088849456,3.362258804719451
3.127118644067809e-06,0.007453334956206592,3.38830368473101
3.147118644067798e-06,0.006117357221492929,3.358538107574956
3.167118644067802e-06,0.007453334956206592,3.358538107574943
3.187118644067805e-06,0.00611735722149232,3.354817410430434
3.207118644067808e-06,0.004781379486778049,3.36597950186396
3.227118644067811e-06,0.006117357221492169,3.37714159329748
3.247118644067801e-06,0.005783362787813752,3.36597950186396
3.267118644067804e-06,0.005449368354135184,3.358538107574943
3.287118644067807e-06,0.005783362787813752,3.347376016141417
3.30711864406781e-06,0.005783362787813752,3.37342089615298
3.3271186440678e-06,0.005783362787813752,3.380862290441993
3.347118644067803e-06,0.00611735722149232,3.377141593297485
3.367118644067806e-06,0.00611735722149232,3.36597950186396
3.38711864406781e-06,0.006117357221492017,3.369700199008466
3.407118644067799e-06,0.005449368354135488,3.365979501863961
3.427118644067803e-06,0.005783362787813752,3.36597950186396
3.447118644067806e-06,0.00611735722149232,3.377141593297485
3.467118644067809e-06,0.00611735722149232,3.358538107574943
3.487118644067799e-06,0.005449368354135488,3.358538107574943
3.507118644067802e-06,0.006451351655170888,3.369700199008468
3.527118644067805e-06,0.006451351655170888,3.392024381875518
3.547118644067808e-06,0.00611735722149232,3.377141593297485
3.567118644067798e-06,0.005783362787813904,3.365979501863964
3.587118644067801e-06,0.005115373920456617,3.369700199008468
3.607118644067804e-06,0.00611735722149232,3.384582987586502
3.627118644067807e-06,0.005783362787813752,3.373420896152977
3.647118644067811e-06,0.005115373920457376,3.369700199008466
3.6671186440678e-06,0.006785346088849456,3.36597950186396
3.687118644067803e-06,0.00611735722149232,3.358538107574943
3.707118644067807e-06,0.00611735722149232,3.36597950186396
3.72711864406781e-06,0.006451351655170281,3.380862290441993
3.747118644067799e-06,0.005115373920457224,3.380862290441993
3.767118644067803e-06,0.00611735722149232,3.369700199008468
3.787118644067806e-06,0.005449368354135184,3.36597950186396
3.807118644067809e-06,0.006451351655170888,3.380862290441993
3.827118644067799e-06,0.007119340522527721,3.3845829875865
3.847118644067802e-06,0.00778732938988516,3.373420896152977
3.867118644067805e-06,0.007119340522528024,3.36597950186396
3.887118644067808e-06,0.00611735722149232,3.36597950186396
3.907118644067798e-06,0.006785346088849152,3.380862290441986
3.927118644067801e-06,0.007453334956206592,3.392024381875518
3.947118644067804e-06,0.007453334956206592,3.369700199008468
3.967118644067807e-06,0.007119340522528024,3.369700199008468
3.987118644067811e-06,0.006785346088849456,3.369700199008475
4.0071186440678e-06,0.006785346088849456,3.384582987586502
4.027118644067804e-06,0.00778732938988516,3.392024381875518
4.047118644067807e-06,0.00778732938988516,3.377141593297485
4.06711864406781e-06,0.006785346088849759,3.369700199008464
4.0871186440678e-06,0.007453334956206288,3.362258804719455
4.107118644067803e-06,0.006785346088849456,3.38830368473101
4.127118644067806e-06,0.006785346088849456,3.377141593297485
4.147118644067809e-06,0.006117357221492472,3.369700199008468
4.167118644067799e-06,0.006451351655170736,3.369700199008468
4.187118644067802e-06,0.00611735722149232,3.362258804719451
4.207118644067805e-06,0.005115373920456617,3.38830368473101
4.227118644067808e-06,0.004781379486778049,3.377141593297485
4.247118644067798e-06,0.005115373920456465,3.377141593297485
4.267118644067801e-06,0.007453334956206592,3.36597950186396
4.287118644067804e-06,0.006451351655170888,3.358538107574943
4.307118644067808e-06,0.005783362787813752,3.369700199008468
4.327118644067811e-06,0.006785346088849304,3.38086229044199
4.3471186440678e-06,0.006451351655170888,3.373420896152977
4.367118644067804e-06,0.007119340522528024,3.36597950186396
4.387118644067807e-06,0.005449368354135184,3.362258804719451
4.40711864406781e-06,0.005449368354134577,3.373420896152983
