traces_bank_current_trigger/benchmark_traces/median_filter_50MHz/median_4.csv

#Digilent WaveForms Oscilloscope Acquisition
#Device Name: Discovery2
#Serial Number: SN:210321B3D813
#Date Time: 2023-07-13 11:30:48.395
#Sample rate: 5e+07Hz
#Samples: 8192
#Trigger: Source: Channel 2 Type: Edge Condition: Rising Level: 2 V Hyst.: Auto HoldOff: 0 s
#Channel 1: Range: 10 mV/div Offset: 0 V Attenuation: 1 X Sample Mode: Average
#Channel 2: Range: 5 V/div Offset: 0 V Attenuation: 1 X Sample Mode: Average

Time (s),Channel 1 (V),Channel 2 (V)
-1.909947368421041e-06,0.006785346088849456,0.01363137466184692
-1.889947368421038e-06,0.009123307124599432,0.01735207180635537
-1.869947368421035e-06,0.006785346088849911,-0.01241350534970884
-1.849947368421045e-06,0.007787329389884704,-0.004972111060698709
-1.829947368421042e-06,0.006451351655170888,-0.01241350534971222
-1.809947368421039e-06,0.006451351655170888,0.006189980372830022
-1.789947368421036e-06,0.007453334956206592,0.006189980372830022
-1.769947368421046e-06,0.006785346088849759,0.002469283228323264
-1.749947368421043e-06,0.005449368354135184,-0.02357559678323757
-1.72994736842104e-06,0.00611735722149232,0.002469283228321573
-1.709947368421037e-06,0.005783362787813752,0.006189980372830022
-1.689947368421033e-06,0.00611735722149232,0.002469283228318189
-1.669947368421044e-06,0.00611735722149232,-0.004972111060695325
-1.649947368421041e-06,0.005449368354135184,-0.01613420249422067
-1.629947368421037e-06,0.004781379486778049,-0.001251413916186876
-1.609947368421034e-06,0.005449368354135336,0.009910677517341855
-1.589947368421045e-06,0.0057833627878136,0.01735207180635199
-1.569947368421041e-06,0.005449368354135184,-0.008692808205203774
-1.549947368421038e-06,0.005783362787813752,-0.01613420249422067
-1.529947368421035e-06,0.006785346088849,-0.001251413916188568
-1.509947368421045e-06,0.005783362787814207,-0.004972111060693634
-1.489947368421042e-06,0.00778732938988516,0.01363137466184692
-1.469947368421039e-06,0.00778732938988516,0.006189980372830022
-1.449947368421036e-06,0.006785346088849456,-0.004972111060695325
-1.429947368421046e-06,0.007119340522527873,0.006189980372824946
-1.409947368421043e-06,0.005449368354135184,0.00991067751733847
-1.38994736842104e-06,0.007119340522528024,0.01735207180635537
-1.369947368421036e-06,0.006785346088849456,0.01363137466184692
-1.349947368421033e-06,0.005115373920456465,0.002469283228326648
-1.329947368421044e-06,0.004781379486778049,0.01363137466184692
-1.30994736842104e-06,0.005449368354135184,0.006189980372830022
-1.289947368421037e-06,0.005449368354135184,0.02479346609537227
-1.269947368421034e-06,0.004781379486778656,0.002469283228321573
-1.249947368421044e-06,0.006117357221491712,0.002469283228321573
-1.229947368421041e-06,0.006785346088849456,0.01735207180635537
-1.209947368421038e-06,0.005783362787813752,0.02107276895086382
-1.189947368421035e-06,0.006785346088848696,0.01735207180634522
-1.169947368421045e-06,0.005115373920457376,-0.004972111060685173
-1.149947368421042e-06,0.006451351655170888,-0.008692808205203774
-1.129947368421039e-06,0.006451351655170888,0.01363137466184692
-1.109947368421036e-06,0.006451351655170888,0.00991067751733847
-1.089947368421046e-06,0.007453334956206137,-0.004972111060688558
-1.069947368421043e-06,0.007119340522528024,-0.01985489963872912
-1.04994736842104e-06,0.007119340522528024,-0.01985489963872912
-1.029947368421036e-06,0.006785346088849456,-0.004972111060695325
-1.009947368421033e-06,0.007119340522528784,0.01363137466184353
-9.899473684210435e-07,0.008789312690920863,0.006189980372830022
-9.699473684210403e-07,0.007453334956206592,0.002469283228321573
-9.499473684210371e-07,0.006785346088849456,-0.01613420249422067
-9.299473684210339e-07,0.007119340522527721,-0.004972111060686865
-9.099473684210442e-07,0.006451351655170888,0.01363137466184692
-8.899473684210411e-07,0.007119340522528024,0.01735207180635537
-8.699473684210379e-07,0.006785346088849456,0.00991067751733847
-8.499473684210347e-07,0.005783362787814359,-0.01241350534970207
-8.29947368421045e-07,0.007119340522527417,0.009910677517328319
-8.099473684210418e-07,0.006451351655170888,0.02107276895086382
-7.899473684210386e-07,0.007119340522528024,0.00991067751733847
-7.699473684210354e-07,0.005783362787813752,0.002469283228321573
-7.499473684210458e-07,0.007119340522527417,-0.004972111060691941
-7.299473684210426e-07,0.00778732938988516,0.002469283228321573
-7.099473684210394e-07,0.005449368354135184,0.00991067751733847
-6.899473684210362e-07,0.00611735722149232,0.00991067751733847
-6.69947368421033e-07,0.005449368354135336,0.006189980372830022
-6.499473684210434e-07,0.005783362787813752,0.006189980372830022
-6.299473684210402e-07,0.005449368354135184,-0.008692808205203774
-6.09947368421037e-07,0.005449368354135184,0.01735207180635537
-5.899473684210338e-07,0.007119340522527417,0.01363137466184523
-5.699473684210441e-07,0.005783362787813752,0.00991067751733847
-5.499473684210409e-07,0.006451351655170888,0.006189980372830022
-5.299473684210377e-07,0.006451351655170888,0.01735207180635537
-5.099473684210345e-07,0.006117357221492776,0.02479346609537227
-4.899473684210449e-07,0.007119340522527569,0.02479346609537227
-4.699473684210417e-07,0.005115373920456617,0.02479346609537227
-4.499473684210385e-07,0.005449368354135184,0.00991067751733847
-4.299473684210353e-07,0.006451351655170888,0.02479346609537227
-4.099473684210456e-07,0.00544936835413564,0.02107276895086551
-3.899473684210425e-07,0.00611735722149232,0.02851416323988071
-3.699473684210393e-07,0.00778732938988516,0.00991067751733847
-3.499473684210361e-07,0.007119340522528024,0.006189980372830022
-3.299473684210464e-07,0.008455318257241688,0.01735207180635029
-3.099473684210432e-07,0.007453334956206592,0.03595555752889761
-2.8994736842104e-07,0.008121323823563727,0.02107276895086382
-2.699473684210368e-07,0.008455318257242295,0.00991067751733847
-2.499473684210336e-07,0.008455318257241839,0.009910677517341855
-2.29947368421044e-07,0.007453334956206592,0.01735207180635537
-2.099473684210408e-07,0.00778732938988516,0.02479346609537227
-1.899473684210376e-07,0.008455318257242295,0.02851416323988071
-1.699473684210344e-07,0.007787329389885008,0.009910677517341855
-1.499473684210447e-07,0.007453334956206744,0.01735207180635199
-1.299473684210416e-07,0.00778732938988516,0.02479346609537227
-1.099473684210384e-07,0.007453334956206592,0.03223486038438916
-8.994736842103516e-08,0.009123307124598672,0.02851416323987564
-6.994736842104552e-08,0.007453334956207352,0.01735207180636044
-4.994736842104232e-08,0.006785346088849456,0.006189980372830022
-2.994736842103912e-08,0.00611735722149232,0.02107276895086382
-9.947368421035926e-09,-0.001564514753114741,0.5903394320606565
1.005263157895372e-08,0.007119340522524077,3.418069261885792
3.005263157895692e-08,0.01379922919609938,3.403186473309044
5.005263157896011e-08,0.008121323823563727,3.373420896152977
7.005263157896331e-08,0.004447385053099481,3.369700199008468
9.005263157896651e-08,0.001107440716315017,3.354817410430429
1.100526315789561e-07,0.003779396185742345,3.343655318996909
1.300526315789593e-07,0.006785346088849456,3.31761043898535
1.500526315789625e-07,0.008121323823563727,3.332493227563384
1.700526315789657e-07,0.006117357221491257,3.339934621852404
1.900526315789554e-07,0.003779396185743408,3.347376016141414
2.100526315789586e-07,0.003779396185742345,3.343655318996909
2.300526315789618e-07,0.005783362787813752,3.332493227563384
2.50052631578965e-07,0.00544936835413564,3.321331136129867
2.700526315789546e-07,0.006451351655170433,3.339934621852392
2.900526315789578e-07,0.005115373920456617,3.36597950186396
3.10052631578961e-07,0.002777412884706641,3.347376016141417
3.300526315789642e-07,0.004447385053099481,3.325051833274367
3.500526315789539e-07,0.006451351655169977,3.313889741840846
3.70052631578957e-07,0.00778732938988516,3.332493227563384
3.900526315789602e-07,0.006451351655170888,3.362258804719451
4.100526315789634e-07,0.007453334956206592,3.351096713285926
4.300526315789666e-07,0.006785346088849456,3.336213924707894
4.500526315789563e-07,0.006785346088849456,3.3399346218524
4.700526315789595e-07,0.008121323823563727,3.3399346218524
4.900526315789627e-07,0.008121323823563727,3.347376016141417
5.100526315789659e-07,0.007119340522528176,3.354817410430436
5.300526315789555e-07,0.00745333495620644,3.358538107574941
5.500526315789587e-07,0.007453334956206592,3.332493227563384
5.700526315789619e-07,0.008121323823563727,3.343655318996909
5.900526315789651e-07,0.008455318257242142,3.362258804719451
6.100526315789548e-07,0.00812132382356388,3.362258804719451
6.300526315789579e-07,0.006785346088849456,3.354817410430434
6.500526315789611e-07,0.006451351655170888,3.347376016141417
6.700526315789643e-07,0.005783362787813752,3.351096713285926
6.90052631578954e-07,0.006785346088849,3.365979501863953
7.100526315789572e-07,0.008455318257242295,3.36597950186396
7.300526315789604e-07,0.006451351655170888,3.362258804719451
7.500526315789636e-07,0.007453334956206592,3.358538107574943
7.700526315789668e-07,0.006785346088849759,3.362258804719458
7.900526315789564e-07,0.007453334956206592,3.377141593297485
8.100526315789596e-07,0.006451351655170888,3.36597950186396
8.300526315789628e-07,0.007119340522528024,3.373420896152977
8.50052631578966e-07,0.007787329389885615,3.358538107574951
8.700526315789556e-07,0.008789312690920406,3.377141593297476
8.900526315789588e-07,0.009457301558278,3.380862290441993
9.10052631578962e-07,0.009791295991956567,3.373420896152977
9.300526315789652e-07,0.009791295991956111,3.384582987586492
9.500526315789549e-07,0.008789312690921319,3.362258804719461
9.700526315789581e-07,0.006785346088849456,3.377141593297485
9.900526315789613e-07,0.00611735722149232,3.38830368473101
1.010052631578964e-06,0.00611735722149232,3.392024381875518
1.030052631578954e-06,0.005449368354135488,3.369700199008478
1.050052631578957e-06,0.006451351655170888,3.362258804719451
1.070052631578961e-06,0.007453334956206592,3.380862290441993
1.090052631578964e-06,0.00611735722149232,3.384582987586502
1.110052631578967e-06,0.007787329389885008,3.395745079020014
1.130052631578957e-06,0.007453334956206592,3.36597950186396
1.15005263157896e-06,0.007119340522528024,3.373420896152977
1.170052631578963e-06,0.007453334956206592,3.369700199008468
1.190052631578966e-06,0.006785346088849608,3.388303684731008
1.210052631578956e-06,0.007119340522528024,3.384582987586502
1.230052631578959e-06,0.007453334956206592,3.380862290441993
1.250052631578962e-06,0.005783362787813752,3.377141593297485
1.270052631578965e-06,0.005783362787813752,3.388303684731007
1.290052631578955e-06,0.005783362787813752,3.380862290441997
1.310052631578958e-06,0.00611735722149232,3.38830368473101
1.330052631578961e-06,0.006451351655170888,3.373420896152977
1.350052631578965e-06,0.005449368354135184,3.369700199008468
1.370052631578954e-06,0.007119340522527265,3.373420896152975
1.390052631578957e-06,0.007453334956206592,3.377141593297485
1.410052631578961e-06,0.00778732938988516,3.377141593297485
1.430052631578964e-06,0.006451351655170888,3.377141593297485
1.450052631578967e-06,0.007119340522528328,3.369700199008466
1.470052631578957e-06,0.00778732938988516,3.36597950186396
1.49005263157896e-06,0.008121323823563727,3.377141593297485
1.510052631578963e-06,0.008121323823563727,3.380862290441993
1.530052631578966e-06,0.008455318257241991,3.369700199008464
1.550052631578956e-06,0.00778732938988516,3.362258804719451
1.570052631578959e-06,0.008455318257242295,3.373420896152977
1.590052631578962e-06,0.007119340522528024,3.362258804719451
1.610052631578966e-06,0.008789312690920103,3.3845829875865
1.630052631578955e-06,0.007119340522528784,3.380862290441995
1.650052631578958e-06,0.006451351655170888,3.36597950186396
1.670052631578962e-06,0.006451351655170888,3.380862290441993
1.690052631578965e-06,0.006451351655170888,3.384582987586502
1.710052631578954e-06,0.006785346088849304,3.384582987586502
1.730052631578958e-06,0.005783362787813752,3.377141593297485
1.750052631578961e-06,0.005449368354135184,3.377141593297485
1.770052631578964e-06,0.00611735722149232,3.380862290441993
1.790052631578954e-06,0.005449368354135488,3.37342089615298
1.810052631578957e-06,0.007453334956206592,3.384582987586502
1.83005263157896e-06,0.007119340522528024,3.373420896152977
1.850052631578963e-06,0.007119340522528024,3.380862290441993
1.870052631578966e-06,0.007119340522527721,3.388303684731007
1.890052631578956e-06,0.006451351655170888,3.380862290441993
1.910052631578959e-06,0.006451351655170888,3.392024381875518
1.930052631578962e-06,0.005449368354135184,3.384582987586502
1.950052631578966e-06,0.004781379486779112,3.369700199008475
1.970052631578955e-06,0.007119340522526961,3.384582987586495
1.990052631578958e-06,0.006451351655170888,3.392024381875518
2.010052631578962e-06,0.00778732938988516,3.395745079020027
2.030052631578965e-06,0.00778732938988516,3.384582987586493
2.050052631578955e-06,0.00778732938988516,3.365979501863968
2.070052631578958e-06,0.008455318257242295,3.384582987586502
2.090052631578961e-06,0.007453334956206592,3.399465776164535
2.110052631578964e-06,0.00778732938988516,3.392024381875518
2.130052631578954e-06,0.007119340522528328,3.380862290441998
2.150052631578957e-06,0.005783362787813752,3.377141593297485
2.17005263157896e-06,0.006451351655170888,3.380862290441993
2.190052631578963e-06,0.005449368354135184,3.392024381875518
2.210052631578967e-06,0.005783362787813752,3.388303684731005
2.230052631578956e-06,0.005783362787813752,3.377141593297485
2.250052631578959e-06,0.005783362787813752,3.369700199008468
2.270052631578963e-06,0.005783362787813752,3.377141593297485
2.290052631578966e-06,0.006785346088850216,3.384582987586502
2.310052631578955e-06,0.008455318257241535,3.384582987586502
2.330052631578959e-06,0.008121323823563727,3.380862290441993
2.350052631578962e-06,0.008455318257242295,3.380862290441993
2.370052631578965e-06,0.007787329389885311,3.380862290441995
2.390052631578955e-06,0.008121323823563575,3.3845829875865
2.410052631578958e-06,0.007453334956206592,3.377141593297485
2.430052631578961e-06,0.006785346088849456,3.373420896152977
2.450052631578964e-06,0.008455318257242295,3.377141593297485
2.470052631578954e-06,0.008455318257242295,3.380862290441991
2.490052631578957e-06,0.007119340522528024,3.392024381875518
2.51005263157896e-06,0.008121323823563727,3.380862290441993
2.530052631578963e-06,0.009123307124599432,3.377141593297485
2.550052631578967e-06,0.008455318257242599,3.358538107574953
2.570052631578956e-06,0.009123307124599432,3.380862290441993
2.59005263157896e-06,0.008789312690920863,3.384582987586502
2.610052631578963e-06,0.009791295991956567,3.395745079020027
2.630052631578966e-06,0.008789312690920863,3.369700199008476
2.650052631578956e-06,0.008789312690920863,3.388303684731002
2.670052631578959e-06,0.009123307124599432,3.380862290441993
2.690052631578962e-06,0.008455318257242295,3.377141593297485
2.710052631578965e-06,0.00878931269092071,3.384582987586498
2.730052631578955e-06,0.008455318257242448,3.377141593297488
2.750052631578958e-06,0.00778732938988516,3.377141593297485
2.770052631578961e-06,0.008121323823563727,3.392024381875518
2.790052631578964e-06,0.006451351655170888,3.392024381875518
2.810052631578954e-06,0.008455318257241384,3.388303684731012
2.830052631578957e-06,0.007119340522528024,3.384582987586502
2.85005263157896e-06,0.007453334956206592,3.369700199008468
2.870052631578964e-06,0.008789312690920863,3.369700199008468
2.890052631578967e-06,0.007453334956207352,3.392024381875518
2.910052631578956e-06,0.009123307124599432,3.392024381875518
2.93005263157896e-06,0.008121323823563727,3.369700199008468
2.950052631578963e-06,0.007119340522528024,3.373420896152977
2.970052631578966e-06,0.007453334956206592,3.380862290441995
2.990052631578956e-06,0.007453334956206592,3.3845829875865
3.010052631578959e-06,0.008789312690920863,3.384582987586502
3.030052631578962e-06,0.007453334956206592,3.377141593297485
3.050052631578965e-06,0.007119340522528784,3.369700199008473
3.070052631578955e-06,0.008789312690920103,3.380862290441988
3.090052631578958e-06,0.007453334956206592,3.380862290441993
3.110052631578961e-06,0.008121323823563727,3.384582987586502
3.130052631578965e-06,0.008121323823563727,3.373420896152977
3.150052631578954e-06,0.00711934052252848,3.36970019900847
3.170052631578957e-06,0.006785346088849456,3.369700199008468
3.190052631578961e-06,0.006451351655170888,3.380862290441993
3.210052631578964e-06,0.007119340522528024,3.377141593297485
3.230052631578967e-06,0.00511537392045692,3.373420896152977
3.250052631578957e-06,0.005783362787813752,3.373420896152977
3.27005263157896e-06,0.007119340522528024,3.384582987586502
3.290052631578963e-06,0.006451351655170888,3.38830368473101
3.310052631578966e-06,0.009457301558277393,3.373420896152977
3.330052631578956e-06,0.008121323823563727,3.373420896152977
3.350052631578959e-06,0.007453334956206592,3.358538107574943
3.370052631578962e-06,0.00778732938988516,3.373420896152977
3.390052631578965e-06,0.006451351655171192,3.384582987586495
3.410052631578955e-06,0.007119340522527721,3.369700199008475
3.430052631578958e-06,0.006451351655170888,3.369700199008468
3.450052631578961e-06,0.005783362787813752,3.358538107574943
3.470052631578965e-06,0.005783362787813752,3.384582987586502
3.490052631578954e-06,0.005783362787813752,3.380862290441995
3.510052631578957e-06,0.00611735722149232,3.377141593297485
3.530052631578961e-06,0.00611735722149232,3.373420896152977
3.550052631578964e-06,0.005449368354135184,3.373420896152977
3.570052631578954e-06,0.007119340522527265,3.365979501863963
3.590052631578957e-06,0.00611735722149232,3.373420896152977
3.61005263157896e-06,0.008121323823563727,3.36597950186396
3.630052631578963e-06,0.00778732938988516,3.369700199008468
3.650052631578966e-06,0.00745333495620644,3.36597950186396
3.670052631578956e-06,0.007119340522528024,3.36597950186396
3.690052631578959e-06,0.005783362787813752,3.384582987586502
3.710052631578962e-06,0.004781379486778049,3.384582987586502
3.730052631578966e-06,0.005115373920456617,3.358538107574944
3.750052631578955e-06,0.005115373920456617,3.362258804719449
3.770052631578958e-06,0.005115373920456617,3.362258804719451
3.790052631578962e-06,0.005449368354135184,3.380862290441993
3.810052631578965e-06,0.007119340522528024,3.38830368473101
3.830052631578954e-06,0.00745333495620644,3.373420896152983
3.850052631578958e-06,0.007453334956206592,3.369700199008468
3.870052631578961e-06,0.008789312690920863,3.377141593297485
3.890052631578964e-06,0.00778732938988516,3.377141593297485
3.910052631578954e-06,0.00778732938988516,3.373420896152978
3.930052631578957e-06,0.007119340522528024,3.380862290441993
3.95005263157896e-06,0.00611735722149232,3.36597950186396
3.970052631578963e-06,0.00611735722149232,3.369700199008468
3.990052631578966e-06,0.005449368354135336,3.369700199008471
4.010052631578956e-06,0.005783362787813752,3.377141593297485
4.030052631578959e-06,0.006785346088849456,3.358538107574943
4.050052631578962e-06,0.007453334956206592,3.351096713285926
4.070052631578966e-06,0.007453334956206896,3.369700199008466
4.090052631578955e-06,0.008121323823563424,3.365979501863961
4.110052631578959e-06,0.008455318257242295,3.373420896152977
4.130052631578962e-06,0.007453334956206592,3.351096713285926
4.150052631578965e-06,0.007453334956206744,3.354817410430439
4.170052631578955e-06,0.007787329389885008,3.365979501863955
4.190052631578958e-06,0.006785346088849456,3.373420896152977
4.210052631578961e-06,0.006451351655170888,3.377141593297485
4.230052631578964e-06,0.006785346088849456,3.358538107574943
4.250052631578954e-06,0.006785346088849456,3.358538107574943
4.270052631578957e-06,0.007453334956206592,3.380862290441993
4.29005263157896e-06,0.00778732938988516,3.380862290441993
4.310052631578963e-06,0.008789312690920863,3.377141593297485
4.330052631578967e-06,0.007787329389885008,3.373420896152977
4.350052631578956e-06,0.007453334956206592,3.373420896152977
4.370052631578959e-06,0.007453334956206592,3.373420896152977
4.390052631578963e-06,0.006451351655170888,3.380862290441993
