traces_bank_current_trigger/benchmark_traces/qsort_50MHz_14/qsort_2.csv

#Digilent WaveForms Oscilloscope Acquisition
#Device Name: Discovery2
#Serial Number: SN:210321B3D813
#Date Time: 2023-07-20 14:26:52.752
#Sample rate: 5e+07Hz
#Samples: 8192
#Trigger: Source: Channel 2 Type: Edge Condition: Rising Level: 2 V Hyst.: Auto HoldOff: 0 s
#Channel 1: Range: 10 mV/div Offset: 0 V Attenuation: 1 X Sample Mode: Average
#Channel 2: Range: 5 V/div Offset: 0 V Attenuation: 1 X Sample Mode: Average

Time (s),Channel 1 (V),Channel 2 (V)
-1.916385911179165e-06,0.00611735722149232,0.002469283228321573
-1.896385911179162e-06,0.006785346088849456,-0.01613420249422067
-1.876385911179159e-06,0.006785346088849608,0.006189980372831714
-1.856385911179169e-06,0.007119340522527873,0.009910677517336779
-1.836385911179166e-06,0.006451351655170888,0.01363137466184692
-1.816385911179163e-06,0.006785346088849456,-0.004972111060695325
-1.79638591117916e-06,0.006785346088849456,0.002469283228321573
-1.77638591117917e-06,0.006785346088849456,0.009910677517335088
-1.756385911179167e-06,0.00611735722149232,0.00991067751733847
-1.736385911179164e-06,0.008455318257242295,-0.001251413916186876
-1.716385911179161e-06,0.007119340522528024,0.006189980372830022
-1.696385911179157e-06,0.006451351655170888,-0.004972111060688557
-1.676385911179168e-06,0.006451351655170888,0.00991067751733847
-1.656385911179165e-06,0.006785346088849456,0.02107276895086382
-1.636385911179161e-06,0.007453334956206592,0.01363137466184692
-1.616385911179158e-06,0.007453334956207199,-0.004972111060695325
-1.596385911179169e-06,0.008789312690920256,-0.004972111060695325
-1.576385911179165e-06,0.008789312690920863,0.01363137466184692
-1.556385911179162e-06,0.008121323823563727,0.02479346609537227
-1.536385911179159e-06,0.009123307124598672,0.02479346609536719
-1.516385911179169e-06,0.007453334956207352,0.013631374661852
-1.496385911179166e-06,0.00778732938988516,-0.001251413916186876
-1.476385911179163e-06,0.009123307124599432,0.01735207180635537
-1.45638591117916e-06,0.008121323823563727,0.02107276895086382
-1.43638591117917e-06,0.008455318257242142,0.02107276895086382
-1.416385911179167e-06,0.006785346088849456,0.00991067751733847
-1.396385911179164e-06,0.00611735722149232,-0.01241350534971222
-1.37638591117916e-06,0.004781379486778049,0.02479346609537227
-1.356385911179157e-06,0.004447385053099785,0.01735207180635029
-1.336385911179168e-06,0.005115373920456617,0.006189980372830022
-1.316385911179164e-06,0.004781379486778049,0.01363137466184692
-1.296385911179161e-06,0.005115373920456617,-0.01613420249422067
-1.276385911179158e-06,0.004781379486778049,0.002469283228324957
-1.256385911179168e-06,0.004781379486778049,0.009910677517335088
-1.236385911179165e-06,0.00611735722149232,0.006189980372830022
-1.216385911179162e-06,0.006451351655170888,-0.01613420249422067
-1.196385911179159e-06,0.006451351655171344,0.002469283228318189
-1.176385911179169e-06,0.007453334956206137,-0.004972111060691941
-1.156385911179166e-06,0.00778732938988516,0.01363137466184692
-1.136385911179163e-06,0.00778732938988516,0.00991067751733847
-1.11638591117916e-06,0.00611735722149232,-0.004972111060695325
-1.09638591117917e-06,0.005783362787813904,-0.004972111060695325
-1.076385911179167e-06,0.005783362787813752,-0.008692808205203774
-1.056385911179164e-06,0.005115373920456617,0.02479346609537227
-1.03638591117916e-06,0.007119340522528024,0.006189980372830022
-1.016385911179157e-06,0.006451351655170433,0.002469283228316497
-9.963859111791675e-07,0.005449368354135184,-0.008692808205203774
-9.763859111791643e-07,0.007453334956206592,0.006189980372830022
-9.563859111791611e-07,0.007119340522528024,0.01363137466184692
-9.363859111791579e-07,0.008121323823563575,0.009910677517335086
-9.163859111791683e-07,0.00778732938988516,0.002469283228321573
-8.963859111791651e-07,0.008455318257242295,-0.008692808205203774
-8.763859111791619e-07,0.009791295991956567,0.002469283228321573
-8.563859111791587e-07,0.008789312690921319,0.02107276895085874
-8.36385911179169e-07,0.009791295991956111,0.009910677517343546
-8.163859111791658e-07,0.009457301558278,0.00991067751733847
-7.963859111791627e-07,0.008789312690920863,-0.004972111060695325
-7.763859111791595e-07,0.00778732938988516,-0.001251413916186876
-7.563859111791698e-07,0.00778732938988516,0.009910677517333395
-7.363859111791666e-07,0.007453334956206592,0.01735207180635537
-7.163859111791634e-07,0.007453334956206592,0.002469283228321573
-6.963859111791602e-07,0.007453334956206592,0.002469283228321573
-6.76385911179157e-07,0.007453334956206137,0.0136313746618503
-6.563859111791674e-07,0.006451351655170888,0.02107276895086382
-6.363859111791642e-07,0.008121323823563727,0.01363137466184692
-6.16385911179161e-07,0.005783362787813752,0.01735207180635537
-5.963859111791578e-07,0.007119340522528024,0.002469283228330032
-5.763859111791681e-07,0.007119340522528024,0.02107276895086382
-5.563859111791649e-07,0.005783362787813752,0.01735207180635537
-5.363859111791618e-07,0.007119340522528024,0.01735207180635537
-5.163859111791586e-07,0.007119340522527569,0.006189980372830022
-4.963859111791689e-07,0.006117357221492776,0.006189980372830022
-4.763859111791657e-07,0.00611735722149232,0.01735207180635537
-4.563859111791625e-07,0.006785346088849456,0.02851416323988071
-4.363859111791593e-07,0.00611735722149232,0.00991067751733847
-4.163859111791697e-07,0.00611735722149232,0.01735207180635199
-3.963859111791665e-07,0.005783362787813752,0.002469283228321573
-3.763859111791633e-07,0.005783362787813752,0.02107276895086382
-3.563859111791601e-07,0.007453334956206592,0.02479346609537227
-3.363859111791704e-07,0.007453334956206592,0.02107276895086551
-3.163859111791672e-07,0.007119340522528024,0.01735207180635537
-2.963859111791641e-07,0.008121323823563727,0.01363137466184692
-2.763859111791609e-07,0.007453334956206592,0.00991067751733847
-2.563859111791577e-07,0.008455318257242142,0.0247934660953655
-2.36385911179168e-07,0.008121323823563727,0.00991067751733847
-2.163859111791648e-07,0.008789312690920863,0.006189980372830022
-1.963859111791616e-07,0.008455318257242295,0.002469283228321573
-1.763859111791584e-07,0.008121323823563575,0.01735207180636044
-1.563859111791688e-07,0.007787329389885311,0.02851416323987564
-1.363859111791656e-07,0.008121323823563727,0.00991067751733847
-1.163859111791624e-07,0.007453334956206592,0.002469283228321573
-9.638591117915919e-08,0.008121323823563271,-0.008692808205198698
-7.638591117916955e-08,0.00711934052252848,0.002469283228316497
-5.638591117916635e-08,0.006785346088849456,0.01735207180635537
-3.638591117916315e-08,0.006785346088849456,0.006189980372830022
-1.638591117915996e-08,0.005783362787813752,0.006189980372830022
3.614088820829689e-09,0.001441435149994344,2.435805215735742
2.361408882083289e-08,0.008789312690920863,3.150179067482469
4.361408882083608e-08,0.01212925702770654,3.276682770395757
6.361408882083928e-08,0.005449368354135184,3.336213924707892
8.361408882084248e-08,0.002109424017349202,3.358538107574929
1.036140888208321e-07,0.00144143514999237,3.328772530418875
1.236140888208353e-07,0.005783362787813752,3.310169044696333
1.436140888208385e-07,0.00778732938988516,3.328772530418875
1.636140888208417e-07,0.007453334956204921,3.347376016141424
1.836140888208314e-07,0.003779396185744016,3.362258804719445
2.036140888208346e-07,0.003111407318385209,3.354817410430434
2.236140888208377e-07,0.003779396185742345,3.325051833274367
2.436140888208409e-07,0.005449368354135488,3.3362139247079
2.636140888208306e-07,0.006117357221492017,3.354817410430426
2.836140888208338e-07,0.004113390619420913,3.354817410430434
3.03614088820837e-07,0.001775429583670938,3.351096713285926
3.236140888208402e-07,0.002443418451028074,3.3399346218524
3.436140888208298e-07,0.004447385053098571,3.354817410430428
3.63614088820833e-07,0.004447385053099481,3.358538107574943
3.836140888208362e-07,0.005115373920456617,3.369700199008468
4.036140888208394e-07,0.005115373920456617,3.36597950186396
4.236140888208426e-07,0.004781379486777897,3.365979501863961
4.436140888208323e-07,0.004447385053099481,3.369700199008468
4.636140888208354e-07,0.00611735722149232,3.362258804719451
4.836140888208386e-07,0.00611735722149232,3.36597950186396
5.036140888208418e-07,0.005449368354135488,3.362258804719453
5.236140888208315e-07,0.006117357221492017,3.365979501863958
5.436140888208347e-07,0.005115373920456617,3.373420896152977
5.636140888208379e-07,0.007119340522528024,3.373420896152977
5.836140888208411e-07,0.007119340522527569,3.369700199008466
6.036140888208307e-07,0.006117357221492776,3.365979501863961
6.236140888208339e-07,0.005449368354135184,3.36597950186396
6.436140888208371e-07,0.00611735722149232,3.373420896152977
6.636140888208403e-07,0.006451351655170888,3.380862290441993
6.8361408882083e-07,0.006117357221492472,3.369700199008473
7.036140888208332e-07,0.005115373920456617,3.369700199008468
7.236140888208363e-07,0.005115373920456617,3.380862290441993
7.436140888208395e-07,0.004447385053099481,3.38830368473101
7.636140888208427e-07,0.005115373920456313,3.3845829875865
7.836140888208324e-07,0.004447385053099481,3.380862290441993
8.036140888208356e-07,0.005449368354135184,3.377141593297485
8.236140888208388e-07,0.005783362787813752,3.377141593297485
8.43614088820842e-07,0.007119340522528024,3.395745079020031
8.636140888208316e-07,0.007119340522528024,3.40318647330904
8.836140888208348e-07,0.006451351655170888,3.373420896152977
9.03614088820838e-07,0.00611735722149232,3.377141593297485
9.236140888208412e-07,0.005783362787813448,3.373420896152985
9.436140888208309e-07,0.00511537392045692,3.39202438187551
9.63614088820834e-07,0.00611735722149232,3.380862290441993
9.836140888208372e-07,0.005115373920456617,3.373420896152977
1.00361408882084e-06,0.006451351655170888,3.36597950186396
1.02361408882083e-06,0.007119340522527721,3.373420896152973
1.043614088820833e-06,0.006785346088849456,3.380862290441993
1.063614088820836e-06,0.009123307124599432,3.380862290441993
1.08361408882084e-06,0.009123307124599432,3.36597950186396
1.103614088820843e-06,0.007787329389884856,3.365979501863963
1.123614088820833e-06,0.007119340522528024,3.373420896152977
1.143614088820836e-06,0.007453334956206592,3.377141593297485
1.163614088820839e-06,0.006785346088849456,3.38830368473101
1.183614088820842e-06,0.006451351655170128,3.373420896152977
1.203614088820832e-06,0.004781379486778049,3.373420896152977
1.223614088820835e-06,0.007453334956206592,3.369700199008468
1.243614088820838e-06,0.006451351655170888,3.395745079020027
1.263614088820841e-06,0.006117357221492928,3.388303684731005
1.283614088820831e-06,0.007453334956205985,3.37714159329749
1.303614088820834e-06,0.008455318257242295,3.36597950186396
1.323614088820837e-06,0.00778732938988516,3.384582987586502
1.343614088820841e-06,0.007119340522528024,3.38830368473101
1.36361408882083e-06,0.007787329389884856,3.392024381875517
1.383614088820833e-06,0.00778732938988516,3.384582987586502
1.403614088820837e-06,0.005449368354135184,3.377141593297485
1.42361408882084e-06,0.00611735722149232,3.38830368473101
1.443614088820843e-06,0.005449368354135488,3.384582987586505
1.463614088820833e-06,0.00611735722149232,3.392024381875518
1.483614088820836e-06,0.00611735722149232,3.392024381875518
1.503614088820839e-06,0.005783362787813752,3.373420896152977
1.523614088820842e-06,0.008121323823563424,3.37714159329749
1.543614088820832e-06,0.007453334956206592,3.38830368473101
1.563614088820835e-06,0.008455318257242295,3.395745079020027
1.583614088820838e-06,0.008121323823563727,3.377141593297485
1.603614088820841e-06,0.00812132382356312,3.369700199008473
1.623614088820831e-06,0.006785346088850064,3.380862290441988
1.643614088820834e-06,0.006451351655170888,3.380862290441993
1.663614088820838e-06,0.006785346088849456,3.380862290441993
1.683614088820841e-06,0.006785346088849456,3.377141593297485
1.70361408882083e-06,0.006117357221492624,3.362258804719458
1.723614088820834e-06,0.006451351655170888,3.380862290441993
1.743614088820837e-06,0.00611735722149232,3.38830368473101
1.76361408882084e-06,0.007453334956206592,3.377141593297485
1.78361408882083e-06,0.007453334956206592,3.369700199008471
1.803614088820833e-06,0.008121323823563727,3.373420896152977
1.823614088820836e-06,0.007453334956206592,3.373420896152977
1.843614088820839e-06,0.008121323823563727,3.384582987586502
1.863614088820842e-06,0.007787329389884856,3.373420896152977
1.883614088820832e-06,0.007119340522528024,3.373420896152977
1.903614088820835e-06,0.005449368354135184,3.369700199008468
1.923614088820838e-06,0.005449368354135184,3.36597950186396
1.943614088820842e-06,0.005783362787813752,3.384582987586497
1.963614088820831e-06,0.005783362787813752,3.373420896152981
1.983614088820834e-06,0.005115373920456617,3.369700199008468
2.003614088820838e-06,0.005449368354135184,3.369700199008468
2.023614088820841e-06,0.006785346088849759,3.37342089615298
2.04361408882083e-06,0.007453334956206288,3.38086229044199
2.063614088820834e-06,0.008789312690920863,3.38830368473101
2.083614088820837e-06,0.009123307124599432,3.384582987586502
2.10361408882084e-06,0.006451351655170888,3.373420896152977
2.12361408882083e-06,0.008121323823562968,3.373420896152977
2.143614088820833e-06,0.005783362787813752,3.380862290441993
2.163614088820836e-06,0.00611735722149232,3.377141593297485
2.183614088820839e-06,0.005783362787813752,3.380862290441993
2.203614088820843e-06,0.004781379486778353,3.36597950186397
2.223614088820832e-06,0.005449368354135184,3.38830368473101
2.243614088820835e-06,0.004447385053099481,3.392024381875518
2.263614088820839e-06,0.00611735722149232,3.380862290441993
2.283614088820842e-06,0.00611735722149232,3.384582987586492
2.303614088820831e-06,0.00611735722149232,3.362258804719461
2.323614088820835e-06,0.007453334956206592,3.38830368473101
2.343614088820838e-06,0.007453334956206592,3.399465776164535
2.363614088820841e-06,0.008455318257242295,3.388303684731008
2.383614088820831e-06,0.008455318257242295,3.384582987586504
2.403614088820834e-06,0.00778732938988516,3.38830368473101
2.423614088820837e-06,0.00778732938988516,3.380862290441993
2.44361408882084e-06,0.00778732938988516,3.395745079020027
2.46361408882083e-06,0.008455318257241991,3.40318647330904
2.483614088820833e-06,0.008455318257242295,3.38830368473101
2.503614088820836e-06,0.00778732938988516,3.36597950186396
2.523614088820839e-06,0.00778732938988516,3.380862290441993
2.543614088820843e-06,0.006785346088849456,3.388303684731012
2.563614088820832e-06,0.006785346088849456,3.392024381875518
2.583614088820835e-06,0.006785346088849456,3.380862290441993
2.603614088820839e-06,0.007453334956206592,3.377141593297485
2.623614088820842e-06,0.007119340522528328,3.392024381875518
2.643614088820832e-06,0.007787329389884856,3.392024381875518
2.663614088820835e-06,0.007453334956206592,3.399465776164535
2.683614088820838e-06,0.007453334956206592,3.380862290441993
2.703614088820841e-06,0.006451351655171952,3.373420896152987
2.723614088820831e-06,0.008789312690919799,3.395745079020017
2.743614088820834e-06,0.007119340522528024,3.399465776164535
2.763614088820837e-06,0.009123307124599432,3.399465776164535
2.78361408882084e-06,0.00778732938988516,3.392024381875518
2.80361408882083e-06,0.008455318257241991,3.388303684731012
2.823614088820833e-06,0.008121323823563727,3.369700199008468
2.843614088820836e-06,0.006785346088849456,3.392024381875518
2.86361408882084e-06,0.009791295991956567,3.395745079020027
2.883614088820843e-06,0.008789312690920559,3.392024381875512
2.903614088820832e-06,0.008121323823563727,3.377141593297485
2.923614088820836e-06,0.007453334956206592,3.373420896152977
2.943614088820839e-06,0.007119340522528024,3.377141593297485
2.963614088820842e-06,0.00645135165517104,3.388303684731005
2.983614088820832e-06,0.006785346088849304,3.37714159329749
3.003614088820835e-06,0.005783362787813752,3.36597950186396
3.023614088820838e-06,0.004781379486778049,3.373420896152977
3.043614088820841e-06,0.005783362787814512,3.392024381875515
3.063614088820831e-06,0.007453334956205832,3.384582987586505
3.083614088820834e-06,0.007453334956206592,3.377141593297485
3.103614088820837e-06,0.007453334956206592,3.373420896152977
3.12361408882084e-06,0.008121323823563727,3.384582987586502
3.14361408882083e-06,0.007453334956206896,3.380862290441995
3.163614088820833e-06,0.007453334956206592,3.384582987586502
3.183614088820837e-06,0.006785346088849456,3.380862290441993
3.20361408882084e-06,0.005449368354135184,3.373420896152977
3.223614088820843e-06,0.00611735722149232,3.362258804719456
3.243614088820833e-06,0.00611735722149232,3.373420896152977
3.263614088820836e-06,0.007453334956206592,3.377141593297485
3.283614088820839e-06,0.004447385053099481,3.369700199008468
3.303614088820842e-06,0.006785346088849759,3.36597950186396
3.323614088820832e-06,0.007453334956206592,3.36597950186396
3.343614088820835e-06,0.00778732938988516,3.377141593297485
3.363614088820838e-06,0.008789312690920863,3.377141593297485
3.383614088820841e-06,0.007787329389885008,3.377141593297478
3.403614088820831e-06,0.007453334956206744,3.362258804719458
3.423614088820834e-06,0.007119340522528024,3.369700199008468
3.443614088820837e-06,0.007119340522528024,3.377141593297485
3.463614088820841e-06,0.008789312690920863,3.377141593297485
3.48361408882083e-06,0.007787329389885615,3.373420896152978
3.503614088820833e-06,0.007453334956206592,3.373420896152977
3.523614088820837e-06,0.00778732938988516,3.373420896152977
3.54361408882084e-06,0.007453334956206592,3.384582987586502
3.563614088820829e-06,0.007787329389885008,3.384582987586502
3.583614088820833e-06,0.007453334956206592,3.373420896152977
3.603614088820836e-06,0.007119340522528024,3.373420896152977
3.623614088820839e-06,0.007119340522528024,3.373420896152977
3.643614088820842e-06,0.006117357221493232,3.377141593297488
3.663614088820832e-06,0.008121323823563727,3.384582987586502
3.683614088820835e-06,0.007119340522528024,3.377141593297485
3.703614088820838e-06,0.007453334956206592,3.373420896152977
3.723614088820842e-06,0.008121323823563424,3.377141593297492
3.743614088820831e-06,0.007453334956206896,3.392024381875512
3.763614088820834e-06,0.008455318257242295,3.384582987586502
3.783614088820838e-06,0.00778732938988516,3.377141593297485
3.803614088820841e-06,0.007453334956206592,3.377141593297485
3.82361408882083e-06,0.007119340522528176,3.365979501863964
3.843614088820834e-06,0.006785346088849456,3.384582987586502
3.863614088820837e-06,0.008455318257242295,3.38830368473101
3.88361408882084e-06,0.009457301558278,3.373420896152977
3.90361408882083e-06,0.008789312690921166,3.365979501863963
3.923614088820833e-06,0.009123307124599432,3.373420896152977
3.943614088820836e-06,0.008455318257242295,3.369700199008468
3.963614088820839e-06,0.008789312690920863,3.377141593297485
3.983614088820842e-06,0.00645135165517104,3.373420896152977
4.003614088820832e-06,0.006785346088849456,3.373420896152977
4.023614088820835e-06,0.006451351655170888,3.354817410430434
4.043614088820838e-06,0.005783362787813752,3.377141593297485
4.063614088820842e-06,0.00778732938988516,3.358538107574943
4.083614088820831e-06,0.00778732938988516,3.358538107574943
4.103614088820834e-06,0.007453334956206592,3.351096713285926
4.123614088820838e-06,0.00778732938988516,3.369700199008468
4.143614088820841e-06,0.00745333495620644,3.38086229044199
4.163614088820831e-06,0.007119340522528176,3.37342089615298
4.183614088820834e-06,0.00778732938988516,3.362258804719451
4.203614088820837e-06,0.006451351655170888,3.347376016141417
4.22361408882084e-06,0.006451351655170888,3.358538107574943
4.24361408882083e-06,0.006451351655170888,3.37342089615297
4.263614088820833e-06,0.007453334956206592,3.36597950186396
4.283614088820836e-06,0.006785346088849456,3.358538107574943
4.303614088820839e-06,0.00611735722149232,3.343655318996909
4.323614088820843e-06,0.006785346088850216,3.362258804719453
4.343614088820832e-06,0.008455318257242295,3.36597950186396
4.363614088820835e-06,0.00778732938988516,3.362258804719451
4.383614088820839e-06,0.007453334956206592,3.358538107574943
4.403614088820842e-06,0.007119340522528176,3.33249322756339
