traces_bank_current_trigger/benchmark_traces/qsort_50MHz_14/qsort_6.csv

#Digilent WaveForms Oscilloscope Acquisition
#Device Name: Discovery2
#Serial Number: SN:210321B3D813
#Date Time: 2023-07-20 14:45:32.185
#Sample rate: 5e+07Hz
#Samples: 8192
#Trigger: Source: Channel 2 Type: Edge Condition: Rising Level: 2 V Hyst.: Auto HoldOff: 0 s
#Channel 1: Range: 10 mV/div Offset: 0 V Attenuation: 1 X Sample Mode: Average
#Channel 2: Range: 5 V/div Offset: 0 V Attenuation: 1 X Sample Mode: Average

Time (s),Channel 1 (V),Channel 2 (V)
-1.919593345656184e-06,0.00611735722149232,-0.004972111060695325
-1.899593345656181e-06,0.005449368354135184,-0.004972111060695325
-1.879593345656177e-06,0.005783362787813904,-0.008692808205198698
-1.859593345656188e-06,0.006117357221492169,0.002469283228316497
-1.839593345656185e-06,0.006451351655170888,0.00991067751733847
-1.819593345656181e-06,0.00611735722149232,0.002469283228321573
-1.799593345656178e-06,0.006785346088849456,-0.01241350534971222
-1.779593345656189e-06,0.005783362787814207,-0.004972111060698709
-1.759593345656185e-06,0.00611735722149232,0.006189980372830022
-1.739593345656182e-06,0.007119340522528024,0.01363137466184692
-1.719593345656179e-06,0.007119340522528024,0.006189980372830022
-1.699593345656176e-06,0.007453334956206137,-0.01985489963872404
-1.679593345656186e-06,0.006451351655170888,-0.008692808205203774
-1.659593345656183e-06,0.007453334956206592,0.002469283228321573
-1.63959334565618e-06,0.008121323823563727,0.00991067751733847
-1.619593345656177e-06,0.008455318257242295,0.002469283228316497
-1.599593345656187e-06,0.008455318257242295,-0.008692808205198698
-1.579593345656184e-06,0.008789312690920863,-0.004972111060695325
-1.559593345656181e-06,0.008789312690920863,0.006189980372830022
-1.539593345656177e-06,0.009791295991956264,0.01735207180634352
-1.519593345656188e-06,0.009123307124599736,-0.008692808205191929
-1.499593345656184e-06,0.008789312690920863,-0.01241350534971222
-1.479593345656181e-06,0.007453334956206592,-0.01241350534971222
-1.459593345656178e-06,0.008121323823563727,0.002469283228321573
-1.439593345656188e-06,0.008789312690920559,0.00618998037282833
-1.419593345656185e-06,0.009123307124599432,0.00991067751733847
-1.399593345656182e-06,0.008121323823563727,-0.01241350534971222
-1.379593345656179e-06,0.006785346088849456,-0.01613420249422067
-1.359593345656176e-06,0.006785346088849456,-0.004972111060688557
-1.339593345656186e-06,0.006785346088849456,0.00991067751733847
-1.319593345656183e-06,0.00611735722149232,0.01363137466184692
-1.29959334565618e-06,0.005449368354135184,-0.004972111060695325
-1.279593345656176e-06,0.005783362787814664,-0.008692808205202083
-1.259593345656187e-06,0.007787329389884249,-0.004972111060697016
-1.239593345656184e-06,0.007453334956206592,0.002469283228321573
-1.21959334565618e-06,0.007119340522528024,0.00991067751733847
-1.199593345656177e-06,0.00778732938988516,-0.001251413916188568
-1.179593345656188e-06,0.00778732938988516,-0.004972111060693634
-1.159593345656184e-06,0.00778732938988516,0.002469283228321573
-1.139593345656181e-06,0.007119340522528024,0.02107276895086382
-1.119593345656178e-06,0.007119340522528024,0.01363137466184692
-1.099593345656188e-06,0.005783362787814359,-0.004972111060686867
-1.079593345656185e-06,0.005449368354135184,-0.008692808205203774
-1.059593345656182e-06,0.004447385053099481,-0.004972111060695325
-1.039593345656179e-06,0.005783362787813752,0.002469283228321573
-1.019593345656176e-06,0.005783362787813904,0.02107276895085536
-9.995933456561859e-07,0.00611735722149232,0.002469283228321573
-9.795933456561827e-07,0.005783362787813752,0.006189980372830022
-9.595933456561795e-07,0.006785346088849456,0.006189980372830022
-9.395933456561763e-07,0.006117357221492472,0.02851416323987564
-9.195933456561866e-07,0.006451351655170888,0.01735207180635537
-8.995933456561834e-07,0.00611735722149232,0.002469283228321573
-8.795933456561802e-07,0.007453334956206592,0.006189980372830022
-8.59593345656177e-07,0.004447385053100088,0.02479346609536888
-8.395933456561874e-07,0.005783362787813145,0.01735207180635875
-8.195933456561842e-07,0.005115373920456617,0.01735207180635537
-7.99593345656181e-07,0.00611735722149232,0.00991067751733847
-7.795933456561778e-07,0.005115373920456617,0.002469283228321573
-7.595933456561882e-07,0.003779396185742953,0.02107276895085536
-7.39593345656185e-07,0.005115373920456617,0.006189980372830022
-7.195933456561818e-07,0.005115373920456617,0.01735207180635537
-6.995933456561786e-07,0.004781379486778049,0.002469283228321573
-6.795933456561754e-07,0.004781379486777137,-0.008692808205193622
-6.595933456561857e-07,0.002777412884706641,0.01363137466184692
-6.395933456561825e-07,0.004113390619420913,0.02851416323988071
-6.195933456561793e-07,0.004113390619420913,0.02107276895086382
-5.995933456561761e-07,0.004113390619421216,0.002469283228323264
-5.795933456561865e-07,0.004781379486778049,0.006189980372830022
-5.595933456561833e-07,0.004781379486778049,0.002469283228321573
-5.395933456561801e-07,0.004781379486778049,0.01363137466184692
-5.195933456561769e-07,0.005783362787813448,0.02107276895086043
-4.995933456561873e-07,0.00511537392045692,0.0136313746618503
-4.795933456561841e-07,0.005449368354135184,0.01735207180635537
-4.595933456561809e-07,0.004113390619420913,0.02479346609537227
-4.395933456561777e-07,0.004447385053099481,0.03223486038438916
-4.19593345656188e-07,0.003779396185742649,0.02851416323988241
-3.995933456561848e-07,0.003779396185742345,0.006189980372830022
-3.795933456561816e-07,0.003445401752063777,0.02107276895086382
-3.595933456561784e-07,0.004781379486778049,0.02107276895086382
-3.395933456561888e-07,0.004113390619421216,0.02107276895086382
-3.195933456561856e-07,0.006785346088849456,0.02107276895086382
-2.995933456561824e-07,0.006785346088849456,0.002469283228321573
-2.795933456561792e-07,0.00611735722149232,0.01735207180635537
-2.59593345656176e-07,0.005115373920457376,0.013631374661852
-2.395933456561864e-07,0.006785346088849456,0.02479346609537227
-2.195933456561832e-07,0.006785346088849456,0.03223486038438916
-1.9959334565618e-07,0.007119340522528024,0.01363137466184692
-1.795933456561768e-07,0.006785346088849456,0.02851416323988071
-1.595933456561871e-07,0.006785346088849456,0.02851416323988071
-1.395933456561839e-07,0.009457301558278,0.03223486038438916
-1.195933456561807e-07,0.008121323823563727,0.03595555752889761
-9.959334565617754e-08,0.00778732938988516,0.02107276895086382
-7.95933456561879e-08,0.00778732938988516,0.02107276895086382
-5.95933456561847e-08,0.006451351655170888,0.02851416323988071
-3.959334565618151e-08,0.005783362787813752,0.03967625467340606
-1.959334565617831e-08,0.00611735722149232,0.02479346609537227
4.066543438113355e-10,-0.00490445908989541,2.037690621273528
2.040665434381453e-08,0.009123307124599432,3.205989524650096
4.040665434381773e-08,0.009123307124599432,3.302727650407316
6.040665434382093e-08,0.005115373920456617,3.369700199008468
8.040665434382412e-08,0.0001054574152791615,3.373420896152965
1.004066543438138e-07,0.002443418451028074,3.347376016141417
1.20406654343817e-07,0.003779396185742345,3.332493227563384
1.404066543438202e-07,0.008789312690920863,3.3399346218524
1.604066543438234e-07,0.007453334956205985,3.36970019900847
1.80406654343813e-07,0.006117357221492929,3.373420896152975
2.004066543438162e-07,0.002777412884706641,3.362258804719451
2.204066543438194e-07,0.004447385053099481,3.347376016141417
2.404066543438226e-07,0.00645135165517104,3.351096713285936
2.604066543438122e-07,0.006785346088849304,3.373420896152966
2.804066543438154e-07,0.007119340522528024,3.377141593297485
3.004066543438186e-07,0.005115373920456617,3.380862290441993
3.204066543438218e-07,0.003779396185742345,3.36597950186396
3.404066543438115e-07,0.005115373920456009,3.36597950186396
3.604066543438147e-07,0.007119340522528024,3.384582987586502
3.804066543438179e-07,0.007119340522528024,3.399465776164535
4.004066543438211e-07,0.005783362787813752,3.377141593297485
4.204066543438243e-07,0.006117357221492776,3.384582987586502
4.404066543438139e-07,0.007119340522528024,3.384582987586502
4.604066543438171e-07,0.008121323823563727,3.380862290441993
4.804066543438203e-07,0.008789312690920863,3.384582987586502
5.004066543438235e-07,0.007453334956206744,3.365979501863968
5.204066543438131e-07,0.007787329389885008,3.384582987586493
5.404066543438163e-07,0.007453334956206592,3.373420896152977
5.604066543438195e-07,0.007119340522528024,3.38830368473101
5.804066543438227e-07,0.007453334956206288,3.388303684731004
6.004066543438124e-07,0.006785346088849759,3.373420896152983
6.204066543438156e-07,0.00611735722149232,3.373420896152977
6.404066543438188e-07,0.006785346088849456,3.38830368473101
6.60406654343822e-07,0.006451351655170888,3.380862290441993
6.804066543438116e-07,0.00544936835413564,3.380862290441993
7.004066543438148e-07,0.006451351655170888,3.369700199008468
7.20406654343818e-07,0.005449368354135184,3.351096713285926
7.404066543438212e-07,0.003445401752063777,3.380862290441993
7.604066543438244e-07,0.00444738505309933,3.380862290441993
7.80406654343814e-07,0.004113390619420913,3.380862290441993
8.004066543438172e-07,0.002777412884706641,3.384582987586502
8.204066543438204e-07,0.003111407318385209,3.373420896152977
8.404066543438236e-07,0.004447385053100088,3.380862290441998
8.604066543438133e-07,0.005783362787813145,3.392024381875514
8.804066543438165e-07,0.004447385053099481,3.38830368473101
9.004066543438197e-07,0.003111407318385209,3.369700199008468
9.204066543438229e-07,0.004113390619421673,3.362258804719456
9.404066543438125e-07,0.005783362787812992,3.373420896152972
9.604066543438157e-07,0.005783362787813752,3.380862290441993
9.804066543438189e-07,0.004447385053099481,3.384582987586502
1.000406654343822e-06,0.004113390619420913,3.36597950186396
1.020406654343812e-06,0.00444738505309933,3.362258804719453
1.040406654343815e-06,0.005783362787813752,3.369700199008468
1.060406654343818e-06,0.006451351655170888,3.392024381875518
1.080406654343821e-06,0.007453334956206592,3.403186473309044
1.100406654343825e-06,0.005449368354134729,3.384582987586505
1.120406654343814e-06,0.004447385053099481,3.392024381875518
1.140406654343817e-06,0.005783362787813752,3.392024381875518
1.160406654343821e-06,0.00611735722149232,3.384582987586502
1.180406654343824e-06,0.00444738505309933,3.388303684731005
1.200406654343813e-06,0.004113390619420913,3.377141593297485
1.220406654343817e-06,0.003445401752063777,3.38830368473101
1.24040665434382e-06,0.004447385053099481,3.380862290441993
1.260406654343823e-06,0.006451351655170433,3.388303684731014
1.280406654343813e-06,0.00544936835413564,3.395745079020024
1.300406654343816e-06,0.005783362787813752,3.380862290441993
1.320406654343819e-06,0.006451351655170888,3.38830368473101
1.340406654343822e-06,0.007119340522528024,3.392024381875518
1.360406654343812e-06,0.006785346088849608,3.388303684731012
1.380406654343815e-06,0.007119340522528024,3.399465776164535
1.400406654343818e-06,0.006451351655170888,3.373420896152977
1.420406654343821e-06,0.00611735722149232,3.377141593297485
1.440406654343825e-06,0.00611735722149232,3.38830368473101
1.460406654343814e-06,0.00611735722149232,3.38830368473101
1.480406654343817e-06,0.005783362787813752,3.377141593297485
1.500406654343821e-06,0.005783362787813752,3.369700199008468
1.520406654343824e-06,0.007453334956206288,3.369700199008475
1.540406654343814e-06,0.006785346088849456,3.384582987586502
1.560406654343817e-06,0.007453334956206592,3.380862290441993
1.58040665434382e-06,0.007453334956206592,3.377141593297485
1.600406654343823e-06,0.005115373920456313,3.380862290441991
1.620406654343813e-06,0.004447385053099785,3.377141593297487
1.640406654343816e-06,0.004781379486778049,3.373420896152977
1.660406654343819e-06,0.004781379486778049,3.380862290441993
1.680406654343822e-06,0.003445401752063777,3.377141593297485
1.700406654343812e-06,0.003445401752063777,3.369700199008471
1.720406654343815e-06,0.004113390619420913,3.384582987586502
1.740406654343818e-06,0.004781379486778049,3.395745079020027
1.760406654343822e-06,0.004113390619420913,3.399465776164535
1.780406654343811e-06,0.006451351655169825,3.380862290442002
1.800406654343814e-06,0.00611735722149232,3.377141593297485
1.820406654343818e-06,0.005783362787813752,3.38830368473101
1.840406654343821e-06,0.007453334956206592,3.395745079020027
1.860406654343824e-06,0.006785346088849304,3.406907170453549
1.880406654343814e-06,0.006451351655170888,3.399465776164535
1.900406654343817e-06,0.005449368354135184,3.380862290441993
1.92040665434382e-06,0.005115373920456617,3.377141593297485
1.940406654343823e-06,0.003779396185743256,3.392024381875517
1.960406654343813e-06,0.005783362787812841,3.388303684731012
1.980406654343816e-06,0.004781379486778049,3.399465776164535
2.000406654343819e-06,0.005449368354135184,3.369700199008468
2.020406654343822e-06,0.006117357221492928,3.377141593297488
2.040406654343812e-06,0.007453334956205985,3.384582987586498
2.060406654343815e-06,0.006785346088849456,3.384582987586502
2.080406654343819e-06,0.008121323823563727,3.392024381875518
2.100406654343822e-06,0.007453334956206592,3.369700199008468
2.120406654343811e-06,0.006451351655171344,3.369700199008468
2.140406654343815e-06,0.00611735722149232,3.380862290441993
2.160406654343818e-06,0.005115373920456617,3.392024381875518
2.180406654343821e-06,0.004781379486778049,3.395745079020027
2.200406654343824e-06,0.004113390619421065,3.377141593297485
2.220406654343814e-06,0.004447385053099481,3.377141593297485
2.240406654343817e-06,0.004447385053099481,3.395745079020027
2.26040665434382e-06,0.005783362787813752,3.395745079020027
2.280406654343823e-06,0.00511537392045692,3.399465776164524
2.300406654343813e-06,0.005783362787813448,3.373420896152989
2.320406654343816e-06,0.006785346088849456,3.373420896152977
2.340406654343819e-06,0.006785346088849456,3.395745079020027
2.360406654343823e-06,0.007453334956206744,3.395745079020029
2.380406654343812e-06,0.007787329389885008,3.399465776164534
2.400406654343815e-06,0.007119340522528024,3.377141593297485
2.420406654343819e-06,0.006785346088849456,3.384582987586502
2.440406654343822e-06,0.006451351655170888,3.373420896152977
2.460406654343811e-06,0.007453334956206137,3.39202438187551
2.480406654343815e-06,0.007119340522528024,3.395745079020027
2.500406654343818e-06,0.006785346088849456,3.358538107574943
2.520406654343821e-06,0.006785346088849456,3.362258804719451
2.540406654343824e-06,0.00611735722149232,3.369700199008476
2.560406654343814e-06,0.00611735722149232,3.38830368473101
2.580406654343817e-06,0.006451351655170888,3.36597950186396
2.60040665434382e-06,0.006451351655170888,3.358538107574943
2.620406654343824e-06,0.005783362787813752,3.365979501863963
2.640406654343813e-06,0.005783362787813752,3.373420896152973
2.660406654343816e-06,0.006451351655170888,3.380862290441993
2.68040665434382e-06,0.006785346088849456,3.36597950186396
2.700406654343823e-06,0.00544936835413564,3.362258804719451
2.720406654343812e-06,0.006451351655170433,3.362258804719451
2.740406654343816e-06,0.00611735722149232,3.362258804719451
2.760406654343819e-06,0.007453334956206592,3.38830368473101
2.780406654343822e-06,0.006785346088849456,3.373420896152977
2.800406654343812e-06,0.007787329389884704,3.362258804719456
2.820406654343815e-06,0.00611735722149232,3.362258804719451
2.840406654343818e-06,0.005115373920456617,3.377141593297485
2.860406654343821e-06,0.007453334956206592,3.377141593297485
2.880406654343824e-06,0.007453334956206288,3.380862290441978
2.900406654343814e-06,0.006785346088849456,3.347376016141417
2.920406654343817e-06,0.007119340522528024,3.347376016141417
2.94040665434382e-06,0.005783362787813752,3.358538107574943
2.960406654343824e-06,0.006117357221491713,3.365979501863966
2.980406654343813e-06,0.004781379486778656,3.380862290441986
3.000406654343816e-06,0.005783362787813752,3.362258804719451
3.02040665434382e-06,0.005783362787813752,3.354817410430434
3.040406654343823e-06,0.005115373920456313,3.358538107574946
3.060406654343813e-06,0.004447385053099785,3.365979501863956
3.080406654343816e-06,0.004447385053099481,3.369700199008468
3.100406654343819e-06,0.005449368354135184,3.351096713285926
3.120406654343822e-06,0.005783362787813752,3.358538107574943
3.140406654343812e-06,0.00511537392045692,3.358538107574943
3.160406654343815e-06,0.006785346088849456,3.377141593297485
3.180406654343818e-06,0.006451351655170888,3.369700199008468
3.200406654343821e-06,0.006785346088849456,3.358538107574943
3.220406654343825e-06,0.005449368354134881,3.354817410430439
3.240406654343814e-06,0.004781379486778049,3.36597950186396
3.260406654343817e-06,0.004781379486778049,3.377141593297485
3.280406654343821e-06,0.005783362787813752,3.384582987586502
3.300406654343824e-06,0.005115373920456617,3.358538107574943
3.320406654343813e-06,0.005115373920456617,3.358538107574943
3.340406654343817e-06,0.005115373920456617,3.354817410430434
3.36040665434382e-06,0.007119340522528024,3.369700199008468
3.380406654343823e-06,0.007787329389884248,3.37714159329748
3.400406654343813e-06,0.005783362787814663,3.365979501863964
3.420406654343816e-06,0.006451351655170888,3.358538107574943
3.440406654343819e-06,0.006785346088849456,3.362258804719451
3.460406654343822e-06,0.007453334956206592,3.380862290441993
3.480406654343812e-06,0.007453334956206592,3.369700199008473
3.500406654343815e-06,0.007119340522528024,3.354817410430434
3.520406654343818e-06,0.006451351655170888,3.36597950186396
3.540406654343821e-06,0.007119340522528024,3.36597950186396
3.560406654343811e-06,0.006785346088849608,3.37714159329748
3.580406654343814e-06,0.007453334956206592,3.377141593297485
3.600406654343818e-06,0.006785346088849456,3.369700199008468
3.620406654343821e-06,0.006451351655170888,3.36597950186396
3.640406654343824e-06,0.005783362787814056,3.377141593297488
3.660406654343814e-06,0.006451351655170888,3.384582987586502
3.680406654343817e-06,0.00611735722149232,3.38830368473101
3.70040665434382e-06,0.00611735722149232,3.36597950186396
3.720406654343823e-06,0.006785346088849456,3.358538107574947
3.740406654343813e-06,0.006785346088849456,3.369700199008463
3.760406654343816e-06,0.007119340522528024,3.384582987586502
3.780406654343819e-06,0.007453334956206592,3.377141593297485
3.800406654343822e-06,0.00611735722149232,3.354817410430434
3.820406654343812e-06,0.007119340522527569,3.365979501863955
3.840406654343815e-06,0.00611735722149232,3.373420896152977
3.860406654343818e-06,0.008121323823563727,3.380862290441993
3.880406654343822e-06,0.008455318257242295,3.38830368473101
3.900406654343811e-06,0.007787329389885463,3.36597950186397
3.920406654343814e-06,0.007453334956206592,3.36597950186396
3.940406654343818e-06,0.009123307124599432,3.373420896152977
3.960406654343821e-06,0.007453334956206592,3.392024381875518
3.980406654343824e-06,0.006785346088849152,3.392024381875515
4.000406654343814e-06,0.00611735722149232,3.384582987586502
4.020406654343817e-06,0.005783362787813752,3.373420896152977
4.04040665434382e-06,0.006451351655170888,3.38830368473101
4.060406654343823e-06,0.006785346088850063,3.399465776164531
4.080406654343813e-06,0.00812132382356312,3.388303684731015
4.100406654343816e-06,0.00778732938988516,3.38830368473101
4.120406654343819e-06,0.006785346088849456,3.377141593297485
4.140406654343823e-06,0.006117357221492928,3.377141593297497
4.160406654343812e-06,0.007453334956205985,3.403186473309032
4.180406654343815e-06,0.006451351655170888,3.392024381875518
4.200406654343819e-06,0.007119340522528024,3.369700199008468
4.220406654343822e-06,0.005449368354135184,3.377141593297485
4.240406654343811e-06,0.005115373920456768,3.388303684731005
4.260406654343815e-06,0.00611735722149232,3.38830368473101
4.280406654343818e-06,0.004781379486778049,3.384582987586502
4.300406654343821e-06,0.004781379486778049,3.377141593297485
4.320406654343824e-06,0.004447385053100088,3.365979501863964
4.340406654343814e-06,0.005783362787813752,3.377141593297485
4.360406654343817e-06,0.005783362787813752,3.384582987586502
4.38040665434382e-06,0.00611735722149232,3.38830368473101
