traces_bank_current_trigger/sampling_freq_100MHz/SDIV/SDIV_10.csv

#Digilent WaveForms Oscilloscope Acquisition
#Device Name: Discovery2
#Serial Number: SN:210321B3D813
#Date Time: 2023-06-16 15:55:44.021
#Sample rate: 1e+08Hz
#Samples: 8192
#Trigger: Source: Channel 2 Type: Edge Condition: Rising Level: 2 V Hyst.: Auto HoldOff: 0 s
#Channel 1: Range: 10 mV/div Offset: 0 V Attenuation: 1 X Sample Mode: Average
#Channel 2: Range: 5 V/div Offset: 0 V Attenuation: 1 X Sample Mode: Average

Time (s),Channel 1 (V),Channel 2 (V)
-9.594493783303732e-07,0.008455318257242295,-0.008692808205203774
-9.494493783303716e-07,0.009791295991956567,0.02479346609537227
-9.3944937833037e-07,0.008455318257242448,-0.0161342024942156
-9.294493783303752e-07,0.00878931269092071,-0.004972111060700401
-9.194493783303736e-07,0.007453334956206592,0.02107276895086382
-9.09449378330372e-07,0.009123307124599432,-0.02357559678323757
-8.994493783303704e-07,0.008455318257242295,0.01363137466184692
-8.894493783303755e-07,0.007787329389885463,-0.01241350534970038
-8.794493783303739e-07,0.007453334956206592,0.02479346609537227
-8.694493783303724e-07,0.00778732938988516,0.00991067751733847
-8.594493783303708e-07,0.00778732938988516,-0.004972111060695325
-8.494493783303692e-07,0.00945730155827724,0.02851416323986379
-8.394493783303743e-07,0.00778732938988516,-0.008692808205203774
-8.294493783303727e-07,0.00778732938988516,0.03223486038438916
-8.194493783303711e-07,0.00778732938988516,0.00991067751733847
-8.094493783303695e-07,0.007453334956207504,-0.008692808205185162
-7.994493783303747e-07,0.009457301558277089,0.03223486038437055
-7.894493783303731e-07,0.008455318257242295,0.01363137466184692
-7.794493783303715e-07,0.009457301558278,0.01735207180635537
-7.694493783303699e-07,0.007453334956206592,0.03967625467339252
-7.594493783303751e-07,0.007453334956206592,0.009910677517352005
-7.494493783303735e-07,0.009123307124599432,0.05083834610693141
-7.394493783303719e-07,0.007119340522528024,0.002469283228321573
-7.294493783303703e-07,0.006785346088849456,0.02479346609537227
-7.194493783303755e-07,0.00645135165517104,0.02851416323987902
-7.094493783303739e-07,0.007453334956206592,0.01363137466184692
-6.994493783303723e-07,0.007453334956206592,0.04711764896242296
-6.894493783303707e-07,0.006451351655170888,-0.004972111060695325
-6.794493783303691e-07,0.007453334956205832,0.02107276895087904
-6.694493783303743e-07,0.005783362787813752,0.05455904325143986
-6.594493783303727e-07,0.006451351655170888,0.006189980372830022
-6.494493783303711e-07,0.007453334956206592,0.04711764896242296
-6.394493783303695e-07,0.00611735722149232,0.01735207180635875
-6.294493783303746e-07,0.00611735722149232,0.02479346609536888
-6.19449378330373e-07,0.007119340522528024,0.03967625467340606
-6.094493783303715e-07,0.00611735722149232,0.00991067751733847
-5.994493783303699e-07,0.006785346088849152,0.04339695181789928
-5.89449378330375e-07,0.006117357221492624,0.009910677517353701
-5.794493783303734e-07,0.006451351655170888,0.04711764896242296
-5.694493783303718e-07,0.006785346088849456,0.04711764896242296
-5.594493783303702e-07,0.007119340522528024,0.002469283228321573
-5.494493783303754e-07,0.006117357221492776,0.0433969518178959
-5.394493783303738e-07,0.006785346088849456,0.01363137466184692
-5.294493783303722e-07,0.007119340522528024,0.01363137466184692
-5.194493783303706e-07,0.005783362787813752,0.02851416323988071
-5.09449378330369e-07,0.006117357221492776,-0.01241350534969023
-4.994493783303742e-07,0.007119340522528024,0.03595555752889761
-4.894493783303726e-07,0.005115373920456617,0.006189980372830022
-4.79449378330371e-07,0.007453334956206592,0.00991067751733847
-4.694493783303694e-07,0.004781379486778201,0.03595555752888238
-4.594493783303746e-07,0.005115373920456617,0.002469283228321573
-4.49449378330373e-07,0.004447385053099481,0.03223486038438916
-4.394493783303714e-07,0.005449368354135184,0.01735207180635537
-4.294493783303698e-07,0.006117357221491865,0.01363137466185538
-4.19449378330375e-07,0.005115373920457072,0.0322348603843807
-4.094493783303734e-07,0.004447385053099481,-0.001251413916186876
-3.994493783303718e-07,0.00611735722149232,0.04339695181791451
-3.894493783303702e-07,0.004781379486778049,0.002469283228321573
-3.794493783303753e-07,0.007787329389883793,0.03595555752888238
-3.694493783303737e-07,0.00611735722149232,0.03595555752889761
-3.594493783303722e-07,0.004447385053099481,-0.004972111060695325
-3.494493783303706e-07,0.007119340522528024,0.01735207180635537
-3.39449378330369e-07,0.006117357221492928,0.01735207180635199
-3.294493783303741e-07,0.007453334956206592,0.00991067751733847
-3.194493783303725e-07,0.007119340522528024,0.04339695181791451
-3.094493783303709e-07,0.007119340522528024,0.002469283228321573
-2.994493783303693e-07,0.0077873293898844,0.03967625467338914
-2.894493783303745e-07,0.00611735722149232,0.002469283228321573
-2.794493783303729e-07,0.008789312690920863,0.01363137466184692
-2.694493783303713e-07,0.007453334956206592,0.03223486038438916
-2.594493783303697e-07,0.007119340522528176,-0.008692808205181778
-2.494493783303749e-07,0.00745333495620644,0.03967625467338406
-2.394493783303733e-07,0.007119340522528024,0.02107276895086382
-2.294493783303717e-07,0.007119340522528024,0.02851416323988071
-2.194493783303701e-07,0.006451351655170888,0.02479346609537227
-2.094493783303753e-07,0.006117357221492472,0.009910677517345238
-1.994493783303737e-07,0.008455318257242295,0.05083834610693141
-1.894493783303721e-07,0.00611735722149232,0.01363137466184692
-1.794493783303705e-07,0.007453334956206592,0.02851416323988071
-1.694493783303757e-07,0.005783362787814512,0.03967625467340098
-1.594493783303741e-07,0.004781379486778049,0.002469283228321573
-1.494493783303725e-07,0.006451351655170888,0.05083834610693141
-1.394493783303709e-07,0.005115373920456617,0.02479346609537227
-1.294493783303693e-07,0.007119340522526657,0.02479346609537565
-1.194493783303744e-07,0.004113390619420913,0.03223486038438916
-1.094493783303729e-07,0.005783362787813752,0.01735207180635537
-9.944937833037125e-08,0.00778732938988516,0.03223486038438916
-8.944937833036965e-08,0.004447385053100393,0.002469283228331725
-7.944937833037483e-08,0.006451351655169977,0.02479346609536211
-6.944937833037323e-08,0.00611735722149232,0.02851416323988071
-5.944937833037164e-08,0.005449368354135184,0.00991067751733847
-4.944937833037004e-08,0.006451351655170128,0.04711764896240604
-3.944937833037521e-08,0.004781379486778809,0.009910677517355387
-2.944937833037362e-08,0.006451351655170888,0.01363137466184692
-1.944937833037202e-08,0.003779396185742345,0.02851416323988071
-9.44937833037042e-09,0.005783362787813752,0.01735207180635537
5.506216696244022e-10,-0.01726225313599695,2.11210456416366
1.0550621669626e-08,0.01780716240024219,3.633869696268568
2.05506216696276e-08,0.001775429583670938,3.101810004603859
3.05506216696292e-08,0.01446721806345652,3.3399346218524
4.05506216696308e-08,0.007119340522531822,3.291565558973813
5.055062166962562e-08,0.01546920136449222,3.3399346218524
6.055062166962722e-08,0.00144143514999237,3.403186473309044
7.055062166962881e-08,0.003445401752063777,3.36597950186396
8.055062166963041e-08,-0.0002285370183983432,3.418069261887049
9.055062166962523e-08,0.004447385053097355,3.354817410430463
1.005506216696268e-07,0.0001054574152780984,3.406907170453553
1.105506216696284e-07,0.001107440716313802,3.313889741840841
1.2055062166963e-07,0.007453334956207199,3.358538107574929
1.305506216696249e-07,0.008789312690920256,3.328772530418888
1.405506216696264e-07,0.007453334956206592,3.325051833274367
1.50550621669628e-07,0.009123307124599432,3.362258804719451
1.605506216696296e-07,0.007119340522528024,3.354817410430434
1.705506216696245e-07,0.00745333495620644,3.373420896152968
1.805506216696261e-07,0.002443418451028074,3.406907170453553
1.905506216696277e-07,0.002777412884706641,3.36597950186396
2.005506216696293e-07,0.003445401752063777,3.41434856474257
2.105506216696309e-07,0.001107440716315169,3.369700199008468
2.205506216696257e-07,0.004113390619420913,3.369700199008468
2.305506216696273e-07,0.004781379486778049,3.369700199008468
2.405506216696289e-07,0.00611735722149232,3.332493227563384
2.505506216696305e-07,0.006785346088848696,3.377141593297466
2.605506216696253e-07,0.005115373920457376,3.336213924707911
2.705506216696269e-07,0.007453334956206592,3.380862290441993
2.805506216696285e-07,0.005115373920456617,3.384582987586502
2.905506216696301e-07,0.004781379486777289,3.365979501863985
3.005506216696249e-07,0.003111407318385969,3.421789959031561
3.105506216696265e-07,0.004113390619420913,3.36597950186396
3.205506216696281e-07,0.004113390619420913,3.384582987586502
3.305506216696297e-07,0.004113390619420913,3.373420896152977
3.405506216696245e-07,0.005783362787812992,3.347376016141429
3.505506216696261e-07,0.006451351655170888,3.373420896152977
3.605506216696277e-07,0.005783362787813752,3.354817410430434
3.705506216696293e-07,0.006451351655170888,3.358538107574943
3.805506216696309e-07,0.005783362787813297,3.373420896152968
3.905506216696258e-07,0.004781379486778049,3.354817410430434
4.005506216696273e-07,0.005449368354135184,3.395745079020027
4.105506216696289e-07,0.004781379486778049,3.362258804719451
4.205506216696305e-07,0.005449368354134577,3.373420896152985
4.305506216696254e-07,0.004113390619421521,3.39202438187551
4.40550621669627e-07,0.005783362787813752,3.354817410430434
4.505506216696286e-07,0.006451351655170888,3.377141593297485
4.605506216696302e-07,0.005783362787814967,3.351096713285934
4.70550621669625e-07,0.008455318257241079,3.369700199008459
4.805506216696266e-07,0.005449368354135184,3.36597950186396
4.905506216696282e-07,0.007453334956206592,3.36597950186396
5.005506216696298e-07,0.005783362787813752,3.377141593297485
5.105506216696246e-07,0.004781379486778504,3.384582987586498
5.205506216696262e-07,0.005115373920456617,3.384582987586502
5.305506216696278e-07,0.005783362787813752,3.406907170453553
5.405506216696294e-07,0.004447385053099481,3.354817410430434
5.50550621669631e-07,0.008121323823562817,3.410627867598046
5.605506216696258e-07,0.00611735722149232,3.377141593297485
5.705506216696274e-07,0.008789312690920863,3.354817410430434
5.80550621669629e-07,0.007453334956206592,3.392024381875518
5.905506216696306e-07,0.007119340522528024,3.347376016141436
6.005506216696254e-07,0.007119340522528024,3.38830368473101
6.10550621669627e-07,0.006785346088849456,3.384582987586502
6.205506216696286e-07,0.007453334956206592,3.377141593297485
6.305506216696302e-07,0.008121323823562664,3.392024381875506
6.405506216696251e-07,0.005783362787814815,3.365979501863972
6.505506216696266e-07,0.007119340522528024,3.406907170453553
6.605506216696282e-07,0.005449368354135184,3.362258804719451
6.705506216696298e-07,0.006451351655170888,3.373420896152977
6.805506216696247e-07,0.006785346088849304,3.384582987586497
6.905506216696263e-07,0.007119340522528024,3.347376016141417
7.005506216696279e-07,0.006785346088849456,3.406907170453553
7.105506216696295e-07,0.005449368354135184,3.347376016141417
7.205506216696311e-07,0.007119340522527113,3.37342089615298
7.305506216696259e-07,0.005115373920456617,3.380862290441993
7.405506216696275e-07,0.003445401752063777,3.362258804719451
7.505506216696291e-07,0.00611735722149232,3.399465776164535
7.605506216696307e-07,0.004447385053100241,3.362258804719465
7.705506216696255e-07,0.00611735722149232,3.392024381875518
7.805506216696271e-07,0.004447385053099481,3.403186473309044
7.905506216696287e-07,0.005115373920456617,3.36597950186396
8.005506216696303e-07,0.005449368354135184,3.403186473309034
8.105506216696251e-07,0.005449368354135184,3.380862290442003
8.205506216696267e-07,0.006451351655170888,3.380862290441993
8.305506216696283e-07,0.004781379486778049,3.395745079020027
8.405506216696299e-07,0.004781379486778049,3.347376016141417
8.505506216696247e-07,0.006785346088848544,3.399465776164512
8.605506216696263e-07,0.005783362787813752,3.373420896152977
8.705506216696279e-07,0.008789312690920863,3.380862290441993
8.805506216696295e-07,0.006451351655170888,3.399465776164535
8.905506216696244e-07,0.007787329389884553,3.358538107574961
9.005506216696259e-07,0.00778732938988516,3.395745079020027
9.105506216696275e-07,0.006451351655170888,3.362258804719451
9.205506216696291e-07,0.007119340522528024,3.373420896152977
9.305506216696307e-07,0.008121323823562968,3.39946577616452
9.405506216696256e-07,0.006451351655170888,3.36597950186396
9.505506216696272e-07,0.007119340522528024,3.380862290441993
9.605506216696288e-07,0.005449368354135184,3.377141593297485
9.705506216696304e-07,0.007119340522527721,3.369700199008478
9.805506216696252e-07,0.006451351655171192,3.392024381875508
9.905506216696268e-07,0.006451351655170888,3.354817410430434
1.000550621669628e-06,0.007119340522528024,3.392024381875518
1.01055062166963e-06,0.007787329389885311,3.358538107574951
1.020550621669625e-06,0.008121323823563575,3.377141593297476
1.030550621669626e-06,0.006785346088849456,3.392024381875518
1.040550621669628e-06,0.00778732938988516,3.36597950186396
1.05055062166963e-06,0.006451351655170888,3.395745079020027
1.060550621669624e-06,0.006785346088849304,3.384582987586507
1.070550621669626e-06,0.005449368354135184,3.377141593297485
1.080550621669628e-06,0.00611735722149232,3.399465776164535
1.090550621669629e-06,0.00778732938988516,3.336213924707892
1.100550621669631e-06,0.006785346088849304,3.380862290441981
1.110550621669626e-06,0.006451351655170888,3.354817410430434
1.120550621669627e-06,0.008121323823563727,3.373420896152977
1.130550621669629e-06,0.006451351655170888,3.38830368473101
1.14055062166963e-06,0.007119340522527873,3.351096713285949
1.150550621669625e-06,0.006785346088849608,3.40318647330902
1.160550621669627e-06,0.007453334956206592,3.362258804719451
1.170550621669628e-06,0.008455318257242295,3.38830368473101
1.18055062166963e-06,0.007787329389885008,3.3920243818755
1.190550621669625e-06,0.007453334956206744,3.351096713285944
1.200550621669626e-06,0.009791295991956567,3.380862290441993
1.210550621669628e-06,0.008455318257242295,3.362258804719451
1.22055062166963e-06,0.009123307124599432,3.377141593297485
1.230550621669624e-06,0.009123307124599432,3.369700199008471
1.240550621669626e-06,0.009123307124599432,3.362258804719451
1.250550621669628e-06,0.008789312690920863,3.392024381875518
1.260550621669629e-06,0.008121323823563727,3.36597950186396
1.270550621669631e-06,0.01112727372666932,3.377141593297492
1.280550621669626e-06,0.00778732938988516,3.392024381875518
1.290550621669627e-06,0.006451351655170888,3.358538107574943
1.300550621669629e-06,0.008121323823563727,3.406907170453553
1.31055062166963e-06,0.006785346088850063,3.37342089615297
1.320550621669625e-06,0.00812132382356312,3.358538107574949
1.330550621669627e-06,0.005115373920456617,3.399465776164535
1.340550621669629e-06,0.007119340522528024,3.362258804719451
1.35055062166963e-06,0.007119340522527113,3.414348564742549
1.360550621669625e-06,0.005115373920457527,3.369700199008488
1.370550621669627e-06,0.006451351655170888,3.377141593297485
1.380550621669628e-06,0.005115373920456617,3.392024381875518
1.39055062166963e-06,0.004447385053099481,3.362258804719451
1.400550621669625e-06,0.005783362787813145,3.410627867598039
1.410550621669626e-06,0.005783362787813752,3.380862290441993
1.420550621669628e-06,0.006451351655170888,3.384582987586502
1.430550621669629e-06,0.00611735722149232,3.392024381875518
1.440550621669631e-06,0.00611735722149232,3.369700199008483
1.450550621669626e-06,0.00611735722149232,3.403186473309044
1.460550621669627e-06,0.007119340522528024,3.369700199008468
1.470550621669629e-06,0.006785346088849456,3.380862290441993
1.480550621669631e-06,0.00611735722149232,3.39574507902001
1.490550621669625e-06,0.00611735722149232,3.358538107574959
1.500550621669627e-06,0.007119340522528024,3.399465776164535
1.510550621669629e-06,0.007119340522528024,3.373420896152977
1.52055062166963e-06,0.009457301558276633,3.373420896152987
1.530550621669625e-06,0.006451351655172255,3.395745079020017
1.540550621669627e-06,0.008121323823563727,3.347376016141417
1.550550621669628e-06,0.009457301558278,3.418069261887078
1.56055062166963e-06,0.006451351655170888,3.377141593297485
1.570550621669625e-06,0.008789312690919799,3.380862290441991
1.580550621669626e-06,0.00778732938988516,3.399465776164535
1.590550621669628e-06,0.00611735722149232,3.358538107574943
1.600550621669629e-06,0.008455318257242295,3.399465776164535
1.610550621669631e-06,0.006785346088850519,3.384582987586504
1.620550621669626e-06,0.009123307124599432,3.38830368473101
1.630550621669627e-06,0.00611735722149232,3.392024381875518
1.640550621669629e-06,0.008789312690920863,3.36597950186396
1.650550621669631e-06,0.007787329389885463,3.406907170453544
1.660550621669625e-06,0.008455318257242295,3.38830368473101
1.670550621669627e-06,0.01012529042563514,3.377141593297485
1.680550621669629e-06,0.008455318257242295,3.399465776164535
1.69055062166963e-06,0.008121323823564638,3.354817410430458
1.700550621669625e-06,0.01012529042563422,3.406907170453529
1.710550621669627e-06,0.009457301558278,3.38830368473101
1.720550621669628e-06,0.01112727372667084,3.380862290441993
1.73055062166963e-06,0.009123307124599432,3.392024381875518
1.740550621669625e-06,0.01012529042563468,3.365979501863972
1.750550621669626e-06,0.009457301558278,3.395745079020027
1.760550621669628e-06,0.008789312690920863,3.369700199008468
1.770550621669629e-06,0.01012529042563514,3.377141593297485
1.780550621669624e-06,0.009123307124599888,3.395745079020019
1.790550621669626e-06,0.007119340522528024,3.362258804719451
1.800550621669627e-06,0.008455318257242295,3.392024381875518
1.810550621669629e-06,0.009457301558278,3.38830368473101
1.820550621669631e-06,0.008455318257242295,3.380862290441993
1.830550621669626e-06,0.008455318257242295,3.380862290441993
1.840550621669627e-06,0.008455318257242295,3.362258804719451
1.850550621669629e-06,0.009123307124599432,3.395745079020027
1.86055062166963e-06,0.007787329389885463,3.365979501863964
1.870550621669625e-06,0.008455318257241991,3.37714159329748
1.880550621669627e-06,0.007453334956206592,3.399465776164535
1.890550621669628e-06,0.009457301558278,3.358538107574943
1.90055062166963e-06,0.008789312690920863,3.384582987586502
1.910550621669625e-06,0.008455318257242448,3.369700199008475
1.920550621669626e-06,0.009791295991956567,3.369700199008468
1.930550621669628e-06,0.008121323823563727,3.395745079020027
1.94055062166963e-06,0.009123307124599432,3.362258804719451
1.950550621669624e-06,0.007119340522528935,3.377141593297478
1.960550621669626e-06,0.008455318257242295,3.354817410430434
1.970550621669628e-06,0.007453334956206592,3.373420896152977
1.980550621669629e-06,0.008789312690920863,3.380862290441993
1.990550621669631e-06,0.006451351655171648,3.358538107574959
2.000550621669626e-06,0.008121323823563727,3.395745079020027
2.010550621669627e-06,0.006451351655170888,3.362258804719451
2.020550621669629e-06,0.009457301558278,3.36597950186396
2.03055062166963e-06,0.007453334956205985,3.365979501863958
2.040550621669625e-06,0.006117357221492929,3.362258804719453
2.050550621669627e-06,0.00611735722149232,3.384582987586502
2.060550621669628e-06,0.00778732938988516,3.369700199008468
2.07055062166963e-06,0.007787329389884704,3.347376016141432
2.080550621669625e-06,0.006785346088849911,3.380862290441978
2.090550621669626e-06,0.008121323823563727,3.336213924707892
2.100550621669628e-06,0.006785346088849456,3.362258804719451
2.11055062166963e-06,0.00778732938988516,3.369700199008468
2.120550621669624e-06,0.00945730155827724,3.362258804719455
2.130550621669626e-06,0.00611735722149232,3.380862290441993
2.140550621669628e-06,0.006451351655170888,3.343655318996909
2.150550621669629e-06,0.00778732938988516,3.395745079020027
2.160550621669631e-06,0.005783362787814359,3.365979501863955
2.170550621669626e-06,0.007119340522528024,3.354817410430434
2.180550621669627e-06,0.005449368354135184,3.369700199008468
2.190550621669629e-06,0.00611735722149232,3.325051833274367
2.20055062166963e-06,0.007787329389883793,3.406907170453539
