traces_bank_current_trigger/sampling_freq_100MHz/SDIV/SDIV_5.csv

#Digilent WaveForms Oscilloscope Acquisition
#Device Name: Discovery2
#Serial Number: SN:210321B3D813
#Date Time: 2023-06-16 15:30:35.828
#Sample rate: 1e+08Hz
#Samples: 8192
#Trigger: Source: Channel 2 Type: Edge Condition: Rising Level: 2 V Hyst.: Auto HoldOff: 0 s
#Channel 1: Range: 10 mV/div Offset: 0 V Attenuation: 1 X Sample Mode: Average
#Channel 2: Range: 5 V/div Offset: 0 V Attenuation: 1 X Sample Mode: Average

Time (s),Channel 1 (V),Channel 2 (V)
-9.576514032496301e-07,0.009457301558278,-0.01241350534971222
-9.476514032496285e-07,0.007453334956206592,0.03595555752889761
-9.376514032496269e-07,0.007787329389885311,0.00991067751733001
-9.276514032496321e-07,0.008121323823563575,-0.008692808205195315
-9.176514032496305e-07,0.007453334956206592,0.03595555752889761
-9.076514032496289e-07,0.006451351655170888,-0.02357559678323757
-8.976514032496273e-07,0.007453334956206592,0.01363137466184692
-8.876514032496325e-07,0.007453334956206592,-0.001251413916180109
-8.776514032496309e-07,0.008121323823563727,-0.01613420249422067
-8.676514032496293e-07,0.007453334956206592,0.03595555752889761
-8.576514032496277e-07,0.007119340522528024,-0.01241350534971222
-8.476514032496261e-07,0.01012529042563377,0.02479346609535535
-8.376514032496312e-07,0.007119340522528024,-0.01241350534971222
-8.276514032496296e-07,0.008789312690920863,-0.004972111060695325
-8.17651403249628e-07,0.007119340522528024,0.02851416323988071
-8.076514032496264e-07,0.006451351655172255,-0.01613420249420883
-7.976514032496316e-07,0.009457301558276633,0.009910677517326626
-7.8765140324963e-07,0.008455318257242295,-0.01613420249422067
-7.776514032496284e-07,0.008455318257242295,-0.004972111060695325
-7.676514032496268e-07,0.006451351655171192,0.009910677517324934
-7.57651403249632e-07,0.007119340522527721,-0.01985489963871559
-7.476514032496304e-07,0.008789312690920863,0.002469283228321573
-7.376514032496288e-07,0.006451351655170888,-0.004972111060695325
-7.276514032496272e-07,0.006785346088849456,-0.008692808205203774
-7.176514032496324e-07,0.006117357221492624,0.006189980372823254
-7.076514032496308e-07,0.005449368354135184,-0.004972111060695325
-6.976514032496292e-07,0.006785346088849456,0.02107276895086382
-6.876514032496276e-07,0.005115373920456617,0.002469283228321573
-6.77651403249626e-07,0.008455318257240472,-0.004972111060678405
-6.676514032496312e-07,0.004447385053099481,0.03223486038438916
-6.576514032496296e-07,0.005115373920456617,-0.008692808205203774
-6.47651403249628e-07,0.007453334956206592,0.01735207180635537
-6.376514032496264e-07,0.003445401752065448,0.01735207180634691
-6.276514032496316e-07,0.007119340522526354,-0.001251413916178418
-6.1765140324963e-07,0.004781379486778049,0.02479346609537227
-6.076514032496284e-07,0.004113390619420913,-0.02729629392774602
-5.976514032496268e-07,0.006451351655169825,0.035955557528879
-5.876514032496319e-07,0.004113390619421976,-0.004972111060676715
-5.776514032496303e-07,0.005783362787813752,0.002469283228321573
-5.676514032496287e-07,0.005115373920456617,0.01735207180635537
-5.576514032496271e-07,0.00778732938988516,-0.01613420249422067
-5.476514032496323e-07,0.007119340522528328,0.03223486038436717
-5.376514032496307e-07,0.005449368354135184,-0.01241350534971222
-5.276514032496291e-07,0.008789312690920863,-0.01985489963872912
-5.176514032496275e-07,0.006785346088849456,0.02107276895086382
-5.076514032496259e-07,0.007119340522528328,-0.02357559678321727
-4.976514032496311e-07,0.00778732938988516,0.02107276895086382
-4.876514032496295e-07,0.006785346088849456,0.006189980372830022
-4.776514032496279e-07,0.007453334956206592,0.002469283228321573
-4.676514032496263e-07,0.008789312690919648,0.02107276895085705
-4.576514032496315e-07,0.00611735722149232,0.006189980372830022
-4.476514032496299e-07,0.00778732938988516,0.02479346609537227
-4.376514032496283e-07,0.006451351655170888,0.002469283228321573
-4.276514032496267e-07,0.007119340522527873,0.009910677517345238
-4.176514032496319e-07,0.006785346088849608,0.0247934660953655
-4.076514032496303e-07,0.00778732938988516,0.002469283228321573
-3.976514032496287e-07,0.006451351655170888,0.02851416323988071
-3.876514032496271e-07,0.006451351655170888,0.00991067751733847
-3.776514032496323e-07,0.007787329389884553,0.01363137466184523
-3.676514032496307e-07,0.006785346088849456,0.03595555752889761
-3.576514032496291e-07,0.006451351655170888,-0.004972111060695325
-3.476514032496275e-07,0.00778732938988516,0.03595555752889761
-3.376514032496259e-07,0.006117357221492928,0.01363137466184692
-3.27651403249631e-07,0.007453334956206592,0.01363137466184692
-3.176514032496294e-07,0.007453334956206592,0.03223486038438916
-3.076514032496278e-07,0.00778732938988516,-0.004972111060695325
-2.976514032496262e-07,0.008455318257241688,0.04711764896241281
-2.876514032496314e-07,0.007119340522528024,0.02479346609537227
-2.776514032496298e-07,0.007453334956206592,-0.008692808205203774
-2.676514032496282e-07,0.008121323823563727,0.06200043754045675
-2.576514032496266e-07,0.006451351655172103,0.02851416323989256
-2.476514032496318e-07,0.009123307124598218,0.05455904325142801
-2.376514032496302e-07,0.007119340522528024,0.01363137466184692
-2.276514032496286e-07,0.008121323823563727,0.02851416323988071
-2.17651403249627e-07,0.007453334956206592,0.05455904325143986
-2.076514032496322e-07,0.006451351655171344,0.01363137466186553
-1.976514032496306e-07,0.008121323823563727,0.03967625467340606
-1.87651403249629e-07,0.007119340522528024,0.02851416323988071
-1.776514032496274e-07,0.008455318257242295,0.02107276895086382
-1.676514032496326e-07,0.005783362787814967,0.04339695181790436
-1.57651403249631e-07,0.004781379486778049,0.00991067751733847
-1.476514032496294e-07,0.00778732938988516,0.06572113468496521
-1.376514032496278e-07,0.007119340522528024,0.02107276895086382
-1.276514032496262e-07,0.01012529042563331,0.02851416323989087
-1.176514032496314e-07,0.00611735722149232,0.05083834610693141
-1.076514032496298e-07,0.00778732938988516,0.00991067751733847
-9.765140324962816e-08,0.007453334956206592,0.04339695181791451
-8.765140324962657e-08,0.007119340522527873,0.03223486038439255
-7.765140324963174e-08,0.006785346088849608,0.03967625467340267
-6.765140324963015e-08,0.008121323823563727,0.05455904325143986
-5.765140324962855e-08,0.00611735722149232,0.00991067751733847
-4.765140324962695e-08,0.007453334956205985,0.03595555752889592
-3.765140324963213e-08,0.006117357221492929,0.03223486038439086
-2.765140324963053e-08,0.005783362787813752,0.03967625467340606
-1.765140324962893e-08,0.007119340522528024,0.04339695181791451
-7.651403249627332e-09,0.003445401752063777,0.06944183182947365
2.34859675036749e-09,-0.01425630323289227,2.588353798660548
1.234859675036909e-08,0.01680517909920649,3.492483204777247
2.234859675037069e-08,0.007119340522528024,3.168782553205012
3.234859675037228e-08,0.01212925702770654,3.347376016141417
4.234859675037388e-08,0.004781379486782909,3.306448347551843
5.23485967503687e-08,0.01546920136449222,3.347376016141417
6.23485967503703e-08,0.005783362787813752,3.410627867598061
7.23485967503719e-08,0.002443418451028074,3.380862290441993
8.23485967503735e-08,0.001441435149993433,3.421789959031552
9.234859675036832e-08,0.003779396185741282,3.347376016141451
1.023485967503699e-07,0.001775429583670938,3.395745079020027
1.123485967503715e-07,0.001107440716313802,3.336213924707892
1.223485967503731e-07,0.005783362787815726,3.321331136129865
1.323485967503679e-07,0.01012529042563316,3.336213924707885
1.423485967503695e-07,0.008455318257242295,3.313889741840841
1.523485967503711e-07,0.006785346088849456,3.354817410430434
1.623485967503727e-07,0.006785346088849456,3.351096713285926
1.723485967503676e-07,0.009123307124598369,3.358538107574939
1.823485967503692e-07,0.003111407318385209,3.406907170453553
1.923485967503708e-07,0.003779396185742345,3.373420896152977
2.023485967503724e-07,0.004447385053099481,3.403186473309044
2.123485967503739e-07,0.003445401752064537,3.358538107574932
2.223485967503688e-07,0.005115373920456617,3.336213924707892
2.323485967503704e-07,0.006451351655170888,3.362258804719451
2.42348596750372e-07,0.006785346088849456,3.310169044696333
2.523485967503736e-07,0.009123307124598065,3.365979501863956
2.623485967503684e-07,0.006117357221493687,3.358538107574946
2.7234859675037e-07,0.00778732938988516,3.36597950186396
2.823485967503716e-07,0.00611735722149232,3.403186473309044
2.923485967503732e-07,0.004113390619420609,3.351096713285953
3.02348596750368e-07,0.003445401752064081,3.410627867598034
3.123485967503696e-07,0.002443418451028074,3.392024381875518
3.223485967503712e-07,0.004781379486778049,3.354817410430434
3.323485967503728e-07,0.003779396185742345,3.380862290441993
3.423485967503676e-07,0.005115373920456009,3.336213924707912
3.523485967503692e-07,0.006785346088849456,3.358538107574943
3.623485967503708e-07,0.007119340522528024,3.362258804719451
3.723485967503724e-07,0.006785346088849456,3.362258804719451
3.82348596750374e-07,0.006785346088848089,3.399465776164515
3.923485967503688e-07,0.003779396185742345,3.354817410430434
4.023485967503704e-07,0.003779396185742345,3.41434856474257
4.12348596750372e-07,0.003779396185742345,3.384582987586502
4.223485967503736e-07,0.005449368354134273,3.380862290442005
4.323485967503685e-07,0.003445401752064689,3.406907170453541
4.423485967503701e-07,0.005115373920456617,3.343655318996909
4.523485967503717e-07,0.005449368354135184,3.395745079020027
4.623485967503732e-07,0.005115373920457072,3.37342089615297
4.723485967503681e-07,0.006117357221491865,3.358538107574949
4.823485967503697e-07,0.009123307124599432,3.384582987586502
4.923485967503713e-07,0.005115373920456617,3.358538107574943
5.023485967503729e-07,0.007453334956206592,3.403186473309044
5.123485967503677e-07,0.006117357221492929,3.380862290442003
5.223485967503693e-07,0.005449368354135184,3.36597950186396
5.323485967503709e-07,0.005449368354135184,3.403186473309044
5.423485967503725e-07,0.00611735722149232,3.358538107574943
5.523485967503741e-07,0.006451351655170433,3.392024381875508
5.623485967503689e-07,0.005449368354135184,3.369700199008468
5.723485967503705e-07,0.00778732938988516,3.373420896152977
5.823485967503721e-07,0.00778732938988516,3.395745079020027
5.923485967503737e-07,0.008121323823564335,3.365979501863976
6.023485967503685e-07,0.009457301558278,3.403186473309044
6.123485967503701e-07,0.00778732938988516,3.392024381875518
6.223485967503717e-07,0.01079327929299227,3.377141593297485
6.323485967503733e-07,0.00812132382356388,3.399465776164515
6.423485967503681e-07,0.008455318257242142,3.354817410430455
6.523485967503697e-07,0.008455318257242295,3.406907170453553
6.623485967503713e-07,0.008121323823563727,3.384582987586502
6.723485967503729e-07,0.008789312690920863,3.380862290441993
6.823485967503678e-07,0.009457301558277696,3.395745079020021
6.923485967503694e-07,0.007119340522528024,3.351096713285926
7.02348596750371e-07,0.008455318257242295,3.395745079020027
7.123485967503726e-07,0.007453334956206592,3.377141593297485
7.223485967503741e-07,0.006785346088849759,3.369700199008483
7.32348596750369e-07,0.007453334956206592,3.403186473309044
7.423485967503706e-07,0.006785346088849456,3.351096713285926
7.523485967503722e-07,0.009457301558278,3.425510656176095
7.623485967503738e-07,0.006785346088849608,3.380862290441991
7.723485967503686e-07,0.007119340522528024,3.377141593297485
7.823485967503702e-07,0.008121323823563727,3.395745079020027
7.923485967503718e-07,0.00611735722149232,3.358538107574943
8.023485967503734e-07,0.009457301558276633,3.403186473309034
8.123485967503682e-07,0.006451351655172255,3.380862290442003
8.223485967503698e-07,0.0104592848593137,3.38830368473101
8.323485967503714e-07,0.008455318257242295,3.395745079020027
8.42348596750373e-07,0.009123307124599432,3.36597950186396
8.523485967503678e-07,0.01012529042563468,3.403186473309027
8.623485967503694e-07,0.006785346088849456,3.38830368473101
8.72348596750371e-07,0.01112727372667084,3.369700199008468
8.823485967503726e-07,0.009457301558278,3.395745079020027
8.923485967503674e-07,0.01012529042563483,3.362258804719466
9.02348596750369e-07,0.0104592848593137,3.403186473309044
9.123485967503706e-07,0.01012529042563514,3.384582987586502
9.223485967503722e-07,0.01146126816034941,3.38830368473101
9.323485967503738e-07,0.01079327929299136,3.410627867598047
9.423485967503687e-07,0.008789312690920863,3.380862290441993
9.523485967503703e-07,0.009791295991956567,3.38830368473101
9.623485967503719e-07,0.009457301558278,3.395745079020027
9.723485967503734e-07,0.01012529042563544,3.373420896153002
9.823485967503683e-07,0.01079327929299197,3.429231353320578
9.923485967503699e-07,0.00778732938988516,3.392024381875518
1.002348596750371e-06,0.01112727372667084,3.403186473309044
1.012348596750373e-06,0.008789312690921773,3.399465776164531
1.022348596750368e-06,0.01079327929299136,3.388303684731015
1.032348596750369e-06,0.008789312690920863,3.421789959031586
1.042348596750371e-06,0.00778732938988516,3.36597950186396
1.052348596750373e-06,0.008789312690920863,3.410627867598061
1.062348596750368e-06,0.007453334956207199,3.39946577616454
1.072348596750369e-06,0.009123307124599432,3.377141593297485
1.082348596750371e-06,0.008121323823563727,3.41434856474257
1.092348596750372e-06,0.00778732938988516,3.36597950186396
1.102348596750374e-06,0.00878931269092071,3.40318647330904
1.112348596750369e-06,0.008455318257242295,3.395745079020027
1.12234859675037e-06,0.006785346088849456,3.373420896152977
1.132348596750372e-06,0.007453334956206592,3.421789959031586
1.142348596750374e-06,0.007787329389885463,3.365979501863985
1.152348596750368e-06,0.008455318257241991,3.421789959031561
1.16234859675037e-06,0.008121323823563727,3.38830368473101
1.172348596750372e-06,0.009123307124599432,3.369700199008468
1.182348596750373e-06,0.008789312690921015,3.418069261887054
1.192348596750368e-06,0.009123307124599279,3.365979501863983
1.20234859675037e-06,0.009457301558278,3.399465776164535
1.212348596750371e-06,0.009457301558278,3.38830368473101
1.222348596750373e-06,0.01012529042563514,3.38830368473101
1.232348596750368e-06,0.00878931269092147,3.418069261887065
1.242348596750369e-06,0.008789312690920863,3.36597950186396
1.252348596750371e-06,0.008789312690920863,3.421789959031586
1.262348596750372e-06,0.008121323823563727,3.395745079020027
1.272348596750374e-06,0.008455318257242599,3.369700199008485
1.282348596750369e-06,0.009123307124599432,3.406907170453553
1.29234859675037e-06,0.006785346088849456,3.377141593297485
1.302348596750372e-06,0.00778732938988516,3.403186473309044
1.312348596750374e-06,0.006785346088850216,3.369700199008471
1.322348596750368e-06,0.008455318257241535,3.377141593297481
1.33234859675037e-06,0.007453334956206592,3.425510656176095
1.342348596750372e-06,0.00611735722149232,3.362258804719451
1.352348596750373e-06,0.008789312690919648,3.421789959031574
1.362348596750368e-06,0.006117357221493536,3.395745079020039
1.37234859675037e-06,0.008121323823563727,3.392024381875518
1.382348596750371e-06,0.007119340522528024,3.418069261887078
1.392348596750373e-06,0.004781379486778049,3.369700199008468
1.402348596750368e-06,0.005783362787813297,3.395745079020015
1.412348596750369e-06,0.005115373920456617,3.399465776164535
1.422348596750371e-06,0.006451351655170888,3.384582987586502
1.432348596750372e-06,0.004781379486778049,3.421789959031586
1.442348596750374e-06,0.00511537392045692,3.388303684731015
1.452348596750369e-06,0.005783362787813752,3.399465776164535
1.46234859675037e-06,0.004781379486778049,3.392024381875518
1.472348596750372e-06,0.007453334956206592,3.38830368473101
1.482348596750374e-06,0.006785346088849304,3.418069261887059
1.492348596750368e-06,0.00645135165517104,3.377141593297504
1.50234859675037e-06,0.006785346088849456,3.403186473309044
1.512348596750372e-06,0.006785346088849456,3.395745079020027
1.522348596750373e-06,0.007453334956206592,3.384582987586519
1.532348596750368e-06,0.007453334956206592,3.421789959031569
1.54234859675037e-06,0.006785346088849456,3.347376016141417
1.552348596750371e-06,0.008121323823563727,3.406907170453553
1.562348596750373e-06,0.006451351655170888,3.38830368473101
1.572348596750368e-06,0.006117357221492472,3.392024381875517
1.582348596750369e-06,0.006451351655170888,3.406907170453553
1.592348596750371e-06,0.006785346088849456,3.369700199008468
1.602348596750372e-06,0.006451351655170888,3.410627867598061
1.612348596750374e-06,0.005115373920457832,3.369700199008473
1.622348596750369e-06,0.00778732938988516,3.380862290441993
1.632348596750371e-06,0.006451351655170888,3.406907170453553
1.642348596750372e-06,0.00611735722149232,3.362258804719451
1.652348596750374e-06,0.007453334956205529,3.40318647330904
1.662348596750369e-06,0.005115373920456617,3.395745079020027
1.67234859675037e-06,0.006451351655170888,3.384582987586502
1.682348596750372e-06,0.006451351655170888,3.421789959031586
1.692348596750373e-06,0.005783362787814512,3.36225880471947
1.702348596750368e-06,0.007453334956205832,3.403186473309025
1.71234859675037e-06,0.006451351655170888,3.384582987586502
1.722348596750371e-06,0.008121323823563727,3.395745079020027
1.732348596750373e-06,0.009123307124599432,3.421789959031586
1.742348596750368e-06,0.006117357221493687,3.365979501863985
1.752348596750369e-06,0.007119340522528024,3.403186473309044
1.762348596750371e-06,0.007453334956206592,3.406907170453553
1.772348596750373e-06,0.006451351655170888,3.36597950186396
1.782348596750367e-06,0.007119340522527721,3.414348564742547
1.792348596750369e-06,0.005115373920456617,3.354817410430434
1.802348596750371e-06,0.008455318257242295,3.406907170453553
1.812348596750372e-06,0.006451351655170888,3.38830368473101
1.822348596750374e-06,0.007119340522528176,3.392024381875527
1.832348596750369e-06,0.007453334956206592,3.410627867598061
1.84234859675037e-06,0.007453334956206592,3.373420896152977
1.852348596750372e-06,0.009457301558278,3.406907170453553
1.862348596750373e-06,0.006451351655171495,3.377141593297485
1.872348596750368e-06,0.007787329389884553,3.377141593297485
1.88234859675037e-06,0.007119340522528024,3.41434856474257
1.892348596750371e-06,0.00778732938988516,3.362258804719451
1.902348596750373e-06,0.006785346088849456,3.41434856474257
1.912348596750368e-06,0.005115373920457376,3.365979501863982
1.922348596750369e-06,0.009123307124599432,3.38830368473101
1.932348596750371e-06,0.006785346088849456,3.425510656176095
1.942348596750373e-06,0.007119340522528024,3.362258804719451
1.952348596750367e-06,0.007787329389884856,3.406907170453532
1.962348596750369e-06,0.00611735722149232,3.392024381875518
1.972348596750371e-06,0.009457301558278,3.392024381875518
1.982348596750372e-06,0.006785346088849456,3.403186473309044
1.992348596750374e-06,0.005783362787814056,3.373420896152995
2.002348596750369e-06,0.006451351655170888,3.41434856474257
2.01234859675037e-06,0.007453334956206592,3.395745079020027
2.022348596750372e-06,0.006451351655170888,3.384582987586502
2.032348596750373e-06,0.007119340522527569,3.418069261887059
2.042348596750368e-06,0.006117357221492776,3.377141593297504
2.05234859675037e-06,0.00611735722149232,3.403186473309044
2.062348596750371e-06,0.006451351655170888,3.392024381875518
2.072348596750373e-06,0.006451351655170888,3.388303684731014
2.082348596750368e-06,0.006451351655170888,3.395745079020024
2.09234859675037e-06,0.006785346088849456,3.38830368473101
2.102348596750371e-06,0.006785346088849456,3.392024381875518
2.112348596750373e-06,0.00611735722149232,3.38830368473101
2.122348596750368e-06,0.006451351655170736,3.37714159329749
2.132348596750369e-06,0.006785346088849456,3.406907170453553
2.142348596750371e-06,0.006785346088849456,3.384582987586502
2.152348596750372e-06,0.007119340522528024,3.395745079020027
2.162348596750374e-06,0.004781379486778656,3.392024381875522
2.172348596750369e-06,0.00611735722149232,3.399465776164535
2.18234859675037e-06,0.00611735722149232,3.41434856474257
2.192348596750372e-06,0.004113390619420913,3.369700199008468
2.202348596750374e-06,0.005783362787813752,3.421789959031564
