traces_bank_current_trigger/sampling_freq_100MHz/SDIV/SDIV_2.csv

#Digilent WaveForms Oscilloscope Acquisition
#Device Name: Discovery2
#Serial Number: SN:210321B3D813
#Date Time: 2023-06-16 15:15:30.400
#Sample rate: 1e+08Hz
#Samples: 8192
#Trigger: Source: Channel 2 Type: Edge Condition: Rising Level: 2 V Hyst.: Auto HoldOff: 0 s
#Channel 1: Range: 10 mV/div Offset: 0 V Attenuation: 1 X Sample Mode: Average
#Channel 2: Range: 5 V/div Offset: 0 V Attenuation: 1 X Sample Mode: Average

Time (s),Channel 1 (V),Channel 2 (V)
-9.509494949494916e-07,0.008455318257242295,0.03595555752889761
-9.4094949494949e-07,0.009791295991956567,-0.001251413916186876
-9.309494949494884e-07,0.01079327929299121,0.01735207180635367
-9.209494949494936e-07,0.008455318257243358,0.01363137466184861
-9.10949494949492e-07,0.009791295991956567,0.00991067751733847
-9.009494949494904e-07,0.009457301558278,0.01735207180635537
-8.909494949494888e-07,0.00778732938988516,-0.004972111060695325
-8.809494949494939e-07,0.01045928485931249,0.02107276895085197
-8.709494949494923e-07,0.00778732938988516,0.03223486038438916
-8.609494949494907e-07,0.008789312690920863,-0.004972111060695325
-8.509494949494891e-07,0.009457301558278,0.03595555752889761
-8.409494949494876e-07,0.00878931269092147,-0.001251413916168264
-8.309494949494927e-07,0.01012529042563514,0.03967625467340606
-8.209494949494911e-07,0.008789312690920863,0.03595555752889761
-8.109494949494895e-07,0.00778732938988516,0.006189980372830022
-8.009494949494879e-07,0.008789312690920406,0.02479346609536042
-7.909494949494931e-07,0.007787329389885615,-0.001251413916175032
-7.809494949494915e-07,0.008121323823563727,0.02851416323988071
-7.709494949494899e-07,0.007453334956206592,0.02107276895086382
-7.609494949494883e-07,0.006785346088849759,0.02851416323988071
-7.509494949494935e-07,0.007453334956206288,0.02851416323988071
-7.409494949494919e-07,0.008121323823563727,0.02479346609537227
-7.309494949494903e-07,0.009791295991956567,0.01735207180635537
-7.209494949494887e-07,0.007119340522528024,0.03595555752889761
-7.109494949494939e-07,0.008455318257241688,-0.001251413916169959
-7.009494949494923e-07,0.008121323823563727,0.03223486038438916
-6.909494949494907e-07,0.006785346088849456,-0.004972111060695325
-6.809494949494891e-07,0.006785346088849456,-0.004972111060695325
-6.709494949494875e-07,0.005783362787814056,0.002469283228323264
-6.609494949494927e-07,0.006451351655170888,0.006189980372830022
-6.509494949494911e-07,0.006451351655170888,0.03223486038438916
-6.409494949494895e-07,0.007453334956206592,0.00991067751733847
-6.309494949494879e-07,0.007787329389884856,0.02851416323987733
-6.20949494949493e-07,0.007119340522528328,0.0210727689508672
-6.109494949494914e-07,0.006785346088849456,-0.001251413916186876
-6.009494949494898e-07,0.006451351655170888,0.02851416323988071
-5.909494949494883e-07,0.00611735722149308,0.02107276895086551
-5.809494949494934e-07,0.0077873293898844,0.02479346609537057
-5.709494949494918e-07,0.006451351655170888,0.03223486038438916
-5.609494949494902e-07,0.006785346088849456,0.01735207180635537
-5.509494949494886e-07,0.007119340522528024,0.05455904325143986
-5.409494949494938e-07,0.007119340522528024,-0.001251413916161494
-5.309494949494922e-07,0.007119340522528024,0.01363137466184692
-5.209494949494906e-07,0.008455318257242295,0.03223486038438916
-5.10949494949489e-07,0.007453334956206592,0.002469283228321573
-5.009494949494874e-07,0.007453334956205985,0.03595555752888407
-4.909494949494926e-07,0.00611735722149232,0.006189980372830022
-4.80949494949491e-07,0.006785346088849456,0.02479346609537227
-4.709494949494894e-07,0.005783362787813752,0.02851416323988071
-4.609494949494878e-07,0.004781379486779264,-0.01985489963870882
-4.50949494949493e-07,0.007453334956206592,0.02479346609537227
-4.409494949494914e-07,0.005449368354135184,0.00991067751733847
-4.309494949494898e-07,0.00778732938988516,0.01735207180635537
-4.209494949494882e-07,0.005449368354135791,0.006189980372828329
-4.109494949494934e-07,0.006785346088848848,0.002469283228323264
-4.009494949494918e-07,0.00611735722149232,0.02107276895086382
-3.909494949494902e-07,0.005449368354135184,-0.02357559678323757
-3.809494949494886e-07,0.008121323823563727,0.02107276895086382
-3.709494949494937e-07,0.005449368354136399,-0.00869280820519024
-3.609494949494921e-07,0.005115373920456617,-0.01241350534971222
-3.509494949494905e-07,0.007453334956206592,0.01735207180635537
-3.40949494949489e-07,0.007119340522528024,-0.01985489963872912
-3.309494949494874e-07,0.007453334956206744,0.006189980372830022
-3.209494949494925e-07,0.00778732938988516,0.006189980372830022
-3.109494949494909e-07,0.007119340522528024,-0.01241350534971222
-3.009494949494893e-07,0.007453334956206592,0.02479346609537227
-2.909494949494877e-07,0.006451351655171495,-0.008692808205200389
-2.809494949494929e-07,0.00778732938988516,-0.001251413916186876
-2.709494949494913e-07,0.007119340522528024,0.002469283228321573
-2.609494949494897e-07,0.008121323823563727,-0.03101699107225447
-2.509494949494881e-07,0.006451351655171648,0.01735207180634183
-2.409494949494933e-07,0.008121323823562968,-0.01241350534969869
-2.309494949494917e-07,0.008789312690920863,0.002469283228321573
-2.209494949494901e-07,0.00778732938988516,0.00991067751733847
-2.109494949494885e-07,0.008121323823563727,-0.008692808205203774
-2.009494949494937e-07,0.007453334956206896,0.02479346609535703
-1.909494949494921e-07,0.005115373920456617,-0.01613420249422067
-1.809494949494905e-07,0.009123307124599432,0.002469283228321573
-1.709494949494889e-07,0.006451351655170888,0.02851416323988071
-1.609494949494941e-07,0.009123307124598218,-0.004972111060680094
-1.509494949494925e-07,0.007453334956206592,0.006189980372830022
-1.409494949494909e-07,0.006451351655170888,0.002469283228321573
-1.309494949494893e-07,0.008789312690920863,-0.001251413916186876
-1.209494949494877e-07,0.006785346088850519,0.02479346609535873
-1.109494949494928e-07,0.009123307124599432,-0.004972111060695325
-1.009494949494912e-07,0.00778732938988516,0.02479346609537227
-9.094949494948965e-08,0.008455318257242295,-0.01985489963872912
-8.094949494948805e-08,0.009457301558277696,0.01735207180635199
-7.094949494949323e-08,0.008789312690921166,0.009910677517341853
-6.094949494949163e-08,0.006785346088849456,0.006189980372830022
-5.094949494949003e-08,0.007453334956206592,0.02851416323988071
-4.094949494948843e-08,0.007453334956206744,0.01363137466185876
-3.094949494949361e-08,0.007787329389885008,0.03967625467339422
-2.094949494949201e-08,0.00611735722149232,0.02851416323988071
-1.094949494949042e-08,0.007119340522528024,0.00991067751733847
-9.494949494888178e-10,-0.01325431993186462,1.821890186892953
9.050505050506004e-09,0.0204791178696554,3.663635273423798
1.90505050505076e-08,0.003445401752063777,3.079485821736809
2.90505050505092e-08,0.01480121249713509,3.325051833274367
3.90505050505108e-08,0.009791295991956567,3.302727650407316
4.90505050505124e-08,0.01780716240023551,3.306448347551856
5.905050505050722e-08,0.003111407318385209,3.377141593297485
6.905050505050882e-08,0.005783362787813752,3.351096713285926
7.905050505051042e-08,0.001775429583670938,3.406907170453553
8.905050505051201e-08,0.003779396185740522,3.332493227563411
9.905050505050684e-08,-0.0002285370183986472,3.392024381875491
1.090505050505084e-07,0.003445401752063777,3.299006953262807
1.1905050505051e-07,0.005783362787813752,3.336213924707892
1.290505050505116e-07,0.009791295991955353,3.317610438985348
1.390505050505065e-07,0.00711934052252924,3.313889741840843
1.490505050505081e-07,0.008789312690920863,3.313889741840841
1.590505050505097e-07,0.008455318257242295,3.358538107574943
1.690505050505112e-07,0.007119340522528024,3.36597950186396
1.790505050505061e-07,0.003779396185743864,3.406907170453534
1.890505050505077e-07,0.003111407318385209,3.351096713285926
1.990505050505093e-07,0.003779396185742345,3.403186473309044
2.090505050505109e-07,0.0004394518489566662,3.358538107574943
2.190505050505125e-07,0.004781379486778049,3.358538107574932
2.290505050505073e-07,0.004781379486778049,3.336213924707892
2.390505050505089e-07,0.007453334956206592,3.328772530418875
2.490505050505105e-07,0.006451351655170888,3.354817410430434
2.590505050505121e-07,0.0064513516551718,3.339934621852407
2.690505050505069e-07,0.008455318257241384,3.354817410430428
2.790505050505085e-07,0.004781379486778049,3.380862290441993
2.890505050505101e-07,0.005783362787813752,3.36597950186396
2.990505050505117e-07,0.003779396185741889,3.392024381875503
3.090505050505065e-07,0.002777412884707097,3.358538107574958
3.190505050505081e-07,0.005783362787813752,3.362258804719451
3.290505050505097e-07,0.003111407318385209,3.36597950186396
3.390505050505113e-07,0.005115373920456617,3.332493227563384
3.490505050505061e-07,0.007787329389883945,3.343655318996904
3.590505050505077e-07,0.006451351655170888,3.3399346218524
3.690505050505093e-07,0.007119340522528024,3.3399346218524
3.790505050505109e-07,0.007453334956206592,3.377141593297485
3.890505050505125e-07,0.008455318257241384,3.328772530418898
3.990505050505074e-07,0.006451351655170888,3.380862290441993
4.09050505050509e-07,0.005783362787813752,3.358538107574943
4.190505050505105e-07,0.005783362787813752,3.351096713285926
4.290505050505121e-07,0.005783362787814056,3.362258804719436
4.39050505050507e-07,0.006451351655170585,3.32877253041889
4.490505050505086e-07,0.00778732938988516,3.369700199008468
4.590505050505102e-07,0.006451351655170888,3.332493227563384
4.690505050505118e-07,0.008789312690920559,3.354817410430441
4.790505050505066e-07,0.008121323823564031,3.369700199008461
4.890505050505082e-07,0.005783362787813752,3.347376016141417
4.990505050505098e-07,0.008121323823563727,3.380862290441993
5.090505050505114e-07,0.005783362787813752,3.36597950186396
5.190505050505062e-07,0.006451351655170585,3.362258804719453
5.290505050505078e-07,0.00611735722149232,3.377141593297485
5.390505050505094e-07,0.006451351655170888,3.347376016141417
5.49050505050511e-07,0.006785346088849456,3.369700199008468
5.590505050505126e-07,0.00778732938988592,3.354817410430436
5.690505050505074e-07,0.009457301558278,3.358538107574943
5.79050505050509e-07,0.008789312690920863,3.369700199008468
5.890505050505106e-07,0.009457301558278,3.343655318996909
5.990505050505122e-07,0.01079327929299106,3.392024381875505
6.09050505050507e-07,0.008121323823563727,3.362258804719451
6.190505050505086e-07,0.01079327929299227,3.362258804719451
6.290505050505102e-07,0.008121323823563727,3.362258804719451
6.390505050505118e-07,0.01012529042563453,3.354817410430448
6.490505050505067e-07,0.00878931269092147,3.384582987586489
6.590505050505083e-07,0.00778732938988516,3.351096713285926
6.690505050505098e-07,0.009123307124599432,3.369700199008468
6.790505050505114e-07,0.008789312690920863,3.380862290441993
6.890505050505063e-07,0.008789312690920863,3.354817410430446
6.990505050505079e-07,0.008121323823563727,3.392024381875518
7.090505050505095e-07,0.008121323823563727,3.369700199008468
7.190505050505111e-07,0.009457301558278,3.380862290441993
7.290505050505127e-07,0.005449368354135944,3.388303684730995
7.390505050505075e-07,0.007119340522528024,3.354817410430434
7.490505050505091e-07,0.007119340522528024,3.380862290441993
7.590505050505107e-07,0.008455318257242295,3.351096713285926
7.690505050505123e-07,0.0077873293898844,3.377141593297483
7.790505050505071e-07,0.00611735722149232,3.373420896152977
7.890505050505087e-07,0.00778732938988516,3.358538107574943
7.990505050505103e-07,0.007119340522528024,3.380862290441993
8.090505050505119e-07,0.008455318257242142,3.351096713285938
8.190505050505067e-07,0.00812132382356388,3.377141593297473
8.290505050505083e-07,0.006785346088849456,3.380862290441993
8.390505050505099e-07,0.005783362787813752,3.362258804719451
8.490505050505115e-07,0.006785346088849456,3.373420896152977
8.590505050505063e-07,0.008455318257241535,3.351096713285936
8.690505050505079e-07,0.009791295991956567,3.36597950186396
8.790505050505095e-07,0.008121323823563727,3.358538107574943
8.890505050505111e-07,0.009123307124599432,3.354817410430434
8.99050505050506e-07,0.009123307124599432,3.388303684730995
9.090505050505076e-07,0.00778732938988516,3.358538107574943
9.190505050505092e-07,0.008789312690920863,3.38830368473101
9.290505050505107e-07,0.007453334956206592,3.395745079020027
9.390505050505123e-07,0.008121323823564031,3.347376016141439
9.490505050505072e-07,0.008789312690920863,3.395745079020027
9.590505050505088e-07,0.007453334956206592,3.358538107574943
9.690505050505104e-07,0.009791295991956567,3.380862290441993
9.79050505050512e-07,0.006451351655171495,3.377141593297481
9.890505050505068e-07,0.007787329389884553,3.369700199008471
9.990505050505084e-07,0.007453334956206592,3.399465776164535
1.00905050505051e-06,0.005783362787813752,3.36597950186396
1.019050505050512e-06,0.009123307124598369,3.362258804719465
1.029050505050506e-06,0.006785346088850519,3.392024381875505
1.039050505050508e-06,0.006785346088849456,3.373420896152977
1.04905050505051e-06,0.006451351655170888,3.406907170453553
1.059050505050511e-06,0.007453334956206592,3.354817410430434
1.069050505050506e-06,0.007119340522528176,3.388303684730995
1.079050505050508e-06,0.007453334956206592,3.377141593297485
1.089050505050509e-06,0.006451351655170888,3.369700199008468
1.099050505050511e-06,0.004781379486778049,3.399465776164535
1.109050505050512e-06,0.005783362787814512,3.365979501863964
1.119050505050507e-06,0.007453334956206592,3.377141593297485
1.129050505050509e-06,0.006785346088849456,3.395745079020027
1.13905050505051e-06,0.008121323823563727,3.36597950186396
1.149050505050512e-06,0.007119340522528024,3.392024381875503
1.159050505050507e-06,0.007119340522528024,3.358538107574958
1.169050505050508e-06,0.00778732938988516,3.38830368473101
1.17905050505051e-06,0.007453334956206592,3.38830368473101
1.189050505050512e-06,0.008455318257242599,3.377141593297497
1.199050505050506e-06,0.009123307124599129,3.403186473309032
1.209050505050508e-06,0.008121323823563727,3.377141593297485
1.21905050505051e-06,0.009123307124599432,3.384582987586502
1.229050505050511e-06,0.008121323823563727,3.399465776164535
1.239050505050506e-06,0.00711934052252848,3.365979501863975
1.249050505050508e-06,0.008789312690920863,3.395745079020027
1.259050505050509e-06,0.007119340522528024,3.369700199008468
1.269050505050511e-06,0.008455318257242295,3.395745079020027
1.279050505050512e-06,0.00611735722149308,3.384582987586497
1.289050505050507e-06,0.00778732938988516,3.373420896152977
1.299050505050509e-06,0.00611735722149232,3.406907170453553
1.30905050505051e-06,0.005449368354135184,3.377141593297485
1.319050505050512e-06,0.008121323823562664,3.380862290441997
1.329050505050507e-06,0.005783362787814815,3.388303684731007
1.339050505050509e-06,0.005115373920456617,3.362258804719451
1.34905050505051e-06,0.005449368354135184,3.410627867598061
1.359050505050512e-06,0.005115373920457224,3.362258804719465
1.369050505050507e-06,0.00645135165517028,3.392024381875505
1.379050505050508e-06,0.003779396185742345,3.395745079020027
1.38905050505051e-06,0.004113390619420913,3.358538107574943
1.399050505050511e-06,0.003445401752063777,3.384582987586502
1.409050505050506e-06,0.003779396185742193,3.380862290441995
1.419050505050508e-06,0.005115373920456617,3.384582987586502
1.429050505050509e-06,0.004447385053099481,3.373420896152977
1.439050505050511e-06,0.002777412884706641,3.369700199008468
1.449050505050513e-06,0.004447385053099481,3.392024381875503
1.459050505050507e-06,0.004447385053099481,3.358538107574943
1.469050505050509e-06,0.004447385053099481,3.36597950186396
1.479050505050511e-06,0.003779396185742345,3.384582987586502
1.489050505050512e-06,0.003779396185743256,3.351096713285939
1.499050505050507e-06,0.005783362787812841,3.38086229044198
1.509050505050509e-06,0.005115373920456617,3.377141593297485
1.51905050505051e-06,0.00611735722149232,3.373420896152977
1.529050505050512e-06,0.00645135165517104,3.388303684730995
1.539050505050507e-06,0.006785346088849304,3.354817410430449
1.549050505050508e-06,0.005783362787813752,3.38830368473101
1.55905050505051e-06,0.005783362787813752,3.369700199008468
1.569050505050511e-06,0.007119340522528024,3.373420896152977
1.579050505050506e-06,0.00745333495620644,3.38086229044199
1.589050505050508e-06,0.006451351655170888,3.3399346218524
1.599050505050509e-06,0.00611735722149232,3.384582987586502
1.609050505050511e-06,0.005783362787813752,3.343655318996909
1.619050505050513e-06,0.005449368354134881,3.36970019900847
1.629050505050507e-06,0.004781379486778049,3.373420896152977
1.639050505050509e-06,0.006451351655170888,3.373420896152977
1.649050505050511e-06,0.006451351655170888,3.392024381875518
1.659050505050512e-06,0.005783362787814512,3.339934621852419
1.669050505050507e-06,0.007453334956206592,3.380862290441993
1.679050505050509e-06,0.005783362787813752,3.369700199008468
1.68905050505051e-06,0.006451351655170888,3.384582987586502
1.699050505050512e-06,0.006451351655171495,3.388303684730997
1.709050505050507e-06,0.007787329389884553,3.358538107574956
1.719050505050508e-06,0.01012529042563514,3.362258804719451
1.72905050505051e-06,0.009791295991956567,3.373420896152977
1.739050505050511e-06,0.009791295991956567,3.354817410430434
1.749050505050506e-06,0.01012529042563498,3.403186473309022
1.759050505050508e-06,0.007119340522528024,3.377141593297485
1.769050505050509e-06,0.008455318257242295,3.395745079020027
1.779050505050511e-06,0.00611735722149232,3.395745079020027
1.789050505050506e-06,0.008121323823562817,3.36970019900848
1.799050505050508e-06,0.006785346088849456,3.384582987586502
1.809050505050509e-06,0.008121323823563727,3.347376016141417
1.819050505050511e-06,0.009791295991956567,3.373420896152977
1.829050505050512e-06,0.008789312690921015,3.365979501863951
1.839050505050507e-06,0.009123307124599432,3.347376016141417
1.849050505050509e-06,0.009457301558278,3.403186473309044
1.85905050505051e-06,0.006785346088849456,3.38830368473101
1.869050505050512e-06,0.007119340522528328,3.388303684731017
1.879050505050507e-06,0.007787329389884856,3.403186473309037
1.889050505050508e-06,0.007453334956206592,3.343655318996909
1.89905050505051e-06,0.008789312690920863,3.38830368473101
1.909050505050512e-06,0.008789312690920863,3.36597950186396
1.919050505050506e-06,0.009791295991956111,3.388303684731
1.929050505050508e-06,0.00778732938988516,3.377141593297485
1.93905050505051e-06,0.009457301558278,3.373420896152977
1.949050505050511e-06,0.006785346088849456,3.403186473309044
1.959050505050506e-06,0.007453334956206288,3.37342089615299
1.969050505050508e-06,0.00611735722149232,3.392024381875518
1.979050505050509e-06,0.006451351655170888,3.392024381875518
1.989050505050511e-06,0.007453334956206592,3.347376016141417
1.999050505050512e-06,0.005115373920457224,3.384582987586495
2.009050505050507e-06,0.006451351655170888,3.369700199008468
2.019050505050509e-06,0.008121323823563727,3.384582987586502
2.02905050505051e-06,0.005449368354135184,3.380862290441993
2.039050505050512e-06,0.006785346088849911,3.362258804719463
2.049050505050507e-06,0.007787329389884704,3.388303684730998
2.059050505050508e-06,0.007453334956206592,3.369700199008468
2.06905050505051e-06,0.00778732938988516,3.384582987586502
2.079050505050512e-06,0.005783362787814512,3.373420896152973
2.089050505050506e-06,0.007453334956205832,3.365979501863963
2.099050505050508e-06,0.005449368354135184,3.395745079020027
2.10905050505051e-06,0.006451351655170888,3.3399346218524
2.119050505050511e-06,0.006451351655170888,3.369700199008468
2.129050505050506e-06,0.006451351655170888,3.392024381875508
2.139050505050508e-06,0.008455318257242295,3.336213924707892
2.149050505050509e-06,0.006451351655170888,3.395745079020027
2.159050505050511e-06,0.007119340522528024,3.369700199008468
2.169050505050512e-06,0.008121323823562664,3.380862290442
2.179050505050507e-06,0.005783362787813752,3.395745079020027
2.189050505050509e-06,0.005449368354135184,3.362258804719451
2.19905050505051e-06,0.007119340522528024,3.384582987586502
2.209050505050512e-06,0.005783362787814512,3.365979501863966
