traces_bank_current_trigger/sampling_freq_100MHz/SDIV/SDIV_7.csv

#Digilent WaveForms Oscilloscope Acquisition
#Device Name: Discovery2
#Serial Number: SN:210321B3D813
#Date Time: 2023-06-16 15:40:33.852
#Sample rate: 1e+08Hz
#Samples: 8192
#Trigger: Source: Channel 2 Type: Edge Condition: Rising Level: 2 V Hyst.: Auto HoldOff: 0 s
#Channel 1: Range: 10 mV/div Offset: 0 V Attenuation: 1 X Sample Mode: Average
#Channel 2: Range: 5 V/div Offset: 0 V Attenuation: 1 X Sample Mode: Average

Time (s),Channel 1 (V),Channel 2 (V)
-9.551807228915605e-07,0.01012529042563514,-0.001251413916186876
-9.45180722891559e-07,0.01012529042563514,0.00991067751733847
-9.351807228915574e-07,0.0114612681603488,0.04339695181789421
-9.251807228915625e-07,0.01012529042563574,-0.001251413916166573
-9.151807228915609e-07,0.0104592848593137,0.04711764896242296
-9.051807228915593e-07,0.008121323823563727,-0.001251413916186876
-8.951807228915577e-07,0.0104592848593137,0.01363137466184692
-8.851807228915629e-07,0.009123307124600039,0.04339695181790097
-8.751807228915613e-07,0.01079327929299227,-0.01241350534971222
-8.651807228915597e-07,0.01012529042563514,0.02479346609537227
-8.551807228915581e-07,0.009457301558278,0.01735207180635537
-8.451807228915565e-07,0.009791295991956264,0.009910677517350315
-8.351807228915617e-07,0.009123307124599432,0.03595555752889761
-8.251807228915601e-07,0.008789312690920863,0.002469283228321573
-8.151807228915585e-07,0.01012529042563514,0.02107276895086382
-8.051807228915569e-07,0.008455318257243206,0.01363137466183846
-7.951807228915621e-07,0.01045928485931279,-0.004972111060686867
-7.851807228915605e-07,0.009123307124599432,0.04339695181791451
-7.751807228915589e-07,0.008789312690920863,-0.008692808205203774
-7.651807228915573e-07,0.009457301558277393,0.04711764896239927
-7.551807228915625e-07,0.008121323823564335,-0.004972111060671636
-7.451807228915609e-07,0.008121323823563727,0.02107276895086382
-7.351807228915593e-07,0.009791295991956567,0.03967625467340606
-7.251807228915577e-07,0.008789312690920863,0.00991067751733847
-7.151807228915628e-07,0.009123307124599279,0.03595555752888577
-7.051807228915612e-07,0.006451351655170888,0.01363137466184692
-6.951807228915596e-07,0.009123307124599432,0.002469283228321573
-6.851807228915581e-07,0.009123307124599432,0.03595555752889761
-6.751807228915565e-07,0.008121323823564184,-0.001251413916171648
-6.651807228915616e-07,0.009123307124599432,0.03223486038438916
-6.5518072289156e-07,0.006451351655170888,0.006189980372830022
-6.451807228915584e-07,0.009457301558278,0.01363137466184692
-6.351807228915568e-07,0.006785346088850367,0.03595555752888577
-6.25180722891562e-07,0.008789312690919952,0.009910677517350315
-6.151807228915604e-07,0.008455318257242295,0.03595555752889761
-6.051807228915588e-07,0.007119340522528024,0.01735207180635537
-5.951807228915572e-07,0.007119340522528176,0.01735207180636383
-5.851807228915624e-07,0.00745333495620644,0.03595555752888915
-5.751807228915608e-07,0.006451351655170888,0.02107276895086382
-5.651807228915592e-07,0.008455318257242295,0.04339695181791451
-5.551807228915576e-07,0.007119340522528024,0.03223486038438916
-5.451807228915628e-07,0.007787329389884856,0.03223486038438916
-5.351807228915612e-07,0.006451351655170888,0.05083834610693141
-5.251807228915596e-07,0.00778732938988516,-0.004972111060695325
-5.15180722891558e-07,0.007119340522528024,0.02479346609537227
-5.051807228915564e-07,0.00544936835413564,0.01735207180635537
-4.951807228915616e-07,0.006451351655170888,0.01735207180635537
-4.8518072289156e-07,0.005783362787813752,0.04339695181791451
-4.751807228915584e-07,0.007119340522528024,0.01363137466184692
-4.651807228915568e-07,0.006785346088848392,0.04339695181789928
-4.551807228915619e-07,0.004447385053099481,0.00991067751733847
-4.451807228915603e-07,0.006451351655170888,0.01735207180635537
-4.351807228915588e-07,0.006785346088849456,0.03223486038438916
-4.251807228915572e-07,0.006117357221492169,-0.001251413916158113
-4.151807228915623e-07,0.005783362787813904,0.06200043754042799
-4.051807228915607e-07,0.004447385053099481,0.01363137466184692
-3.951807228915591e-07,0.00778732938988516,0.02107276895086382
-3.851807228915575e-07,0.005115373920456617,0.03595555752889761
-3.751807228915627e-07,0.005115373920456617,0.006189980372843556
-3.651807228915611e-07,0.007453334956206592,0.04339695181791451
-3.551807228915595e-07,0.004113390619420913,-0.004972111060695325
-3.451807228915579e-07,0.007453334956206592,0.01363137466184692
-3.351807228915563e-07,0.007787329389884553,0.05455904325140771
-3.251807228915615e-07,0.006451351655170888,-0.01613420249422067
-3.151807228915599e-07,0.008121323823563727,0.04711764896242296
-3.051807228915583e-07,0.007119340522528024,0.00991067751733847
-2.951807228915567e-07,0.009791295991955353,0.006189980372838482
-2.851807228915619e-07,0.007119340522528024,0.02479346609537227
-2.751807228915603e-07,0.007453334956206592,-0.01613420249422067
-2.651807228915587e-07,0.007453334956206592,0.03595555752889761
-2.551807228915571e-07,0.007119340522529088,0.002469283228321573
-2.451807228915623e-07,0.009457301558276936,0.002469283228321573
-2.351807228915607e-07,0.008789312690920863,0.02479346609537227
-2.251807228915591e-07,0.006785346088849456,-0.01241350534971222
-2.151807228915575e-07,0.008789312690920863,0.04711764896242296
-2.051807228915626e-07,0.007119340522528784,0.006189980372848632
-1.95180722891561e-07,0.006451351655170888,-0.01241350534971222
-1.851807228915595e-07,0.00778732938988516,0.02851416323988071
-1.751807228915579e-07,0.007119340522528024,-0.004972111060695325
-1.65180722891563e-07,0.00745333495620644,0.009910677517331703
-1.551807228915614e-07,0.006451351655170888,-0.004972111060695325
-1.451807228915598e-07,0.008455318257242295,-0.004972111060695325
-1.351807228915582e-07,0.007453334956206592,0.00991067751733847
-1.251807228915566e-07,0.007453334956206744,-0.02729629392772064
-1.151807228915618e-07,0.00778732938988516,0.02851416323988071
-1.051807228915602e-07,0.00778732938988516,-0.01613420249422067
-9.518072289155862e-08,0.00778732938988516,-0.01241350534971222
-8.518072289155702e-08,0.007787329389885008,0.03223486038437225
-7.51807228915622e-08,0.007453334956206744,-0.004972111060678408
-6.51807228915606e-08,0.007453334956206592,0.02479346609537227
-5.5180722891559e-08,0.006785346088849456,-0.01241350534971222
-4.51807228915574e-08,0.007453334956205832,0.002469283228321573
-3.518072289156258e-08,0.005783362787814512,0.002469283228321573
-2.518072289156098e-08,0.00611735722149232,-0.008692808205203774
-1.518072289155938e-08,0.006785346088849456,0.02479346609537227
-5.180722891557786e-09,-0.0005625314520790374,0.3968631805462172
4.819277108437036e-09,0.0007734462826346265,3.485041810486825
1.481927710843863e-08,0.004781379486778049,3.139016976048944
2.481927710844023e-08,0.01613719023184936,3.239475798950672
3.481927710844183e-08,0.01413322362977795,3.313889741840841
4.481927710844343e-08,0.007453334956206896,3.26924137610678
5.481927710843825e-08,0.008121323823563727,3.358538107574943
6.481927710843985e-08,0.00778732938988516,3.354817410430434
7.481927710844145e-08,0.005449368354135184,3.380862290441993
8.481927710844305e-08,0.0001054574152780984,3.37714159329748
9.481927710843787e-08,0.0001054574152780984,3.365979501863964
1.048192771084395e-07,0.005115373920456617,3.328772530418875
1.148192771084411e-07,0.003445401752063777,3.328772530418875
1.248192771084427e-07,0.004447385053101912,3.291565558973809
1.348192771084375e-07,0.009791295991954137,3.332493227563365
1.448192771084391e-07,0.01012529042563514,3.302727650407316
1.548192771084407e-07,0.009123307124599432,3.332493227563384
1.648192771084423e-07,0.006451351655170888,3.373420896152977
1.748192771084371e-07,0.005783362787814056,3.347376016141429
1.848192771084387e-07,0.004113390619420913,3.380862290441993
1.948192771084403e-07,0.002777412884706641,3.354817410430434
2.048192771084419e-07,0.003445401752063777,3.36597950186396
2.148192771084435e-07,0.004447385053100088,3.351096713285907
2.248192771084383e-07,0.005783362787813752,3.310169044696333
2.348192771084399e-07,0.005783362787813752,3.336213924707892
2.448192771084415e-07,0.006451351655170888,3.310169044696333
2.548192771084431e-07,0.0107932792929903,3.33993462185241
2.648192771084379e-07,0.006451351655172862,3.362258804719441
2.748192771084395e-07,0.00611735722149232,3.3399346218524
2.848192771084411e-07,0.008121323823563727,3.369700199008468
2.948192771084427e-07,0.003779396185742649,3.343655318996911
3.048192771084376e-07,0.004447385053099178,3.347376016141415
3.148192771084392e-07,0.002777412884706641,3.36597950186396
3.248192771084407e-07,0.002443418451028074,3.336213924707892
3.348192771084423e-07,0.004781379486778049,3.369700199008468
3.448192771084372e-07,0.004781379486778049,3.313889741840867
3.548192771084388e-07,0.007453334956206592,3.3399346218524
3.648192771084404e-07,0.00778732938988516,3.358538107574943
3.74819277108442e-07,0.008121323823563727,3.302727650407316
3.848192771084436e-07,0.006785346088849456,3.377141593297468
3.948192771084384e-07,0.006785346088849456,3.3399346218524
4.0481927710844e-07,0.008121323823563727,3.358538107574943
4.148192771084416e-07,0.005783362787813752,3.384582987586502
4.248192771084432e-07,0.00611735722149232,3.343655318996921
4.34819277108438e-07,0.00611735722149232,3.369700199008456
4.448192771084396e-07,0.006785346088849456,3.325051833274367
4.548192771084412e-07,0.00778732938988516,3.3399346218524
4.648192771084428e-07,0.008121323823562968,3.373420896152949
4.748192771084376e-07,0.006451351655171647,3.313889741840868
4.848192771084392e-07,0.009791295991956567,3.354817410430434
4.948192771084408e-07,0.007119340522528024,3.336213924707892
5.048192771084424e-07,0.00778732938988516,3.343655318996909
5.148192771084372e-07,0.007119340522528328,3.380862290441976
5.248192771084388e-07,0.007119340522528024,3.347376016141417
5.348192771084404e-07,0.006451351655170888,3.373420896152977
5.44819277108442e-07,0.004781379486778049,3.325051833274367
5.548192771084436e-07,0.008789312690919648,3.336213924707911
5.648192771084385e-07,0.00611735722149232,3.377141593297485
5.7481927710844e-07,0.007453334956206592,3.31761043898535
5.848192771084416e-07,0.009791295991956567,3.369700199008468
5.948192771084432e-07,0.007119340522528936,3.347376016141422
6.048192771084381e-07,0.009123307124599432,3.358538107574943
6.148192771084397e-07,0.009123307124599432,3.377141593297485
6.248192771084413e-07,0.006451351655170888,3.325051833274367
6.348192771084429e-07,0.008121323823564031,3.388303684730993
6.448192771084377e-07,0.008789312690920559,3.351096713285942
6.548192771084393e-07,0.007453334956206592,3.347376016141417
6.648192771084409e-07,0.008121323823563727,3.369700199008468
6.748192771084425e-07,0.007119340522528024,3.332493227563384
6.848192771084373e-07,0.008455318257241688,3.392024381875491
6.948192771084389e-07,0.007119340522528024,3.351096713285926
7.048192771084405e-07,0.007453334956206592,3.369700199008468
7.148192771084421e-07,0.007119340522528024,3.369700199008468
7.248192771084437e-07,0.007119340522528024,3.351096713285948
7.348192771084385e-07,0.007119340522528024,3.399465776164535
7.448192771084401e-07,0.005449368354135184,3.351096713285926
7.548192771084417e-07,0.005783362787813752,3.380862290441993
7.648192771084433e-07,0.005783362787813145,3.395745079020015
7.748192771084381e-07,0.004447385053099481,3.369700199008468
7.848192771084397e-07,0.006451351655170888,3.392024381875518
7.948192771084413e-07,0.003445401752063777,3.377141593297485
8.048192771084429e-07,0.006451351655171192,3.369700199008483
8.148192771084378e-07,0.007119340522527721,3.403186473309029
8.248192771084393e-07,0.004113390619420913,3.369700199008468
8.348192771084409e-07,0.005783362787813752,3.403186473309044
8.448192771084425e-07,0.00611735722149232,3.369700199008468
8.548192771084374e-07,0.006785346088849152,3.392024381875508
8.64819277108439e-07,0.006451351655170888,3.392024381875518
8.748192771084406e-07,0.006451351655170888,3.358538107574943
8.848192771084422e-07,0.007119340522528024,3.410627867598061
8.94819277108437e-07,0.005783362787814359,3.362258804719473
9.048192771084386e-07,0.008121323823563727,3.384582987586502
9.148192771084402e-07,0.007119340522528024,3.406907170453553
9.248192771084418e-07,0.005115373920456617,3.377141593297485
9.348192771084434e-07,0.00745333495620568,3.414348564742551
9.448192771084382e-07,0.005449368354135184,3.373420896152977
9.548192771084398e-07,0.007119340522528024,3.384582987586502
9.648192771084414e-07,0.00611735722149232,3.406907170453553
9.74819277108443e-07,0.007453334956205832,3.384582987586522
9.848192771084378e-07,0.005783362787814512,3.429231353320583
9.948192771084394e-07,0.005449368354135184,3.369700199008468
1.004819277108441e-06,0.006451351655170888,3.377141593297485
1.014819277108443e-06,0.00611735722149232,3.410627867598051
1.024819277108437e-06,0.00611735722149232,3.38830368473102
1.034819277108439e-06,0.008121323823563727,3.418069261887078
1.044819277108441e-06,0.004447385053099481,3.380862290441993
1.054819277108442e-06,0.007453334956206592,3.399465776164535
1.064819277108437e-06,0.006117357221492929,3.406907170453549
1.074819277108439e-06,0.004113390619420913,3.380862290441993
1.08481927710844e-06,0.00778732938988516,3.41434856474257
1.094819277108442e-06,0.004113390619420913,3.373420896152977
1.104819277108443e-06,0.006785346088849,3.399465776164534
1.114819277108438e-06,0.005783362787813752,3.395745079020027
1.12481927710844e-06,0.005449368354135184,3.373420896152977
1.134819277108441e-06,0.005783362787813752,3.421789959031586
1.144819277108443e-06,0.005449368354135944,3.373420896152989
1.154819277108438e-06,0.007119340522527265,3.399465776164524
1.164819277108439e-06,0.008455318257242295,3.406907170453553
1.174819277108441e-06,0.008121323823563727,3.373420896152977
1.184819277108443e-06,0.007787329389885615,3.425510656176074
1.194819277108438e-06,0.008789312690920406,3.380862290442014
1.204819277108439e-06,0.008121323823563727,3.392024381875518
1.214819277108441e-06,0.00778732938988516,3.406907170453553
1.224819277108442e-06,0.00778732938988516,3.377141593297485
1.234819277108437e-06,0.009791295991955657,3.418069261887059
1.244819277108439e-06,0.006785346088849456,3.377141593297485
1.25481927710844e-06,0.009123307124599432,3.395745079020027
1.264819277108442e-06,0.008455318257242295,3.406907170453553
1.274819277108444e-06,0.006451351655170888,3.373420896152993
1.284819277108438e-06,0.006451351655170888,3.410627867598061
1.29481927710844e-06,0.007119340522528024,3.377141593297485
1.304819277108442e-06,0.01079327929299227,3.38830368473101
1.314819277108443e-06,0.008121323823563424,3.395745079020017
1.324819277108438e-06,0.007453334956206896,3.373420896152987
1.33481927710844e-06,0.007453334956206592,3.410627867598061
1.344819277108441e-06,0.005449368354135184,3.373420896152977
1.354819277108443e-06,0.007787329389885008,3.373420896152987
1.364819277108438e-06,0.007453334956206744,3.395745079020017
1.374819277108439e-06,0.005449368354135184,3.369700199008468
1.384819277108441e-06,0.008455318257242295,3.403186473309044
1.394819277108442e-06,0.005783362787813752,3.373420896152977
1.404819277108437e-06,0.007453334956205832,3.384582987586497
1.414819277108439e-06,0.005115373920456617,3.399465776164535
1.42481927710844e-06,0.006451351655170888,3.362258804719451
1.434819277108442e-06,0.005449368354135184,3.399465776164535
1.444819277108444e-06,0.007453334956206592,3.369700199008473
1.454819277108438e-06,0.007453334956206592,3.380862290441993
1.46481927710844e-06,0.005449368354135184,3.399465776164535
1.474819277108442e-06,0.006451351655170888,3.36597950186396
1.484819277108443e-06,0.006451351655170888,3.410627867598037
1.494819277108438e-06,0.006451351655170888,3.358538107574966
1.50481927710844e-06,0.008455318257242295,3.38830368473101
1.514819277108441e-06,0.00778732938988516,3.399465776164535
1.524819277108443e-06,0.008789312690920559,3.365979501863982
1.534819277108438e-06,0.008121323823564031,3.414348564742547
1.544819277108439e-06,0.007119340522528024,3.380862290441993
1.554819277108441e-06,0.009123307124599432,3.38830368473101
1.564819277108442e-06,0.006785346088849456,3.41434856474257
1.574819277108437e-06,0.006785346088849456,3.380862290442008
1.584819277108439e-06,0.007453334956206592,3.410627867598061
1.59481927710844e-06,0.007119340522528024,3.384582987586502
1.604819277108442e-06,0.008789312690920863,3.369700199008468
1.614819277108444e-06,0.007453334956205377,3.414348564742553
1.624819277108438e-06,0.004781379486778049,3.377141593297485
1.63481927710844e-06,0.007119340522528024,3.399465776164535
1.644819277108442e-06,0.00611735722149232,3.377141593297485
1.654819277108443e-06,0.007119340522527721,3.373420896152987
1.664819277108438e-06,0.006451351655170888,3.395745079020027
1.67481927710844e-06,0.007119340522528024,3.392024381875518
1.684819277108441e-06,0.008121323823563727,3.399465776164535
1.694819277108443e-06,0.00711934052252848,3.373420896152983
1.704819277108438e-06,0.008121323823563271,3.388303684731004
1.714819277108439e-06,0.00778732938988516,3.377141593297485
1.724819277108441e-06,0.008789312690920863,3.377141593297485
1.734819277108442e-06,0.009457301558278,3.403186473309044
1.744819277108437e-06,0.006451351655172255,3.380862290442003
1.754819277108439e-06,0.009457301558278,3.380862290441993
1.764819277108441e-06,0.007453334956206592,3.410627867598061
1.774819277108442e-06,0.008121323823563727,3.362258804719451
1.784819277108437e-06,0.00711934052252848,3.406907170453532
1.794819277108439e-06,0.005449368354135184,3.373420896152977
1.80481927710844e-06,0.008455318257242295,3.373420896152977
1.814819277108442e-06,0.007119340522528024,3.392024381875518
1.824819277108443e-06,0.007453334956206896,3.362258804719472
1.834819277108438e-06,0.008121323823563727,3.406907170453553
1.84481927710844e-06,0.00778732938988516,3.358538107574943
1.854819277108441e-06,0.008455318257242295,3.373420896152977
1.864819277108443e-06,0.008121323823563575,3.369700199008463
1.874819277108438e-06,0.007787329389885311,3.358538107574947
1.884819277108439e-06,0.006451351655170888,3.38830368473101
1.894819277108441e-06,0.006451351655170888,3.36597950186396
1.904819277108443e-06,0.008455318257242295,3.36597950186396
1.914819277108437e-06,0.007787329389885463,3.392024381875506
1.924819277108439e-06,0.006785346088849456,3.347376016141417
1.934819277108441e-06,0.00778732938988516,3.403186473309044
1.944819277108442e-06,0.006785346088849456,3.377141593297485
1.954819277108437e-06,0.007787329389884704,3.365979501863964
1.964819277108439e-06,0.007119340522528024,3.392024381875518
1.97481927710844e-06,0.00778732938988516,3.36597950186396
1.984819277108442e-06,0.007453334956206592,3.403186473309044
1.994819277108443e-06,0.005449368354136855,3.369700199008473
2.004819277108438e-06,0.009123307124599432,3.380862290441993
2.01481927710844e-06,0.005449368354135184,3.395745079020027
2.024819277108441e-06,0.005783362787813752,3.36597950186396
2.034819277108443e-06,0.006785346088849304,3.406907170453532
2.044819277108438e-06,0.00645135165517104,3.362258804719472
2.054819277108439e-06,0.006785346088849456,3.384582987586502
2.064819277108441e-06,0.006451351655170888,3.399465776164535
2.074819277108443e-06,0.006451351655170585,3.365979501863976
2.084819277108437e-06,0.005783362787814056,3.403186473309027
2.094819277108439e-06,0.005783362787813752,3.362258804719451
2.104819277108441e-06,0.009123307124599432,3.384582987586502
2.114819277108442e-06,0.007119340522528024,3.395745079020027
2.124819277108437e-06,0.006117357221492776,3.380862290442
2.134819277108439e-06,0.008121323823563727,3.406907170453553
2.14481927710844e-06,0.00611735722149232,3.377141593297485
2.154819277108442e-06,0.00778732938988516,3.395745079020027
2.164819277108443e-06,0.006451351655171192,3.395745079020007
2.174819277108438e-06,0.007119340522528024,3.351096713285926
2.18481927710844e-06,0.007119340522528024,3.41434856474257
2.194819277108441e-06,0.006785346088849456,3.380862290441993
2.204819277108443e-06,0.007119340522527569,3.37342089615299
