traces_bank_current_trigger/sampling_freq_100MHz/SDIV/SDIV_8.csv

#Digilent WaveForms Oscilloscope Acquisition
#Device Name: Discovery2
#Serial Number: SN:210321B3D813
#Date Time: 2023-06-16 15:45:36.160
#Sample rate: 1e+08Hz
#Samples: 8192
#Trigger: Source: Channel 2 Type: Edge Condition: Rising Level: 2 V Hyst.: Auto HoldOff: 0 s
#Channel 1: Range: 10 mV/div Offset: 0 V Attenuation: 1 X Sample Mode: Average
#Channel 2: Range: 5 V/div Offset: 0 V Attenuation: 1 X Sample Mode: Average

Time (s),Channel 1 (V),Channel 2 (V)
-9.52567783094094e-07,0.009457301558278,0.02479346609537227
-9.425677830940925e-07,0.008455318257242295,0.00991067751733847
-9.325677830940909e-07,0.009123307124599279,0.02851416323987226
-9.22567783094096e-07,0.008789312690921015,0.009910677517346929
-9.125677830940944e-07,0.008121323823563727,0.02107276895086382
-9.025677830940928e-07,0.007119340522528024,0.01363137466184692
-8.925677830940912e-07,0.008789312690920863,0.002469283228321573
-8.825677830940964e-07,0.009791295991956111,0.00618998037282833
-8.725677830940948e-07,0.00778732938988516,0.01735207180635537
-8.625677830940932e-07,0.008789312690920863,0.01735207180635537
-8.525677830940916e-07,0.009123307124599432,0.01735207180635537
-8.4256778309409e-07,0.008121323823564335,0.0136313746618503
-8.325677830940952e-07,0.009457301558278,0.02107276895086382
-8.225677830940936e-07,0.008121323823563727,0.00991067751733847
-8.12567783094092e-07,0.00778732938988516,-0.001251413916186876
-8.025677830940904e-07,0.008121323823563271,0.01363137466183507
-7.925677830940956e-07,0.00711934052252848,-0.01241350534970038
-7.82567783094094e-07,0.008455318257242295,0.02851416323988071
-7.725677830940924e-07,0.006451351655170888,-0.004972111060695325
-7.625677830940908e-07,0.007119340522528024,0.006189980372838482
-7.52567783094096e-07,0.007119340522528024,0.02479346609536381
-7.425677830940944e-07,0.006785346088849456,-0.01241350534971222
-7.325677830940928e-07,0.009123307124599432,0.006189980372830022
-7.225677830940912e-07,0.005115373920456617,0.00991067751733847
-7.125677830940963e-07,0.00645135165517028,0.002469283228324956
-7.025677830940947e-07,0.006785346088849456,0.02851416323988071
-6.925677830940931e-07,0.006451351655170888,0.002469283228321573
-6.825677830940916e-07,0.006785346088849456,0.006189980372830022
-6.7256778309409e-07,0.005449368354135336,0.01735207180635199
-6.625677830940951e-07,0.005783362787813752,0.00991067751733847
-6.525677830940935e-07,0.004781379486778049,0.02479346609537227
-6.425677830940919e-07,0.00778732938988516,-0.004972111060695325
-6.325677830940903e-07,0.006451351655170888,0.009910677517331703
-6.225677830940955e-07,0.006451351655170888,-0.004972111060688558
-6.125677830940939e-07,0.005783362787813752,0.00991067751733847
-6.025677830940923e-07,0.004781379486778049,0.02851416323988071
-5.925677830940907e-07,0.006785346088850367,0.002469283228328341
-5.825677830940959e-07,0.008789312690919952,0.0173520718063486
-5.725677830940943e-07,0.007119340522528024,0.01363137466184692
-5.625677830940927e-07,0.007453334956206592,0.02107276895086382
-5.525677830940911e-07,0.005783362787813752,0.02479346609537227
-5.425677830940963e-07,0.007453334956205832,0.002469283228331724
-5.325677830940947e-07,0.008121323823563727,0.02107276895086382
-5.225677830940931e-07,0.00778732938988516,0.00991067751733847
-5.125677830940915e-07,0.008789312690920863,0.002469283228321573
-5.025677830940899e-07,0.007453334956206592,0.02851416323986887
-4.925677830940951e-07,0.007453334956206592,0.002469283228321573
-4.825677830940935e-07,0.007119340522528024,0.02851416323988071
-4.725677830940919e-07,0.007453334956206592,0.02479346609537227
-4.625677830940903e-07,0.007787329389884248,0.0173520718063689
-4.525677830940954e-07,0.005783362787813752,0.04711764896242296
-4.425677830940938e-07,0.006451351655170888,0.00991067751733847
-4.325677830940923e-07,0.008455318257242295,0.01363137466184692
-4.225677830940907e-07,0.006117357221492776,0.01363137466184353
-4.125677830940958e-07,0.007119340522527569,0.006189980372833405
-4.025677830940942e-07,0.007119340522528024,0.03223486038438916
-3.925677830940926e-07,0.006451351655170888,-0.001251413916186876
-3.82567783094091e-07,0.007453334956206592,0.02851416323988071
-3.725677830940962e-07,0.007787329389885008,0.002469283228333417
-3.625677830940946e-07,0.007119340522528024,0.01363137466184692
-3.52567783094093e-07,0.007119340522528024,0.01735207180635537
-3.425677830940914e-07,0.007119340522528024,-0.008692808205203774
-3.325677830940898e-07,0.007453334956206592,0.02479346609535366
-3.22567783094095e-07,0.007453334956206592,-0.01613420249422067
-3.125677830940934e-07,0.00778732938988516,0.01735207180635537
-3.025677830940918e-07,0.00778732938988516,0.02107276895086382
-2.925677830940902e-07,0.007787329389885311,-0.01613420249420375
-2.825677830940954e-07,0.008121323823563727,0.02107276895086382
-2.725677830940938e-07,0.00778732938988516,-0.004972111060695325
-2.625677830940922e-07,0.008789312690920863,-0.001251413916186876
-2.525677830940906e-07,0.008121323823563575,0.03223486038436886
-2.425677830940958e-07,0.007787329389885311,-0.01241350534969192
-2.325677830940942e-07,0.01079327929299227,0.01735207180635537
-2.225677830940926e-07,0.006785346088849456,0.01363137466184692
-2.12567783094091e-07,0.00778732938988516,0.00991067751733847
-2.025677830940961e-07,0.008121323823563575,0.03595555752888577
-1.925677830940945e-07,0.007453334956206592,0.01735207180635537
-1.82567783094093e-07,0.008455318257242295,0.002469283228321573
-1.725677830940914e-07,0.008121323823563727,0.02851416323988071
-1.625677830940965e-07,0.008121323823563727,0.006189980372840173
-1.525677830940949e-07,0.006785346088849456,0.02479346609537227
-1.425677830940933e-07,0.007119340522528024,-0.001251413916186876
-1.325677830940917e-07,0.008789312690920863,0.02851416323988071
-1.225677830940901e-07,0.00711934052252848,0.01735207180635537
-1.125677830940953e-07,0.008121323823563727,0.01735207180635537
-1.025677830940937e-07,0.007453334956206592,0.01735207180635537
-9.256778309409212e-08,0.007453334956206592,-0.004972111060695325
-8.256778309409052e-08,0.008455318257241688,0.01735207180635199
-7.25677830940957e-08,0.007119340522528632,0.009910677517341853
-6.25677830940941e-08,0.006785346088849456,0.00991067751733847
-5.25677830940925e-08,0.006785346088849456,0.02479346609537227
-4.25677830940909e-08,0.005449368354136096,-0.004972111060688557
-3.256778309409608e-08,0.007453334956205681,0.009910677517331703
-2.256778309409448e-08,0.007119340522528024,-0.001251413916186876
-1.256778309409288e-08,0.007453334956206592,0.006189980372830022
-2.567783094091286e-09,-0.01158434776347178,1.39773071241899
7.432216905903536e-09,0.017139173532872,3.730607822024727
1.743221690590513e-08,0.00144143514999237,3.05344094172525
2.743221690590673e-08,0.01379922919609938,3.310169044696333
3.743221690590833e-08,0.009791295991956567,3.325051833274367
4.743221690590993e-08,0.01680517909919981,3.295286256118336
5.743221690590475e-08,0.002109424017349506,3.377141593297485
6.743221690590635e-08,0.008121323823563727,3.351096713285926
7.743221690590795e-08,0.002443418451028074,3.395745079020027
8.743221690590955e-08,0.004447385053096899,3.321331136129882
9.743221690590437e-08,-0.001230520319433591,3.373420896152953
1.07432216905906e-07,0.005783362787813752,3.291565558973791
1.174322169059076e-07,0.00778732938988516,3.336213924707892
1.274322169059092e-07,0.007787329389884856,3.28040346754028
1.37432216905904e-07,0.007119340522528328,3.313889741840826
1.474322169059056e-07,0.008789312690920863,3.325051833274367
1.574322169059072e-07,0.008455318257242295,3.325051833274367
1.674322169059088e-07,0.008121323823563727,3.347376016141417
1.774322169059036e-07,0.004113390619422735,3.369700199008458
1.874322169059052e-07,0.005115373920456617,3.354817410430434
1.974322169059068e-07,0.003445401752063777,3.399465776164535
2.074322169059084e-07,0.002443418451028074,3.347376016141417
2.1743221690591e-07,0.004113390619421824,3.365979501863939
2.274322169059048e-07,0.00611735722149232,3.321331136129858
2.374322169059064e-07,0.007119340522528024,3.321331136129858
2.47432216905908e-07,0.007119340522528024,3.332493227563384
2.574322169059096e-07,0.00778732938988592,3.310169044696355
2.674322169059044e-07,0.00945730155827724,3.35853810757492
2.77432216905906e-07,0.005449368354135184,3.351096713285926
2.874322169059076e-07,0.004781379486778049,3.347376016141417
2.974322169059092e-07,0.002777412884706489,3.3920243818755
3.074322169059041e-07,0.002443418451028225,3.351096713285944
3.174322169059057e-07,0.004113390619420913,3.377141593297485
3.274322169059072e-07,0.003445401752063777,3.351096713285926
3.374322169059088e-07,0.003111407318385209,3.343655318996909
3.474322169059037e-07,0.006451351655169369,3.358538107574936
3.574322169059053e-07,0.006451351655170888,3.328772530418875
3.674322169059069e-07,0.01012529042563514,3.354817410430434
3.774322169059085e-07,0.007119340522528024,3.362258804719451
3.874322169059101e-07,0.007787329389885008,3.365979501863964
3.974322169059049e-07,0.007453334956206592,3.377141593297485
4.074322169059065e-07,0.007453334956206592,3.354817410430434
4.174322169059081e-07,0.009123307124599432,3.369700199008468
4.274322169059097e-07,0.004113390619422432,3.362258804719443
4.374322169059045e-07,0.007453334956205073,3.343655318996917
4.474322169059061e-07,0.006451351655170888,3.377141593297485
4.574322169059077e-07,0.007119340522528024,3.3399346218524
4.674322169059093e-07,0.01112727372666917,3.38458298758649
4.774322169059041e-07,0.007453334956208263,3.358538107574955
4.874322169059057e-07,0.007453334956206592,3.369700199008468
4.974322169059073e-07,0.008121323823563727,3.392024381875518
5.074322169059089e-07,0.00611735722149232,3.36597950186396
5.174322169059037e-07,0.007119340522527569,3.39946577616452
5.274322169059053e-07,0.005783362787813752,3.362258804719451
5.374322169059069e-07,0.005783362787813752,3.36597950186396
5.474322169059085e-07,0.007119340522528024,3.395745079020027
5.574322169059101e-07,0.007119340522528176,3.351096713285936
5.67432216905905e-07,0.007453334956206592,3.373420896152977
5.774322169059065e-07,0.007453334956206592,3.358538107574943
5.874322169059081e-07,0.008455318257242295,3.380862290441993
5.974322169059097e-07,0.007453334956207655,3.395745079020015
6.074322169059046e-07,0.009791295991956567,3.369700199008468
6.174322169059062e-07,0.009457301558278,3.392024381875518
6.274322169059078e-07,0.00611735722149232,3.373420896152977
6.374322169059094e-07,0.008455318257241688,3.377141593297495
6.474322169059042e-07,0.007119340522528632,3.399465776164525
6.574322169059058e-07,0.008789312690920863,3.36597950186396
6.674322169059074e-07,0.008789312690920863,3.377141593297485
6.77432216905909e-07,0.007119340522528024,3.380862290441993
6.874322169059038e-07,0.008121323823563271,3.369700199008473
6.974322169059054e-07,0.006451351655170888,3.410627867598061
7.07432216905907e-07,0.006785346088849456,3.369700199008468
7.174322169059086e-07,0.008455318257242295,3.406907170453553
7.274322169059102e-07,0.00645135165517104,3.388303684731004
7.37432216905905e-07,0.006785346088849456,3.373420896152977
7.474322169059066e-07,0.007119340522528024,3.399465776164535
7.574322169059082e-07,0.007119340522528024,3.373420896152977
7.674322169059098e-07,0.007453334956205529,3.403186473309035
7.774322169059046e-07,0.005115373920456617,3.384582987586502
7.874322169059062e-07,0.008455318257242295,3.384582987586502
7.974322169059078e-07,0.005783362787813752,3.38830368473101
8.074322169059094e-07,0.007119340522528784,3.365979501863978
8.174322169059043e-07,0.008789312690920103,3.406907170453534
8.274322169059058e-07,0.00611735722149232,3.392024381875518
8.374322169059074e-07,0.007119340522528024,3.399465776164535
8.47432216905909e-07,0.009123307124599432,3.395745079020027
8.574322169059039e-07,0.006785346088850519,3.36970019900848
8.674322169059055e-07,0.009457301558278,3.38830368473101
8.774322169059071e-07,0.008121323823563727,3.38830368473101
8.874322169059087e-07,0.0104592848593137,3.369700199008468
8.974322169059035e-07,0.0104592848593137,3.395745079020015
9.074322169059051e-07,0.009457301558278,3.36597950186396
9.174322169059067e-07,0.01012529042563514,3.384582987586502
9.274322169059083e-07,0.009123307124599432,3.377141593297485
9.374322169059099e-07,0.00878931269092071,3.351096713285946
9.474322169059047e-07,0.008455318257242295,3.395745079020027
9.574322169059063e-07,0.00778732938988516,3.362258804719451
9.674322169059079e-07,0.01012529042563514,3.384582987586502
9.774322169059095e-07,0.00778732938988516,3.388303684731
9.874322169059043e-07,0.00778732938988516,3.36597950186397
9.974322169059059e-07,0.007119340522528024,3.406907170453553
1.007432216905908e-06,0.007453334956206592,3.36597950186396
1.017432216905909e-06,0.0107932792929903,3.388303684731008
1.027432216905904e-06,0.006451351655172862,3.384582987586504
1.037432216905906e-06,0.007453334956206592,3.36597950186396
1.047432216905907e-06,0.007119340522528024,3.384582987586502
1.057432216905909e-06,0.007119340522528024,3.362258804719451
1.067432216905904e-06,0.008121323823563271,3.362258804719451
1.077432216905905e-06,0.006451351655170888,3.384582987586502
1.087432216905907e-06,0.00611735722149232,3.362258804719451
1.097432216905908e-06,0.006785346088849456,3.395745079020027
1.10743221690591e-06,0.006451351655172559,3.358538107574958
1.117432216905905e-06,0.01012529042563514,3.392024381875518
1.127432216905906e-06,0.006451351655170888,3.384582987586502
1.137432216905908e-06,0.00778732938988516,3.377141593297485
1.14743221690591e-06,0.007787329389884856,3.410627867598049
1.157432216905904e-06,0.007119340522528328,3.384582987586514
1.167432216905906e-06,0.009123307124599432,3.392024381875518
1.177432216905908e-06,0.00778732938988516,3.369700199008468
1.187432216905909e-06,0.008121323823564031,3.380862290442002
1.197432216905904e-06,0.008789312690920559,3.399465776164527
1.207432216905906e-06,0.009123307124599432,3.36597950186396
1.217432216905907e-06,0.009457301558278,3.392024381875518
1.227432216905909e-06,0.008121323823563727,3.38830368473101
1.237432216905904e-06,0.00711934052252848,3.373420896152983
1.247432216905905e-06,0.00778732938988516,3.38830368473101
1.257432216905907e-06,0.008455318257242295,3.362258804719451
1.267432216905908e-06,0.009123307124599432,3.406907170453553
1.27743221690591e-06,0.006785346088850063,3.388303684731004
1.287432216905905e-06,0.008121323823563727,3.373420896152977
1.297432216905906e-06,0.005449368354135184,3.403186473309044
1.307432216905908e-06,0.007119340522528024,3.354817410430434
1.31743221690591e-06,0.006451351655170433,3.403186473309035
1.327432216905904e-06,0.00544936835413564,3.38458298758651
1.337432216905906e-06,0.006785346088849456,3.377141593297485
1.347432216905908e-06,0.005115373920456617,3.399465776164535
1.357432216905909e-06,0.00377939618574356,3.373420896152983
1.367432216905904e-06,0.006451351655169673,3.388303684731004
1.377432216905906e-06,0.004113390619420913,3.392024381875518
1.387432216905907e-06,0.00611735722149232,3.380862290441993
1.397432216905909e-06,0.004447385053099481,3.406907170453553
1.407432216905904e-06,0.004781379486777897,3.373420896152992
1.417432216905905e-06,0.006785346088849456,3.392024381875518
1.427432216905907e-06,0.004447385053099481,3.384582987586502
1.437432216905908e-06,0.005449368354135184,3.392024381875518
1.44743221690591e-06,0.004447385053099937,3.403186473309029
1.457432216905905e-06,0.005449368354135184,3.369700199008468
1.467432216905906e-06,0.007119340522528024,3.403186473309044
1.477432216905908e-06,0.004447385053099481,3.392024381875518
1.48743221690591e-06,0.006785346088848696,3.384582987586512
1.497432216905905e-06,0.005115373920457376,3.406907170453542
1.507432216905906e-06,0.00611735722149232,3.343655318996909
1.517432216905908e-06,0.00611735722149232,3.392024381875518
1.527432216905909e-06,0.006785346088849608,3.388303684730998
1.537432216905904e-06,0.007119340522527873,3.362258804719463
1.547432216905906e-06,0.007453334956206592,3.395745079020027
1.557432216905907e-06,0.00778732938988516,3.358538107574943
1.567432216905909e-06,0.009457301558278,3.384582987586502
1.577432216905904e-06,0.007453334956207503,3.392024381875515
1.587432216905905e-06,0.00778732938988516,3.362258804719451
1.597432216905907e-06,0.006451351655170888,3.392024381875518
1.607432216905909e-06,0.006785346088849456,3.38830368473101
1.61743221690591e-06,0.007119340522528328,3.377141593297492
1.627432216905905e-06,0.00778732938988516,3.392024381875518
1.637432216905907e-06,0.006451351655170888,3.380862290441993
1.647432216905908e-06,0.006785346088849456,3.403186473309044
1.65743221690591e-06,0.005783362787814056,3.369700199008476
1.667432216905905e-06,0.006451351655170888,3.38830368473101
1.677432216905906e-06,0.006785346088849456,3.380862290441993
1.687432216905908e-06,0.006785346088849456,3.362258804719451
1.697432216905909e-06,0.008121323823563575,3.406907170453527
1.707432216905904e-06,0.007787329389885311,3.351096713285951
1.717432216905906e-06,0.009791295991956567,3.392024381875518
1.727432216905907e-06,0.007453334956206592,3.362258804719451
1.737432216905909e-06,0.007453334956206592,3.392024381875518
1.747432216905904e-06,0.007453334956206592,3.392024381875518
1.757432216905905e-06,0.00778732938988516,3.36597950186396
1.767432216905907e-06,0.009123307124599432,3.377141593297485
1.777432216905909e-06,0.006451351655170888,3.380862290441993
1.787432216905903e-06,0.006451351655170888,3.377141593297487
1.797432216905905e-06,0.008789312690920863,3.38830368473101
1.807432216905907e-06,0.005783362787813752,3.380862290441993
1.817432216905908e-06,0.008789312690920863,3.377141593297485
1.82743221690591e-06,0.007453334956206137,3.377141593297483
1.837432216905905e-06,0.006451351655170888,3.373420896152977
1.847432216905906e-06,0.007119340522528024,3.392024381875518
1.857432216905908e-06,0.008121323823563727,3.369700199008468
1.867432216905909e-06,0.009123307124598218,3.384582987586505
1.877432216905904e-06,0.006451351655172103,3.392024381875515
1.887432216905906e-06,0.00778732938988516,3.358538107574943
1.897432216905907e-06,0.006785346088849456,3.38830368473101
1.907432216905909e-06,0.00778732938988516,3.373420896152977
1.917432216905904e-06,0.008455318257241991,3.38086229044199
1.927432216905905e-06,0.007453334956206592,3.369700199008468
1.937432216905907e-06,0.007119340522528024,3.36597950186396
1.947432216905909e-06,0.008455318257242295,3.410627867598061
1.957432216905904e-06,0.007119340522528632,3.358538107574966
1.967432216905905e-06,0.007453334956206592,3.403186473309044
1.977432216905907e-06,0.005783362787813752,3.369700199008468
1.987432216905908e-06,0.006451351655170888,3.373420896152977
1.99743221690591e-06,0.005783362787814056,3.384582987586492
2.007432216905905e-06,0.006451351655170888,3.362258804719451
2.017432216905906e-06,0.00611735722149232,3.38830368473101
2.027432216905908e-06,0.006451351655170888,3.377141593297485
2.03743221690591e-06,0.005783362787813752,3.384582987586504
2.047432216905904e-06,0.005783362787813752,3.388303684731008
2.057432216905906e-06,0.005115373920456617,3.362258804719451
2.067432216905908e-06,0.00778732938988516,3.38830368473101
2.077432216905909e-06,0.006785346088849456,3.377141593297488
2.087432216905904e-06,0.006785346088849456,3.384582987586498
2.097432216905906e-06,0.005115373920456617,3.38830368473101
2.107432216905907e-06,0.006451351655170888,3.377141593297485
2.117432216905909e-06,0.008455318257242295,3.373420896152977
2.127432216905904e-06,0.005783362787814967,3.377141593297483
2.137432216905905e-06,0.00611735722149232,3.369700199008468
2.147432216905907e-06,0.007453334956206592,3.384582987586502
2.157432216905908e-06,0.005449368354135184,3.369700199008468
2.16743221690591e-06,0.007119340522527417,3.392024381875517
2.177432216905905e-06,0.005783362787813752,3.38830368473101
2.187432216905906e-06,0.006785346088849456,3.369700199008468
2.197432216905908e-06,0.004781379486778049,3.384582987586502
2.20743221690591e-06,0.005783362787814207,3.369700199008476
