traces_bank_current_trigger/benchmark_traces/fibonacci_100MHz/fib_13.csv

#Digilent WaveForms Oscilloscope Acquisition
#Device Name: Discovery2
#Serial Number: SN:210321B3D813
#Date Time: 2023-06-23 13:31:46.850
#Sample rate: 1e+08Hz
#Samples: 8192
#Trigger: Source: Channel 2 Type: Edge Condition: Rising Level: 2 V Hyst.: Auto HoldOff: 0 s
#Channel 1: Range: 10 mV/div Offset: 0 V Attenuation: 1 X Sample Mode: Average
#Channel 2: Range: 5 V/div Offset: 0 V Attenuation: 1 X Sample Mode: Average

Time (s),Channel 1 (V),Channel 2 (V)
-8.954318658280924e-06,0.004781379486778049,-0.01241350534971222
-8.944318658280922e-06,0.005449368354135184,0.01363137466184692
-8.934318658280921e-06,0.003779396185742497,0.01363137466184015
-8.924318658280926e-06,0.004113390619420761,-0.001251413916180109
-8.914318658280924e-06,0.005115373920456617,0.04339695181791451
-8.904318658280923e-06,0.004113390619420913,-0.01613420249422067
-8.894318658280921e-06,0.00611735722149232,0.02479346609537227
-8.884318658280926e-06,0.005115373920457072,0.02479346609537227
-8.874318658280925e-06,0.004781379486778049,-0.004972111060695325
-8.864318658280923e-06,0.004113390619420913,0.05083834610693141
-8.854318658280922e-06,0.003445401752063777,-0.004972111060695325
-8.84431865828092e-06,0.005783362787813297,0.02479346609537734
-8.834318658280925e-06,0.004781379486778049,0.03595555752889761
-8.824318658280924e-06,0.003779396185742345,-0.004972111060695325
-8.814318658280922e-06,0.005115373920456617,0.03967625467340606
-8.80431865828092e-06,0.003111407318385817,-0.0124135053496953
-8.794318658280926e-06,0.004447385053098874,0.02479346609535535
-8.784318658280924e-06,0.002777412884706641,0.04339695181791451
-8.774318658280922e-06,0.005449368354135184,-0.001251413916186876
-8.764318658280921e-06,0.004781379486778656,0.04339695181789759
-8.754318658280926e-06,0.006117357221491712,0.006189980372846939
-8.744318658280924e-06,0.005783362787813752,0.02851416323988071
-8.734318658280923e-06,0.004113390619420913,0.02107276895086382
-8.724318658280921e-06,0.004447385053099481,0.002469283228321573
-8.714318658280926e-06,0.005449368354134729,0.03595555752888238
-8.704318658280925e-06,0.003111407318385209,-0.001251413916186876
-8.694318658280923e-06,0.005449368354135184,0.01735207180635537
-8.684318658280922e-06,0.003111407318385209,0.02107276895086382
-8.67431865828092e-06,0.005449368354135033,-0.004972111060675021
-8.664318658280925e-06,0.005115373920456617,0.03967625467340606
-8.654318658280924e-06,0.003779396185742345,-0.004972111060695325
-8.644318658280922e-06,0.004447385053099481,0.01363137466184692
-8.63431865828092e-06,0.005115373920456161,0.02851416323986041
-8.624318658280926e-06,0.004113390619421368,-0.01613420249420037
-8.614318658280924e-06,0.005115373920456617,0.03967625467340606
-8.604318658280922e-06,0.003111407318385209,-0.001251413916186876
-8.594318658280921e-06,0.006451351655170433,0.01363137466185876
-8.584318658280926e-06,0.00544936835413564,0.03967625467339422
-8.574318658280924e-06,0.004447385053099481,-0.008692808205203774
-8.564318658280923e-06,0.006785346088849456,0.05083834610693141
-8.554318658280921e-06,0.004447385053099481,-0.01241350534971222
-8.544318658280926e-06,0.008455318257240472,0.02479346609535535
-8.534318658280925e-06,0.006451351655170888,0.02107276895086382
-8.524318658280923e-06,0.006785346088849456,0.002469283228321573
-8.514318658280922e-06,0.009791295991956567,0.04339695181791451
-8.50431865828092e-06,0.006117357221493687,-0.0124135053496953
-8.494318658280925e-06,0.009123307124599432,0.02479346609537227
-8.484318658280924e-06,0.006785346088849456,0.03223486038438916
-8.474318658280922e-06,0.006785346088849456,0.002469283228321573
-8.46431865828092e-06,0.008455318257241688,0.03967625467338745
-8.454318658280925e-06,0.007119340522528024,-0.001251413916186876
-8.444318658280924e-06,0.01012529042563514,0.02107276895086382
-8.434318658280922e-06,0.00778732938988516,0.03223486038438916
-8.424318658280921e-06,0.006451351655170888,-0.00497211106067333
-8.414318658280926e-06,0.006451351655170888,0.04339695181789251
-8.404318658280924e-06,0.006451351655170888,0.002469283228321573
-8.394318658280923e-06,0.007453334956206592,0.00991067751733847
-8.384318658280921e-06,0.005449368354135184,0.03967625467340606
-8.374318658280926e-06,0.0057833627878136,0.01735207180636552
-8.364318658280925e-06,0.006785346088849456,0.05083834610693141
-8.354318658280923e-06,0.005783362787813752,-0.001251413916186876
-8.344318658280921e-06,0.005115373920456617,0.006189980372830022
-8.33431865828092e-06,0.006451351655170736,0.04339695181789082
-8.324318658280925e-06,0.00611735722149232,-0.008692808205203774
-8.314318658280923e-06,0.006451351655170888,0.05083834610693141
-8.304318658280922e-06,0.005115373920456617,0.02107276895086382
-8.29431865828092e-06,0.005783362787813448,0.009910677517348622
-8.284318658280925e-06,0.005115373920456617,0.03223486038438916
-8.274318658280924e-06,0.004113390619420913,-0.004972111060695325
-8.264318658280922e-06,0.005115373920456617,0.06572113468496521
-8.254318658280921e-06,0.005783362787814359,0.002469283228331725
-8.244318658280926e-06,0.007119340522527417,0.02479346609536211
-8.234318658280924e-06,0.00611735722149232,0.02851416323988071
-8.224318658280923e-06,0.004447385053099481,0.002469283228321573
-8.214318658280921e-06,0.00611735722149232,0.04711764896242296
-8.204318658280926e-06,0.005783362787813904,0.002469283228341876
-8.194318658280925e-06,0.008789312690920863,0.03223486038438916
-8.184318658280923e-06,0.00611735722149232,0.02479346609537227
-8.174318658280921e-06,0.006785346088849456,0.002469283228321573
-8.164318658280927e-06,0.006785346088849456,0.0433969518178959
-8.154318658280925e-06,0.004447385053099481,-0.001251413916186876
-8.144318658280923e-06,0.007119340522528024,0.02107276895086382
-8.134318658280922e-06,0.00611735722149232,0.03223486038438916
-8.12431865828092e-06,0.005783362787814056,-0.008692808205183471
-8.114318658280925e-06,0.006451351655170888,0.03595555752889761
-8.104318658280924e-06,0.004113390619420913,0.02107276895086382
-8.094318658280922e-06,0.00611735722149232,0.02107276895086382
-8.084318658280921e-06,0.005115373920456465,0.0322348603843807
-8.074318658280926e-06,0.004781379486778201,0.01363137466185538
-8.064318658280924e-06,0.005783362787813752,0.03967625467340606
-8.054318658280923e-06,0.005115373920456617,-0.01985489963872912
-8.044318658280921e-06,0.004781379486778201,0.006189980372835097
-8.034318658280926e-06,0.005115373920456465,0.01735207180635029
-8.024318658280925e-06,0.004447385053099481,0.002469283228321573
-8.014318658280923e-06,0.005449368354135184,0.03223486038438916
-8.004318658280921e-06,0.00611735722149232,-0.01985489963872912
-7.994318658280926e-06,0.006451351655170736,0.01735207180633845
-7.984318658280925e-06,0.006451351655170888,0.03223486038438916
-7.974318658280923e-06,0.005115373920456617,-0.004972111060695325
-7.964318658280922e-06,0.006785346088849456,0.04339695181791451
-7.95431865828092e-06,0.005449368354135944,-0.008692808205188546
-7.944318658280925e-06,0.007119340522528024,0.02479346609537227
-7.934318658280924e-06,0.00611735722149232,0.01735207180635537
-7.924318658280922e-06,0.005783362787813752,-0.001251413916186876
-7.91431865828092e-06,0.00611735722149232,0.03967625467339422
-7.904318658280926e-06,0.00611735722149232,0.01363137466185876
-7.894318658280924e-06,0.005783362787813752,0.01735207180635537
-7.884318658280922e-06,0.005449368354135184,0.01363137466184692
-7.874318658280921e-06,0.004447385053100393,-0.01985489963870036
-7.864318658280926e-06,0.006451351655169977,0.04339695181788575
-7.854318658280924e-06,0.004781379486778049,-0.01241350534971222
-7.844318658280923e-06,0.005115373920456617,0.02479346609537227
-7.834318658280921e-06,0.004447385053099481,0.03223486038438916
-7.824318658280926e-06,0.004113390619421065,-0.008692808205185164
-7.814318658280925e-06,0.004447385053099481,0.03595555752889761
-7.804318658280923e-06,0.003111407318385209,0.002469283228321573
-7.794318658280922e-06,0.00611735722149232,0.01363137466184692
-7.78431865828092e-06,0.004781379486777594,0.02107276895084182
-7.774318658280925e-06,0.003779396185742345,-0.02729629392774602
-7.764318658280924e-06,0.004447385053099481,0.03967625467340606
-7.754318658280922e-06,0.004113390619420913,-0.01241350534971222
-7.74431865828092e-06,0.003111407318385513,0.006189980372841865
-7.734318658280926e-06,0.003779396185742042,0.03223486038437732
-7.724318658280924e-06,0.004781379486778049,-0.01613420249422067
-7.714318658280922e-06,0.003111407318385209,0.04339695181791451
-7.704318658280921e-06,0.00511537392045768,0.002469283228328341
-7.694318658280926e-06,0.007453334956205529,0.0173520718063486
-7.684318658280924e-06,0.006785346088849456,0.02479346609537227
-7.674318658280923e-06,0.00778732938988516,-0.004972111060695325
-7.664318658280921e-06,0.006785346088849456,0.03967625467340606
-7.654318658280926e-06,0.006117357221492624,-0.001251413916168266
-7.644318658280925e-06,0.00611735722149232,-0.01241350534971222
-7.634318658280923e-06,0.006451351655170888,0.03967625467340606
-7.624318658280922e-06,0.006451351655170888,-0.01241350534971222
-7.61431865828092e-06,0.0107932792929909,0.0359555575288807
-7.604318658280925e-06,0.00778732938988516,-0.001251413916186876
-7.594318658280924e-06,0.01079327929299227,-0.004972111060695325
-7.584318658280922e-06,0.01012529042563514,0.02851416323988071
-7.57431865828092e-06,0.009457301558278456,-0.02729629392772064
-7.564318658280926e-06,0.01045928485931325,0.02851416323985533
-7.554318658280924e-06,0.005783362787813752,-0.03101699107225447
-7.544318658280922e-06,0.006785346088849456,0.00991067751733847
-7.534318658280921e-06,0.01012529042563392,0.00991067751732155
-7.524318658280926e-06,0.007453334956207807,-0.0272962939277291
-7.514318658280924e-06,0.006785346088849456,0.03967625467340606
-7.504318658280923e-06,0.005115373920456617,-0.02729629392774602
-7.494318658280921e-06,0.009457301558278,0.01363137466184692
-7.484318658280926e-06,0.008789312690921166,0.01735207180635367
-7.474318658280925e-06,0.005783362787813752,-0.008692808205203774
-7.464318658280923e-06,0.00778732938988516,0.02479346609537227
-7.454318658280922e-06,0.004781379486778049,-0.008692808205203774
-7.44431865828092e-06,0.007119340522526961,0.006189980372830022
-7.434318658280925e-06,0.004781379486778049,0.006189980372830022
-7.424318658280923e-06,0.005115373920456617,-0.03101699107225447
-7.414318658280922e-06,0.007119340522528024,0.02851416323988071
-7.40431865828092e-06,0.006117357221492472,-0.0161342024942156
-7.394318658280925e-06,0.006451351655170888,-0.004972111060695325
-7.384318658280924e-06,0.007453334956206592,0.02479346609537227
-7.374318658280922e-06,0.006785346088849456,-0.02357559678323757
-7.364318658280921e-06,0.008455318257241688,0.03967625467338406
-7.354318658280926e-06,0.007119340522528632,-0.008692808205181778
-7.344318658280924e-06,0.007119340522528024,0.02851416323988071
-7.334318658280923e-06,0.00778732938988516,0.01735207180635537
-7.324318658280921e-06,0.006451351655170888,-0.01613420249422067
-7.314318658280926e-06,0.006451351655170888,0.03223486038436717
-7.304318658280925e-06,0.005115373920456617,-0.01613420249422067
-7.294318658280923e-06,0.007453334956206592,-0.008692808205203774
-7.284318658280921e-06,0.007119340522528024,0.02479346609537227
-7.27431865828092e-06,0.005449368354135944,-0.01241350534969023
-7.264318658280925e-06,0.007119340522528024,0.03595555752889761
-7.254318658280923e-06,0.004781379486778049,-0.004972111060695325
-7.244318658280922e-06,0.007119340522528024,-0.004972111060695325
-7.23431865828092e-06,0.005449368354135488,0.02479346609535196
-7.224318658280925e-06,0.00611735722149232,-0.01985489963872912
-7.214318658280924e-06,0.005783362787813752,0.02851416323988071
-7.204318658280922e-06,0.005115373920456617,-0.001251413916186876
-7.194318658280921e-06,0.005783362787813145,-0.0012514139161818
-7.184318658280926e-06,0.004447385053100088,0.009910677517333395
-7.174318658280924e-06,0.004781379486778049,-0.03101699107225447
-7.164318658280923e-06,0.004447385053099481,0.02107276895086382
-7.154318658280921e-06,0.00611735722149232,-0.01613420249422067
-7.144318658280926e-06,0.006451351655170736,-0.01613420249422067
-7.134318658280925e-06,0.006451351655170888,0.002469283228321573
-7.124318658280923e-06,0.00611735722149232,-0.01985489963872912
-7.114318658280921e-06,0.005115373920456617,0.02107276895086382
-7.104318658280927e-06,0.003779396185742953,-0.001251413916176725
-7.094318658280925e-06,0.006451351655170888,-0.004972111060695325
-7.084318658280923e-06,0.004781379486778049,0.01735207180635537
-7.074318658280922e-06,0.004781379486778049,-0.01985489963872912
-7.06431865828092e-06,0.005449368354134729,0.04339695181788236
-7.054318658280925e-06,0.004447385053099481,-0.02729629392774602
-7.044318658280924e-06,0.005115373920456617,0.006189980372830022
-7.034318658280922e-06,0.005783362787813752,0.01735207180635537
-7.024318658280921e-06,0.006117357221492472,-0.04962047679475949
-7.014318658280926e-06,0.006451351655170736,0.03223486038435194
-7.004318658280924e-06,0.005115373920456617,-0.01613420249422067
-6.994318658280923e-06,0.006451351655170888,-0.008692808205203774
-6.984318658280921e-06,0.005783362787813448,0.002469283228308037
-6.974318658280926e-06,0.00511537392045692,-0.02729629392773248
-6.964318658280925e-06,0.00778732938988516,0.05455904325143986
-6.954318658280923e-06,0.002777412884706641,-0.03473768821676292
-6.944318658280921e-06,0.005783362787813752,0.01363137466184692
-6.934318658280926e-06,0.003779396185743256,0.01735207180635367
-6.924318658280925e-06,0.005449368354135184,-0.01613420249422067
-6.914318658280923e-06,0.005115373920456617,0.02851416323988071
-6.904318658280922e-06,0.005115373920456617,-0.008692808205203774
-6.89431865828092e-06,0.006451351655171192,-0.01241350534970038
-6.884318658280925e-06,0.007119340522528024,0.01363137466184692
-6.874318658280924e-06,0.004113390619420913,-0.008692808205203774
-6.864318658280922e-06,0.00611735722149232,0.02851416323988071
-6.85431865828092e-06,0.00311140731838688,-0.02357559678322572
-6.844318658280926e-06,0.006785346088847785,0.002469283228309728
-6.834318658280924e-06,0.003779396185742345,0.002469283228321573
-6.824318658280922e-06,0.005449368354135184,-0.01613420249422067
-6.814318658280921e-06,0.006117357221491865,0.04339695181788744
-6.804318658280926e-06,0.005115373920457072,-0.0161342024941936
-6.794318658280924e-06,0.006785346088849456,0.006189980372830022
-6.784318658280923e-06,0.007119340522528024,0.02479346609537227
-6.774318658280921e-06,0.006451351655170888,-0.01613420249422067
-6.764318658280926e-06,0.008121323823562968,0.03595555752887392
-6.754318658280925e-06,0.006451351655170888,-0.01985489963872912
-6.744318658280923e-06,0.0104592848593137,-0.001251413916186876
-6.734318658280922e-06,0.007453334956206592,0.01735207180635537
-6.72431865828092e-06,0.008121323823564791,-0.008692808205190238
-6.714318658280925e-06,0.0104592848593137,0.02107276895086382
-6.704318658280924e-06,0.00778732938988516,-0.02357559678323757
-6.694318658280922e-06,0.01146126816034941,0.02107276895086382
-6.68431865828092e-06,0.01012529042563574,0.02479346609535366
-6.674318658280926e-06,0.0114612681603488,-0.01613420249420206
-6.664318658280924e-06,0.0104592848593137,0.02851416323988071
-6.654318658280922e-06,0.009123307124599432,-0.001251413916186876
-6.644318658280921e-06,0.01012529042563483,0.01735207180635367
-6.634318658280926e-06,0.009457301558278303,0.01363137466184861
-6.624318658280924e-06,0.009123307124599432,-0.01241350534971222
-6.614318658280923e-06,0.008455318257242295,0.04339695181791451
-6.604318658280921e-06,0.006785346088849456,-0.001251413916186876
-6.594318658280926e-06,0.01045928485931203,-0.001251413916186876
-6.584318658280925e-06,0.008121323823563727,0.02479346609537227
-6.574318658280923e-06,0.008121323823563727,-0.004972111060695325
-6.564318658280922e-06,0.00778732938988516,0.04711764896242296
-6.55431865828092e-06,0.006785346088849911,-0.0161342024942156
-6.544318658280925e-06,0.00778732938988516,-0.004972111060695325
-6.534318658280924e-06,0.007453334956206592,0.00991067751733847
-6.524318658280922e-06,0.00611735722149232,-0.04217908250577981
-6.51431865828092e-06,0.008789312690919799,0.05083834610690265
-6.504318658280926e-06,0.006451351655171952,-0.01241350534968346
-6.494318658280924e-06,0.00778732938988516,-0.004972111060695325
-6.484318658280922e-06,0.006451351655170888,0.03967625467340606
-6.474318658280921e-06,0.008789312690920406,-0.01241350534968854
-6.464318658280926e-06,0.007787329389885615,0.03967625467338237
-6.454318658280924e-06,0.00611735722149232,-0.001251413916186876
-6.444318658280923e-06,0.009457301558278,0.006189980372830022
-6.434318658280921e-06,0.008789312690920863,0.02479346609537227
-6.424318658280926e-06,0.007787329389885615,-0.004972111060681791
-6.414318658280925e-06,0.008789312690920863,0.05083834610693141
-6.404318658280923e-06,0.00778732938988516,-0.001251413916186876
-6.394318658280921e-06,0.007453334956206592,0.002469283228321573
-6.38431865828092e-06,0.008121323823562817,0.02479346609536042
-6.374318658280925e-06,0.00611735722149232,-0.001251413916186876
-6.364318658280923e-06,0.00778732938988516,0.02851416323988071
-6.354318658280922e-06,0.005783362787813752,-0.008692808205203774
-6.34431865828092e-06,0.0057833627878136,0.006189980372838482
-6.334318658280925e-06,0.005449368354135184,0.02479346609537227
-6.324318658280924e-06,0.00611735722149232,-0.008692808205203774
-6.314318658280922e-06,0.005783362787813752,0.04711764896242296
-6.304318658280921e-06,0.00544936835413564,-0.001251413916180108
-6.294318658280926e-06,0.006451351655170433,0.01363137466184015
-6.284318658280924e-06,0.005783362787813752,0.03595555752889761
-6.274318658280923e-06,0.003111407318385209,-0.008692808205203774
-6.264318658280921e-06,0.005449368354135184,0.03967625467340606
-6.254318658280926e-06,0.004447385053099937,0.00246928322833849
-6.244318658280925e-06,0.005783362787813752,0.01363137466184692
-6.234318658280923e-06,0.004447385053099481,0.02479346609537227
-6.224318658280921e-06,0.005449368354135184,0.002469283228321573
-6.214318658280927e-06,0.005449368354135184,0.02851416323986887
-6.204318658280925e-06,0.005115373920456617,-0.001251413916186876
-6.194318658280923e-06,0.005449368354135184,0.002469283228321573
-6.184318658280922e-06,0.00611735722149232,0.02479346609537227
-6.17431865828092e-06,0.005783362787814056,0.009910677517346931
-6.164318658280925e-06,0.006451351655170888,0.02851416323988071
-6.154318658280924e-06,0.005115373920456617,-0.01613420249422067
-6.144318658280922e-06,0.006451351655170888,0.01735207180635537
-6.134318658280921e-06,0.005449368354135033,0.01735207180634691
-6.124318658280926e-06,0.005115373920456768,-0.001251413916178418
-6.114318658280924e-06,0.00778732938988516,0.02851416323988071
-6.104318658280923e-06,0.005115373920456617,-0.004972111060695325
-6.094318658280921e-06,0.005783362787813752,0.00991067751733847
-6.084318658280926e-06,0.004447385053100088,0.00991067751733847
-6.074318658280925e-06,0.005783362787813752,-0.008692808205203774
-6.064318658280923e-06,0.00611735722149232,0.03595555752889761
-6.054318658280921e-06,0.005449368354135184,-0.01241350534971222
-6.044318658280927e-06,0.0057833627878136,-0.004972111060698709
-6.034318658280925e-06,0.004447385053099481,0.01735207180635537
-6.024318658280923e-06,0.004447385053099481,-0.03101699107225447
-6.014318658280922e-06,0.006785346088849456,0.03595555752889761
-6.00431865828092e-06,0.002443418451029137,-0.008692808205195314
-5.994318658280925e-06,0.004781379486778049,0.00991067751733847
-5.984318658280924e-06,0.004447385053099481,0.01735207180635537
-5.974318658280922e-06,0.004113390619420913,-0.02357559678323757
-5.964318658280921e-06,0.003779396185742497,0.03595555752887562
-5.954318658280926e-06,0.004113390619420761,-0.01241350534969023
-5.944318658280924e-06,0.005783362787813752,-0.008692808205203774
-5.934318658280923e-06,0.005783362787813752,0.01735207180635537
