traces_bank_current_trigger/benchmark_traces/fibonacci_100MHz/fib_3.csv

#Digilent WaveForms Oscilloscope Acquisition
#Device Name: Discovery2
#Serial Number: SN:210321B3D813
#Date Time: 2023-06-23 11:16:26.858
#Sample rate: 1e+08Hz
#Samples: 8192
#Trigger: Source: Channel 2 Type: Edge Condition: Rising Level: 2 V Hyst.: Auto HoldOff: 0 s
#Channel 1: Range: 10 mV/div Offset: 0 V Attenuation: 1 X Sample Mode: Average
#Channel 2: Range: 5 V/div Offset: 0 V Attenuation: 1 X Sample Mode: Average

Time (s),Channel 1 (V),Channel 2 (V)
-1.595282853566959e-05,0.004781379486778049,0.01363137466184692
-1.594282853566958e-05,0.004447385053099481,-0.001251413916186876
-1.593282853566958e-05,0.007119340522526809,0.02479346609536211
-1.592282853566959e-05,0.004447385053100696,0.002469283228331724
-1.591282853566959e-05,0.005783362787813752,0.01735207180635537
-1.590282853566958e-05,0.005115373920456617,0.02479346609537227
-1.589282853566958e-05,0.004447385053099481,-0.008692808205203774
-1.588282853566959e-05,0.005449368354134729,0.03595555752887731
-1.587282853566959e-05,0.004447385053099481,-0.008692808205203774
-1.586282853566959e-05,0.004447385053099481,0.01363137466184692
-1.585282853566958e-05,0.003445401752063777,0.01735207180635537
-1.584282853566958e-05,0.004447385053099785,-0.00125141391617334
-1.583282853566959e-05,0.005115373920456617,0.02851416323988071
-1.582282853566959e-05,0.005449368354135184,-0.008692808205203774
-1.581282853566958e-05,0.003779396185742345,0.006189980372830022
-1.580282853566958e-05,0.004113390619421824,0.01363137466183677
-1.579282853566959e-05,0.006117357221491409,-0.008692808205193622
-1.578282853566959e-05,0.005783362787813752,0.02851416323988071
-1.577282853566958e-05,0.005449368354135184,0.002469283228321573
-1.576282853566958e-05,0.006451351655170128,0.02479346609536888
-1.575282853566959e-05,0.004781379486778809,0.01735207180635875
-1.574282853566959e-05,0.00778732938988516,0.002469283228321573
-1.573282853566958e-05,0.00611735722149232,0.03595555752889761
-1.572282853566958e-05,0.005449368354135184,-0.004972111060695325
-1.571282853566959e-05,0.008121323823562513,0.02107276895085197
-1.570282853566959e-05,0.007119340522528024,0.01363137466184692
-1.569282853566959e-05,0.007119340522528024,-0.01241350534971222
-1.568282853566958e-05,0.008789312690920863,0.01363137466184692
-1.567282853566958e-05,0.007787329389884856,-0.01985489963871051
-1.566282853566959e-05,0.007119340522528024,0.02107276895086382
-1.565282853566959e-05,0.008121323823563727,0.002469283228321573
-1.564282853566958e-05,0.006785346088849456,-0.01613420249422067
-1.563282853566958e-05,0.00745333495620568,0.02851416323987056
-1.562282853566959e-05,0.005449368354136095,0.006189980372840173
-1.561282853566959e-05,0.007119340522528024,0.006189980372830022
-1.560282853566958e-05,0.005115373920456617,0.02107276895086382
-1.559282853566958e-05,0.006117357221492472,-0.02357559678322065
-1.558282853566959e-05,0.006451351655170736,0.01363137466183
-1.557282853566959e-05,0.004447385053099481,-0.004972111060695325
-1.556282853566958e-05,0.00611735722149232,-0.001251413916186876
-1.555282853566958e-05,0.005449368354135184,0.006189980372830022
-1.554282853566959e-05,0.005115373920456768,-0.01985489963871728
-1.553282853566959e-05,0.005115373920456617,0.01735207180635537
-1.552282853566959e-05,0.004113390619420913,-0.001251413916186876
-1.551282853566958e-05,0.004781379486778049,0.02107276895086382
-1.550282853566958e-05,0.004781379486777594,0.02107276895085028
-1.549282853566959e-05,0.003779396185742345,-0.008692808205203774
-1.548282853566959e-05,0.005783362787813752,0.02107276895086382
-1.547282853566958e-05,0.005783362787813752,-0.008692808205203774
-1.546282853566958e-05,0.0057833627878136,0.02479346609536381
-1.545282853566959e-05,0.005449368354135184,0.006189980372830022
-1.544282853566959e-05,0.005783362787813752,-0.004972111060695325
-1.543282853566958e-05,0.006785346088849456,0.02851416323988071
-1.542282853566958e-05,0.004781379486779112,-0.001251413916176724
-1.541282853566959e-05,0.007119340522526961,0.02107276895085367
-1.540282853566959e-05,0.003445401752063777,0.01735207180635537
-1.539282853566958e-05,0.004781379486778049,-0.004972111060695325
-1.538282853566958e-05,0.006451351655170888,0.02479346609537227
-1.537282853566959e-05,0.004113390619421976,-0.01613420249420206
-1.536282853566959e-05,0.004447385053099481,0.02851416323988071
-1.535282853566959e-05,0.003779396185742345,-0.008692808205203774
-1.534282853566958e-05,0.003111407318385209,-0.01241350534971222
-1.533282853566958e-05,0.003445401752063777,0.01735207180634522
-1.532282853566959e-05,0.003445401752063777,-0.004972111060695325
-1.531282853566959e-05,0.005449368354135184,0.02479346609537227
-1.530282853566958e-05,0.004113390619420913,0.002469283228321573
-1.529282853566958e-05,0.005115373920456465,-0.012413505349697
-1.528282853566959e-05,0.004781379486778049,0.02107276895086382
-1.527282853566959e-05,0.003445401752063777,-0.01985489963872912
-1.526282853566958e-05,0.005449368354135184,0.00991067751733847
-1.525282853566958e-05,0.003445401752063929,0.009910677517324934
-1.524282853566959e-05,0.003779396185742193,-0.01985489963871559
-1.523282853566959e-05,0.004447385053099481,0.02479346609537227
-1.522282853566958e-05,0.004781379486778049,-0.004972111060695325
-1.521282853566958e-05,0.005115373920456617,0.002469283228321573
-1.520282853566959e-05,0.004113390619421368,0.00618998037282833
-1.519282853566959e-05,0.004447385053099481,-0.02357559678323757
-1.518282853566959e-05,0.007119340522528024,0.02107276895086382
-1.517282853566958e-05,0.002777412884706641,-0.02357559678323757
-1.516282853566959e-05,0.006117357221490802,0.006189980372816487
-1.515282853566959e-05,0.005115373920456617,0.002469283228321573
-1.514282853566959e-05,0.004781379486778049,-0.02729629392774602
-1.513282853566958e-05,0.00778732938988516,0.01735207180635537
-1.512282853566958e-05,0.004113390619422735,-0.02357559678322911
-1.511282853566959e-05,0.008121323823563727,-0.004972111060695325
-1.510282853566959e-05,0.005115373920456617,-0.004972111060695325
-1.509282853566958e-05,0.005449368354135184,-0.02357559678323757
-1.508282853566958e-05,0.007119340522526809,0.02479346609535027
-1.507282853566959e-05,0.004447385053100696,-0.02357559678321557
-1.506282853566959e-05,0.005783362787813752,0.00991067751733847
-1.505282853566958e-05,0.003779396185742345,0.006189980372830022
-1.504282853566958e-05,0.005783362787813752,-0.02357559678321219
-1.503282853566959e-05,0.005783362787813752,0.03223486038436378
-1.502282853566959e-05,0.004113390619420913,-0.01613420249422067
-1.501282853566958e-05,0.004781379486778049,0.01735207180635537
-1.500282853566958e-05,0.004447385053099481,-0.001251413916186876
-1.499282853566959e-05,0.005449368354134729,-0.01241350534970715
-1.498282853566959e-05,0.004781379486778049,0.02851416323988071
-1.497282853566959e-05,0.003779396185742345,0.002469283228321573
-1.496282853566958e-05,0.005115373920456617,0.00991067751733847
-1.495282853566958e-05,0.003445401752064689,0.01363137466183507
-1.494282853566959e-05,0.005449368354135184,-0.01241350534971222
-1.493282853566959e-05,0.004113390619420913,0.03223486038438916
-1.492282853566958e-05,0.003779396185742345,-0.01241350534971222
-1.491282853566958e-05,0.004447385053099633,0.0247934660953655
-1.490282853566959e-05,0.004781379486777897,0.009910677517345238
-1.489282853566959e-05,0.006451351655170888,-0.008692808205203774
-1.488282853566958e-05,0.004781379486778049,0.03595555752889761
-1.487282853566958e-05,0.005449368354135488,-0.01241350534969361
-1.486282853566959e-05,0.006117357221492017,0.0285141632398621
-1.485282853566959e-05,0.005115373920456617,0.02479346609537227
-1.484282853566958e-05,0.006785346088849456,-0.008692808205203774
-1.483282853566958e-05,0.007453334956206592,0.03595555752889761
-1.482282853566959e-05,0.006451351655171344,0.009910677517350315
-1.481282853566959e-05,0.007453334956206592,0.00991067751733847
-1.480282853566959e-05,0.006451351655170888,0.00991067751733847
-1.479282853566958e-05,0.006451351655170888,-0.008692808205203774
-1.478282853566958e-05,0.007787329389884553,0.03223486038437225
-1.477282853566959e-05,0.006451351655170888,-0.004972111060695325
-1.476282853566959e-05,0.008789312690920863,0.03223486038438916
-1.475282853566958e-05,0.008455318257242295,0.006189980372830022
-1.474282853566958e-05,0.006785346088850063,-0.004972111060669945
-1.473282853566959e-05,0.00812132382356312,0.05083834610690603
-1.472282853566959e-05,0.005115373920456617,-0.004972111060695325
-1.471282853566958e-05,0.006451351655170888,0.02479346609537227
-1.470282853566958e-05,0.004781379486778353,0.01363137466184015
-1.469282853566959e-05,0.005449368354134881,-0.001251413916180109
-1.468282853566959e-05,0.00778732938988516,0.03223486038438916
-1.467282853566958e-05,0.004781379486778049,0.006189980372830022
-1.466282853566958e-05,0.006451351655170888,0.006189980372830022
-1.465282853566959e-05,0.00544936835413564,-0.001251413916183493
-1.464282853566959e-05,0.005115373920456617,0.006189980372830022
-1.463282853566959e-05,0.004113390619420913,0.03595555752889761
-1.462282853566958e-05,0.003779396185742345,-0.01613420249422067
-1.461282853566958e-05,0.003779396185742345,0.03223486038438408
-1.460282853566959e-05,0.003779396185742345,0.02107276895086382
-1.459282853566959e-05,0.004113390619420913,-0.008692808205203774
-1.458282853566958e-05,0.004781379486778049,0.03967625467340606
-1.457282853566958e-05,0.003779396185742801,-0.01241350534969869
-1.456282853566959e-05,0.004781379486777594,0.01735207180634183
-1.455282853566959e-05,0.004447385053099481,0.006189980372830022
-1.454282853566958e-05,0.00611735722149232,-0.01985489963872912
-1.453282853566958e-05,0.003779396185742345,0.0545590432514094
-1.452282853566959e-05,0.003779396185742345,-0.01241350534968176
-1.451282853566959e-05,0.003111407318385209,0.02479346609537227
-1.450282853566958e-05,0.005115373920456617,0.01363137466184692
-1.449282853566958e-05,0.003779396185742345,0.002469283228321573
-1.448282853566959e-05,0.005115373920456009,0.02851416323986887
-1.447282853566959e-05,0.003111407318385209,-0.01241350534971222
-1.446282853566959e-05,0.004113390619420913,0.03223486038438916
-1.445282853566958e-05,0.002443418451028074,0.01363137466184692
-1.444282853566958e-05,0.003779396185742042,-0.008692808205185162
-1.443282853566959e-05,0.003111407318385209,0.03223486038438916
-1.442282853566959e-05,0.002109424017349506,0.01363137466184692
-1.441282853566958e-05,0.002777412884706641,0.02851416323988071
-1.440282853566958e-05,0.0007734462826359935,0.01363137466184353
-1.439282853566959e-05,0.002443418451028074,0.006189980372830022
-1.438282853566959e-05,0.003445401752063777,0.04711764896242296
-1.437282853566958e-05,0.00144143514999237,0.006189980372830022
-1.436282853566958e-05,0.004447385053098266,0.009910677517343546
-1.435282853566959e-05,0.001775429583672153,0.02107276895085874
-1.434282853566959e-05,0.003111407318385209,0.002469283228321573
-1.433282853566958e-05,0.002443418451028074,0.05455904325143986
-1.432282853566958e-05,0.002109424017349506,-0.008692808205203774
-1.431282853566959e-05,0.005449368354133666,0.01363137466183677
-1.430282853566959e-05,0.004447385053099481,0.02107276895086382
-1.429282853566959e-05,0.004447385053099481,0.002469283228321573
-1.428282853566958e-05,0.003445401752063777,0.002469283228321573
-1.427282853566958e-05,0.004447385053099633,-0.008692808205190238
-1.426282853566959e-05,0.004781379486778049,0.02107276895086382
-1.425282853566959e-05,0.004447385053099481,0.02851416323988071
-1.424282853566958e-05,0.005115373920456617,-0.001251413916186876
-1.423282853566958e-05,0.005115373920456617,0.04339695181788575
-1.422282853566959e-05,0.005115373920456617,-0.01985489963872912
-1.421282853566959e-05,0.005783362787813752,0.01735207180635537
-1.420282853566958e-05,0.004447385053099481,0.01735207180635537
-1.419282853566958e-05,0.004781379486778656,-0.01613420249420544
-1.418282853566959e-05,0.006117357221491712,0.01735207180634014
-1.417282853566959e-05,0.004113390619420913,-0.01613420249422067
-1.416282853566958e-05,0.005449368354135184,0.02107276895086382
-1.415282853566958e-05,0.003779396185742345,0.02479346609537227
-1.414282853566959e-05,0.003445401752063929,-0.004972111060681791
-1.413282853566959e-05,0.005783362787813752,0.02479346609537227
-1.412282853566959e-05,0.004781379486778049,0.01363137466184692
-1.411282853566958e-05,0.004113390619420913,0.02479346609537227
-1.410282853566959e-05,0.00444738505309933,0.013631374661852
-1.409282853566959e-05,0.003111407318385209,-0.008692808205203774
-1.408282853566959e-05,0.004447385053099481,0.01735207180635537
-1.407282853566958e-05,0.003111407318385209,-0.008692808205203774
-1.406282853566958e-05,0.004113390619420306,0.02851416323987056
-1.405282853566959e-05,0.002777412884706641,0.006189980372830022
-1.404282853566959e-05,0.004113390619420913,0.002469283228321573
-1.403282853566958e-05,0.004113390619420913,0.03595555752889761
-1.402282853566958e-05,0.003111407318386424,0.01735207180635367
-1.401282853566959e-05,0.005783362787812537,0.01363137466184861
-1.400282853566959e-05,0.002777412884706641,0.00991067751733847
-1.399282853566958e-05,0.005449368354135184,0.006189980372830022
-1.398282853566958e-05,0.006117357221492017,0.03595555752888577
-1.397282853566959e-05,0.005449368354135488,0.009910677517350315
-1.396282853566959e-05,0.005115373920456617,0.04711764896242296
-1.395282853566958e-05,0.005115373920456617,0.02107276895086382
-1.394282853566958e-05,0.007119340522528024,0.006189980372830022
-1.393282853566959e-05,0.007787329389884856,0.03967625467339083
-1.392282853566959e-05,0.006451351655170888,0.01363137466184692
-1.391282853566959e-05,0.006451351655170888,0.02107276895086382
-1.390282853566958e-05,0.006785346088849456,0.01735207180635537
-1.389282853566958e-05,0.006117357221493232,-0.01985489963870205
-1.388282853566959e-05,0.008121323823563727,0.03967625467340606
-1.387282853566959e-05,0.007453334956206592,-0.001251413916186876
-1.386282853566958e-05,0.00778732938988516,0.01363137466184692
-1.385282853566958e-05,0.0064513516551718,0.03223486038436886
-1.384282853566959e-05,0.008455318257241384,-0.01241350534969192
-1.383282853566959e-05,0.007119340522528024,0.04711764896242296
-1.382282853566958e-05,0.006451351655170888,-0.001251413916186876
-1.381282853566958e-05,0.006785346088849608,0.02479346609537057
-1.380282853566959e-05,0.007119340522527873,0.02107276895086551
-1.379282853566959e-05,0.00611735722149232,0.002469283228321573
-1.378282853566958e-05,0.00778732938988516,0.02851416323988071
-1.377282853566958e-05,0.005783362787813752,-0.008692808205203774
-1.376282853566959e-05,0.006117357221492169,0.009910677517330012
-1.375282853566959e-05,0.006785346088849456,0.02479346609537227
-1.374282853566959e-05,0.00611735722149232,-0.004972111060695325
-1.373282853566958e-05,0.005449368354135184,0.02107276895086382
-1.372282853566958e-05,0.005115373920457224,-0.01241350534970038
-1.371282853566959e-05,0.006451351655170888,0.01363137466184692
-1.370282853566959e-05,0.004781379486778049,0.00991067751733847
-1.369282853566958e-05,0.006451351655170888,-0.004972111060695325
-1.368282853566958e-05,0.006785346088848849,0.02107276895085705
-1.367282853566959e-05,0.005449368354135791,0.006189980372836789
-1.366282853566959e-05,0.006451351655170888,0.01735207180635537
-1.365282853566958e-05,0.00611735722149232,-0.001251413916186876
-1.364282853566958e-05,0.00812132382356312,-0.01613420249420206
-1.363282853566959e-05,0.006785346088850064,0.02479346609535366
-1.362282853566959e-05,0.005783362787813752,-0.03101699107225447
-1.361282853566958e-05,0.006785346088849456,0.006189980372830022
-1.360282853566958e-05,0.006785346088849456,0.006189980372830022
-1.359282853566959e-05,0.006117357221492624,-0.02729629392773079
-1.358282853566959e-05,0.00611735722149232,0.01363137466184692
-1.357282853566959e-05,0.003779396185742345,-0.01985489963872912
-1.356282853566958e-05,0.005783362787813752,0.01363137466184692
-1.355282853566958e-05,0.005449368354135488,-0.004972111060702093
-1.354282853566959e-05,0.00611735722149232,-0.01985489963872912
-1.353282853566959e-05,0.004113390619420913,0.01735207180635537
-1.352282853566958e-05,0.004113390619420913,-0.008692808205203774
-1.351282853566958e-05,0.005449368354134273,-0.004972111060686865
-1.350282853566959e-05,0.003445401752064689,0.01363137466183846
-1.349282853566959e-05,0.004447385053099481,-0.01613420249422067
-1.348282853566958e-05,0.004447385053099481,0.01735207180635537
-1.347282853566958e-05,0.004113390619421673,-0.008692808205191929
-1.346282853566959e-05,0.005783362787812992,0.01735207180634352
-1.345282853566959e-05,0.005115373920456617,0.02479346609537227
-1.344282853566958e-05,0.004447385053099481,-0.01241350534971222
-1.343282853566958e-05,0.005783362787813752,0.04339695181791451
-1.342282853566959e-05,0.003111407318386424,-0.008692808205180085
-1.341282853566959e-05,0.004447385053099481,0.02107276895086382
-1.340282853566959e-05,0.002777412884706641,0.01735207180635537
-1.339282853566958e-05,0.005449368354135184,0.002469283228321573
-1.338282853566958e-05,0.006117357221491409,0.03595555752888577
-1.337282853566959e-05,0.004113390619420913,0.00991067751733847
-1.336282853566959e-05,0.00611735722149232,0.02851416323988071
-1.335282853566958e-05,0.003445401752063777,0.03223486038438916
-1.334282853566958e-05,0.004113390619421673,-0.00869280820517501
-1.333282853566959e-05,0.005783362787813752,0.05455904325143986
-1.332282853566959e-05,0.004447385053099481,-0.004972111060695325
-1.331282853566958e-05,0.005449368354135184,0.01735207180635537
-1.330282853566958e-05,0.00377939618574356,0.02479346609536211
-1.329282853566959e-05,0.006451351655169673,0.002469283228331724
-1.328282853566959e-05,0.005783362787813752,0.02107276895086382
-1.327282853566958e-05,0.005115373920456617,-0.008692808205203774
-1.326282853566958e-05,0.005115373920456617,0.03967625467340606
-1.325282853566959e-05,0.004447385053099785,0.02107276895087228
-1.324282853566959e-05,0.005783362787813752,0.002469283228321573
-1.323282853566959e-05,0.003779396185742345,0.03223486038438916
-1.322282853566958e-05,0.005115373920456617,0.002469283228321573
-1.321282853566959e-05,0.004447385053099785,0.02107276895085536
-1.320282853566959e-05,0.005449368354135184,0.03967625467340606
-1.319282853566959e-05,0.004113390619420913,-0.004972111060695325
-1.318282853566958e-05,0.004113390619420913,0.03967625467340606
-1.317282853566958e-05,0.003779396185742649,0.002469283228341876
-1.316282853566959e-05,0.004447385053099481,0.04711764896242296
-1.315282853566959e-05,0.004113390619420913,0.02851416323988071
-1.314282853566958e-05,0.003779396185742345,-0.008692808205203774
-1.313282853566958e-05,0.004113390619420609,0.05455904325141955
-1.312282853566959e-05,0.003445401752064081,0.009910677517358774
-1.311282853566959e-05,0.004781379486778049,0.03967625467340606
-1.310282853566958e-05,0.005115373920456617,0.03223486038438916
-1.309282853566958e-05,0.00611735722149232,0.006189980372830022
-1.308282853566959e-05,0.005783362787813904,0.0508383461069111
-1.307282853566959e-05,0.004781379486778049,0.01735207180635537
-1.306282853566959e-05,0.004447385053099481,0.02851416323988071
-1.305282853566958e-05,0.005783362787813752,0.03595555752889761
-1.304282853566959e-05,0.005783362787813752,0.002469283228336804
-1.303282853566959e-05,0.008789312690920863,0.04711764896242296
-1.302282853566959e-05,0.006451351655170888,0.006189980372830022
-1.301282853566958e-05,0.006451351655170888,0.02107276895086382
-1.300282853566958e-05,0.007119340522528024,0.02479346609536211
-1.299282853566959e-05,0.007119340522528024,0.002469283228321573
-1.298282853566959e-05,0.008121323823563727,0.02479346609537227
-1.297282853566958e-05,0.00611735722149232,-0.01613420249422067
-1.296282853566958e-05,0.006785346088849608,0.02851416323987733
-1.295282853566959e-05,0.007119340522527873,0.0210727689508672
-1.294282853566959e-05,0.005115373920456617,0.01363137466184692
