traces_bank_current_trigger/benchmark_traces/fibonacci_100MHz/fib_0.csv

#Digilent WaveForms Oscilloscope Acquisition
#Device Name: Discovery2
#Serial Number: SN:210321B3D813
#Date Time: 2023-06-23 11:09:24.916
#Sample rate: 1e+08Hz
#Samples: 8192
#Trigger: Source: Channel 2 Type: Edge Condition: Rising Level: 2 V Hyst.: Auto HoldOff: 0 s
#Channel 1: Range: 10 mV/div Offset: 0 V Attenuation: 1 X Sample Mode: Average
#Channel 2: Range: 5 V/div Offset: 0 V Attenuation: 1 X Sample Mode: Average

Time (s),Channel 1 (V),Channel 2 (V)
-1.595751412429378e-05,0.005449368354135184,0.002469283228321573
-1.594751412429378e-05,0.004113390619420913,0.04711764896242296
-1.593751412429378e-05,0.003111407318385817,-0.001251413916185184
-1.592751412429379e-05,0.004447385053098874,0.002469283228319881
-1.591751412429378e-05,0.003779396185742345,0.02479346609537227
-1.590751412429378e-05,0.004781379486778049,-0.001251413916186876
-1.589751412429378e-05,0.003779396185742345,0.02851416323988071
-1.588751412429379e-05,0.002777412884707097,-0.01241350534969361
-1.587751412429378e-05,0.004781379486778049,0.00991067751733847
-1.586751412429378e-05,0.003779396185742345,0.01735207180635537
-1.585751412429378e-05,0.003111407318385209,-0.01241350534971222
-1.584751412429378e-05,0.005783362787811625,0.02851416323985872
-1.583751412429378e-05,0.001107440716313802,-0.01985489963872912
-1.582751412429378e-05,0.005115373920456617,0.02479346609537227
-1.581751412429378e-05,0.003779396185742345,0.01363137466184692
-1.580751412429378e-05,0.004447385053100393,-0.02357559678321388
-1.579751412429378e-05,0.006451351655169977,0.02851416323985703
-1.578751412429378e-05,0.003445401752063777,-0.004972111060695325
-1.577751412429378e-05,0.007453334956206592,0.006189980372830022
-1.576751412429378e-05,0.00444738505309933,0.03595555752887731
-1.575751412429379e-05,0.004113390619421065,-0.008692808205183471
-1.574751412429378e-05,0.005449368354135184,0.03223486038438916
-1.573751412429378e-05,0.004447385053099481,-0.001251413916186876
-1.572751412429378e-05,0.007119340522528024,0.00991067751733847
-1.571751412429379e-05,0.006451351655171192,0.01735207180635199
-1.570751412429378e-05,0.005115373920456617,-0.01241350534971222
-1.569751412429378e-05,0.006451351655170888,0.03595555752889761
-1.568751412429378e-05,0.005783362787813752,-0.008692808205203774
-1.567751412429378e-05,0.007787329389885311,0.01735207180635537
-1.566751412429378e-05,0.008121323823563727,0.01735207180635537
-1.565751412429378e-05,0.007119340522528024,-0.02357559678323757
-1.564751412429378e-05,0.006785346088849456,0.03967625467340606
-1.563751412429378e-05,0.007119340522528176,0.002469283228328341
-1.562751412429378e-05,0.00745333495620644,0.0173520718063486
-1.561751412429378e-05,0.00611735722149232,0.02851416323988071
-1.560751412429378e-05,0.005783362787813752,-0.004972111060695325
-1.559751412429378e-05,0.0057833627878136,0.0471176489623925
-1.558751412429379e-05,0.005449368354135336,-0.01985489963869866
-1.557751412429378e-05,0.005115373920456617,0.02851416323988071
-1.556751412429378e-05,0.004113390619420913,0.02107276895086382
-1.555751412429378e-05,0.005449368354135184,-0.01985489963872912
-1.554751412429379e-05,0.005115373920456768,0.03967625467337899
-1.553751412429378e-05,0.003445401752063777,-0.02357559678323757
-1.552751412429378e-05,0.00611735722149232,0.02851416323988071
-1.551751412429378e-05,0.004781379486778049,0.01735207180635537
-1.550751412429378e-05,0.003111407318386576,-0.01241350534968346
-1.549751412429378e-05,0.00611735722149232,0.05083834610693141
-1.548751412429378e-05,0.003779396185742345,-0.01241350534971222
-1.547751412429378e-05,0.005783362787813752,0.00991067751733847
-1.546751412429378e-05,0.003779396185742649,0.02479346609535535
-1.545751412429378e-05,0.004447385053099481,-0.01241350534971222
-1.544751412429378e-05,0.005449368354135184,0.04339695181791451
-1.543751412429378e-05,0.004113390619420913,-0.008692808205203774
-1.542751412429378e-05,0.006451351655170433,0.01735207180636214
-1.541751412429379e-05,0.00544936835413564,0.0322348603843824
-1.540751412429378e-05,0.005783362787813752,-0.02729629392774602
-1.539751412429378e-05,0.004447385053099481,0.02107276895086382
-1.538751412429378e-05,0.003779396185742345,-0.01241350534971222
-1.537751412429379e-05,0.004781379486777594,-0.001251413916191952
-1.536751412429378e-05,0.004781379486778049,0.002469283228321573
-1.535751412429378e-05,0.004447385053099481,-0.01241350534971222
-1.534751412429378e-05,0.004447385053099481,0.006189980372830022
-1.533751412429378e-05,0.003445401752064841,-0.008692808205202083
-1.532751412429378e-05,0.005783362787813752,-0.004972111060695325
-1.531751412429378e-05,0.002443418451028074,-0.001251413916186876
-1.530751412429378e-05,0.005115373920456617,-0.01613420249422067
-1.529751412429378e-05,0.002443418451028529,0.01363137466183338
-1.528751412429378e-05,0.003445401752063777,-0.01613420249422067
-1.527751412429378e-05,0.005449368354135184,-0.004972111060695325
-1.526751412429378e-05,0.003111407318385209,0.006189980372830022
-1.525751412429378e-05,0.001441435149994648,-0.02357559678321557
-1.524751412429379e-05,0.00645135165516861,0.02479346609535027
-1.523751412429378e-05,0.002777412884706641,-0.02729629392774602
-1.522751412429378e-05,0.003779396185742345,-0.008692808205203774
-1.521751412429378e-05,0.004781379486778049,0.01363137466184692
-1.520751412429379e-05,0.0037793961857428,-0.03101699107223416
-1.519751412429378e-05,0.005449368354135184,0.03595555752889761
-1.518751412429378e-05,0.004113390619420913,-0.02357559678323757
-1.517751412429378e-05,0.004447385053099481,-0.008692808205203774
-1.516751412429379e-05,0.005115373920456313,-0.00125141391619026
-1.515751412429378e-05,0.003445401752063777,-0.03101699107225447
-1.514751412429378e-05,0.004781379486778049,0.006189980372830022
-1.513751412429378e-05,0.004113390619420913,-0.01985489963872912
-1.512751412429378e-05,0.005783362787813448,-0.008692808205203774
-1.511751412429378e-05,0.005115373920456617,-0.008692808205203774
-1.510751412429378e-05,0.003779396185742345,-0.03473768821676292
-1.509751412429378e-05,0.004781379486778049,-0.001251413916186876
-1.508751412429378e-05,0.002443418451029441,-0.01985489963872404
-1.507751412429378e-05,0.005449368354133817,-0.00869280820520885
-1.506751412429378e-05,0.004781379486778049,-0.01241350534971222
-1.505751412429378e-05,0.002443418451028074,-0.03101699107225447
-1.504751412429378e-05,0.005449368354133817,0.02107276895084182
-1.503751412429379e-05,0.002443418451029441,-0.02729629392772402
-1.502751412429378e-05,0.004113390619420913,0.006189980372830022
-1.501751412429378e-05,0.005115373920456617,0.00991067751733847
-1.500751412429378e-05,0.00144143514999237,-0.02357559678323757
-1.499751412429379e-05,0.002777412884706034,0.02479346609535027
-1.498751412429378e-05,0.002109424017349506,-0.02729629392774602
-1.497751412429378e-05,0.003111407318385209,-0.001251413916186876
-1.496751412429378e-05,0.003445401752063777,0.002469283228321573
-1.495751412429378e-05,0.002109424017349809,-0.0198548996387122
-1.494751412429378e-05,0.002777412884706641,0.01735207180635537
-1.493751412429378e-05,0.002109424017349506,-0.02357559678323757
-1.492751412429378e-05,0.004447385053099481,-0.001251413916186876
-1.491751412429378e-05,0.002777412884706793,0.002469283228297885
-1.490751412429378e-05,0.003111407318385058,-0.04962047679477302
-1.489751412429378e-05,0.003445401752063777,0.02851416323988071
-1.488751412429378e-05,0.004113390619420913,-0.02729629392774602
-1.487751412429378e-05,0.003779396185742042,0.006189980372828329
-1.486751412429379e-05,0.003111407318385513,0.002469283228323264
-1.485751412429378e-05,0.004113390619420913,-0.01613420249422067
-1.484751412429378e-05,0.003779396185742345,0.01735207180635537
-1.483751412429378e-05,0.005115373920456617,-0.02357559678323757
-1.482751412429379e-05,0.00645135165517028,-0.004972111060703784
-1.481751412429378e-05,0.007119340522528024,0.01735207180635537
-1.480751412429378e-05,0.005115373920456617,-0.001251413916186876
-1.479751412429378e-05,0.006785346088849456,0.02851416323988071
-1.478751412429378e-05,0.0064513516551718,-0.02357559678322572
-1.477751412429378e-05,0.008455318257242295,0.002469283228321573
-1.476751412429378e-05,0.006785346088849456,0.002469283228321573
-1.475751412429378e-05,0.006785346088849456,-0.03101699107225447
-1.474751412429378e-05,0.006451351655170585,0.02479346609535027
-1.473751412429378e-05,0.005783362787814056,-0.02357559678321557
-1.472751412429378e-05,0.007119340522528024,0.01363137466184692
-1.471751412429378e-05,0.005783362787813752,0.002469283228321573
-1.470751412429378e-05,0.004447385053100241,-0.03473768821673077
-1.469751412429379e-05,0.006117357221491562,0.03595555752886546
-1.468751412429378e-05,0.004781379486778049,-0.004972111060695325
-1.467751412429378e-05,0.00778732938988516,0.00991067751733847
-1.466751412429378e-05,0.004781379486778049,0.006189980372830022
-1.465751412429379e-05,0.004113390619421216,-0.02729629392773079
-1.464751412429378e-05,0.004781379486778049,0.02107276895086382
-1.463751412429378e-05,0.003779396185742345,-0.01985489963872912
-1.462751412429378e-05,0.005115373920456617,0.006189980372830022
-1.461751412429378e-05,0.004781379486777745,0.02479346609535535
-1.460751412429378e-05,0.004113390619420913,-0.01241350534971222
-1.459751412429378e-05,0.00611735722149232,0.03223486038438916
-1.458751412429378e-05,0.004113390619420913,-0.02357559678323757
-1.457751412429378e-05,0.00578336278781284,0.006189980372831714
-1.456751412429378e-05,0.003779396185743256,0.009910677517336779
-1.455751412429378e-05,0.004447385053099481,-0.01985489963872912
-1.454751412429378e-05,0.004113390619420913,0.01363137466184692
-1.453751412429378e-05,0.003445401752064841,-0.02729629392773417
-1.452751412429379e-05,0.005783362787812689,-0.001251413916198721
-1.451751412429378e-05,0.005783362787813752,0.006189980372830022
-1.450751412429378e-05,0.003445401752063777,-0.02357559678323757
-1.449751412429378e-05,0.003779396185742345,0.03595555752889761
-1.448751412429379e-05,0.005115373920456009,-0.01613420249419698
-1.447751412429378e-05,0.004781379486778049,0.002469283228321573
-1.446751412429378e-05,0.004781379486778049,0.01735207180635537
-1.445751412429378e-05,0.003445401752063777,-0.02729629392774602
-1.444751412429378e-05,0.002777412884706793,0.05083834610689249
-1.443751412429378e-05,0.003111407318385209,-0.03473768821676292
-1.442751412429378e-05,0.004113390619420913,0.002469283228321573
-1.441751412429378e-05,0.002443418451028074,0.02851416323988071
-1.440751412429378e-05,0.002109424017349658,-0.01613420249420206
-1.439751412429378e-05,0.002443418451028074,0.02479346609537227
-1.438751412429378e-05,0.00144143514999237,-0.02729629392774602
-1.437751412429378e-05,0.004447385053099481,0.01735207180635537
-1.436751412429378e-05,0.001775429583670938,0.02479346609535366
-1.435751412429379e-05,0.001775429583670938,-0.01613420249420206
-1.434751412429378e-05,0.003445401752063777,0.02107276895086382
-1.433751412429378e-05,0.002443418451028074,-0.03101699107225447
-1.432751412429378e-05,0.003111407318385209,0.02107276895086382
-1.431751412429379e-05,0.002109424017349961,0.009910677517343546
-1.430751412429378e-05,0.00144143514999237,-0.004972111060695325
-1.429751412429378e-05,0.003111407318385209,0.05827974039594831
-1.428751412429378e-05,0.001775429583670938,-0.01241350534971222
-1.427751412429378e-05,0.00511537392045525,0.009910677517343546
-1.426751412429378e-05,0.002109424017349506,0.02107276895086382
-1.425751412429378e-05,0.003445401752063777,-0.01241350534971222
-1.424751412429378e-05,0.002777412884706641,0.04339695181791451
-1.423751412429378e-05,0.000773446282636753,-0.0198548996387122
-1.422751412429378e-05,0.004113390619420913,0.01735207180635537
-1.421751412429378e-05,0.002109424017349506,0.02851416323988071
-1.420751412429378e-05,0.004113390619420913,-0.02357559678323757
-1.419751412429378e-05,0.003111407318384298,0.05083834610690265
-1.418751412429379e-05,0.001107440716314713,-0.01241350534968346
-1.417751412429378e-05,0.005115373920456617,0.02107276895086382
-1.416751412429378e-05,0.003111407318385209,0.03595555752889761
-1.415751412429378e-05,0.001775429583670938,-0.001251413916186876
-1.414751412429379e-05,0.001107440716314106,0.03967625467338745
-1.413751412429378e-05,0.003445401752063777,-0.008692808205203774
-1.412751412429378e-05,0.005115373920456617,0.02851416323988071
-1.411751412429378e-05,0.002109424017349506,0.02479346609537227
-1.410751412429379e-05,0.002443418451027922,-0.008692808205188543
-1.409751412429378e-05,0.002777412884706641,0.04339695181791451
-1.408751412429378e-05,0.0007734462826352341,-0.004972111060695325
-1.407751412429378e-05,0.004113390619420913,0.02479346609537227
-1.406751412429378e-05,0.003111407318385209,0.02107276895085367
-1.405751412429378e-05,0.003111407318385209,-0.001251413916186876
-1.404751412429378e-05,0.003779396185742345,0.05455904325143986
-1.403751412429378e-05,0.002109424017349506,0.01735207180635537
-1.402751412429378e-05,0.003779396185741434,0.006189980372840173
-1.401751412429378e-05,0.001775429583671849,0.02851416323987056
-1.400751412429378e-05,0.002777412884706641,0.006189980372830022
-1.399751412429378e-05,0.004447385053099481,0.04339695181791451
-1.398751412429378e-05,0.002777412884707552,0.00991067751733847
-1.397751412429379e-05,0.004781379486777138,0.00991067751733847
-1.396751412429378e-05,0.003111407318385209,0.04339695181791451
-1.395751412429378e-05,0.003779396185742345,-0.008692808205203774
-1.394751412429378e-05,0.005449368354135184,0.04711764896242296
-1.393751412429379e-05,0.005115373920456768,-0.01241350534968515
-1.392751412429378e-05,0.007119340522528024,0.01363137466184692
-1.391751412429378e-05,0.005783362787813752,0.02107276895086382
-1.390751412429378e-05,0.005115373920456617,-0.01985489963872912
-1.389751412429378e-05,0.005115373920457224,0.03967625467338576
-1.388751412429378e-05,0.006451351655170888,-0.004972111060695325
-1.387751412429378e-05,0.00778732938988516,0.002469283228321573
-1.386751412429378e-05,0.005783362787813752,0.02107276895086382
-1.385751412429378e-05,0.005783362787813752,-0.02357559678320711
-1.384751412429378e-05,0.005783362787813752,0.04339695181788405
-1.383751412429378e-05,0.004781379486778049,-0.01241350534971222
-1.382751412429378e-05,0.00611735722149232,0.002469283228321573
-1.381751412429378e-05,0.006117357221492169,0.01363137466183338
-1.380751412429379e-05,0.005783362787813904,-0.01613420249420714
-1.379751412429378e-05,0.005783362787813752,0.02479346609537227
-1.378751412429378e-05,0.004447385053099481,-0.01613420249422067
-1.377751412429378e-05,0.005783362787813752,-0.004972111060695325
-1.376751412429379e-05,0.004447385053100088,0.01363137466183846
-1.375751412429378e-05,0.005115373920456617,-0.01985489963872912
-1.374751412429378e-05,0.003779396185742345,0.03967625467340606
-1.373751412429378e-05,0.004113390619420913,-0.02357559678323757
-1.372751412429378e-05,0.004113390619421216,0.00618998037283679
-1.371751412429378e-05,0.004781379486778049,0.02107276895086382
-1.370751412429378e-05,0.002777412884706641,-0.03101699107225447
-1.369751412429378e-05,0.004447385053099481,0.02479346609537227
-1.368751412429378e-05,0.003445401752063929,-0.02729629392773079
-1.367751412429378e-05,0.003779396185742193,0.006189980372814791
-1.366751412429378e-05,0.004447385053099481,-0.004972111060695325
-1.365751412429378e-05,0.004113390619420913,-0.02357559678323757
-1.364751412429378e-05,0.005115373920456465,0.035955557528879
-1.363751412429379e-05,0.004781379486778201,-0.004972111060676715
-1.362751412429378e-05,0.004781379486778049,0.00991067751733847
-1.361751412429378e-05,0.004781379486778049,0.02107276895086382
-1.360751412429378e-05,0.005783362787813752,-0.01613420249422067
-1.359751412429379e-05,0.003111407318386424,0.01735207180634014
-1.358751412429378e-05,0.003445401752063777,-0.02729629392774602
-1.357751412429378e-05,0.00611735722149232,0.006189980372830022
-1.356751412429378e-05,0.004113390619420913,0.01735207180635537
-1.355751412429378e-05,0.003779396185742193,-0.02729629392772741
-1.354751412429378e-05,0.003445401752063777,0.01363137466184692
-1.353751412429378e-05,0.003111407318385209,-0.03101699107225447
-1.352751412429378e-05,0.005783362787813752,-0.004972111060695325
-1.351751412429378e-05,0.004447385053099026,0.01735207180633845
-1.350751412429378e-05,0.003445401752064233,-0.0198548996387122
-1.349751412429378e-05,0.004447385053099481,0.03595555752889761
-1.348751412429378e-05,0.002443418451028074,-0.01985489963872912
-1.347751412429378e-05,0.00578336278781284,0.02479346609535873
-1.346751412429379e-05,0.003779396185743256,-0.004972111060681791
-1.345751412429378e-05,0.004113390619420913,-0.01613420249422067
-1.344751412429378e-05,0.003445401752063777,0.01735207180635537
-1.343751412429378e-05,0.003111407318385209,-0.01241350534971222
-1.342751412429379e-05,0.004447385053098874,0.009910677517328319
-1.341751412429378e-05,0.005115373920456617,0.01363137466184692
-1.340751412429378e-05,0.003779396185742345,-0.01613420249422067
-1.339751412429378e-05,0.004781379486778049,0.02851416323988071
-1.338751412429378e-05,0.004113390619421673,-0.001251413916185184
-1.337751412429378e-05,0.005783362787813752,0.002469283228321573
-1.336751412429378e-05,0.004447385053099481,0.02479346609537227
-1.335751412429378e-05,0.005115373920456617,-0.01985489963872912
-1.334751412429378e-05,0.004113390619421368,0.03595555752887731
-1.333751412429378e-05,0.005115373920456617,-0.008692808205203774
-1.332751412429378e-05,0.00611735722149232,-0.001251413916186876
-1.331751412429378e-05,0.005449368354135184,0.006189980372830022
-1.330751412429378e-05,0.005449368354134729,-0.008692808205183471
-1.329751412429379e-05,0.004447385053099937,0.03595555752887731
-1.328751412429378e-05,0.004113390619420913,-0.01985489963872912
-1.327751412429378e-05,0.004447385053099481,0.002469283228321573
-1.326751412429378e-05,0.004113390619420913,0.01363137466184692
-1.325751412429379e-05,0.004781379486777745,-0.03101699107223416
-1.324751412429378e-05,0.004447385053099481,0.02851416323988071
-1.323751412429378e-05,0.003779396185742345,-0.02729629392774602
-1.322751412429378e-05,0.004113390619420913,0.006189980372830022
-1.321751412429379e-05,0.003445401752064081,0.01363137466184354
-1.320751412429378e-05,0.005115373920456617,-0.008692808205203774
-1.319751412429378e-05,0.00611735722149232,0.03223486038438916
-1.318751412429378e-05,0.004447385053099481,-0.02357559678323757
-1.317751412429378e-05,0.005449368354134881,0.006189980372830022
-1.316751412429378e-05,0.004781379486778049,0.006189980372830022
-1.315751412429378e-05,0.005115373920456617,-0.03473768821676292
-1.314751412429378e-05,0.005783362787813752,0.01735207180635537
-1.313751412429378e-05,0.003779396185742953,-0.001251413916183492
-1.312751412429378e-05,0.005115373920456009,0.006189980372826638
-1.311751412429378e-05,0.00611735722149232,0.01363137466184692
-1.310751412429378e-05,0.003445401752063777,-0.008692808205203774
-1.309751412429378e-05,0.006451351655170888,0.03595555752889761
-1.308751412429379e-05,0.004113390619421976,-0.0235755967832105
-1.307751412429378e-05,0.00778732938988516,0.01735207180635537
-1.306751412429378e-05,0.005449368354135184,0.01363137466184692
-1.305751412429378e-05,0.006451351655170888,-0.02729629392774602
-1.304751412429379e-05,0.007453334956206137,0.01735207180633506
-1.303751412429378e-05,0.005783362787813752,-0.008692808205203774
-1.302751412429378e-05,0.009123307124599432,-0.01241350534971222
-1.301751412429378e-05,0.00611735722149232,0.01735207180635537
-1.300751412429378e-05,0.006451351655171192,-0.01985489963870882
-1.299751412429378e-05,0.007119340522528024,0.02479346609537227
-1.298751412429378e-05,0.006451351655170888,-0.01241350534971222
-1.297751412429378e-05,0.007453334956206592,0.002469283228321573
-1.296751412429378e-05,0.007119340522527265,0.009910677517323243
-1.295751412429378e-05,0.005449368354135944,-0.02357559678322234
-1.294751412429378e-05,0.006785346088849456,0.03223486038438916
