traces_bank_current_trigger/benchmark_traces/fibonacci_100MHz/fib_14.csv

#Digilent WaveForms Oscilloscope Acquisition
#Device Name: Discovery2
#Serial Number: SN:210321B3D813
#Date Time: 2023-06-23 13:37:20.320
#Sample rate: 1e+08Hz
#Samples: 8192
#Trigger: Source: Channel 2 Type: Edge Condition: Rising Level: 2 V Hyst.: Auto HoldOff: 0 s
#Channel 1: Range: 10 mV/div Offset: 0 V Attenuation: 1 X Sample Mode: Average
#Channel 2: Range: 5 V/div Offset: 0 V Attenuation: 1 X Sample Mode: Average

Time (s),Channel 1 (V),Channel 2 (V)
-8.954153522607783e-06,0.005115373920456617,-0.008692808205203774
-8.944153522607781e-06,0.006451351655170888,0.00991067751733847
-8.93415352260778e-06,0.005449368354135488,0.03967625467339422
-8.924153522607785e-06,0.006117357221492017,0.01363137466185876
-8.914153522607783e-06,0.00611735722149232,0.04711764896242296
-8.904153522607782e-06,0.005783362787813752,0.002469283228321573
-8.89415352260778e-06,0.005783362787813752,0.002469283228321573
-8.884153522607785e-06,0.006451351655170585,0.03223486038437563
-8.874153522607784e-06,0.005115373920456617,-0.008692808205203774
-8.864153522607782e-06,0.007453334956206592,0.04711764896242296
-8.85415352260778e-06,0.004447385053099481,0.002469283228321573
-8.844153522607779e-06,0.006117357221492169,0.009910677517350315
-8.834153522607784e-06,0.005783362787813752,0.03595555752889761
-8.824153522607782e-06,0.006451351655170888,0.002469283228321573
-8.814153522607781e-06,0.004781379486778049,0.03595555752889761
-8.804153522607779e-06,0.005783362787813752,0.002469283228326648
-8.794153522607784e-06,0.005783362787813752,0.01363137466184184
-8.784153522607783e-06,0.006451351655170888,0.02851416323988071
-8.774153522607781e-06,0.00611735722149232,0.006189980372830022
-8.76415352260778e-06,0.007787329389883945,0.05083834610690434
-8.754153522607785e-06,0.005115373920457832,-0.008692808205176705
-8.744153522607783e-06,0.007119340522528024,0.002469283228321573
-8.734153522607782e-06,0.006451351655170888,0.02479346609537227
-8.72415352260778e-06,0.004781379486778049,-0.01241350534971222
-8.714153522607785e-06,0.007453334956205377,0.01735207180634183
-8.704153522607784e-06,0.005783362787813752,-0.008692808205203774
-8.694153522607782e-06,0.00611735722149232,0.01363137466184692
-8.68415352260778e-06,0.005115373920456617,0.02479346609537227
-8.674153522607779e-06,0.005449368354135033,-0.04217908250574259
-8.664153522607784e-06,0.005115373920456617,0.03967625467340606
-8.654153522607782e-06,0.00611735722149232,-0.01613420249422067
-8.644153522607781e-06,0.00611735722149232,0.002469283228321573
-8.634153522607779e-06,0.006785346088848849,0.00991067751732155
-8.624153522607784e-06,0.005449368354135791,-0.0272962939277291
-8.614153522607783e-06,0.004781379486778049,0.03595555752889761
-8.604153522607781e-06,0.006451351655170888,-0.004972111060695325
-8.59415352260778e-06,0.007787329389884248,-0.001251413916180108
-8.584153522607785e-06,0.005783362787814663,0.01363137466184015
-8.574153522607783e-06,0.005783362787813752,-0.02357559678323757
-8.564153522607782e-06,0.007453334956206592,0.02107276895086382
-8.55415352260778e-06,0.005115373920456617,-0.01613420249422067
-8.544153522607785e-06,0.007453334956205529,0.01363137466183338
-8.534153522607784e-06,0.007453334956206592,0.01735207180635537
-8.524153522607782e-06,0.008455318257242295,-0.03473768821676292
-8.51415352260778e-06,0.008455318257242295,0.03595555752889761
-8.504153522607779e-06,0.006451351655173015,-0.01613420249421052
-8.494153522607784e-06,0.01112727372667084,0.006189980372830022
-8.484153522607782e-06,0.006785346088849456,0.00991067751733847
-8.474153522607781e-06,0.009791295991956567,-0.02729629392774602
-8.464153522607779e-06,0.007119340522527873,0.04339695181788913
-8.454153522607784e-06,0.006785346088849456,-0.01241350534971222
-8.444153522607783e-06,0.00778732938988516,0.00991067751733847
-8.434153522607781e-06,0.008121323823563727,0.02107276895086382
-8.42415352260778e-06,0.006117357221492928,-0.0235755967832088
-8.414153522607785e-06,0.007453334956205985,0.0396762546733773
-8.404153522607783e-06,0.004781379486778049,-0.02357559678323757
-8.394153522607781e-06,0.007453334956206592,0.006189980372830022
-8.38415352260778e-06,0.005115373920456617,0.02479346609537227
-8.374153522607785e-06,0.005783362787813448,-0.01985489963870882
-8.364153522607783e-06,0.006451351655170888,0.03223486038438916
-8.354153522607782e-06,0.006451351655170888,-0.01985489963872912
-8.34415352260778e-06,0.00611735722149232,0.01363137466184692
-8.334153522607779e-06,0.006451351655170433,0.0285141632398621
-8.324153522607784e-06,0.005449368354135184,-0.01241350534971222
-8.314153522607782e-06,0.007453334956206592,0.01735207180635537
-8.304153522607781e-06,0.006785346088849456,-0.01613420249422067
-8.294153522607779e-06,0.006451351655170888,-0.004972111060683481
-8.284153522607784e-06,0.006451351655170888,0.02107276895086382
-8.274153522607783e-06,0.00611735722149232,-0.02729629392774602
-8.264153522607781e-06,0.00611735722149232,0.03967625467340606
-8.254153522607779e-06,0.004447385053101,-0.02729629392774094
-8.244153522607785e-06,0.007787329389883641,-0.01613420249422575
-8.234153522607783e-06,0.006785346088849456,0.02479346609537227
-8.224153522607781e-06,0.006785346088849456,-0.01985489963872912
-8.21415352260778e-06,0.006451351655170888,0.02851416323988071
-8.204153522607785e-06,0.007119340522527721,-0.0310169910722274
-8.194153522607783e-06,0.007119340522528024,0.002469283228321573
-8.184153522607782e-06,0.00611735722149232,-0.001251413916186876
-8.17415352260778e-06,0.00611735722149232,-0.03101699107225447
-8.164153522607785e-06,0.005449368354135488,0.02479346609534688
-8.154153522607784e-06,0.004447385053099481,-0.02729629392774602
-8.144153522607782e-06,0.004781379486778049,-0.001251413916186876
-8.134153522607781e-06,0.005449368354135184,0.002469283228321573
-8.124153522607779e-06,0.002443418451029289,-0.02357559678321219
-8.114153522607784e-06,0.005115373920456617,0.03223486038438916
-8.104153522607783e-06,0.004447385053099481,-0.01985489963872912
-8.094153522607781e-06,0.005783362787813752,-0.004972111060695325
-8.084153522607779e-06,0.003779396185742345,0.006189980372818178
-8.074153522607785e-06,0.003779396185742345,-0.01985489963871728
-8.064153522607783e-06,0.004447385053099481,0.01735207180635537
-8.054153522607781e-06,0.004781379486778049,-0.01985489963872912
-8.04415352260778e-06,0.005115373920456161,0.01363137466184353
-8.034153522607785e-06,0.004113390619421368,0.006189980372833405
-8.024153522607783e-06,0.003111407318385209,-0.01613420249422067
-8.014153522607782e-06,0.005449368354135184,0.02851416323988071
-8.00415352260778e-06,0.002443418451028074,-0.02729629392774602
-7.994153522607785e-06,0.006451351655169066,0.002469283228308038
-7.984153522607784e-06,0.004781379486778049,0.01363137466184692
-7.974153522607782e-06,0.005783362787813752,-0.02729629392774602
-7.964153522607781e-06,0.005449368354135184,0.02851416323988071
-7.954153522607779e-06,0.004781379486778656,-0.01241350534970884
-7.944153522607784e-06,0.00611735722149232,-0.004972111060695325
-7.934153522607783e-06,0.005449368354135184,0.01363137466184692
-7.924153522607781e-06,0.005449368354135184,-0.01241350534971222
-7.914153522607779e-06,0.007119340522526809,0.02479346609535704
-7.904153522607784e-06,0.004447385053100696,-0.008692808205188543
-7.894153522607783e-06,0.005449368354135184,-0.001251413916186876
-7.884153522607781e-06,0.005449368354135184,0.01363137466184692
-7.87415352260778e-06,0.003779396185743104,-0.01985489963869867
-7.864153522607785e-06,0.005449368354134424,0.0471176489623925
-7.854153522607783e-06,0.00611735722149232,-0.01241350534971222
-7.844153522607782e-06,0.00611735722149232,0.02107276895086382
-7.83415352260778e-06,0.005449368354135184,0.02479346609537227
-7.824153522607785e-06,0.004781379486778353,-0.01985489963870882
-7.814153522607784e-06,0.006451351655170888,0.02851416323988071
-7.804153522607782e-06,0.005449368354135184,-0.01613420249422067
-7.79415352260778e-06,0.00611735722149232,-0.001251413916186876
-7.784153522607779e-06,0.005115373920456465,0.009910677517331703
-7.774153522607784e-06,0.004781379486778049,-0.004972111060695325
-7.764153522607782e-06,0.005449368354135184,0.03223486038438916
-7.754153522607781e-06,0.003779396185742345,-0.01613420249422067
-7.744153522607779e-06,0.006451351655170128,0.009910677517353698
-7.734153522607784e-06,0.004781379486778809,0.04339695181789928
-7.724153522607783e-06,0.004781379486778049,0.002469283228321573
-7.714153522607781e-06,0.005115373920456617,0.03595555752889761
-7.70415352260778e-06,0.004447385053100241,0.006189980372835097
-7.694153522607785e-06,0.006117357221491562,0.01735207180635029
-7.684153522607783e-06,0.006451351655170888,0.02107276895086382
-7.674153522607782e-06,0.006785346088849456,-0.01613420249422067
-7.66415352260778e-06,0.00778732938988516,0.03967625467340606
-7.654153522607785e-06,0.006117357221493079,-0.01241350534968853
-7.644153522607784e-06,0.00778732938988516,0.01363137466184692
-7.634153522607782e-06,0.008455318257242295,0.02851416323988071
-7.62415352260778e-06,0.009123307124599432,0.002469283228321573
-7.614153522607779e-06,0.00778732938988592,0.05455904325141617
-7.604153522607784e-06,0.009457301558278,0.002469283228321573
-7.594153522607782e-06,0.008455318257242295,0.01735207180635537
-7.584153522607781e-06,0.009123307124599432,0.03595555752889761
-7.574153522607779e-06,0.008455318257242599,-0.01613420249419698
-7.564153522607784e-06,0.009123307124599129,0.03595555752887392
-7.554153522607783e-06,0.009123307124599432,-0.008692808205203774
-7.544153522607781e-06,0.008455318257242295,-0.008692808205203774
-7.53415352260778e-06,0.01045928485931188,0.03967625467338576
-7.524153522607785e-06,0.00645135165517271,-0.004972111060675022
-7.514153522607783e-06,0.008455318257242295,0.03595555752889761
-7.504153522607782e-06,0.005115373920456617,0.006189980372830022
-7.49415352260778e-06,0.00778732938988516,0.02851416323988071
-7.484153522607785e-06,0.006785346088849911,0.01735207180636044
-7.474153522607784e-06,0.00611735722149232,-0.008692808205203774
-7.464153522607782e-06,0.007119340522528024,0.03967625467340606
-7.45415352260778e-06,0.006785346088849456,0.002469283228321573
-7.444153522607779e-06,0.007453334956205529,0.02107276895087397
-7.434153522607784e-06,0.005115373920456617,0.04339695181791451
-7.424153522607782e-06,0.005783362787813752,-0.004972111060695325
-7.414153522607781e-06,0.007453334956206592,0.04339695181791451
-7.404153522607779e-06,0.007119340522527873,0.006189980372828329
-7.394153522607784e-06,0.006785346088849456,0.002469283228321573
-7.384153522607783e-06,0.006785346088849456,0.03967625467340606
-7.374153522607781e-06,0.005449368354135184,-0.01241350534971222
-7.364153522607779e-06,0.006785346088849304,0.05455904325141279
-7.354153522607785e-06,0.00645135165517104,-0.004972111060668256
-7.344153522607783e-06,0.007453334956206592,0.00991067751733847
-7.334153522607781e-06,0.006785346088849456,0.01735207180635537
-7.32415352260778e-06,0.006451351655170888,-0.01613420249422067
-7.314153522607785e-06,0.007119340522527721,0.03967625467338068
-7.304153522607783e-06,0.00611735722149232,-0.01613420249422067
-7.294153522607782e-06,0.007119340522528024,0.002469283228321573
-7.28415352260778e-06,0.007119340522528024,0.03595555752889761
-7.274153522607779e-06,0.004447385053101152,-0.001251413916171648
-7.264153522607784e-06,0.008121323823563727,0.03223486038438916
-7.254153522607782e-06,0.006451351655170888,-0.01985489963872912
-7.244153522607781e-06,0.006451351655170888,0.01735207180635537
-7.234153522607779e-06,0.005449368354135336,0.03223486038437393
-7.224153522607784e-06,0.005783362787813752,-0.001251413916186876
-7.214153522607783e-06,0.00611735722149232,0.05827974039594831
-7.204153522607781e-06,0.005115373920456617,-0.008692808205203774
-7.194153522607779e-06,0.006117357221492776,0.006189980372840173
-7.184153522607785e-06,0.007119340522527569,0.02851416323987056
-7.174153522607783e-06,0.005115373920456617,-0.008692808205203774
-7.164153522607781e-06,0.00611735722149232,0.05455904325143986
-7.15415352260778e-06,0.006451351655170888,0.002469283228321573
-7.144153522607785e-06,0.005115373920457224,0.009910677517335088
-7.134153522607783e-06,0.006451351655170888,0.03223486038438916
-7.124153522607782e-06,0.005783362787813752,-0.01613420249422067
-7.11415352260778e-06,0.007119340522528024,0.03223486038438916
-7.104153522607785e-06,0.003445401752065448,0.002469283228335107
-7.094153522607784e-06,0.006785346088849456,0.02107276895086382
-7.084153522607782e-06,0.006451351655170888,0.04711764896242296
-7.074153522607781e-06,0.005783362787813752,0.002469283228321573
-7.064153522607779e-06,0.007119340522527417,0.04711764896239927
-7.054153522607784e-06,0.005783362787813752,-0.004972111060695325
-7.044153522607783e-06,0.006451351655170888,0.01735207180635537
-7.034153522607781e-06,0.00611735722149232,0.02479346609537227
-7.024153522607779e-06,0.006451351655171192,-0.01241350534968177
-7.014153522607785e-06,0.007119340522527721,0.05455904325140939
-7.004153522607783e-06,0.005783362787813752,-0.01241350534971222
-6.994153522607781e-06,0.00778732938988516,0.01363137466184692
-6.98415352260778e-06,0.006785346088849,0.04711764896239927
-6.974153522607785e-06,0.005783362787814207,-0.004972111060671636
-6.964153522607783e-06,0.006785346088849456,0.03967625467340606
-6.954153522607782e-06,0.005115373920456617,-0.004972111060695325
-6.94415352260778e-06,0.005783362787813752,0.02107276895086382
-6.934153522607785e-06,0.006785346088849,0.0396762546733976
-6.924153522607784e-06,0.005115373920456617,-0.004972111060695325
-6.914153522607782e-06,0.006451351655170888,0.03967625467340606
-6.904153522607781e-06,0.006451351655170888,-0.02729629392774602
-6.894153522607779e-06,0.007787329389884704,0.02107276895086212
-6.884153522607784e-06,0.006785346088849456,0.01735207180635537
-6.874153522607782e-06,0.007453334956206592,-0.001251413916186876
-6.864153522607781e-06,0.00611735722149232,0.04339695181791451
-6.854153522607779e-06,0.005115373920458135,-0.01985489963871897
-6.844153522607784e-06,0.008455318257240777,0.002469283228311421
-6.834153522607783e-06,0.006451351655170888,0.02851416323988071
-6.824153522607781e-06,0.006785346088849456,-0.004972111060695325
-6.81415352260778e-06,0.008789312690919799,0.03967625467337899
-6.804153522607785e-06,0.006451351655171952,-0.01985489963870205
-6.794153522607783e-06,0.008789312690920863,-0.001251413916186876
-6.784153522607782e-06,0.008455318257242295,0.01363137466184692
-6.77415352260778e-06,0.008789312690920863,-0.02357559678323757
-6.764153522607785e-06,0.008121323823564031,0.01363137466183
-6.754153522607784e-06,0.007119340522528024,-0.01985489963872912
-6.744153522607782e-06,0.009123307124599432,-0.01613420249422067
-6.73415352260778e-06,0.007453334956206592,0.01735207180635537
-6.724153522607779e-06,0.008789312690921015,-0.02357559678321557
-6.714153522607784e-06,0.009123307124599432,0.02479346609537227
-6.704153522607782e-06,0.008121323823563727,-0.01985489963872912
-6.694153522607781e-06,0.01112727372667084,-0.001251413916186876
-6.684153522607779e-06,0.0104592848593137,0.01735207180633845
-6.674153522607784e-06,0.0104592848593137,-0.0198548996387122
-6.664153522607783e-06,0.01012529042563514,0.02479346609537227
-6.654153522607781e-06,0.009123307124599432,-0.02357559678323757
-6.64415352260778e-06,0.01045928485931264,0.006189980372823253
-6.634153522607785e-06,0.008121323823564791,-0.008692808205197007
-6.624153522607783e-06,0.007453334956206592,-0.03473768821676292
-6.614153522607782e-06,0.009457301558278,0.03967625467340606
-6.60415352260778e-06,0.006451351655170888,-0.01613420249422067
-6.594153522607785e-06,0.008789312690919799,-0.01613420249422067
-6.584153522607784e-06,0.009123307124599432,0.02479346609537227
-6.574153522607782e-06,0.007453334956206592,-0.02357559678323757
-6.56415352260778e-06,0.009457301558278,0.05083834610693141
-6.554153522607779e-06,0.00711934052252924,-0.01613420249421052
-6.544153522607784e-06,0.009791295991956567,0.006189980372830022
-6.534153522607782e-06,0.00778732938988516,0.02107276895086382
-6.524153522607781e-06,0.006785346088849456,-0.02729629392774602
-6.514153522607779e-06,0.007787329389884704,0.04711764896239081
-6.504153522607784e-06,0.006785346088849911,-0.02357559678320542
-6.494153522607783e-06,0.008121323823563727,0.02107276895086382
-6.484153522607781e-06,0.006451351655170888,0.02107276895086382
-6.47415352260778e-06,0.006451351655171192,-0.02357559678320542
-6.464153522607785e-06,0.007119340522527721,0.04711764896239081
-6.454153522607783e-06,0.00611735722149232,-0.03101699107225447
-6.444153522607782e-06,0.00778732938988516,0.01363137466184692
-6.43415352260778e-06,0.00778732938988516,0.03223486038438916
-6.424153522607785e-06,0.004781379486779416,-0.001251413916171645
-6.414153522607784e-06,0.00778732938988516,0.04339695181791451
-6.404153522607782e-06,0.005449368354135184,0.002469283228321573
-6.39415352260778e-06,0.008121323823563727,0.00991067751733847
-6.384153522607779e-06,0.006117357221492017,0.01363137466183507
-6.374153522607784e-06,0.005449368354135184,-0.01241350534971222
-6.364153522607782e-06,0.00611735722149232,0.03967625467340606
-6.354153522607781e-06,0.004113390619420913,-0.01241350534971222
-6.344153522607779e-06,0.004781379486778353,0.009910677517348622
-6.334153522607784e-06,0.005449368354135184,0.03223486038438916
-6.324153522607783e-06,0.005115373920456617,-0.01613420249422067
-6.314153522607781e-06,0.00611735722149232,0.04711764896242296
-6.304153522607779e-06,0.002443418451028985,0.006189980372838482
-6.294153522607785e-06,0.004447385053098571,0.02479346609536381
-6.284153522607783e-06,0.005783362787813752,0.02479346609537227
-6.274153522607781e-06,0.00611735722149232,-0.01241350534971222
-6.26415352260778e-06,0.005115373920456617,0.03223486038438916
-6.254153522607785e-06,0.003779396185742953,-0.004972111060678408
-6.244153522607783e-06,0.00611735722149232,0.01735207180635537
-6.234153522607782e-06,0.005115373920456617,0.02479346609537227
-6.22415352260778e-06,0.005449368354135184,-0.001251413916186876
-6.214153522607785e-06,0.004113390619421521,0.04711764896240096
-6.204153522607784e-06,0.005115373920456617,-0.01241350534971222
-6.194153522607782e-06,0.00611735722149232,0.01363137466184692
-6.184153522607781e-06,0.005449368354135184,0.02107276895086382
-6.174153522607779e-06,0.00611735722149232,-0.008692808205186853
-6.164153522607784e-06,0.00611735722149232,0.02851416323988071
-6.154153522607783e-06,0.004113390619420913,-0.01241350534971222
-6.144153522607781e-06,0.007453334956206592,0.006189980372830022
-6.134153522607779e-06,0.004781379486778656,0.03595555752887731
-6.124153522607785e-06,0.006117357221491712,-0.008692808205183471
-6.114153522607783e-06,0.006451351655170888,0.03967625467340606
-6.104153522607781e-06,0.005783362787813752,-0.004972111060695325
-6.09415352260778e-06,0.008455318257242295,0.006189980372830022
-6.084153522607785e-06,0.004781379486779719,0.02851416323987056
-6.074153522607783e-06,0.005115373920456617,-0.004972111060695325
-6.064153522607782e-06,0.005449368354135184,0.04339695181791451
-6.05415352260778e-06,0.004447385053099481,-0.01241350534971222
-6.044153522607785e-06,0.006117357221491562,0.01363137466183507
-6.034153522607784e-06,0.007119340522528024,0.03595555752889761
-6.024153522607782e-06,0.00611735722149232,-0.008692808205203774
-6.014153522607781e-06,0.006451351655170888,0.05083834610693141
-6.004153522607779e-06,0.00411339061942152,0.01363137466185369
-5.994153522607784e-06,0.005449368354135184,0.02851416323988071
-5.984153522607783e-06,0.005115373920456617,0.04339695181791451
-5.974153522607781e-06,0.003779396185742345,0.006189980372830022
-5.964153522607779e-06,0.007119340522527721,0.03967625467338237
-5.954153522607785e-06,0.006451351655171192,-0.01241350534968853
-5.944153522607783e-06,0.007119340522528024,0.02107276895086382
-5.934153522607781e-06,0.005783362787813752,0.03595555752889761
-5.92415352260778e-06,0.00611735722149232,-0.001251413916159805
