traces_bank_current_trigger/benchmark_traces/fibonacci_100MHz/fib_6.csv

#Digilent WaveForms Oscilloscope Acquisition
#Device Name: Discovery2
#Serial Number: SN:210321B3D813
#Date Time: 2023-06-23 12:24:36.411
#Sample rate: 1e+08Hz
#Samples: 8192
#Trigger: Source: Channel 2 Type: Edge Condition: Rising Level: 2 V Hyst.: Auto HoldOff: 0 s
#Channel 1: Range: 10 mV/div Offset: 0 V Attenuation: 1 X Sample Mode: Average
#Channel 2: Range: 5 V/div Offset: 0 V Attenuation: 1 X Sample Mode: Average

Time (s),Channel 1 (V),Channel 2 (V)
-8.952434895833333e-06,0.004113390619420913,0.02851416323988071
-8.942434895833332e-06,0.005115373920456617,0.02479346609537227
-8.93243489583333e-06,0.006451351655170433,0.06572113468494491
-8.922434895833335e-06,0.00544936835413564,0.02107276895088412
-8.912434895833334e-06,0.007453334956206592,0.05083834610693141
-8.902434895833332e-06,0.00611735722149232,0.02851416323988071
-8.89243489583333e-06,0.006785346088849456,0.01735207180635537
-8.882434895833335e-06,0.00645135165517104,0.04711764896240943
-8.872434895833334e-06,0.007453334956206592,0.03595555752889761
-8.862434895833332e-06,0.006785346088849456,0.03967625467340606
-8.852434895833331e-06,0.005115373920456617,0.03223486038438916
-8.842434895833329e-06,0.006785346088849759,0.02107276895087566
-8.832434895833334e-06,0.007453334956206592,0.04711764896242296
-8.822434895833333e-06,0.00611735722149232,0.02479346609537227
-8.812434895833331e-06,0.007453334956206592,0.03595555752889761
-8.802434895833329e-06,0.007119340522527569,0.0285141632398621
-8.792434895833335e-06,0.006117357221492776,-0.01241350534969361
-8.782434895833333e-06,0.006451351655170888,0.04711764896242296
-8.772434895833331e-06,0.007119340522528024,0.002469283228321573
-8.76243489583333e-06,0.006451351655170128,0.01363137466184861
-8.752434895833335e-06,0.004781379486778809,0.01735207180635367
-8.742434895833333e-06,0.006785346088849456,0.006189980372830022
-8.732434895833332e-06,0.008789312690920863,0.02851416323988071
-8.72243489583333e-06,0.004781379486778049,0.00991067751733847
-8.712434895833335e-06,0.007119340522526961,0.00991067751733847
-8.702434895833334e-06,0.006451351655170888,0.006189980372830022
-8.692434895833332e-06,0.006451351655170888,0.006189980372830022
-8.682434895833331e-06,0.00778732938988516,0.02107276895086382
-8.672434895833329e-06,0.00511537392045768,0.002469283228321573
-8.662434895833334e-06,0.007453334956206592,0.002469283228321573
-8.652434895833333e-06,0.00611735722149232,0.01363137466184692
-8.642434895833331e-06,0.006451351655170888,-0.004972111060695325
-8.632434895833329e-06,0.007119340522527721,0.03967625467338576
-8.622434895833335e-06,0.006451351655171192,-0.004972111060675022
-8.612434895833333e-06,0.008455318257242295,0.02851416323988071
-8.602434895833331e-06,0.00611735722149232,0.02851416323988071
-8.59243489583333e-06,0.006785346088849608,-0.00497211106067333
-8.582434895833335e-06,0.007119340522527873,0.04339695181789251
-8.572434895833333e-06,0.007119340522528024,-0.008692808205203774
-8.562434895833332e-06,0.00778732938988516,0.01735207180635537
-8.55243489583333e-06,0.00611735722149232,0.01363137466184692
-8.542434895833335e-06,0.0077873293898844,0.002469283228326648
-8.532434895833334e-06,0.008789312690920863,0.02479346609537227
-8.522434895833332e-06,0.00778732938988516,-0.004972111060695325
-8.512434895833331e-06,0.008121323823563727,0.03595555752889761
-8.502434895833329e-06,0.009123307124598521,0.03595555752888238
-8.492434895833334e-06,0.007119340522528024,0.002469283228321573
-8.482434895833333e-06,0.009457301558278,0.05083834610693141
-8.472434895833331e-06,0.008455318257242295,0.01735207180635537
-8.462434895833329e-06,0.009791295991955353,0.03967625467340267
-8.452434895833335e-06,0.007119340522528024,0.03223486038438916
-8.442434895833333e-06,0.008121323823563727,-0.001251413916186876
-8.432434895833331e-06,0.009123307124599432,0.03595555752889761
-8.42243489583333e-06,0.00611735722149308,0.0024692832283368
-8.412434895833335e-06,0.0077873293898844,0.03595555752888238
-8.402434895833333e-06,0.006785346088849456,0.01735207180635537
-8.392434895833332e-06,0.007453334956206592,-0.01241350534971222
-8.38243489583333e-06,0.007119340522528024,0.03967625467340606
-8.372434895833335e-06,0.007787329389884856,0.006189980372845252
-8.362434895833334e-06,0.007453334956206592,0.03967625467340606
-8.352434895833332e-06,0.006785346088849456,0.02851416323988071
-8.342434895833331e-06,0.00778732938988516,-0.001251413916186876
-8.332434895833329e-06,0.006451351655170281,0.03595555752888238
-8.322434895833334e-06,0.005115373920456617,0.002469283228321573
-8.312434895833332e-06,0.007453334956206592,0.03223486038438916
-8.302434895833331e-06,0.00611735722149232,0.02851416323988071
-8.292434895833329e-06,0.006785346088849304,0.02107276895086889
-8.282434895833334e-06,0.006451351655170888,0.03223486038438916
-8.272434895833333e-06,0.008789312690920863,-0.001251413916186876
-8.262434895833331e-06,0.006451351655170888,0.03595555752889761
-8.25243489583333e-06,0.00812132382356312,0.02479346609536042
-8.242434895833335e-06,0.006785346088850064,-0.001251413916175032
-8.232434895833333e-06,0.008789312690920863,0.03595555752889761
-8.222434895833332e-06,0.00778732938988516,0.01735207180635537
-8.21243489583333e-06,0.008789312690920863,0.04339695181791451
-8.202434895833335e-06,0.008455318257242448,0.035955557528901
-8.192434895833334e-06,0.006785346088849456,0.00991067751733847
-8.182434895833332e-06,0.007119340522528024,0.05827974039594831
-8.17243489583333e-06,0.007119340522528024,-0.01241350534971222
-8.162434895833336e-06,0.00745333495620644,0.03595555752887562
-8.152434895833334e-06,0.005115373920456617,0.03595555752889761
-8.142434895833332e-06,0.005115373920456617,0.01363137466184692
-8.132434895833331e-06,0.006451351655170888,0.03595555752889761
-8.122434895833329e-06,0.004447385053099785,0.01363137466185707
-8.112434895833334e-06,0.005115373920456617,0.03595555752889761
-8.102434895833333e-06,0.004447385053099481,0.04339695181791451
-8.092434895833331e-06,0.003779396185742345,0.002469283228321573
-8.08243489583333e-06,0.006117357221491561,0.04339695181790267
-8.072434895833335e-06,0.004447385053100241,0.01735207180636721
-8.062434895833333e-06,0.004113390619420913,0.04339695181791451
-8.052434895833332e-06,0.004447385053099481,0.02851416323988071
-8.04243489583333e-06,0.006451351655169977,0.03595555752890776
-8.032434895833335e-06,0.004447385053100392,0.05827974039593815
-8.022434895833334e-06,0.004113390619420913,0.00991067751733847
-8.012434895833332e-06,0.005783362787813752,0.02107276895086382
-8.00243489583333e-06,0.004447385053099481,0.03595555752889761
-7.992434895833336e-06,0.005449368354134729,-0.001251413916169959
-7.982434895833334e-06,0.00611735722149232,0.04711764896242296
-7.972434895833332e-06,0.003779396185742345,0.002469283228321573
-7.962434895833331e-06,0.006785346088849456,0.02479346609537227
-7.952434895833329e-06,0.004447385053099937,0.03223486038437563
-7.942434895833334e-06,0.005449368354135184,0.002469283228321573
-7.932434895833333e-06,0.006785346088849456,0.05083834610693141
-7.922434895833331e-06,0.00611735722149232,-0.008692808205203774
-7.91243489583333e-06,0.006451351655170128,0.02107276895087228
-7.902434895833335e-06,0.004781379486778809,0.0396762546733976
-7.892434895833333e-06,0.008121323823563727,-0.01613420249422067
-7.882434895833332e-06,0.005115373920456617,0.02479346609537227
-7.87243489583333e-06,0.003445401752065448,0.002469283228326648
-7.862434895833335e-06,0.007119340522526354,0.01363137466184184
-7.852434895833333e-06,0.005783362787813752,0.00991067751733847
-7.842434895833332e-06,0.006785346088849456,0.006189980372830022
-7.83243489583333e-06,0.006451351655170888,0.03223486038438916
-7.822434895833335e-06,0.00544936835413564,-0.004972111060678408
-7.812434895833334e-06,0.006451351655170888,0.002469283228321573
-7.802434895833332e-06,0.005449368354135184,0.02479346609537227
-7.792434895833331e-06,0.00611735722149232,-0.001251413916186876
-7.782434895833329e-06,0.006117357221491561,0.05827974039592462
-7.772434895833334e-06,0.004447385053099481,0.006189980372830022
-7.762434895833333e-06,0.008121323823563727,0.01363137466184692
-7.752434895833331e-06,0.004447385053099481,0.03967625467340606
-7.742434895833329e-06,0.006785346088849759,-0.02357559678320373
-7.732434895833335e-06,0.007453334956206288,0.05083834610689757
-7.722434895833333e-06,0.006451351655170888,-0.004972111060695325
-7.712434895833331e-06,0.007453334956206592,0.03223486038438916
-7.70243489583333e-06,0.006117357221492472,0.01735207180634522
-7.692434895833335e-06,0.006451351655170736,-0.004972111060685173
-7.682434895833333e-06,0.008789312690920863,0.03223486038438916
-7.672434895833332e-06,0.006785346088849456,-0.008692808205203774
-7.66243489583333e-06,0.006451351655170888,0.006189980372830022
-7.652434895833335e-06,0.007787329389884553,0.03223486038437732
-7.642434895833334e-06,0.008121323823563727,-0.008692808205203774
-7.632434895833332e-06,0.01012529042563514,0.02851416323988071
-7.622434895833331e-06,0.008455318257242295,-0.008692808205203774
-7.612434895833329e-06,0.009791295991956111,0.01735207180635537
-7.602434895833334e-06,0.008789312690920863,0.01735207180635537
-7.592434895833333e-06,0.0104592848593137,0.002469283228321573
-7.582434895833331e-06,0.009457301558278,0.02107276895086382
-7.572434895833329e-06,0.01012529042563529,0.01363137466184353
-7.562434895833335e-06,0.01045928485931355,0.006189980372833405
-7.552434895833333e-06,0.008455318257242295,0.00991067751733847
-7.542434895833331e-06,0.009123307124599432,-0.001251413916186876
-7.53243489583333e-06,0.009457301558276785,0.03223486038437732
-7.522434895833335e-06,0.006785346088850671,0.006189980372841866
-7.512434895833333e-06,0.008121323823563727,0.00991067751733847
-7.502434895833332e-06,0.007119340522528024,0.01735207180635537
-7.49243489583333e-06,0.008121323823563727,-0.004972111060695325
-7.482434895833335e-06,0.006451351655171647,0.03967625467338576
-7.472434895833334e-06,0.00611735722149232,-0.01613420249422067
-7.462434895833332e-06,0.008121323823563727,0.03223486038438916
-7.452434895833331e-06,0.004781379486778049,0.02851416323988071
-7.442434895833329e-06,0.006785346088849304,-0.01985489963870543
-7.432434895833334e-06,0.006451351655170888,0.03223486038438916
-7.422434895833333e-06,0.006785346088849456,-0.001251413916186876
-7.412434895833331e-06,0.007119340522528024,0.02851416323988071
-7.402434895833329e-06,0.006451351655170736,0.01735207180635537
-7.392434895833335e-06,0.00611735722149232,0.01735207180635537
-7.382434895833333e-06,0.008789312690920863,0.03223486038438916
-7.372434895833331e-06,0.006785346088849456,0.02479346609537227
-7.36243489583333e-06,0.007453334956205985,0.02107276895087059
-7.352434895833335e-06,0.006117357221492929,0.03595555752889085
-7.342434895833333e-06,0.008455318257242295,-0.001251413916186876
-7.332434895833332e-06,0.008121323823563727,0.02479346609537227
-7.32243489583333e-06,0.006451351655170888,-0.001251413916186876
-7.312434895833335e-06,0.007119340522527721,0.03967625467338745
-7.302434895833334e-06,0.006451351655170888,0.03223486038438916
-7.292434895833332e-06,0.007119340522528024,0.006189980372830022
-7.28243489583333e-06,0.007453334956206592,0.06200043754045675
-7.272434895833329e-06,0.004781379486778353,0.009910677517350315
-7.262434895833334e-06,0.005449368354135184,0.03595555752889761
-7.252434895833332e-06,0.004781379486778049,0.03967625467340606
-7.242434895833331e-06,0.006785346088849456,-0.001251413916186876
-7.232434895833329e-06,0.005449368354134577,0.04339695181790097
-7.222434895833334e-06,0.004113390619420913,0.01363137466184692
-7.212434895833333e-06,0.004113390619420913,0.02851416323988071
-7.202434895833331e-06,0.004113390619420913,0.03595555752889761
-7.19243489583333e-06,0.004781379486778353,0.006189980372846941
-7.182434895833335e-06,0.005449368354134881,0.04339695181789759
-7.172434895833333e-06,0.004781379486778049,0.01735207180635537
-7.162434895833332e-06,0.007119340522528024,0.03223486038438916
-7.15243489583333e-06,0.004447385053099481,0.04711764896242296
-7.142434895833335e-06,0.006451351655169977,0.006189980372848632
-7.132434895833334e-06,0.005449368354135184,0.06200043754045675
-7.122434895833332e-06,0.005115373920456617,0.01735207180635537
-7.11243489583333e-06,0.004781379486778049,0.03967625467340606
-7.102434895833336e-06,0.006451351655170129,0.02479346609537903
-7.092434895833334e-06,0.005115373920456617,0.00991067751733847
-7.082434895833332e-06,0.006451351655170888,0.02479346609537227
-7.072434895833331e-06,0.005115373920456617,0.01735207180635537
-7.062434895833329e-06,0.006785346088848696,0.03595555752888915
-7.052434895833334e-06,0.005115373920456617,0.01735207180635537
-7.042434895833333e-06,0.005115373920456617,0.01363137466184692
-7.032434895833331e-06,0.00611735722149232,0.03595555752889761
-7.02243489583333e-06,0.004781379486778504,0.01735207180635199
-7.012434895833335e-06,0.005783362787813297,0.009910677517341853
-7.002434895833333e-06,0.005449368354135184,0.02107276895086382
-6.992434895833332e-06,0.00611735722149232,0.006189980372830022
-6.98243489583333e-06,0.006785346088849152,0.03595555752888577
-6.972434895833335e-06,0.006117357221492624,0.009910677517350315
-6.962434895833334e-06,0.00611735722149232,0.02851416323988071
-6.952434895833332e-06,0.005783362787813752,0.03595555752889761
-6.94243489583333e-06,0.005449368354135184,-0.001251413916186876
-6.932434895833336e-06,0.007453334956205681,0.03967625467338745
-6.922434895833334e-06,0.005449368354135184,0.006189980372830022
-6.912434895833332e-06,0.00611735722149232,0.02479346609537227
-6.902434895833331e-06,0.00611735722149232,0.03223486038438916
-6.892434895833329e-06,0.005783362787814056,-0.008692808205180086
-6.882434895833334e-06,0.006451351655170888,0.04339695181791451
-6.872434895833333e-06,0.005783362787813752,0.002469283228321573
-6.862434895833331e-06,0.006451351655170888,0.02851416323988071
-6.85243489583333e-06,0.006451351655170888,0.03595555752887392
-6.842434895833335e-06,0.006451351655170888,-0.01613420249419698
-6.832434895833333e-06,0.005783362787813752,0.03967625467340606
-6.822434895833332e-06,0.005449368354135184,-0.001251413916186876
-6.81243489583333e-06,0.006451351655170433,0.002469283228321573
-6.802434895833335e-06,0.00544936835413564,0.002469283228321573
-6.792434895833333e-06,0.006451351655170888,-0.02729629392774602
-6.782434895833332e-06,0.007119340522528024,0.02107276895086382
-6.77243489583333e-06,0.006451351655170888,-0.02729629392774602
-6.762434895833335e-06,0.008121323823562968,0.002469283228308038
-6.752434895833334e-06,0.007453334956206592,0.006189980372830022
-6.742434895833332e-06,0.007119340522528024,-0.01241350534971222
-6.732434895833331e-06,0.009123307124599432,0.04711764896242296
-6.722434895833329e-06,0.006785346088850367,-0.01613420249420037
-6.712434895833334e-06,0.008789312690920863,0.02851416323988071
-6.702434895833333e-06,0.007119340522528024,-0.001251413916186876
-6.692434895833331e-06,0.009457301558278,-0.008692808205203774
-6.682434895833329e-06,0.008121323823563575,0.02479346609535027
-6.672434895833335e-06,0.007787329389885311,-0.02357559678321557
-6.662434895833333e-06,0.006785346088849456,0.006189980372830022
-6.652434895833331e-06,0.006451351655170888,0.02107276895086382
-6.64243489583333e-06,0.008121323823564031,-0.004972111060681789
-6.632434895833335e-06,0.008789312690920559,0.02479346609535873
-6.622434895833333e-06,0.007453334956206592,0.002469283228321573
-6.612434895833332e-06,0.006785346088849456,-0.001251413916186876
-6.60243489583333e-06,0.00611735722149232,0.02851416323988071
-6.592434895833335e-06,0.007453334956205985,-0.01241350534969361
-6.582434895833334e-06,0.007119340522528024,0.03223486038438916
-6.572434895833332e-06,0.005115373920456617,0.006189980372830022
-6.562434895833331e-06,0.007119340522528024,0.02851416323988071
-6.552434895833329e-06,0.004447385053099937,0.0173520718063486
-6.542434895833334e-06,0.005449368354135184,0.002469283228321573
-6.532434895833333e-06,0.008121323823563727,0.02479346609537227
-6.522434895833331e-06,0.003111407318385209,-0.001251413916186876
-6.512434895833329e-06,0.006117357221492169,0.0136313746618503
-6.502434895833335e-06,0.005783362787813904,0.02107276895086043
-6.492434895833333e-06,0.005115373920456617,0.01735207180635537
-6.482434895833331e-06,0.007453334956206592,0.02851416323988071
-6.47243489583333e-06,0.005115373920457832,0.01363137466185538
-6.462434895833335e-06,0.007787329389883945,0.0322348603843807
-6.452434895833333e-06,0.006785346088849456,0.02107276895086382
-6.442434895833332e-06,0.00778732938988516,-0.001251413916186876
-6.43243489583333e-06,0.008455318257242295,0.03223486038438916
-6.422434895833335e-06,0.0064513516551718,0.009910677517348622
-6.412434895833334e-06,0.006451351655170888,0.01735207180635537
-6.402434895833332e-06,0.005783362787813752,0.02851416323988071
-6.392434895833331e-06,0.006451351655170888,-0.004972111060695325
-6.382434895833329e-06,0.006785346088849152,0.02851416323987395
-6.372434895833334e-06,0.00611735722149232,0.01363137466184692
-6.362434895833333e-06,0.00778732938988516,0.04339695181791451
-6.352434895833331e-06,0.005115373920456617,0.03595555752889761
-6.342434895833329e-06,0.005449368354135791,0.0024692832283368
-6.332434895833335e-06,0.006785346088849456,0.03595555752889761
-6.322434895833333e-06,0.005783362787813752,0.01363137466184692
-6.312434895833331e-06,0.005783362787813752,0.02851416323988071
-6.30243489583333e-06,0.005449368354135184,0.02851416323986549
-6.292434895833335e-06,0.005449368354135184,-0.004972111060680094
-6.282434895833333e-06,0.005449368354135184,0.03223486038438916
-6.272434895833332e-06,0.005783362787813752,-0.001251413916186876
-6.26243489583333e-06,0.00611735722149232,0.01735207180635537
-6.252434895833335e-06,0.005449368354135488,0.01735207180635537
-6.242434895833334e-06,0.006451351655170888,0.01363137466184692
-6.232434895833332e-06,0.006451351655170888,0.03595555752889761
-6.22243489583333e-06,0.004781379486778049,0.02107276895086382
-6.212434895833336e-06,0.006451351655170129,0.01735207180635706
-6.202434895833334e-06,0.004447385053099481,0.03223486038438916
-6.192434895833332e-06,0.00611735722149232,-0.01985489963872912
-6.182434895833331e-06,0.006785346088849456,0.03967625467340606
-6.172434895833329e-06,0.00544936835413564,-0.008692808205188546
-6.162434895833334e-06,0.006451351655170888,0.02479346609537227
-6.152434895833333e-06,0.00611735722149232,0.01735207180635537
-6.142434895833331e-06,0.00611735722149232,-0.03101699107225447
-6.13243489583333e-06,0.006451351655169977,0.03595555752887562
-6.122434895833335e-06,0.004447385053100392,-0.01241350534969023
-6.112434895833333e-06,0.006451351655170888,0.01735207180635537
-6.102434895833332e-06,0.004447385053099481,0.01363137466184692
-6.09243489583333e-06,0.004447385053099481,-0.03101699107225447
-6.082434895833335e-06,0.007119340522526809,0.02851416323985365
-6.072434895833334e-06,0.004447385053099481,0.002469283228321573
-6.062434895833332e-06,0.006785346088849456,0.006189980372830022
-6.05243489583333e-06,0.004447385053099481,0.01363137466184692
-6.042434895833336e-06,0.004781379486777897,-0.008692808205193622
-6.032434895833334e-06,0.005783362787813752,0.01735207180635537
-6.022434895833332e-06,0.004781379486778049,0.002469283228321573
-6.012434895833331e-06,0.005115373920456617,0.01363137466184692
-6.002434895833329e-06,0.005449368354134729,0.01363137466183338
-5.992434895833334e-06,0.004447385053099481,-0.01613420249422067
-5.982434895833333e-06,0.006451351655170888,0.02851416323988071
-5.972434895833331e-06,0.004113390619420913,0.00991067751733847
-5.96243489583333e-06,0.005783362787813448,0.02107276895085705
-5.952434895833335e-06,0.00511537392045692,0.006189980372836789
-5.942434895833333e-06,0.005449368354135184,-0.004972111060695325
-5.932434895833332e-06,0.00611735722149232,0.02851416323988071
-5.92243489583333e-06,0.004781379486778961,-0.01613420249420375
