traces_bank_current_trigger/benchmark_traces/fibonacci_100MHz/fib_5.csv

#Digilent WaveForms Oscilloscope Acquisition
#Device Name: Discovery2
#Serial Number: SN:210321B3D813
#Date Time: 2023-06-23 12:21:51.940
#Sample rate: 1e+08Hz
#Samples: 8192
#Trigger: Source: Channel 2 Type: Edge Condition: Rising Level: 2 V Hyst.: Auto HoldOff: 0 s
#Channel 1: Range: 10 mV/div Offset: 0 V Attenuation: 1 X Sample Mode: Average
#Channel 2: Range: 5 V/div Offset: 0 V Attenuation: 1 X Sample Mode: Average

Time (s),Channel 1 (V),Channel 2 (V)
-8.95310141509434e-06,0.003779396185742345,0.02851416323988071
-8.943101415094339e-06,0.005783362787813752,0.01735207180635537
-8.933101415094337e-06,0.006451351655170281,0.04339695181789082
-8.923101415094342e-06,0.005115373920457224,-0.008692808205180085
-8.913101415094341e-06,0.005783362787813752,0.03223486038438916
-8.903101415094339e-06,0.004781379486778049,0.02479346609537227
-8.893101415094338e-06,0.007453334956206592,0.006189980372830022
-8.883101415094343e-06,0.005783362787814512,0.03967625467339083
-8.873101415094341e-06,0.004447385053099481,-0.004972111060695325
-8.86310141509434e-06,0.00611735722149232,0.01363137466184692
-8.853101415094338e-06,0.004447385053099481,0.01735207180635537
-8.843101415094336e-06,0.007787329389884553,-0.004972111060675021
-8.833101415094342e-06,0.006451351655170888,0.03967625467340606
-8.82310141509434e-06,0.005449368354135184,-0.01613420249422067
-8.813101415094338e-06,0.006451351655170888,0.03223486038438916
-8.803101415094337e-06,0.00645135165517104,-0.008692808205191929
-8.793101415094342e-06,0.006785346088849304,0.01735207180634352
-8.78310141509434e-06,0.007453334956206592,0.02107276895086382
-8.773101415094339e-06,0.005783362787813752,-0.01613420249422067
-8.763101415094337e-06,0.007119340522527113,0.02851416323987056
-8.753101415094342e-06,0.005115373920457527,0.006189980372840173
-8.743101415094341e-06,0.007453334956206592,-0.004972111060695325
-8.733101415094339e-06,0.005449368354135184,0.03595555752889761
-8.723101415094338e-06,0.005115373920456617,-0.01241350534971222
-8.713101415094343e-06,0.006785346088848697,0.02479346609535535
-8.703101415094341e-06,0.004447385053099481,0.006189980372830022
-8.69310141509434e-06,0.006451351655170888,0.01735207180635537
-8.683101415094338e-06,0.007453334956206592,0.02479346609537227
-8.673101415094336e-06,0.005449368354135488,-0.01241350534969361
-8.663101415094342e-06,0.00611735722149232,0.02851416323988071
-8.65310141509434e-06,0.005115373920456617,-0.001251413916186876
-8.643101415094338e-06,0.006451351655170888,0.01363137466184692
-8.633101415094337e-06,0.006117357221492472,0.02851416323986887
-8.623101415094342e-06,0.006451351655170736,0.002469283228333417
-8.61310141509434e-06,0.007119340522528024,0.02851416323988071
-8.603101415094339e-06,0.005783362787813752,-0.004972111060695325
-8.593101415094337e-06,0.007453334956206592,0.002469283228333416
-8.583101415094342e-06,0.007453334956206592,0.02851416323986887
-8.573101415094341e-06,0.006451351655170888,-0.001251413916186876
-8.563101415094339e-06,0.006785346088849456,0.04339695181791451
-8.553101415094338e-06,0.00611735722149232,0.006189980372830022
-8.543101415094343e-06,0.009123307124598065,-0.004972111060690249
-8.533101415094341e-06,0.008789312690920863,0.03595555752889761
-8.523101415094339e-06,0.006451351655170888,-0.008692808205203774
-8.513101415094338e-06,0.008789312690920863,0.03967625467340606
-8.503101415094336e-06,0.008121323823563575,-0.0012514139161818
-8.493101415094341e-06,0.00778732938988516,0.00991067751733847
-8.48310141509434e-06,0.0104592848593137,0.02851416323988071
-8.473101415094338e-06,0.00778732938988516,0.00991067751733847
-8.463101415094337e-06,0.00878931269092071,0.02851416323987902
-8.453101415094342e-06,0.008455318257242295,0.02479346609537227
-8.44310141509434e-06,0.008121323823563727,0.00991067751733847
-8.433101415094339e-06,0.009791295991956567,0.03967625467340606
-8.423101415094337e-06,0.006117357221492928,0.006189980372845249
-8.413101415094342e-06,0.007453334956205985,0.03967625467339083
-8.403101415094341e-06,0.007119340522528024,0.006189980372830022
-8.393101415094339e-06,0.008121323823563727,0.002469283228321573
-8.383101415094337e-06,0.008455318257242295,0.04711764896242296
-8.373101415094343e-06,0.007787329389885463,-0.01241350534968515
-8.363101415094341e-06,0.00611735722149232,0.03595555752889761
-8.353101415094339e-06,0.005115373920456617,-0.001251413916186876
-8.343101415094338e-06,0.007119340522528024,0.006189980372830022
-8.333101415094336e-06,0.007119340522526961,0.02107276895084521
-8.323101415094341e-06,0.004781379486778049,-0.01985489963872912
-8.31310141509434e-06,0.005449368354135184,0.02851416323988071
-8.303101415094338e-06,0.006451351655170888,-0.004972111060695325
-8.293101415094337e-06,0.006785346088849456,-0.004972111060683481
-8.283101415094342e-06,0.006785346088849456,0.02107276895086382
-8.27310141509434e-06,0.005783362787813752,-0.004972111060695325
-8.263101415094339e-06,0.006785346088849456,0.01363137466184692
-8.253101415094337e-06,0.006117357221493536,-0.004972111060697017
-8.243101415094342e-06,0.008789312690919648,-0.008692808205202083
-8.233101415094341e-06,0.006451351655170888,0.03223486038438916
-8.223101415094339e-06,0.006451351655170888,-0.008692808205203774
-8.213101415094337e-06,0.007119340522528024,0.00991067751733847
-8.203101415094343e-06,0.005449368354135944,0.01363137466184523
-8.193101415094341e-06,0.006785346088849456,-0.004972111060695325
-8.183101415094339e-06,0.008121323823563727,0.01735207180635537
-8.173101415094338e-06,0.005449368354135184,-0.01985489963872912
-8.163101415094343e-06,0.006451351655170433,0.03967625467337899
-8.153101415094341e-06,0.003445401752063777,-0.01241350534971222
-8.14310141509434e-06,0.005449368354135184,-0.001251413916186876
-8.133101415094338e-06,0.005449368354135184,0.006189980372830022
-8.123101415094337e-06,0.005115373920456617,-0.004972111060685173
-8.113101415094342e-06,0.005115373920456617,0.01735207180635537
-8.10310141509434e-06,0.004447385053099481,0.00991067751733847
-8.093101415094339e-06,0.005449368354135184,0.002469283228321573
-8.083101415094337e-06,0.004113390619421368,0.02479346609536381
-8.073101415094342e-06,0.005115373920456161,0.00618998037283848
-8.063101415094341e-06,0.005449368354135184,0.01735207180635537
-8.053101415094339e-06,0.005449368354135184,-0.004972111060695325
-8.043101415094337e-06,0.004781379486777594,0.02107276895085536
-8.033101415094342e-06,0.0037793961857428,0.002469283228330031
-8.023101415094341e-06,0.006451351655170888,-0.001251413916186876
-8.013101415094339e-06,0.00611735722149232,0.04339695181791451
-8.003101415094338e-06,0.004447385053099481,-0.001251413916186876
-7.993101415094343e-06,0.007453334956205225,0.002469283228319881
-7.983101415094341e-06,0.005783362787813752,0.04339695181791451
-7.97310141509434e-06,0.005115373920456617,0.006189980372830022
-7.963101415094338e-06,0.006451351655170888,0.04339695181791451
-7.953101415094336e-06,0.004113390619421976,0.02107276895086382
-7.943101415094342e-06,0.006451351655170888,0.02107276895086382
-7.93310141509434e-06,0.004781379486778049,0.02107276895086382
-7.923101415094338e-06,0.00611735722149232,0.01363137466184692
-7.913101415094337e-06,0.00645135165517104,0.0545590432514297
-7.903101415094342e-06,0.006785346088849304,0.03223486038439932
-7.89310141509434e-06,0.004781379486778049,0.002469283228321573
-7.883101415094339e-06,0.005783362787813752,0.05455904325143986
-7.873101415094337e-06,0.007119340522528176,-0.001251413916161497
-7.863101415094342e-06,0.00745333495620644,0.05455904325141447
-7.853101415094341e-06,0.005449368354135184,0.02107276895086382
-7.843101415094339e-06,0.006785346088849456,0.01363137466184692
-7.833101415094338e-06,0.007119340522528024,0.05455904325143986
-7.823101415094343e-06,0.005449368354135944,0.009910677517358774
-7.813101415094341e-06,0.006785346088849456,0.03595555752889761
-7.80310141509434e-06,0.005449368354135184,0.02851416323988071
-7.793101415094338e-06,0.008121323823563727,0.002469283228321573
-7.783101415094336e-06,0.007453334956206288,0.04711764896240435
-7.773101415094342e-06,0.006785346088849456,0.006189980372830022
-7.76310141509434e-06,0.007453334956206592,0.04339695181791451
-7.753101415094338e-06,0.008789312690920863,0.006189980372830022
-7.743101415094337e-06,0.007453334956206744,0.009910677517350315
-7.733101415094342e-06,0.007787329389885008,0.03595555752888577
-7.72310141509434e-06,0.006785346088849456,-0.004972111060695325
-7.713101415094339e-06,0.00611735722149232,0.03967625467340606
-7.703101415094337e-06,0.007453334956207504,0.02479346609536211
-7.693101415094342e-06,0.009457301558277089,0.002469283228331724
-7.683101415094341e-06,0.008121323823563727,0.04339695181791451
-7.673101415094339e-06,0.006785346088849456,-0.001251413916186876
-7.663101415094338e-06,0.009457301558278,0.05083834610693141
-7.653101415094343e-06,0.007453334956207503,0.02851416323989087
-7.643101415094341e-06,0.009123307124599432,0.02107276895086382
-7.63310141509434e-06,0.009123307124599432,0.03967625467340606
-7.623101415094338e-06,0.01012529042563514,-0.001251413916186876
-7.613101415094336e-06,0.009123307124599888,0.04339695181790605
-7.603101415094342e-06,0.01012529042563514,0.02479346609537227
-7.59310141509434e-06,0.01179526259402797,0.02851416323988071
-7.583101415094338e-06,0.0104592848593137,0.05083834610693141
-7.573101415094337e-06,0.0104592848593137,-0.004972111060680098
-7.563101415094342e-06,0.0104592848593137,0.02851416323986548
-7.55310141509434e-06,0.01079327929299227,0.00991067751733847
-7.543101415094339e-06,0.01112727372667084,0.006189980372830022
-7.533101415094337e-06,0.00979129599195596,0.03595555752888577
-7.523101415094342e-06,0.008455318257242902,0.009910677517350315
-7.513101415094341e-06,0.009123307124599432,0.05083834610693141
-7.503101415094339e-06,0.007453334956206592,0.03223486038438916
-7.493101415094337e-06,0.007453334956206592,0.002469283228321573
-7.483101415094343e-06,0.009123307124598672,0.03967625467338914
-7.473101415094341e-06,0.008455318257242295,0.002469283228321573
-7.463101415094339e-06,0.006451351655170888,0.01363137466184692
-7.453101415094338e-06,0.00611735722149232,0.01363137466184692
-7.443101415094336e-06,0.008455318257241991,0.006189980372843558
-7.433101415094341e-06,0.00778732938988516,0.03595555752889761
-7.42310141509434e-06,0.007119340522528024,-0.004972111060695325
-7.413101415094338e-06,0.008121323823563727,0.03595555752889761
-7.403101415094337e-06,0.007119340522528784,0.006189980372833405
-7.393101415094342e-06,0.008789312690920863,0.01363137466184692
-7.38310141509434e-06,0.006785346088849456,0.03967625467340606
-7.373101415094339e-06,0.008789312690920863,0.002469283228321573
-7.363101415094337e-06,0.008455318257241991,0.03595555752888238
-7.353101415094342e-06,0.007787329389885463,0.002469283228336804
-7.343101415094341e-06,0.009457301558278,0.002469283228321573
-7.333101415094339e-06,0.01012529042563514,0.03223486038438916
-7.323101415094337e-06,0.009457301558278,0.006189980372830022
-7.313101415094343e-06,0.008455318257242751,0.02479346609536381
-7.303101415094341e-06,0.008121323823563727,0.01735207180635537
-7.293101415094339e-06,0.0104592848593137,0.00991067751733847
-7.283101415094338e-06,0.008455318257242295,0.05083834610693141
-7.273101415094336e-06,0.00711934052252924,-0.004972111060681789
-7.263101415094341e-06,0.009791295991956567,0.02479346609537227
-7.25310141509434e-06,0.007119340522528024,-0.001251413916186876
-7.243101415094338e-06,0.009123307124599432,0.006189980372830022
-7.233101415094337e-06,0.007787329389884553,0.03967625467338237
-7.223101415094342e-06,0.006451351655170888,-0.01241350534971222
-7.21310141509434e-06,0.006451351655170888,0.03595555752889761
-7.203101415094339e-06,0.007119340522528024,0.006189980372830022
-7.193101415094337e-06,0.006451351655171648,-0.01241350534969023
-7.183101415094342e-06,0.008121323823562968,0.03595555752887562
-7.173101415094341e-06,0.006451351655170888,-0.02357559678323757
-7.163101415094339e-06,0.006785346088849456,0.03223486038438916
-7.153101415094337e-06,0.007119340522528024,0.01363137466184692
-7.143101415094343e-06,0.007119340522528024,-0.001251413916180109
-7.133101415094341e-06,0.008121323823563727,0.03595555752889761
-7.123101415094339e-06,0.006785346088849456,-0.001251413916186876
-7.113101415094338e-06,0.00778732938988516,0.05083834610693141
-7.103101415094343e-06,0.005783362787814663,0.006189980372850325
-7.093101415094341e-06,0.006451351655170888,-0.001251413916186876
-7.08310141509434e-06,0.007453334956206592,0.04711764896242296
-7.073101415094338e-06,0.006785346088849456,-0.004972111060695325
-7.063101415094337e-06,0.008121323823562968,0.04711764896240942
-7.053101415094342e-06,0.006451351655170888,0.01735207180635537
-7.04310141509434e-06,0.00778732938988516,-0.004972111060695325
-7.033101415094339e-06,0.007119340522528024,0.04711764896242296
-7.023101415094337e-06,0.005783362787815574,-0.004972111060666562
-7.013101415094342e-06,0.009791295991954746,0.05827974039591954
-7.00310141509434e-06,0.006785346088849456,0.01363137466184692
-6.993101415094339e-06,0.00778732938988516,0.01735207180635537
-6.983101415094337e-06,0.008121323823563271,0.05455904325141447
-6.973101415094342e-06,0.00711934052252848,-0.001251413916161494
-6.963101415094341e-06,0.008121323823563727,0.03595555752889761
-6.953101415094339e-06,0.007453334956206592,0.01363137466184692
-6.943101415094338e-06,0.009457301558278,0.002469283228321573
-6.933101415094343e-06,0.007453334956207503,0.0433969518178959
-6.923101415094341e-06,0.005783362787813752,-0.008692808205203774
-6.91310141509434e-06,0.009457301558278,0.04711764896242296
-6.903101415094338e-06,0.00611735722149232,0.02107276895086382
-6.893101415094336e-06,0.00778732938988516,-0.004972111060669945
-6.883101415094342e-06,0.00778732938988516,0.05083834610693141
-6.87310141509434e-06,0.005115373920456617,-0.004972111060695325
-6.863101415094338e-06,0.007453334956206592,0.06200043754045675
-6.853101415094337e-06,0.00511537392045768,-0.004972111060686865
-6.843101415094342e-06,0.007453334956205529,0.01363137466183846
-6.83310141509434e-06,0.00778732938988516,0.03595555752889761
-6.823101415094339e-06,0.004781379486778049,0.00991067751733847
-6.813101415094337e-06,0.006117357221492776,0.04711764896240773
-6.803101415094342e-06,0.007119340522527569,0.01363137466186215
-6.793101415094341e-06,0.008121323823563727,-0.004972111060695325
-6.783101415094339e-06,0.008455318257242295,0.04711764896242296
-6.773101415094338e-06,0.005449368354135184,-0.001251413916186876
-6.763101415094343e-06,0.006785346088848848,0.03967625467338745
-6.753101415094341e-06,0.006785346088849456,0.006189980372830022
-6.74310141509434e-06,0.01012529042563514,0.02851416323988071
-6.733101415094338e-06,0.01112727372667084,0.03223486038438916
-6.723101415094336e-06,0.01012529042563574,0.009910677517346931
-6.713101415094342e-06,0.01146126816034941,0.02851416323988071
-6.70310141509434e-06,0.008455318257242295,-0.008692808205203774
-6.693101415094338e-06,0.01112727372667084,0.006189980372830022
-6.683101415094337e-06,0.01112727372667069,0.05083834610690941
-6.673101415094342e-06,0.01079327929299242,0.002469283228343569
-6.66310141509434e-06,0.01012529042563514,0.04339695181791451
-6.653101415094339e-06,0.009123307124599432,0.00991067751733847
-6.643101415094337e-06,0.01079327929299197,-0.00125141391617334
-6.633101415094342e-06,0.01012529042563544,0.02851416323986718
-6.623101415094341e-06,0.008789312690920863,0.002469283228321573
-6.613101415094339e-06,0.009791295991956567,0.03223486038438916
-6.603101415094338e-06,0.007453334956206592,0.00991067751733847
-6.593101415094343e-06,0.009123307124598672,0.002469283228324956
-6.583101415094341e-06,0.008789312690920863,0.04339695181791451
-6.57310141509434e-06,0.008789312690920863,-0.004972111060695325
-6.563101415094338e-06,0.009791295991956567,0.04339695181791451
-6.553101415094336e-06,0.007787329389884553,0.00991067751733001
-6.543101415094342e-06,0.006451351655170888,-0.008692808205203774
-6.53310141509434e-06,0.006451351655170888,0.02851416323988071
-6.523101415094338e-06,0.006451351655170888,-0.008692808205203774
-6.513101415094337e-06,0.006785346088848089,0.04711764896240096
-6.503101415094342e-06,0.003779396185743712,-0.00125141391616488
-6.49310141509434e-06,0.006785346088849456,0.002469283228321573
-6.483101415094339e-06,0.006451351655170888,0.03223486038438916
-6.473101415094337e-06,0.005115373920457528,-0.01985489963870205
-6.463101415094342e-06,0.007119340522527114,0.03967625467337899
-6.453101415094341e-06,0.00611735722149232,0.006189980372830022
-6.443101415094339e-06,0.007119340522528024,-0.01613420249422067
-6.433101415094337e-06,0.007119340522528024,0.02107276895086382
-6.423101415094343e-06,0.005783362787814359,-0.02357559678321727
-6.413101415094341e-06,0.00778732938988516,0.02851416323988071
-6.403101415094339e-06,0.005783362787813752,-0.02729629392774602
-6.393101415094338e-06,0.005783362787813752,-0.01613420249422067
-6.383101415094336e-06,0.005115373920456768,0.03595555752886716
-6.373101415094341e-06,0.005449368354135184,-0.03101699107225447
-6.36310141509434e-06,0.005783362787813752,0.01363137466184692
-6.353101415094338e-06,0.004447385053099481,-0.001251413916186876
-6.343101415094337e-06,0.006117357221491257,-0.004972111060685173
-6.333101415094342e-06,0.003779396185742345,0.01735207180635537
-6.32310141509434e-06,0.005783362787813752,-0.01613420249422067
-6.313101415094339e-06,0.005449368354135184,0.03223486038438916
-6.303101415094337e-06,0.003111407318385969,0.00618998037281987
-6.293101415094342e-06,0.004781379486777289,-0.01613420249421052
-6.283101415094341e-06,0.005115373920456617,0.05083834610693141
-6.273101415094339e-06,0.005115373920456617,-0.001251413916186876
-6.263101415094337e-06,0.004113390619420913,0.02851416323988071
-6.253101415094343e-06,0.004781379486777745,-0.01241350534969361
-6.243101415094341e-06,0.005115373920456617,-0.004972111060695325
-6.233101415094339e-06,0.004781379486778049,0.01735207180635537
-6.223101415094338e-06,0.003779396185742345,-0.01985489963872912
-6.213101415094343e-06,0.006117357221491257,0.01363137466183169
-6.203101415094341e-06,0.003111407318385209,-0.008692808205203774
-6.19310141509434e-06,0.007119340522528024,-0.01241350534971222
-6.183101415094338e-06,0.00611735722149232,0.03223486038438916
-6.173101415094337e-06,0.004447385053099633,-0.008692808205186853
-6.163101415094342e-06,0.004781379486778049,0.02851416323988071
-6.15310141509434e-06,0.005449368354135184,0.01363137466184692
-6.143101415094339e-06,0.004781379486778049,-0.01241350534971222
-6.133101415094337e-06,0.006451351655169369,0.02851416323985364
-6.123101415094342e-06,0.003111407318386728,-0.0310169910722274
-6.113101415094341e-06,0.007119340522528024,0.03967625467340606
-6.103101415094339e-06,0.004113390619420913,-0.004972111060695325
-6.093101415094337e-06,0.005783362787813752,0.00991067751733847
-6.083101415094343e-06,0.004781379486778504,0.03223486038437901
-6.073101415094341e-06,0.004447385053099481,-0.008692808205203774
-6.063101415094339e-06,0.005115373920456617,0.02851416323988071
-6.053101415094338e-06,0.003111407318385209,0.002469283228321573
-6.043101415094343e-06,0.005449368354134121,-0.001251413916185184
-6.033101415094341e-06,0.005449368354135184,0.05083834610693141
-6.02310141509434e-06,0.002443418451028074,-0.008692808205203774
-6.013101415094338e-06,0.004781379486778049,0.04339695181791451
-6.003101415094337e-06,0.003779396185742953,0.02107276895085197
-5.993101415094342e-06,0.005115373920456617,-0.004972111060695325
-5.98310141509434e-06,0.004781379486778049,0.03223486038438916
-5.973101415094338e-06,0.003111407318385209,-0.008692808205203774
-5.963101415094337e-06,0.004781379486778049,0.03595555752888577
-5.953101415094342e-06,0.004781379486778049,0.009910677517350315
-5.94310141509434e-06,0.004781379486778049,0.01735207180635537
-5.933101415094339e-06,0.005115373920456617,0.03967625467340606
-5.923101415094337e-06,0.003445401752064993,-0.001251413916166573
