traces_bank_current_trigger/sampling_freq_100MHz/BRANCH/b_1.csv

#Digilent WaveForms Oscilloscope Acquisition
#Device Name: Discovery2
#Serial Number: SN:210321B3D813
#Date Time: 2023-07-17 17:09:12.302
#Sample rate: 1e+08Hz
#Samples: 8192
#Trigger: Source: Channel 2 Type: Edge Condition: Rising Level: 2 V Hyst.: Auto HoldOff: 0 s
#Channel 1: Range: 10 mV/div Offset: 0 V Attenuation: 1 X Sample Mode: Average
#Channel 2: Range: 5 V/div Offset: 0 V Attenuation: 1 X Sample Mode: Average

Time (s),Channel 1 (V),Channel 2 (V)
-9.580635400907711e-07,0.00778732938988516,0.00991067751733847
-9.480635400907695e-07,0.008455318257242295,0.05083834610693141
-9.380635400907679e-07,0.008789312690920406,-0.01985489963869867
-9.280635400907731e-07,0.007787329389885615,0.0471176489623925
-9.180635400907715e-07,0.008455318257242295,0.03967625467340606
-9.080635400907699e-07,0.007119340522528024,0.01363137466184692
-8.980635400907683e-07,0.007119340522528024,0.04711764896242296
-8.880635400907735e-07,0.00745333495620644,0.009910677517355387
-8.780635400907719e-07,0.01012529042563514,0.03967625467340606
-8.680635400907703e-07,0.00611735722149232,0.03595555752889761
-8.580635400907687e-07,0.008121323823563727,-0.01613420249422067
-8.480635400907671e-07,0.007119340522527873,0.06572113468493644
-8.380635400907722e-07,0.006785346088849456,0.002469283228321573
-8.280635400907706e-07,0.009457301558278,0.04711764896242296
-8.18063540090769e-07,0.008789312690920863,0.02107276895086382
-8.080635400907674e-07,0.006451351655170888,0.006189980372848633
-7.980635400907726e-07,0.006451351655170888,0.04711764896240435
-7.88063540090771e-07,0.006451351655170888,-0.004972111060695325
-7.780635400907694e-07,0.01012529042563514,0.02851416323988071
-7.680635400907678e-07,0.006451351655171344,0.02851416323986379
-7.58063540090773e-07,0.007453334956206137,-0.008692808205186857
-7.480635400907714e-07,0.006451351655170888,0.04339695181791451
-7.380635400907698e-07,0.007453334956206592,-0.01985489963872912
-7.280635400907682e-07,0.008121323823563727,0.02851416323988071
-7.180635400907734e-07,0.007453334956206896,0.03223486038438747
-7.080635400907718e-07,0.00778732938988516,-0.001251413916186876
-6.980635400907702e-07,0.007453334956206592,0.03967625467340606
-6.880635400907686e-07,0.006785346088849456,-0.01241350534971222
-6.78063540090767e-07,0.007119340522528176,0.009910677517345238
-6.680635400907722e-07,0.007453334956206592,0.02479346609537227
-6.580635400907706e-07,0.007119340522528024,-0.008692808205203774
-6.48063540090769e-07,0.00778732938988516,0.03967625467340606
-6.380635400907674e-07,0.006785346088849911,-0.004972111060680098
-6.280635400907726e-07,0.007787329389884704,0.02851416323986548
-6.18063540090771e-07,0.006785346088849456,0.02479346609537227
-6.080635400907694e-07,0.006451351655170888,-0.008692808205203774
-5.980635400907678e-07,0.007453334956206288,0.03595555752887392
-5.880635400907729e-07,0.006785346088849759,-0.01613420249419698
-5.780635400907713e-07,0.008121323823563727,0.01735207180635537
-5.680635400907697e-07,0.009123307124599432,0.02479346609537227
-5.580635400907681e-07,0.006451351655170888,-0.004972111060695325
-5.480635400907733e-07,0.007787329389884553,0.02851416323986548
-5.380635400907717e-07,0.006785346088849456,0.002469283228321573
-5.280635400907701e-07,0.00778732938988516,0.01735207180635537
-5.180635400907685e-07,0.007453334956206592,0.01363137466184692
-5.080635400907669e-07,0.006785346088849304,0.002469283228341876
-4.980635400907721e-07,0.006451351655170888,0.04711764896242296
-4.880635400907705e-07,0.006451351655170888,-0.01985489963872912
-4.780635400907689e-07,0.007453334956206592,0.02851416323988071
-4.680635400907673e-07,0.006785346088848544,0.006189980372821561
-4.580635400907725e-07,0.004781379486778049,-0.01241350534971222
-4.480635400907709e-07,0.004781379486778049,0.04339695181791451
-4.380635400907693e-07,0.004447385053099481,-0.02729629392774602
-4.280635400907677e-07,0.006451351655170585,0.02107276895086382
-4.180635400907729e-07,0.005783362787814056,0.02107276895086382
-4.080635400907713e-07,0.004781379486778049,-0.01613420249422067
-3.980635400907697e-07,0.00611735722149232,0.03595555752889761
-3.880635400907681e-07,0.004447385053099481,-0.008692808205203774
-3.780635400907733e-07,0.007119340522526809,0.02107276895085028
-3.680635400907717e-07,0.005783362787813752,0.01363137466184692
-3.580635400907701e-07,0.00611735722149232,-0.01985489963872912
-3.480635400907685e-07,0.00611735722149232,0.04711764896242296
-3.380635400907669e-07,0.006451351655171648,-0.01241350534970207
-3.28063540090772e-07,0.008121323823563727,0.00991067751733847
-3.180635400907704e-07,0.006785346088849456,0.03967625467340606
-3.080635400907688e-07,0.006785346088849456,-0.004972111060695325
-2.980635400907672e-07,0.006451351655170585,0.0471176489623925
-2.880635400907724e-07,0.005783362787813752,-0.01985489963872912
-2.780635400907708e-07,0.008455318257242295,0.03595555752889761
-2.680635400907692e-07,0.007119340522528024,0.002469283228321573
-2.580635400907676e-07,0.006117357221492624,-0.004972111060675021
-2.480635400907728e-07,0.006785346088849152,0.03967625467338576
-2.380635400907712e-07,0.00611735722149232,-0.01241350534971222
-2.280635400907696e-07,0.008789312690920863,0.01363137466184692
-2.18063540090768e-07,0.006451351655170888,0.00991067751733847
-2.080635400907732e-07,0.008121323823562968,-0.01241350534970207
-1.980635400907716e-07,0.00778732938988516,0.03223486038438916
-1.8806354009077e-07,0.00611735722149232,-0.01613420249422067
-1.780635400907684e-07,0.008121323823563727,0.01735207180635537
-1.680635400907736e-07,0.00711934052252848,0.009910677517341853
-1.58063540090772e-07,0.007119340522528024,-0.01985489963872912
-1.480635400907704e-07,0.007453334956206592,0.03967625467340606
-1.380635400907688e-07,0.006785346088849456,-0.01241350534971222
-1.280635400907672e-07,0.009123307124598521,0.002469283228323264
-1.180635400907724e-07,0.007119340522528024,0.006189980372830022
-1.080635400907708e-07,0.00778732938988516,-0.03101699107225447
-9.806354009076916e-08,0.007453334956206592,0.04339695181791451
-8.806354009076756e-08,0.007453334956207504,-0.01241350534970207
-7.806354009077274e-08,0.009457301558277089,0.009910677517328319
-6.806354009077114e-08,0.006451351655170888,0.01735207180635537
-5.806354009076954e-08,0.008455318257242295,-0.01613420249422067
-4.806354009076794e-08,0.007787329389884704,0.03967625467337391
-3.806354009077312e-08,0.006785346088849911,-0.03101699107222232
-2.806354009077152e-08,0.007119340522528024,0.02479346609537227
-1.806354009076992e-08,0.007453334956206592,0.02851416323988071
-8.063540090768326e-09,0.005783362787813752,0.01363137466184692
1.936459909226496e-09,-0.01525828653392645,2.473012187180814
1.193645990922809e-08,0.02281707890542072,3.611545513401517
2.193645990922969e-08,0.002777412884706641,3.042278850291725
3.193645990923129e-08,0.01847515126759933,3.373420896152977
4.193645990923289e-08,0.006117357221497485,3.276682770395775
5.193645990922771e-08,0.01747316796656363,3.31761043898535
6.193645990922931e-08,0.001775429583670938,3.362258804719451
7.193645990923091e-08,0.007453334956206592,3.272962073251248
8.193645990923251e-08,-0.00323448692150272,3.440393444754027
9.193645990922733e-08,0.007453334956201731,3.217151616083723
1.019364599092289e-07,-0.0002285370184004695,3.429231353320603
1.119364599092305e-07,0.007119340522528024,3.224593010372638
1.219364599092321e-07,0.006785346088851583,3.377141593297441
1.319364599092269e-07,0.01146126816034728,3.280403467540309
1.419364599092285e-07,0.00611735722149232,3.347376016141417
1.519364599092301e-07,0.01179526259402797,3.310169044696333
1.619364599092317e-07,0.004781379486778049,3.380862290441993
1.719364599092266e-07,0.009123307124597458,3.332493227563406
1.819364599092282e-07,0.001107440716313802,3.384582987586502
1.919364599092298e-07,0.00611735722149232,3.302727650407316
2.019364599092314e-07,0.003445401752063777,3.410627867598061
2.11936459909233e-07,0.005115373920456617,3.276682770395799
2.219364599092278e-07,0.005115373920456617,3.369700199008468
2.319364599092294e-07,0.005783362787813752,3.31761043898535
2.41936459909231e-07,0.007453334956206592,3.3399346218524
2.519364599092326e-07,0.009123307124597912,3.336213924707892
2.619364599092274e-07,0.005783362787815271,3.336213924707892
2.71936459909229e-07,0.008789312690920863,3.3399346218524
2.819364599092306e-07,0.006451351655170888,3.380862290441993
2.919364599092322e-07,0.005449368354133514,3.321331136129899
3.01936459909227e-07,0.001775429583672608,3.41062786759802
3.119364599092286e-07,0.004113390619420913,3.302727650407316
3.219364599092302e-07,0.006451351655170888,3.38830368473101
3.319364599092318e-07,0.003111407318385209,3.336213924707892
3.419364599092266e-07,0.006785346088847785,3.365979501863946
3.519364599092282e-07,0.006451351655170888,3.377141593297485
3.619364599092298e-07,0.00611735722149232,3.336213924707892
3.719364599092314e-07,0.008121323823563727,3.351096713285926
3.81936459909233e-07,0.006451351655170585,3.358538107574932
3.919364599092278e-07,0.005783362787813752,3.336213924707892
4.019364599092294e-07,0.005783362787813752,3.395745079020027
4.11936459909231e-07,0.004113390619420913,3.328772530418875
4.219364599092326e-07,0.008121323823563424,3.37714159329747
4.319364599092275e-07,0.007453334956206896,3.343655318996924
4.419364599092291e-07,0.005449368354135184,3.336213924707892
4.519364599092307e-07,0.00778732938988516,3.369700199008468
4.619364599092323e-07,0.006785346088850063,3.3362139247079
4.719364599092271e-07,0.00812132382356312,3.354817410430426
4.819364599092287e-07,0.008121323823563727,3.392024381875518
4.919364599092303e-07,0.005783362787813752,3.328772530418875
5.019364599092319e-07,0.006785346088849456,3.399465776164535
5.119364599092267e-07,0.006117357221492624,3.339934621852427
5.219364599092283e-07,0.008121323823563727,3.384582987586502
5.319364599092299e-07,0.007119340522528024,3.380862290441993
5.419364599092315e-07,0.00778732938988516,3.332493227563384
5.519364599092331e-07,0.006785346088849608,3.384582987586473
5.619364599092279e-07,0.007119340522528024,3.321331136129858
5.719364599092295e-07,0.00778732938988516,3.36597950186396
5.819364599092311e-07,0.00611735722149232,3.384582987586502
5.919364599092327e-07,0.008121323823562817,3.343655318996926
6.019364599092275e-07,0.00611735722149232,3.380862290441993
6.119364599092291e-07,0.005783362787813752,3.343655318996909
6.219364599092307e-07,0.008789312690920863,3.36597950186396
6.319364599092323e-07,0.008455318257241232,3.369700199008451
6.419364599092271e-07,0.006117357221493384,3.3324932275634
6.519364599092287e-07,0.007453334956206592,3.399465776164535
6.619364599092303e-07,0.00611735722149232,3.328772530418875
6.719364599092319e-07,0.008455318257242295,3.362258804719451
6.819364599092268e-07,0.00812132382356388,3.365979501863958
6.919364599092284e-07,0.00778732938988516,3.325051833274367
7.0193645990923e-07,0.009457301558278,3.395745079020027
7.119364599092316e-07,0.006785346088849456,3.332493227563384
7.219364599092332e-07,0.009457301558277393,3.373420896152978
7.31936459909228e-07,0.008121323823563727,3.377141593297485
7.419364599092296e-07,0.007453334956206592,3.325051833274367
7.519364599092312e-07,0.00778732938988516,3.399465776164535
7.619364599092328e-07,0.007119340522528936,3.332493227563404
7.719364599092276e-07,0.009123307124599432,3.377141593297485
7.819364599092292e-07,0.00778732938988516,3.36597950186396
7.919364599092308e-07,0.00778732938988516,3.332493227563384
8.019364599092324e-07,0.009123307124598521,3.39574507902
8.119364599092272e-07,0.007119340522528935,3.336213924707919
8.219364599092288e-07,0.008121323823563727,3.358538107574943
8.319364599092304e-07,0.009791295991956567,3.380862290441993
8.41936459909232e-07,0.007119340522528024,3.332493227563384
8.519364599092268e-07,0.009457301558276936,3.395745079019998
8.619364599092284e-07,0.006451351655170888,3.328772530418875
8.7193645990923e-07,0.008455318257242295,3.384582987586502
8.819364599092316e-07,0.006785346088849456,3.36597950186396
8.919364599092264e-07,0.00645135165517104,3.332493227563399
9.01936459909228e-07,0.008121323823563727,3.380862290441993
9.119364599092296e-07,0.008455318257242295,3.328772530418875
9.219364599092312e-07,0.008455318257242295,3.369700199008468
9.319364599092328e-07,0.008455318257242295,3.365979501863944
9.419364599092277e-07,0.008455318257242295,3.332493227563384
9.519364599092293e-07,0.009123307124599432,3.399465776164535
9.619364599092309e-07,0.005449368354135184,3.328772530418875
9.719364599092325e-07,0.01146126816034758,3.377141593297483
9.819364599092273e-07,0.007453334956208414,3.373420896152978
9.919364599092289e-07,0.008121323823563727,3.358538107574943
1.00193645990923e-06,0.008121323823563727,3.38830368473101
1.011936459909232e-06,0.008455318257242902,3.351096713285934
1.021936459909227e-06,0.00979129599195596,3.369700199008459
1.031936459909228e-06,0.007119340522528024,3.380862290441993
1.04193645990923e-06,0.009123307124599432,3.336213924707892
1.051936459909232e-06,0.009123307124599432,3.403186473309044
1.061936459909227e-06,0.008789312690921015,3.325051833274402
1.071936459909228e-06,0.009791295991956567,3.369700199008468
1.08193645990923e-06,0.008789312690920863,3.358538107574943
1.091936459909231e-06,0.008455318257242295,3.325051833274367
1.101936459909233e-06,0.00812132382356388,3.395745079019993
1.111936459909228e-06,0.008455318257242295,3.321331136129858
1.121936459909229e-06,0.007453334956206592,3.362258804719451
1.131936459909231e-06,0.009123307124599432,3.36597950186396
1.141936459909233e-06,0.009123307124599129,3.339934621852422
1.151936459909227e-06,0.008455318257242599,3.388303684730988
1.161936459909229e-06,0.007453334956206592,3.332493227563384
1.171936459909231e-06,0.009123307124599432,3.38830368473101
1.181936459909232e-06,0.008455318257241081,3.373420896152958
1.191936459909227e-06,0.005783362787814967,3.332493227563402
1.201936459909229e-06,0.009123307124599432,3.406907170453553
1.21193645990923e-06,0.009123307124599432,3.332493227563384
1.221936459909232e-06,0.01012529042563514,3.380862290441993
1.231936459909227e-06,0.00979129599195672,3.365979501863966
1.241936459909228e-06,0.00778732938988516,3.328772530418875
1.25193645990923e-06,0.008789312690920863,3.410627867598061
1.261936459909231e-06,0.007119340522528024,3.3399346218524
1.271936459909233e-06,0.008121323823563424,3.373420896152987
1.281936459909228e-06,0.007453334956206592,3.395745079020027
1.291936459909229e-06,0.00778732938988516,3.3399346218524
1.301936459909231e-06,0.008455318257242295,3.41434856474257
1.311936459909233e-06,0.007119340522529543,3.347376016141436
1.321936459909227e-06,0.01045928485931218,3.388303684730992
1.331936459909229e-06,0.00778732938988516,3.377141593297485
1.341936459909231e-06,0.01012529042563514,3.336213924707892
1.351936459909232e-06,0.008455318257242295,3.418069261887057
1.361936459909227e-06,0.008455318257242295,3.373420896152997
1.371936459909229e-06,0.00778732938988516,3.384582987586502
1.38193645990923e-06,0.009123307124599432,3.392024381875518
1.391936459909232e-06,0.007119340522528024,3.358538107574943
1.401936459909227e-06,0.00745333495620644,3.40690717045353
1.411936459909228e-06,0.006785346088849456,3.343655318996909
1.42193645990923e-06,0.008455318257242295,3.395745079020027
1.431936459909231e-06,0.009123307124599432,3.399465776164535
1.441936459909233e-06,0.00812132382356388,3.358538107574966
1.451936459909228e-06,0.008455318257242295,3.410627867598061
1.461936459909229e-06,0.007453334956206592,3.354817410430434
1.471936459909231e-06,0.009123307124599432,3.392024381875518
1.481936459909233e-06,0.007787329389886223,3.384582987586495
1.491936459909227e-06,0.01012529042563407,3.369700199008475
1.501936459909229e-06,0.007119340522528024,3.418069261887078
1.511936459909231e-06,0.00778732938988516,3.347376016141417
1.521936459909232e-06,0.008455318257241688,3.399465776164532
1.531936459909227e-06,0.007119340522528632,3.392024381875522
1.541936459909229e-06,0.00778732938988516,3.373420896152977
1.55193645990923e-06,0.007453334956206592,3.418069261887078
1.561936459909232e-06,0.007119340522528024,3.377141593297485
1.571936459909227e-06,0.009123307124598521,3.403186473309032
1.581936459909228e-06,0.008121323823563727,3.399465776164535
1.59193645990923e-06,0.008789312690920863,3.351096713285926
1.601936459909232e-06,0.008455318257242295,3.425510656176095
1.611936459909233e-06,0.007787329389884704,3.365979501863976
1.621936459909228e-06,0.006785346088849456,3.403186473309044
1.63193645990923e-06,0.00778732938988516,3.384582987586502
1.641936459909231e-06,0.008789312690920863,3.362258804719451
1.651936459909233e-06,0.008121323823563271,3.403186473309018
1.661936459909228e-06,0.007119340522528024,3.347376016141417
1.671936459909229e-06,0.009123307124599432,3.392024381875518
1.681936459909231e-06,0.007119340522528024,3.392024381875518
1.691936459909232e-06,0.007119340522528632,3.354817410430456
1.701936459909227e-06,0.008455318257241688,3.403186473309022
1.711936459909229e-06,0.008455318257242295,3.351096713285926
1.72193645990923e-06,0.009457301558278,3.384582987586502
1.731936459909232e-06,0.006785346088849456,3.377141593297485
1.741936459909227e-06,0.009123307124598369,3.347376016141431
1.751936459909228e-06,0.008121323823563727,3.399465776164535
1.76193645990923e-06,0.005783362787813752,3.336213924707892
1.771936459909232e-06,0.007453334956206592,3.384582987586502
1.781936459909226e-06,0.007119340522528176,3.384582987586502
1.791936459909228e-06,0.007453334956206592,3.354817410430434
1.80193645990923e-06,0.008121323823563727,3.41434856474257
1.811936459909231e-06,0.006785346088849456,3.358538107574943
1.821936459909233e-06,0.009457301558277696,3.395745079020021
1.831936459909228e-06,0.008789312690920863,3.380862290441993
1.841936459909229e-06,0.008121323823563727,3.336213924707892
1.851936459909231e-06,0.006785346088849456,3.392024381875518
1.861936459909232e-06,0.008121323823563727,3.351096713285939
1.871936459909227e-06,0.008121323823563727,3.38086229044198
1.881936459909229e-06,0.006785346088849456,3.384582987586502
1.89193645990923e-06,0.006785346088849456,3.351096713285926
1.901936459909232e-06,0.008121323823563727,3.406907170453553
1.911936459909227e-06,0.007453334956206896,3.343655318996938
1.921936459909228e-06,0.008121323823563727,3.392024381875518
1.93193645990923e-06,0.00778732938988516,3.373420896152977
1.941936459909232e-06,0.007119340522528024,3.347376016141417
1.951936459909226e-06,0.007787329389884856,3.406907170453525
1.961936459909228e-06,0.008121323823563727,3.347376016141417
1.97193645990923e-06,0.008789312690920863,3.384582987586502
1.981936459909231e-06,0.00778732938988516,3.373420896152977
1.991936459909233e-06,0.007787329389885311,3.34365531899694
2.001936459909228e-06,0.008121323823563727,3.410627867598061
2.011936459909229e-06,0.006785346088849456,3.358538107574943
2.021936459909231e-06,0.01112727372667084,3.369700199008468
2.031936459909232e-06,0.009123307124598521,3.384582987586487
2.041936459909227e-06,0.007119340522528935,3.351096713285941
2.051936459909229e-06,0.009123307124599432,3.399465776164535
2.06193645990923e-06,0.008789312690920863,3.347376016141417
2.071936459909232e-06,0.009791295991955808,3.369700199008475
2.081936459909227e-06,0.008121323823564487,3.384582987586495
2.091936459909229e-06,0.008455318257242295,3.358538107574943
2.10193645990923e-06,0.009457301558278,3.406907170453553
2.111936459909232e-06,0.006785346088849456,3.358538107574943
2.121936459909227e-06,0.009123307124598369,3.38458298758649
2.131936459909228e-06,0.008789312690920863,3.399465776164535
2.14193645990923e-06,0.008121323823563727,3.351096713285926
2.151936459909231e-06,0.008121323823563727,3.403186473309044
2.161936459909233e-06,0.006451351655172255,3.351096713285946
2.171936459909228e-06,0.009457301558278,3.395745079020027
2.181936459909229e-06,0.006451351655170888,3.403186473309044
2.191936459909231e-06,0.00778732938988516,3.3399346218524
2.201936459909233e-06,0.007119340522528784,3.418069261887044
