traces_bank_current_trigger/sampling_freq_100MHz/MUL/MUL_3.csv

#Digilent WaveForms Oscilloscope Acquisition
#Device Name: Discovery2
#Serial Number: SN:210321B3D813
#Date Time: 2023-06-16 10:44:33.709
#Sample rate: 1e+08Hz
#Samples: 8192
#Trigger: Source: Channel 2 Type: Edge Condition: Rising Level: 2 V Hyst.: Auto HoldOff: 0 s
#Channel 1: Range: 10 mV/div Offset: 0 V Attenuation: 1 X Sample Mode: Average
#Channel 2: Range: 5 V/div Offset: 0 V Attenuation: 1 X Sample Mode: Average

Time (s),Channel 1 (V),Channel 2 (V)
-9.585120000000006e-07,0.00778732938988516,0.002469283228321573
-9.48511999999999e-07,0.00778732938988516,0.03967625467340606
-9.385119999999974e-07,0.006785346088850063,0.002469283228330032
-9.285120000000025e-07,0.00812132382356312,0.02107276895085536
-9.185120000000009e-07,0.00778732938988516,0.02479346609537227
-9.085119999999993e-07,0.004781379486778049,0.006189980372830022
-8.985119999999977e-07,0.008455318257242295,0.03967625467340606
-8.885120000000029e-07,0.007453334956207047,-0.01613420249419529
-8.785120000000013e-07,0.009791295991956567,0.02107276895086382
-8.685119999999997e-07,0.00778732938988516,0.02107276895086382
-8.585119999999981e-07,0.00778732938988516,-0.01241350534971222
-8.485119999999965e-07,0.00711934052252848,0.01735207180634183
-8.385120000000017e-07,0.008121323823563727,-0.01241350534971222
-8.285120000000001e-07,0.008789312690920863,0.002469283228321573
-8.185119999999985e-07,0.007453334956206592,0.006189980372830022
-8.085119999999969e-07,0.006785346088849456,-0.004972111060685173
-7.985120000000021e-07,0.006785346088849456,0.01735207180634522
-7.885120000000005e-07,0.007453334956206592,-0.01241350534971222
-7.785119999999989e-07,0.008455318257242295,0.002469283228321573
-7.685119999999973e-07,0.007119340522527569,0.01735207180633845
-7.585120000000025e-07,0.006117357221492776,-0.0198548996387122
-7.485120000000009e-07,0.00778732938988516,0.03223486038438916
-7.385119999999993e-07,0.006785346088849456,-0.01241350534971222
-7.285119999999977e-07,0.009457301558278,0.01735207180635537
-7.185120000000029e-07,0.008455318257242751,0.0322348603843824
-7.085120000000013e-07,0.00778732938988516,-0.01613420249422067
-6.985119999999997e-07,0.00611735722149232,0.04339695181791451
-6.885119999999981e-07,0.00611735722149232,-0.01613420249422067
-6.785119999999965e-07,0.0077873293898844,0.013631374661852
-6.685120000000016e-07,0.00611735722149232,0.02479346609537227
-6.58512e-07,0.008121323823563727,-0.01241350534971222
-6.485119999999984e-07,0.005783362787813752,0.03595555752889761
-6.385119999999968e-07,0.006785346088849304,-0.001251413916183492
-6.28512000000002e-07,0.00645135165517104,0.006189980372826638
-6.185120000000004e-07,0.008121323823563727,0.02479346609537227
-6.085119999999988e-07,0.006451351655170888,-0.01613420249422067
-5.985119999999972e-07,0.008789312690920256,0.03967625467339083
-5.885120000000024e-07,0.007453334956207199,0.006189980372845252
-5.785120000000008e-07,0.008121323823563727,0.00991067751733847
-5.685119999999992e-07,0.00778732938988516,0.02479346609537227
-5.585119999999976e-07,0.006451351655170888,-0.004972111060695325
-5.485120000000028e-07,0.007453334956206137,0.035955557528879
-5.385120000000012e-07,0.007453334956206592,-0.008692808205203774
-5.285119999999996e-07,0.008455318257242295,0.00991067751733847
-5.18511999999998e-07,0.008121323823563727,0.01363137466184692
-5.085119999999964e-07,0.007787329389885008,-0.0235755967832105
-4.985120000000016e-07,0.007453334956206592,0.03595555752889761
-4.88512e-07,0.007119340522528024,-0.01613420249422067
-4.785119999999984e-07,0.009123307124599432,0.01363137466184692
-4.685119999999968e-07,0.005783362787813752,0.02479346609535873
-4.58512000000002e-07,0.005783362787813752,-0.004972111060695325
-4.485120000000004e-07,0.006785346088849456,0.02479346609537227
-4.385119999999988e-07,0.005449368354135184,-0.004972111060695325
-4.285119999999972e-07,0.007119340522527265,-0.004972111060681789
-4.185120000000023e-07,0.005449368354135944,0.02479346609535873
-4.085120000000007e-07,0.007453334956206592,-0.001251413916186876
-3.985119999999991e-07,0.006785346088849456,0.02107276895086382
-3.885119999999975e-07,0.007119340522528024,-0.01613420249422067
-3.785120000000027e-07,0.008455318257241688,-0.001251413916193643
-3.685120000000011e-07,0.006785346088849456,0.02107276895086382
-3.585119999999995e-07,0.006785346088849456,-0.001251413916186876
-3.485119999999979e-07,0.007453334956206592,0.02851416323988071
-3.385119999999963e-07,0.006117357221492017,-0.01613420249421221
-3.285120000000015e-07,0.005449368354135184,0.002469283228321573
-3.185119999999999e-07,0.007119340522528024,-0.001251413916186876
-3.085119999999983e-07,0.00778732938988516,-0.01241350534971222
-2.985119999999967e-07,0.006451351655171192,0.01363137466184015
-2.885120000000019e-07,0.007119340522528024,-0.001251413916186876
-2.785120000000003e-07,0.006451351655170888,-0.008692808205203774
-2.685119999999987e-07,0.00611735722149232,0.01735207180635537
-2.585119999999971e-07,0.005449368354135336,-0.03101699107221724
-2.485120000000023e-07,0.0057833627878136,0.05083834610689419
-2.385120000000007e-07,0.00611735722149232,-0.01241350534971222
-2.285119999999991e-07,0.007119340522528024,0.01363137466184692
-2.185119999999975e-07,0.006451351655170888,0.00991067751733847
-2.085120000000027e-07,0.006451351655170888,-0.0272962939277291
-1.985120000000011e-07,0.005115373920456617,0.03967625467340606
-1.885119999999995e-07,0.006451351655170888,-0.001251413916186876
-1.785119999999979e-07,0.004781379486778049,0.01363137466184692
-1.68512000000003e-07,0.006117357221491712,0.02851416323987395
-1.585120000000014e-07,0.00611735722149232,-0.01241350534971222
-1.485119999999998e-07,0.00611735722149232,0.01363137466184692
-1.385119999999982e-07,0.00611735722149232,-0.01241350534971222
-1.285119999999966e-07,0.005783362787813752,0.00991067751733001
-1.185120000000018e-07,0.005783362787813752,-0.008692808205203774
-1.085120000000002e-07,0.004781379486778049,-0.02729629392774602
-9.851199999999863e-08,0.004113390619420913,0.02479346609537227
-8.851199999999703e-08,0.004781379486778656,-0.01241350534970376
-7.851200000000221e-08,0.006117357221491712,0.006189980372821563
-6.851200000000061e-08,0.005783362787813752,0.02479346609537227
-5.851199999999901e-08,0.004113390619420913,-0.004972111060695325
-4.851199999999741e-08,0.005783362787812992,0.03223486038436378
-3.851200000000259e-08,0.004113390619421672,-0.02357559678321219
-2.851200000000099e-08,0.004781379486778049,0.006189980372830022
-1.851199999999939e-08,0.004113390619420913,0.01735207180635537
-8.511999999997793e-09,0.004447385053099481,0.01735207180635537
1.487999999997029e-09,-0.01659426426864073,2.342787787123079
1.148799999999863e-08,0.01647118466552792,3.566897147667416
2.148800000000023e-08,0.003445401752063777,3.098089307459351
3.148800000000182e-08,0.01379922919609938,3.291565558973791
4.148800000000342e-08,0.003445401752067727,3.28784486182929
5.148799999999824e-08,0.01212925702770654,3.306448347551824
6.148799999999984e-08,0.002109424017349506,3.373420896152977
7.148800000000144e-08,0.003445401752063777,3.31761043898535
8.148800000000304e-08,-0.003568481355184022,3.421789959031523
9.148799999999786e-08,0.001107440716311676,3.284124164684836
1.014879999999995e-07,-0.0008965258857576053,3.380862290441993
1.114880000000011e-07,0.0007734462826352341,3.246917193239689
1.214880000000027e-07,0.002443418451029441,3.33249322756337
1.314879999999975e-07,0.005449368354133817,3.302727650407329
1.414879999999991e-07,0.005449368354135184,3.310169044696333
1.514880000000007e-07,0.00611735722149232,3.325051833274367
1.614880000000023e-07,0.001775429583670938,3.347376016141417
1.714879999999971e-07,0.005783362787811929,3.313889741840856
1.814879999999987e-07,0.003111407318385209,3.384582987586502
1.914880000000003e-07,0.001107440716313802,3.31761043898535
2.014880000000019e-07,0.0001054574152780984,3.377141593297485
2.114880000000035e-07,0.001107440716314258,3.321331136129872
2.214879999999983e-07,0.002109424017349506,3.351096713285926
2.314879999999999e-07,0.002777412884706641,3.332493227563384
2.414880000000015e-07,0.003111407318385209,3.306448347551824
2.514880000000031e-07,0.005449368354134121,3.336213924707894
2.614879999999979e-07,0.003111407318386273,3.339934621852398
2.714879999999995e-07,0.005115373920456617,3.325051833274367
2.814880000000011e-07,0.002777412884706641,3.384582987586502
2.914880000000027e-07,0.00244341845102701,3.339934621852415
3.014879999999975e-07,0.0001054574152791615,3.373420896152961
3.114879999999991e-07,0.001775429583670938,3.351096713285926
3.214880000000007e-07,0.001775429583670938,3.347376016141417
3.314880000000023e-07,0.002443418451028074,3.358538107574943
3.414879999999972e-07,0.004781379486776986,3.313889741840862
3.514879999999988e-07,0.003779396185742345,3.369700199008468
3.614880000000004e-07,0.003779396185742345,3.328772530418875
3.71488000000002e-07,0.005783362787813752,3.336213924707892
3.814880000000036e-07,0.004781379486778201,3.365979501863934
3.914879999999984e-07,0.005115373920456617,3.310169044696333
4.01488e-07,0.004447385053099481,3.403186473309044
4.114880000000016e-07,0.003445401752063777,3.347376016141417
4.214880000000032e-07,0.004113390619421368,3.347376016141426
4.31487999999998e-07,0.005115373920456161,3.365979501863951
4.414879999999996e-07,0.004447385053099481,3.328772530418875
4.514880000000012e-07,0.004447385053099481,3.380862290441993
4.614880000000028e-07,0.004447385053100393,3.32877253041889
4.714879999999976e-07,0.006451351655169977,3.362258804719436
4.814879999999992e-07,0.005449368354135184,3.380862290441993
4.914880000000008e-07,0.004113390619420913,3.336213924707892
5.014880000000024e-07,0.005115373920456617,3.395745079020027
5.114879999999972e-07,0.002109424017350873,3.339934621852426
5.214879999999988e-07,0.004113390619420913,3.373420896152977
5.314880000000004e-07,0.003111407318385209,3.384582987586502
5.41488000000002e-07,0.004781379486778049,3.3399346218524
5.514880000000036e-07,0.003111407318386728,3.388303684730992
5.614879999999984e-07,0.006451351655170888,3.347376016141417
5.71488e-07,0.007453334956206592,3.351096713285926
5.814880000000016e-07,0.005783362787813752,3.380862290441993
5.914880000000032e-07,0.007119340522527721,3.332493227563409
6.014879999999981e-07,0.006451351655170888,3.38830368473101
6.114879999999997e-07,0.006785346088849456,3.354817410430434
6.214880000000013e-07,0.006785346088849456,3.351096713285926
6.314880000000029e-07,0.006451351655170888,3.384582987586492
6.414879999999977e-07,0.006451351655170888,3.362258804719461
6.514879999999993e-07,0.006451351655170888,3.38830368473101
6.614880000000009e-07,0.005783362787813752,3.377141593297485
6.714880000000025e-07,0.007119340522528024,3.358538107574943
6.814879999999973e-07,0.006451351655171192,3.39574507902001
6.914879999999989e-07,0.00611735722149232,3.347376016141417
7.014880000000005e-07,0.00611735722149232,3.395745079020027
7.114880000000021e-07,0.00611735722149232,3.36597950186396
7.214880000000037e-07,0.006451351655169825,3.365979501863973
7.314879999999985e-07,0.004113390619420913,3.395745079020027
7.414880000000001e-07,0.003779396185742345,3.3399346218524
7.514880000000017e-07,0.004113390619420913,3.399465776164535
7.614880000000033e-07,0.003111407318386728,3.369700199008471
7.714879999999981e-07,0.006451351655170888,3.377141593297485
7.814879999999997e-07,0.003445401752063777,3.406907170453553
7.914880000000013e-07,0.004447385053099481,3.343655318996909
8.014880000000029e-07,0.005783362787814056,3.399465776164522
8.114879999999977e-07,0.006451351655170585,3.369700199008481
8.214879999999993e-07,0.006451351655170888,3.384582987586502
8.314880000000009e-07,0.006785346088849456,3.392024381875518
8.414880000000025e-07,0.004781379486778049,3.343655318996909
8.514879999999974e-07,0.006451351655170129,3.403186473309017
8.61487999999999e-07,0.007119340522528024,3.362258804719451
8.714880000000006e-07,0.00778732938988516,3.369700199008468
8.814880000000022e-07,0.006451351655170888,3.392024381875518
8.91487999999997e-07,0.008121323823562968,3.343655318996931
9.014879999999986e-07,0.009123307124599432,3.399465776164535
9.114880000000002e-07,0.005115373920456617,3.347376016141417
9.214880000000018e-07,0.009123307124599432,3.36597950186396
9.314880000000034e-07,0.006451351655170585,3.392024381875503
9.414879999999982e-07,0.005783362787813752,3.358538107574943
9.514879999999998e-07,0.005783362787813752,3.392024381875518
9.614880000000014e-07,0.006451351655170888,3.362258804719451
9.71488000000003e-07,0.0064513516551718,3.377141593297488
9.814879999999978e-07,0.008455318257241384,3.384582987586498
9.914879999999994e-07,0.006451351655170888,3.336213924707892
1.001488000000001e-06,0.007453334956206592,3.384582987586502
1.011488000000003e-06,0.004781379486779112,3.358538107574951
1.021487999999997e-06,0.007119340522526961,3.377141593297476
1.031487999999999e-06,0.005783362787813752,3.380862290441993
1.041488000000001e-06,0.005115373920456617,3.354817410430434
1.051488000000002e-06,0.004447385053099481,3.384582987586502
1.061487999999997e-06,0.006117357221491562,3.358538107574955
1.071487999999999e-06,0.00778732938988516,3.362258804719451
1.081488e-06,0.005449368354135184,3.38830368473101
1.091488000000002e-06,0.005115373920456617,3.354817410430434
1.101488000000003e-06,0.008455318257241232,3.403186473309023
1.111487999999998e-06,0.00611735722149232,3.358538107574943
1.121488e-06,0.008121323823563727,3.369700199008468
1.131488000000001e-06,0.007453334956206592,3.380862290441993
1.141488000000003e-06,0.006451351655170736,3.36970019900848
1.151487999999998e-06,0.006117357221492472,3.395745079020015
1.161487999999999e-06,0.006785346088849456,3.358538107574943
1.171488000000001e-06,0.00778732938988516,3.380862290441993
1.181488000000003e-06,0.009123307124598521,3.395745079020017
1.191487999999997e-06,0.007119340522528935,3.373420896152987
1.201487999999999e-06,0.00778732938988516,3.395745079020027
1.211488000000001e-06,0.00778732938988516,3.36597950186396
1.221488000000002e-06,0.009791295991956567,3.38830368473101
1.231487999999997e-06,0.008455318257242902,3.373420896152983
1.241487999999999e-06,0.008455318257242295,3.369700199008468
1.251488e-06,0.009123307124599432,3.399465776164535
1.261488000000002e-06,0.007119340522528024,3.38830368473101
1.271488000000004e-06,0.009457301558277393,3.36970019900848
1.281487999999998e-06,0.008121323823563727,3.395745079020027
1.291488e-06,0.006451351655170888,3.362258804719451
1.301488000000002e-06,0.009123307124599432,3.418069261887078
1.311488000000003e-06,0.007453334956206592,3.373420896152978
1.321487999999998e-06,0.007453334956206592,3.377141593297483
1.331488e-06,0.007453334956206592,3.399465776164535
1.341488000000001e-06,0.00611735722149232,3.362258804719451
1.351488000000003e-06,0.006451351655171192,3.38086229044199
1.361487999999998e-06,0.007119340522527721,3.37342089615298
1.371487999999999e-06,0.006451351655170888,3.373420896152977
1.381488000000001e-06,0.005783362787813752,3.403186473309044
1.391488000000002e-06,0.003779396185742345,3.358538107574943
1.401487999999997e-06,0.008121323823561753,3.39574507902001
1.411487999999999e-06,0.006451351655170888,3.36597950186396
1.421488e-06,0.00611735722149232,3.358538107574943
1.431488000000002e-06,0.007119340522528024,3.38830368473101
1.441488000000004e-06,0.004447385053099785,3.347376016141436
1.451487999999998e-06,0.005115373920456617,3.38830368473101
1.461488e-06,0.005783362787813752,3.358538107574943
1.471488000000002e-06,0.00611735722149232,3.362258804719451
1.481488000000003e-06,0.007119340522527873,3.395745079020007
1.491487999999998e-06,0.006785346088849608,3.351096713285946
1.501488e-06,0.005449368354135184,3.392024381875518
1.511488000000001e-06,0.006451351655170888,3.351096713285926
1.521488000000003e-06,0.007787329389885615,3.380862290441995
1.531487999999998e-06,0.008789312690920406,3.3845829875865
1.541487999999999e-06,0.006451351655170888,3.351096713285926
1.551488000000001e-06,0.007453334956206592,3.403186473309044
1.561488000000002e-06,0.006785346088849456,3.354817410430434
1.571487999999997e-06,0.007453334956206288,3.384582987586489
1.581487999999999e-06,0.008121323823563727,3.406907170453553
1.591488e-06,0.006451351655170888,3.373420896152977
1.601488000000002e-06,0.00778732938988516,3.403186473309044
1.611488000000004e-06,0.00611735722149308,3.362258804719458
1.621487999999998e-06,0.00778732938988516,3.377141593297485
1.631488e-06,0.006785346088849456,3.395745079020027
1.641488000000002e-06,0.007119340522528024,3.354817410430434
1.651488000000003e-06,0.00711934052252848,3.384582987586498
1.661487999999998e-06,0.008121323823563727,3.377141593297485
1.671488e-06,0.006451351655170888,3.377141593297485
1.681488000000001e-06,0.007453334956206592,3.403186473309044
1.691488000000003e-06,0.008121323823563727,3.36225880471947
1.701487999999998e-06,0.008121323823563727,3.403186473309025
1.711487999999999e-06,0.008455318257242295,3.373420896152977
1.721488000000001e-06,0.008789312690920863,3.392024381875518
1.731488000000002e-06,0.008789312690920863,3.403186473309044
1.741487999999997e-06,0.008121323823564031,3.37342089615299
1.751487999999999e-06,0.009123307124599432,3.399465776164535
1.761488000000001e-06,0.007453334956206592,3.377141593297485
1.771488000000002e-06,0.008455318257242295,3.38830368473101
1.781487999999997e-06,0.007787329389885463,3.395745079020024
1.791487999999999e-06,0.007119340522528024,3.369700199008468
1.801488e-06,0.007119340522528024,3.38830368473101
1.811488000000002e-06,0.006451351655170888,3.358538107574943
1.821488000000003e-06,0.006785346088849456,3.377141593297493
1.831487999999998e-06,0.006785346088849456,3.395745079020027
1.841488e-06,0.008121323823563727,3.354817410430434
1.851488000000001e-06,0.007453334956206592,3.399465776164535
1.861488000000003e-06,0.008121323823563575,3.365979501863963
1.871487999999998e-06,0.007787329389885311,3.373420896152973
1.881487999999999e-06,0.007453334956206592,3.392024381875518
1.891488000000001e-06,0.007119340522528024,3.354817410430434
1.901488000000003e-06,0.008121323823563727,3.384582987586502
1.911487999999997e-06,0.009123307124598976,3.358538107574955
1.921487999999999e-06,0.007453334956206592,3.36597950186396
1.931488000000001e-06,0.008121323823563727,3.38830368473101
1.941488000000002e-06,0.00778732938988516,3.362258804719451
1.951487999999997e-06,0.008121323823563575,3.384582987586492
1.961487999999999e-06,0.006785346088849456,3.3399346218524
1.971488e-06,0.00778732938988516,3.36597950186396
1.981488000000002e-06,0.009123307124599432,3.380862290441993
1.991488000000003e-06,0.006785346088849759,3.358538107574958
2.001487999999998e-06,0.007453334956206592,3.392024381875518
2.011488e-06,0.005783362787813752,3.343655318996909
2.021488000000001e-06,0.007119340522528024,3.354817410430434
2.031488000000003e-06,0.006451351655171495,3.384582987586483
2.041487999999998e-06,0.007787329389884553,3.343655318996928
2.051487999999999e-06,0.007453334956206592,3.38830368473101
2.061488000000001e-06,0.00778732938988516,3.354817410430434
2.071488000000003e-06,0.007787329389885463,3.36597950186397
2.081487999999997e-06,0.008455318257241991,3.388303684731
2.091487999999999e-06,0.006785346088849456,3.347376016141417
2.101488000000001e-06,0.008789312690920863,3.392024381875518
2.111488000000002e-06,0.007453334956206592,3.36597950186396
2.121487999999997e-06,0.009457301558277089,3.358538107574946
2.131487999999999e-06,0.00778732938988516,3.384582987586502
2.141488e-06,0.008455318257242295,3.3399346218524
2.151488000000002e-06,0.009457301558278,3.384582987586502
2.161488000000003e-06,0.007119340522528784,3.369700199008464
2.171487999999998e-06,0.008789312690920863,3.362258804719451
2.181488e-06,0.00778732938988516,3.377141593297485
2.191488000000001e-06,0.008121323823563727,3.354817410430434
2.201488000000003e-06,0.006451351655171495,3.39574507902001
2.211487999999998e-06,0.007787329389884553,3.358538107574959
2.221487999999999e-06,0.008789312690920863,3.373420896152977
