traces_bank_current_trigger/sampling_freq_100MHz/MUL/MUL_4.csv

#Digilent WaveForms Oscilloscope Acquisition
#Device Name: Discovery2
#Serial Number: SN:210321B3D813
#Date Time: 2023-06-16 10:49:35.720
#Sample rate: 1e+08Hz
#Samples: 8192
#Trigger: Source: Channel 2 Type: Edge Condition: Rising Level: 2 V Hyst.: Auto HoldOff: 0 s
#Channel 1: Range: 10 mV/div Offset: 0 V Attenuation: 1 X Sample Mode: Average
#Channel 2: Range: 5 V/div Offset: 0 V Attenuation: 1 X Sample Mode: Average

Time (s),Channel 1 (V),Channel 2 (V)
-9.534459459459445e-07,0.007119340522528024,0.01735207180635537
-9.434459459459429e-07,0.006451351655170888,-0.004972111060695325
-9.334459459459413e-07,0.008121323823562817,0.0359555575288807
-9.234459459459465e-07,0.006117357221493232,-0.001251413916169959
-9.134459459459449e-07,0.00778732938988516,0.01735207180635537
-9.034459459459433e-07,0.005783362787813752,0.02851416323988071
-8.934459459459417e-07,0.007453334956206592,-0.004972111060695325
-8.834459459459469e-07,0.006785346088849759,0.02851416323986548
-8.734459459459453e-07,0.00611735722149232,0.006189980372830022
-8.634459459459437e-07,0.00611735722149232,0.02107276895086382
-8.534459459459421e-07,0.00611735722149232,0.006189980372830022
-8.434459459459405e-07,0.00611735722149308,-0.01241350534969023
-8.334459459459457e-07,0.00778732938988516,0.03595555752889761
-8.234459459459441e-07,0.006451351655170888,-0.008692808205203774
-8.134459459459425e-07,0.006785346088849456,-0.004972111060695325
-8.034459459459409e-07,0.005449368354135944,0.02107276895085197
-7.934459459459461e-07,0.007119340522527265,-0.00497211106068348
-7.834459459459445e-07,0.006451351655170888,0.03595555752889761
-7.734459459459429e-07,0.004447385053099481,-0.004972111060695325
-7.634459459459413e-07,0.006451351655169977,0.03223486038438747
-7.534459459459465e-07,0.004447385053100392,0.02851416323988241
-7.434459459459449e-07,0.006785346088849456,-0.01613420249422067
-7.334459459459433e-07,0.00611735722149232,0.03223486038438916
-7.234459459459417e-07,0.007453334956206592,-0.001251413916186876
-7.134459459459468e-07,0.005783362787814512,0.02479346609536042
-7.034459459459452e-07,0.006451351655170888,0.03967625467340606
-6.934459459459436e-07,0.00611735722149232,-0.004972111060695325
-6.83445945945942e-07,0.007453334956206592,0.02479346609537227
-6.734459459459404e-07,0.004781379486778201,0.01363137466184692
-6.634459459459456e-07,0.005115373920456617,0.01363137466184692
-6.53445945945944e-07,0.00611735722149232,0.01735207180635537
-6.434459459459424e-07,0.005783362787813752,-0.01241350534971222
-6.334459459459408e-07,0.005115373920456465,0.04711764896240435
-6.23445945945946e-07,0.004781379486778201,0.006189980372848632
-6.134459459459444e-07,0.005783362787813752,0.03967625467340606
-6.034459459459428e-07,0.003779396185742345,0.01363137466184692
-5.934459459459412e-07,0.005783362787814359,0.002469283228333416
-5.834459459459464e-07,0.007119340522527417,0.02851416323986887
-5.734459459459448e-07,0.005115373920456617,-0.008692808205203774
-5.634459459459432e-07,0.005783362787813752,0.01363137466184692
-5.534459459459416e-07,0.004781379486778049,0.02107276895086382
-5.434459459459468e-07,0.006117357221491712,-0.02357559678321727
-5.334459459459452e-07,0.006451351655170888,0.01735207180635537
-5.234459459459436e-07,0.005783362787813752,-0.004972111060695325
-5.13445945945942e-07,0.004781379486778049,0.00991067751733847
-5.034459459459404e-07,0.004447385053099937,0.02107276895085028
-4.934459459459456e-07,0.005449368354135184,-0.008692808205203774
-4.83445945945944e-07,0.007119340522528024,0.02107276895086382
-4.734459459459424e-07,0.004781379486778049,-0.008692808205203774
-4.634459459459408e-07,0.00578336278781284,0.009910677517333395
-4.534459459459459e-07,0.003779396185742345,-0.001251413916186876
-4.434459459459443e-07,0.003779396185742345,-0.02729629392774602
-4.334459459459427e-07,0.004447385053099481,0.01363137466184692
-4.234459459459411e-07,0.005449368354135488,-0.01241350534968684
-4.134459459459463e-07,0.006117357221492017,0.04339695181788913
-4.034459459459447e-07,0.004781379486778049,-0.001251413916186876
-3.934459459459431e-07,0.006451351655170888,0.006189980372830022
-3.834459459459415e-07,0.005449368354135184,0.03223486038438916
-3.734459459459467e-07,0.005115373920456768,-0.008692808205185164
-3.634459459459451e-07,0.006451351655170888,0.01363137466184692
-3.534459459459435e-07,0.005449368354135184,0.00991067751733847
-3.434459459459419e-07,0.005783362787813752,0.002469283228321573
-3.334459459459403e-07,0.007787329389884553,0.01735207180634014
-3.234459459459455e-07,0.006451351655170888,-0.01613420249422067
-3.134459459459439e-07,0.006785346088849456,-0.004972111060695325
-3.034459459459423e-07,0.005449368354135184,-0.004972111060695325
-2.934459459459407e-07,0.006785346088849152,-0.01613420249420206
-2.834459459459459e-07,0.00611735722149232,0.02479346609537227
-2.734459459459443e-07,0.005449368354135184,-0.01241350534971222
-2.634459459459427e-07,0.00778732938988516,0.02851416323988071
-2.534459459459411e-07,0.00611735722149308,0.02479346609535027
-2.434459459459463e-07,0.0077873293898844,-0.02357559678321557
-2.334459459459447e-07,0.008455318257242295,0.02107276895086382
-2.234459459459431e-07,0.007453334956206592,-0.008692808205203774
-2.134459459459415e-07,0.00611735722149232,0.02107276895086382
-2.034459459459466e-07,0.007119340522527569,0.009910677517343546
-1.93445945945945e-07,0.007119340522528024,0.01363137466184692
-1.834459459459434e-07,0.007453334956206592,0.03595555752889761
-1.734459459459418e-07,0.006451351655170888,0.002469283228321573
-1.63445945945947e-07,0.005783362787814056,0.0173520718063486
-1.534459459459454e-07,0.00611735722149232,0.006189980372830022
-1.434459459459438e-07,0.00611735722149232,0.02479346609537227
-1.334459459459422e-07,0.006785346088849456,0.02107276895086382
-1.234459459459406e-07,0.006785346088849608,-0.0124135053496953
-1.134459459459458e-07,0.007119340522528024,0.02479346609537227
-1.034459459459442e-07,0.005783362787813752,0.03595555752889761
-9.344594594594261e-08,0.006451351655170888,-0.01241350534971222
-8.344594594594101e-08,0.007453334956205529,0.04711764896239758
-7.344594594594619e-08,0.00511537392045768,-0.008692808205178391
-6.344594594594459e-08,0.007119340522528024,0.05083834610693141
-5.3445945945943e-08,0.004447385053099481,0.02479346609537227
-4.34459459459414e-08,0.006451351655170888,-0.001251413916169956
-3.344594594594658e-08,0.006451351655170888,0.0359555575288807
-2.344594594594498e-08,0.003779396185742345,0.006189980372830022
-1.344594594594338e-08,0.004447385053099481,0.03595555752889761
-3.445945945941781e-09,-0.009580381161400371,1.047985180835196
6.554054054053041e-09,0.008789312690912508,3.801301067770196
1.655405405405464e-08,0.003445401752063777,2.990189090268606
2.655405405405624e-08,0.009123307124599432,3.3399346218524
3.655405405405784e-08,0.01379922919609938,3.321331136129858
4.655405405405943e-08,0.01212925702770335,3.299006953262851
5.655405405405426e-08,0.005115373920456617,3.395745079020027
6.655405405405585e-08,0.001775429583670938,3.351096713285926
7.655405405405745e-08,0.003111407318385209,3.418069261887078
8.655405405405905e-08,-0.0002285370184012289,3.339934621852427
9.655405405405387e-08,-0.00189850918679255,3.399465776164508
1.065540540540555e-07,-0.0008965258857576053,3.272962073251248
1.165540540540571e-07,0.004113390619420913,3.36597950186396
1.265540540540587e-07,0.007453334956207199,3.272962073251274
1.365540540540535e-07,0.008789312690920256,3.32877253041885
1.465540540540551e-07,0.00611735722149232,3.328772530418875
1.565540540540567e-07,0.008455318257242295,3.351096713285926
1.665540540540583e-07,0.006451351655170888,3.36597950186396
1.765540540540531e-07,0.003111407318386728,3.392024381875506
1.865540540540547e-07,0.0007734462826352341,3.373420896152977
1.965540540540563e-07,0.002109424017349506,3.377141593297485
2.065540540540579e-07,0.003779396185742345,3.347376016141417
2.165540540540595e-07,0.00511537392045692,3.351096713285907
2.265540540540543e-07,0.005783362787813752,3.310169044696333
2.365540540540559e-07,0.006785346088849456,3.3399346218524
2.465540540540575e-07,0.00611735722149232,3.336213924707892
2.565540540540591e-07,0.006451351655170888,3.317610438985378
2.665540540540539e-07,0.006451351655170888,3.380862290441964
2.765540540540555e-07,0.004447385053099481,3.3399346218524
2.865540540540571e-07,0.003111407318385209,3.38830368473101
2.965540540540587e-07,0.002443418451027314,3.384582987586489
3.065540540540536e-07,0.0007734462826359935,3.354817410430448
3.165540540540552e-07,0.004781379486778049,3.377141593297485
3.265540540540568e-07,0.004781379486778049,3.336213924707892
3.365540540540584e-07,0.005783362787813752,3.369700199008468
3.465540540540532e-07,0.004447385053100088,3.354817410430441
3.565540540540548e-07,0.006785346088849456,3.325051833274367
3.665540540540564e-07,0.006451351655170888,3.377141593297485
3.76554054054058e-07,0.006451351655170888,3.351096713285926
3.865540540540596e-07,0.006117357221491257,3.388303684731004
3.965540540540544e-07,0.003779396185742345,3.373420896152977
4.06554054054056e-07,0.005783362787813752,3.354817410430434
4.165540540540576e-07,0.004447385053099481,3.392024381875518
4.265540540540592e-07,0.002777412884708008,3.354817410430438
4.36554054054054e-07,0.005783362787812385,3.362258804719448
4.465540540540556e-07,0.003445401752063777,3.3399346218524
4.565540540540572e-07,0.008121323823563727,3.347376016141417
4.665540540540588e-07,0.007119340522527721,3.373420896152966
4.765540540540536e-07,0.006451351655171192,3.351096713285936
4.865540540540552e-07,0.007119340522528024,3.358538107574943
4.965540540540568e-07,0.004113390619420913,3.369700199008468
5.065540540540584e-07,0.005449368354135184,3.36597950186396
5.165540540540532e-07,0.006117357221492017,3.384582987586493
5.265540540540548e-07,0.004113390619420913,3.351096713285926
5.365540540540564e-07,0.005115373920456617,3.377141593297485
5.46554054054058e-07,0.004447385053099481,3.369700199008468
5.565540540540596e-07,0.006785346088849911,3.347376016141426
5.665540540540545e-07,0.00778732938988516,3.36597950186396
5.765540540540561e-07,0.007119340522528024,3.354817410430434
5.865540540540577e-07,0.008789312690920863,3.369700199008468
5.965540540540593e-07,0.006451351655172103,3.384582987586483
6.065540540540541e-07,0.009123307124599432,3.343655318996909
6.165540540540557e-07,0.008789312690920863,3.373420896152977
6.265540540540573e-07,0.006451351655170888,3.354817410430434
6.365540540540589e-07,0.006117357221492472,3.373420896152977
6.465540540540537e-07,0.006451351655170736,3.373420896152977
6.565540540540553e-07,0.007119340522528024,3.347376016141417
6.665540540540569e-07,0.009457301558278,3.373420896152977
6.765540540540585e-07,0.00778732938988516,3.3399346218524
6.865540540540533e-07,0.00778732938988516,3.369700199008455
6.965540540540549e-07,0.006451351655170888,3.373420896152977
7.065540540540565e-07,0.008455318257242295,3.3399346218524
7.165540540540581e-07,0.006785346088849456,3.362258804719451
7.265540540540597e-07,0.00611735722149232,3.36970019900847
7.365540540540545e-07,0.00611735722149232,3.373420896152977
7.465540540540561e-07,0.004447385053099481,3.369700199008468
7.565540540540577e-07,0.005449368354135184,3.347376016141417
7.665540540540593e-07,0.006117357221491713,3.388303684730987
7.765540540540541e-07,0.004781379486778049,3.336213924707892
7.865540540540557e-07,0.006451351655170888,3.362258804719451
7.965540540540573e-07,0.005449368354135184,3.362258804719451
8.065540540540589e-07,0.006451351655171344,3.328772530418898
8.165540540540538e-07,0.007453334956206137,3.38086229044197
8.265540540540554e-07,0.007119340522528024,3.332493227563384
8.36554054054057e-07,0.007453334956206592,3.36597950186396
8.465540540540586e-07,0.00611735722149232,3.369700199008468
8.565540540540534e-07,0.009123307124598065,3.354817410430441
8.66554054054055e-07,0.007453334956206592,3.38830368473101
8.765540540540566e-07,0.008121323823563727,3.362258804719451
8.865540540540582e-07,0.00611735722149232,3.380862290441993
8.96554054054053e-07,0.009123307124598065,3.36225880471946
9.065540540540546e-07,0.008121323823563727,3.347376016141417
9.165540540540562e-07,0.009791295991956567,3.384582987586502
9.265540540540578e-07,0.006451351655170888,3.351096713285926
9.365540540540594e-07,0.007787329389884248,3.38086229044199
9.465540540540542e-07,0.005783362787813752,3.373420896152977
9.565540540540558e-07,0.006785346088849456,3.373420896152977
9.665540540540574e-07,0.00778732938988516,3.392024381875518
9.76554054054059e-07,0.00812132382356388,3.362258804719455
9.865540540540538e-07,0.008455318257242142,3.369700199008464
9.965540540540554e-07,0.006451351655170888,3.384582987586502
1.006554054054057e-06,0.008121323823563727,3.36597950186396
1.016554054054059e-06,0.008455318257241991,3.406907170453534
1.026554054054053e-06,0.007787329389885463,3.365979501863978
1.036554054054055e-06,0.008121323823563727,3.384582987586502
1.046554054054057e-06,0.007119340522528024,3.384582987586502
1.056554054054058e-06,0.007453334956206592,3.36597950186396
1.066554054054053e-06,0.009791295991955504,3.403186473309027
1.076554054054055e-06,0.007119340522528024,3.380862290441993
1.086554054054056e-06,0.008121323823563727,3.38830368473101
1.096554054054058e-06,0.007453334956206592,3.380862290441993
1.106554054054059e-06,0.009123307124599432,3.369700199008485
1.116554054054054e-06,0.009123307124599432,3.406907170453553
1.126554054054056e-06,0.006785346088849456,3.362258804719451
1.136554054054057e-06,0.009791295991956567,3.403186473309044
1.146554054054059e-06,0.008121323823564487,3.377141593297485
1.156554054054054e-06,0.009791295991955808,3.377141593297485
1.166554054054055e-06,0.01012529042563514,3.399465776164535
1.176554054054057e-06,0.009457301558278,3.377141593297485
1.186554054054059e-06,0.008121323823564335,3.392024381875517
1.196554054054054e-06,0.009457301558277393,3.388303684731012
1.206554054054055e-06,0.009457301558278,3.354817410430434
1.216554054054057e-06,0.008789312690920863,3.403186473309044
1.226554054054058e-06,0.009123307124599432,3.373420896152977
1.236554054054053e-06,0.009123307124599432,3.39202438187551
1.246554054054055e-06,0.009123307124599432,3.38830368473101
1.256554054054056e-06,0.008789312690920863,3.373420896152977
1.266554054054058e-06,0.009457301558278,3.395745079020027
1.27655405405406e-06,0.008455318257242142,3.377141593297493
1.286554054054054e-06,0.008121323823563727,3.395745079020027
1.296554054054056e-06,0.008121323823563727,3.392024381875518
1.306554054054058e-06,0.007453334956206592,3.38830368473101
1.316554054054059e-06,0.009123307124598369,3.410627867598049
1.326554054054054e-06,0.006785346088850519,3.384582987586514
1.336554054054056e-06,0.006451351655170888,3.373420896152977
1.346554054054057e-06,0.006785346088849456,3.395745079020027
1.356554054054059e-06,0.006451351655170888,3.369700199008483
1.366554054054054e-06,0.006451351655170888,3.403186473309029
1.376554054054055e-06,0.005449368354135184,3.369700199008468
1.386554054054057e-06,0.005449368354135184,3.406907170453553
1.396554054054058e-06,0.003779396185742345,3.395745079020027
1.406554054054053e-06,0.005783362787812841,3.36970019900848
1.416554054054055e-06,0.004781379486778049,3.406907170453553
1.426554054054056e-06,0.005449368354135184,3.373420896152977
1.436554054054058e-06,0.004447385053099481,3.392024381875518
1.44655405405406e-06,0.004447385053100088,3.384582987586495
1.456554054054054e-06,0.005783362787813752,3.369700199008468
1.466554054054056e-06,0.007453334956206592,3.392024381875518
1.476554054054058e-06,0.005115373920456617,3.373420896152977
1.486554054054059e-06,0.006117357221491713,3.38086229044199
1.496554054054054e-06,0.004781379486778656,3.37342089615298
1.506554054054056e-06,0.006451351655170888,3.362258804719451
1.516554054054057e-06,0.006785346088849456,3.399465776164535
1.526554054054059e-06,0.006451351655171192,3.365979501863964
1.536554054054054e-06,0.007119340522527721,3.37714159329748
1.546554054054055e-06,0.006451351655170888,3.38830368473101
1.556554054054057e-06,0.00778732938988516,3.362258804719451
1.566554054054058e-06,0.005783362787813752,3.38830368473101
1.576554054054053e-06,0.006117357221492169,3.369700199008476
1.586554054054055e-06,0.007453334956206592,3.373420896152977
1.596554054054056e-06,0.00611735722149232,3.392024381875518
1.606554054054058e-06,0.006785346088849456,3.362258804719451
1.61655405405406e-06,0.00611735722149232,3.399465776164517
1.626554054054054e-06,0.00611735722149232,3.358538107574943
1.636554054054056e-06,0.006451351655170888,3.38830368473101
1.646554054054058e-06,0.007119340522528024,3.392024381875518
1.656554054054059e-06,0.007119340522528328,3.365979501863976
1.666554054054054e-06,0.00778732938988516,3.403186473309044
1.676554054054056e-06,0.007453334956206592,3.362258804719451
1.686554054054057e-06,0.006785346088849456,3.384582987586502
1.696554054054059e-06,0.004447385053100848,3.384582987586485
1.706554054054054e-06,0.007453334956205225,3.347376016141434
1.716554054054055e-06,0.00778732938988516,3.392024381875518
1.726554054054057e-06,0.00611735722149232,3.358538107574943
1.736554054054059e-06,0.008121323823563727,3.384582987586502
1.746554054054053e-06,0.007453334956206896,3.395745079020022
1.756554054054055e-06,0.008121323823563727,3.358538107574943
1.766554054054057e-06,0.009123307124599432,3.392024381875518
1.776554054054058e-06,0.007119340522528024,3.362258804719451
1.786554054054053e-06,0.00745333495620644,3.384582987586492
1.796554054054055e-06,0.00611735722149232,3.369700199008468
1.806554054054056e-06,0.007453334956206592,3.369700199008468
1.816554054054058e-06,0.005449368354135184,3.395745079020027
1.826554054054059e-06,0.007453334956205985,3.365979501863964
1.836554054054054e-06,0.00611735722149232,3.377141593297485
1.846554054054056e-06,0.007119340522528024,3.377141593297485
1.856554054054057e-06,0.006785346088849456,3.362258804719451
1.866554054054059e-06,0.007787329389885311,3.395745079020005
1.876554054054054e-06,0.008121323823563575,3.347376016141439
1.886554054054055e-06,0.00778732938988516,3.38830368473101
1.896554054054057e-06,0.005783362787813752,3.392024381875518
1.906554054054059e-06,0.008789312690920863,3.362258804719451
1.916554054054053e-06,0.009457301558277696,3.399465776164519
1.926554054054055e-06,0.006451351655170888,3.384582987586502
1.936554054054057e-06,0.008455318257242295,3.395745079020027
1.946554054054058e-06,0.007119340522528024,3.395745079020027
1.956554054054053e-06,0.007119340522528024,3.36970019900848
1.966554054054055e-06,0.00778732938988516,3.406907170453553
1.976554054054056e-06,0.006451351655170888,3.373420896152977
1.986554054054058e-06,0.008121323823563727,3.399465776164535
1.996554054054059e-06,0.005449368354135791,3.399465776164519
2.006554054054054e-06,0.006785346088849456,3.362258804719451
2.016554054054056e-06,0.007453334956206592,3.384582987586502
2.026554054054057e-06,0.005783362787813752,3.380862290441993
2.036554054054059e-06,0.006117357221492472,3.392024381875518
2.046554054054054e-06,0.006451351655170736,3.392024381875518
2.056554054054055e-06,0.007453334956206592,3.373420896152977
2.066554054054057e-06,0.007119340522528024,3.406907170453553
2.076554054054059e-06,0.007787329389884553,3.373420896152978
2.086554054054053e-06,0.006451351655171496,3.377141593297483
2.096554054054055e-06,0.006451351655170888,3.403186473309044
2.106554054054057e-06,0.006785346088849456,3.362258804719451
2.116554054054058e-06,0.008455318257242295,3.403186473309044
2.126554054054053e-06,0.007453334956207047,3.369700199008483
2.136554054054055e-06,0.008455318257242295,3.369700199008468
2.146554054054056e-06,0.008121323823563727,3.403186473309044
2.156554054054058e-06,0.007119340522528024,3.369700199008468
2.166554054054059e-06,0.009123307124598065,3.418069261887057
2.176554054054054e-06,0.00611735722149232,3.373420896152977
2.186554054054056e-06,0.006785346088849456,3.410627867598061
2.196554054054057e-06,0.007119340522528024,3.410627867598061
