traces_bank_current_trigger/sampling_freq_100MHz/ANDi/ANDi_5.csv

#Digilent WaveForms Oscilloscope Acquisition
#Device Name: Discovery2
#Serial Number: SN:210321B3D813
#Date Time: 2023-06-13 15:12:00.317
#Sample rate: 1e+08Hz
#Samples: 8192
#Trigger: Source: Channel 2 Type: Edge Condition: Rising Level: 2 V Hyst.: Auto HoldOff: 0 s
#Channel 1: Range: 5 mV/div Offset: 0 V Attenuation: 1 X Sample Mode: Average
#Channel 2: Range: 2 V/div Offset: 0 V Attenuation: 1 X Sample Mode: Average

Time (s),Channel 1 (V),Channel 2 (V)
-9.510597302504815e-07,0.008455318257242295,0.02479346609537227
-9.410597302504799e-07,0.00778732938988516,-0.02729629392774602
-9.310597302504783e-07,0.01012529042563468,0.002469283228324957
-9.210597302504835e-07,0.009123307124599888,0.009910677517335088
-9.110597302504819e-07,0.008121323823563727,-0.01985489963872912
-9.010597302504803e-07,0.008789312690920863,0.00991067751733847
-8.910597302504787e-07,0.008455318257242295,-0.03845838536127136
-8.810597302504839e-07,0.00878931269092071,0.02107276895083675
-8.710597302504823e-07,0.008455318257242295,-0.001251413916186876
-8.610597302504807e-07,0.008455318257242295,-0.01241350534971222
-8.510597302504791e-07,0.007453334956206592,0.02479346609537227
-8.410597302504775e-07,0.007119340522528784,-0.01241350534969192
-8.310597302504827e-07,0.008789312690920863,0.03223486038438916
-8.210597302504811e-07,0.006451351655170888,0.01363137466184692
-8.110597302504795e-07,0.008121323823563727,-0.008692808205203774
-8.010597302504779e-07,0.006117357221492472,0.02479346609535366
-7.910597302504831e-07,0.006451351655170736,-0.01613420249420206
-7.810597302504815e-07,0.008121323823563727,0.00991067751733847
-7.710597302504799e-07,0.006785346088849456,0.01363137466184692
-7.610597302504783e-07,0.006117357221492624,-0.001251413916180108
-7.510597302504834e-07,0.006785346088849152,0.01363137466184015
-7.410597302504818e-07,0.005783362787813752,0.002469283228321573
-7.310597302504803e-07,0.009457301558278,0.006189980372830022
-7.210597302504787e-07,0.006785346088849456,0.02107276895086382
-7.110597302504838e-07,0.005783362787814207,-0.00869280820519024
-7.010597302504822e-07,0.008121323823563727,0.04711764896242296
-6.910597302504806e-07,0.005783362787813752,0.006189980372830022
-6.81059730250479e-07,0.006785346088849456,0.02479346609537227
-6.710597302504774e-07,0.006785346088849304,-0.01241350534970207
-6.610597302504826e-07,0.006451351655170888,0.00991067751733847
-6.51059730250481e-07,0.006785346088849456,0.02479346609537227
-6.410597302504794e-07,0.005115373920456617,-0.01241350534971222
-6.310597302504778e-07,0.007119340522527873,0.009910677517346931
-6.21059730250483e-07,0.006785346088849608,0.02851416323987226
-6.110597302504814e-07,0.004113390619420913,-0.008692808205203774
-6.010597302504798e-07,0.00611735722149232,0.04339695181791451
-5.910597302504782e-07,0.004781379486778656,-0.01613420249419868
-5.810597302504834e-07,0.006117357221491712,0.03223486038436717
-5.710597302504818e-07,0.007453334956206592,0.02851416323988071
-5.610597302504802e-07,0.005783362787813752,-0.004972111060695325
-5.510597302504786e-07,0.005449368354135184,0.03967625467340606
-5.410597302504838e-07,0.007119340522527265,-0.01241350534968853
-5.310597302504822e-07,0.006451351655170888,0.01735207180635537
-5.210597302504806e-07,0.005449368354135184,0.00991067751733847
-5.11059730250479e-07,0.006785346088849456,0.02107276895086382
-5.010597302504774e-07,0.006451351655171344,0.01363137466183338
-4.910597302504825e-07,0.007453334956206592,-0.01613420249422067
-4.81059730250481e-07,0.005449368354135184,0.006189980372830022
-4.710597302504794e-07,0.006451351655170888,0.006189980372830022
-4.610597302504778e-07,0.00611735722149232,-0.01241350534970207
-4.510597302504829e-07,0.00611735722149232,0.00991067751733847
-4.410597302504813e-07,0.005449368354135184,-0.01613420249422067
-4.310597302504797e-07,0.00611735722149232,0.006189980372830022
-4.210597302504781e-07,0.0057833627878136,0.01735207180634522
-4.110597302504833e-07,0.005449368354135336,-0.004972111060685173
-4.010597302504817e-07,0.005783362787813752,0.02107276895086382
-3.910597302504801e-07,0.003779396185742345,-0.02357559678323757
-3.810597302504785e-07,0.006785346088849456,0.01735207180635537
-3.710597302504837e-07,0.00478137948677896,-0.004972111060685173
-3.610597302504821e-07,0.00611735722149232,-0.001251413916186876
-3.510597302504805e-07,0.007119340522528024,0.00991067751733847
-3.410597302504789e-07,0.006451351655170888,-0.02357559678323757
-3.310597302504773e-07,0.008455318257241688,0.0173520718063486
-3.210597302504825e-07,0.007119340522528024,0.002469283228321573
-3.110597302504809e-07,0.00778732938988516,-0.01241350534971222
-3.010597302504793e-07,0.006451351655170888,0.02851416323988071
-2.910597302504777e-07,0.008455318257241384,-0.0161342024942156
-2.810597302504829e-07,0.006451351655170888,-0.004972111060695325
-2.710597302504813e-07,0.007119340522528024,-0.01241350534971222
-2.610597302504797e-07,0.005783362787813752,-0.01613420249422067
-2.510597302504781e-07,0.006785346088849152,-0.008692808205207158
-2.410597302504832e-07,0.006117357221492624,-0.01613420249421729
-2.310597302504817e-07,0.008455318257242295,0.002469283228321573
-2.210597302504801e-07,0.008121323823563727,-0.01613420249422067
-2.110597302504785e-07,0.006451351655170888,-0.02357559678323757
-2.010597302504836e-07,0.006785346088849304,0.01363137466183
-1.91059730250482e-07,0.005783362787813752,-0.02729629392774602
-1.810597302504804e-07,0.008455318257242295,-0.004972111060695325
-1.710597302504788e-07,0.007453334956206592,0.002469283228321573
-1.61059730250484e-07,0.006117357221492929,-0.03101699107223924
-1.510597302504824e-07,0.006451351655170888,0.00991067751733847
-1.410597302504808e-07,0.00778732938988516,-0.04589977965028826
-1.310597302504792e-07,0.008121323823563727,-0.004972111060695325
-1.210597302504776e-07,0.006451351655170736,-0.01613420249421898
-1.110597302504828e-07,0.00611735722149232,-0.01241350534971222
-1.010597302504812e-07,0.006451351655170888,0.02107276895086382
-9.10597302504796e-08,0.00611735722149232,-0.02729629392774602
-8.1059730250478e-08,0.008455318257241081,0.02851416323986379
-7.105973025048318e-08,0.005783362787814967,-0.008692808205186857
-6.105973025048158e-08,0.006451351655170888,-0.01613420249422067
-5.105973025047999e-08,0.00611735722149232,0.00991067751733847
-4.105973025047839e-08,0.005115373920458287,-0.034737688216746
-3.105973025048357e-08,0.008789312690919192,0.002469283228304656
-2.105973025048197e-08,0.006785346088849456,0.002469283228321573
-1.105973025048037e-08,0.007453334956206592,0.00991067751733847
-1.059730250478771e-09,-0.01358831436554318,1.792124609736885
8.940269749516051e-09,0.01513520693080059,3.723166427735892
1.894026974951765e-08,0.00611735722149232,3.008792575991148
2.894026974951925e-08,0.01246325146138511,3.31761043898535
3.894026974952085e-08,0.007453334956206592,3.299006953262807
4.894026974952244e-08,0.01379922919609695,3.287844861829326
5.894026974951727e-08,0.008455318257242295,3.384582987586502
6.894026974951887e-08,0.00778732938988516,3.299006953262807
7.894026974952046e-08,0.002777412884706641,3.425510656176095
8.894026974952206e-08,0.005449368354134577,3.272962073251319
9.894026974951688e-08,0.004113390619421521,3.429231353320532
1.089402697495185e-07,0.003111407318385209,3.250637890384198
1.189402697495201e-07,0.005115373920456617,3.362258804719451
1.289402697495217e-07,0.009123307124599736,3.269241376106769
1.389402697495165e-07,0.009791295991956264,3.332493227563355
1.489402697495181e-07,0.01012529042563514,3.287844861829282
1.589402697495197e-07,0.008789312690920863,3.325051833274367
1.689402697495213e-07,0.01246325146138511,3.295286256118299
1.789402697495161e-07,0.009123307124600952,3.377141593297448
1.889402697495177e-07,0.007453334956206592,3.328772530418875
1.989402697495193e-07,0.004113390619420913,3.410627867598061
2.089402697495209e-07,0.004113390619420913,3.321331136129858
2.189402697495225e-07,0.005783362787813904,3.369700199008447
2.289402697495173e-07,0.00611735722149232,3.325051833274367
2.389402697495189e-07,0.007119340522528024,3.31761043898535
2.489402697495205e-07,0.008455318257242295,3.310169044696333
2.589402697495221e-07,0.009457301558278456,3.32133113612986
2.68940269749517e-07,0.01045928485931325,3.325051833274365
2.789402697495185e-07,0.006785346088849456,3.373420896152977
2.889402697495201e-07,0.007119340522528024,3.351096713285926
2.989402697495217e-07,0.006117357221491409,3.392024381875495
3.089402697495166e-07,0.004113390619421824,3.339934621852424
3.189402697495182e-07,0.007119340522528024,3.369700199008468
3.289402697495198e-07,0.004113390619420913,3.358538107574943
3.389402697495214e-07,0.006451351655170888,3.332493227563384
3.489402697495162e-07,0.007787329389884553,3.354817410430424
3.589402697495178e-07,0.006785346088849456,3.321331136129858
3.689402697495194e-07,0.008455318257242295,3.351096713285926
3.78940269749521e-07,0.007453334956206592,3.362258804719451
3.889402697495226e-07,0.00745333495620644,3.339934621852415
3.989402697495174e-07,0.007119340522528024,3.373420896152977
4.08940269749519e-07,0.00778732938988516,3.347376016141417
4.189402697495206e-07,0.00778732938988516,3.38830368473101
4.289402697495222e-07,0.006117357221492472,3.37342089615297
4.38940269749517e-07,0.006451351655170736,3.358538107574949
4.489402697495186e-07,0.004113390619420913,3.384582987586502
4.589402697495202e-07,0.005115373920456617,3.3399346218524
4.689402697495218e-07,0.006785346088850063,3.373420896152966
4.789402697495166e-07,0.00812132382356312,3.351096713285936
4.889402697495182e-07,0.00778732938988516,3.343655318996909
4.989402697495198e-07,0.007119340522528024,3.384582987586502
5.089402697495214e-07,0.007119340522528024,3.358538107574943
5.189402697495163e-07,0.008121323823563271,3.38458298758649
5.289402697495178e-07,0.005115373920456617,3.392024381875518
5.389402697495194e-07,0.006451351655170888,3.362258804719451
5.48940269749521e-07,0.004781379486778049,3.384582987586502
5.589402697495226e-07,0.006451351655171648,3.347376016141427
5.689402697495175e-07,0.008121323823563727,3.369700199008468
5.789402697495191e-07,0.007453334956206592,3.380862290441993
5.889402697495207e-07,0.006451351655170888,3.362258804719451
5.989402697495223e-07,0.007119340522527873,3.392024381875498
6.089402697495171e-07,0.006785346088849456,3.347376016141417
6.189402697495187e-07,0.006785346088849456,3.373420896152977
6.289402697495203e-07,0.008789312690920863,3.384582987586502
6.389402697495219e-07,0.006451351655170888,3.354817410430449
6.489402697495167e-07,0.006451351655170888,3.388303684730995
6.589402697495183e-07,0.006451351655170888,3.3399346218524
6.689402697495199e-07,0.00778732938988516,3.38830368473101
6.789402697495215e-07,0.006451351655170888,3.377141593297485
6.889402697495163e-07,0.006451351655170888,3.369700199008471
6.989402697495179e-07,0.006785346088849456,3.377141593297485
7.089402697495195e-07,0.00611735722149232,3.3399346218524
7.189402697495211e-07,0.007453334956206592,3.377141593297485
7.289402697495227e-07,0.004781379486778656,3.38458298758649
7.389402697495175e-07,0.00611735722149232,3.358538107574943
7.489402697495191e-07,0.004447385053099481,3.38830368473101
7.589402697495207e-07,0.003779396185742345,3.373420896152977
7.689402697495223e-07,0.0057833627878136,3.377141593297483
7.789402697495171e-07,0.005449368354135184,3.373420896152977
7.889402697495187e-07,0.005783362787813752,3.358538107574943
7.989402697495203e-07,0.005449368354135184,3.38830368473101
8.089402697495219e-07,0.006451351655171344,3.347376016141432
8.189402697495168e-07,0.007453334956206137,3.380862290441978
8.289402697495184e-07,0.00778732938988516,3.373420896152977
8.3894026974952e-07,0.005449368354135184,3.354817410430434
8.489402697495216e-07,0.007119340522528024,3.380862290441993
8.589402697495164e-07,0.006785346088849608,3.365979501863966
8.68940269749518e-07,0.008121323823563727,3.369700199008468
8.789402697495196e-07,0.006451351655170888,3.395745079020027
8.889402697495212e-07,0.007119340522528024,3.3399346218524
8.98940269749516e-07,0.006451351655171192,3.392024381875495
9.089402697495176e-07,0.006451351655170888,3.336213924707892
9.189402697495192e-07,0.008121323823563727,3.373420896152977
9.289402697495208e-07,0.004781379486778049,3.377141593297485
9.389402697495224e-07,0.007787329389884553,3.347376016141436
9.489402697495172e-07,0.006451351655170888,3.38830368473101
9.589402697495188e-07,0.006451351655170888,3.3399346218524
9.689402697495204e-07,0.007453334956206592,3.358538107574943
9.78940269749522e-07,0.007787329389883641,3.362258804719441
9.889402697495168e-07,0.004447385053101,3.33993462185241
9.989402697495184e-07,0.006451351655170888,3.38830368473101
1.00894026974952e-06,0.007453334956206592,3.351096713285926
1.018940269749522e-06,0.006117357221492169,3.380862290441997
1.028940269749516e-06,0.005783362787813904,3.388303684731007
1.038940269749518e-06,0.005115373920456617,3.3399346218524
1.04894026974952e-06,0.003779396185742345,3.395745079020027
1.058940269749521e-06,0.005115373920456617,3.351096713285926
1.068940269749516e-06,0.006785346088848697,3.388303684730993
1.078940269749518e-06,0.00611735722149232,3.377141593297485
1.088940269749519e-06,0.005783362787813752,3.362258804719451
1.098940269749521e-06,0.00611735722149232,3.392024381875518
1.108940269749522e-06,0.006785346088849304,3.343655318996926
1.118940269749517e-06,0.006451351655170888,3.380862290441993
1.128940269749519e-06,0.005783362787813752,3.380862290441993
1.13894026974952e-06,0.004781379486778049,3.354817410430434
1.148940269749522e-06,0.006451351655171192,3.392024381875503
1.158940269749517e-06,0.007119340522527721,3.358538107574958
1.168940269749518e-06,0.007453334956206592,3.380862290441993
1.17894026974952e-06,0.006451351655170888,3.373420896152977
1.188940269749522e-06,0.006785346088849456,3.369700199008481
1.198940269749517e-06,0.006785346088849456,3.399465776164522
1.208940269749518e-06,0.007119340522528024,3.351096713285926
1.21894026974952e-06,0.007119340522528024,3.377141593297485
1.228940269749521e-06,0.00611735722149232,3.373420896152977
1.238940269749516e-06,0.0077873293898844,3.362258804719456
1.248940269749518e-06,0.007119340522528024,3.377141593297485
1.258940269749519e-06,0.008121323823563727,3.354817410430434
1.268940269749521e-06,0.009123307124599432,3.380862290441993
1.278940269749523e-06,0.007119340522527873,3.377141593297488
1.288940269749517e-06,0.006785346088849456,3.384582987586502
1.298940269749519e-06,0.005783362787813752,3.403186473309044
1.308940269749521e-06,0.005783362787813752,3.358538107574943
1.318940269749522e-06,0.006451351655170888,3.399465776164534
1.328940269749517e-06,0.006451351655170888,3.395745079020029
1.338940269749519e-06,0.005783362787813752,3.362258804719451
1.34894026974952e-06,0.005115373920456617,3.384582987586502
1.358940269749522e-06,0.006451351655170888,3.36597950186397
1.368940269749517e-06,0.006451351655170888,3.388303684731
1.378940269749518e-06,0.00611735722149232,3.384582987586502
1.38894026974952e-06,0.004781379486778049,3.380862290441993
1.398940269749521e-06,0.006451351655170888,3.406907170453553
1.408940269749516e-06,0.005115373920457224,3.388303684731019
1.418940269749518e-06,0.006785346088849456,3.395745079020027
1.428940269749519e-06,0.004781379486778049,3.38830368473101
1.438940269749521e-06,0.005449368354135184,3.380862290441993
1.448940269749523e-06,0.006117357221492472,3.406907170453537
1.458940269749517e-06,0.006451351655170888,3.373420896152977
1.468940269749519e-06,0.00611735722149232,3.384582987586502
1.478940269749521e-06,0.006451351655170888,3.38830368473101
1.488940269749522e-06,0.00611735722149308,3.365979501863987
1.498940269749517e-06,0.0077873293898844,3.425510656176068
1.508940269749519e-06,0.006785346088849456,3.38830368473101
1.51894026974952e-06,0.008121323823563727,3.392024381875518
1.528940269749522e-06,0.007453334956206288,3.406907170453536
1.538940269749517e-06,0.006785346088849759,3.369700199008485
1.548940269749518e-06,0.008121323823563727,3.41434856474257
1.55894026974952e-06,0.007119340522528024,3.373420896152977
1.568940269749521e-06,0.007453334956206592,3.403186473309044
1.578940269749516e-06,0.006451351655171344,3.399465776164537
1.588940269749518e-06,0.005449368354135184,3.373420896152977
1.598940269749519e-06,0.006785346088849456,3.410627867598061
1.608940269749521e-06,0.006451351655170888,3.369700199008468
1.618940269749523e-06,0.008121323823564184,3.403186473309034
1.628940269749517e-06,0.009123307124599432,3.380862290441993
1.638940269749519e-06,0.007119340522528024,3.369700199008468
1.648940269749521e-06,0.006451351655170888,3.410627867598061
1.658940269749522e-06,0.006117357221492928,3.373420896152985
1.668940269749517e-06,0.007453334956206592,3.392024381875518
1.678940269749519e-06,0.005449368354135184,3.403186473309044
1.68894026974952e-06,0.006785346088849456,3.373420896152977
1.698940269749522e-06,0.007119340522527417,3.406907170453536
1.708940269749517e-06,0.005783362787814359,3.369700199008485
1.718940269749518e-06,0.009123307124599432,3.392024381875518
1.72894026974952e-06,0.006785346088849456,3.399465776164535
1.738940269749522e-06,0.007453334956206592,3.380862290441993
1.748940269749516e-06,0.006451351655171344,3.410627867598047
1.758940269749518e-06,0.00778732938988516,3.384582987586502
1.76894026974952e-06,0.007453334956206592,3.392024381875518
1.778940269749521e-06,0.00778732938988516,3.399465776164535
1.788940269749516e-06,0.005783362787814663,3.380862290442002
1.798940269749518e-06,0.007453334956206592,3.406907170453553
1.808940269749519e-06,0.005783362787813752,3.373420896152977
1.818940269749521e-06,0.008121323823563727,3.377141593297485
1.828940269749522e-06,0.006451351655170585,3.3845829875865
1.838940269749517e-06,0.005783362787813752,3.380862290441993
1.848940269749519e-06,0.007119340522528024,3.41434856474257
1.85894026974952e-06,0.005115373920456617,3.362258804719451
1.868940269749522e-06,0.007453334956206137,3.392024381875518
1.878940269749517e-06,0.006451351655171344,3.392024381875518
1.888940269749518e-06,0.00611735722149232,3.36597950186396
1.89894026974952e-06,0.00611735722149232,3.403186473309044
1.908940269749522e-06,0.005449368354135184,3.373420896152977
1.918940269749516e-06,0.008789312690919343,3.40318647330903
1.928940269749518e-06,0.007119340522528024,3.384582987586502
1.93894026974952e-06,0.007119340522528024,3.377141593297485
1.948940269749521e-06,0.007119340522528024,3.395745079020027
1.958940269749516e-06,0.007119340522528024,3.362258804719466
1.968940269749518e-06,0.00778732938988516,3.395745079020027
1.978940269749519e-06,0.006451351655170888,3.36597950186396
1.988940269749521e-06,0.007119340522528024,3.347376016141417
1.998940269749522e-06,0.007119340522526961,3.406907170453536
2.008940269749517e-06,0.004781379486778049,3.369700199008468
2.018940269749519e-06,0.008455318257242295,3.38830368473101
2.02894026974952e-06,0.006451351655170888,3.377141593297485
2.038940269749522e-06,0.005449368354135336,3.380862290442003
2.048940269749517e-06,0.0057833627878136,3.403186473309034
2.058940269749518e-06,0.007119340522528024,3.354817410430434
2.06894026974952e-06,0.006451351655170888,3.38830368473101
2.078940269749522e-06,0.007453334956206137,3.365979501863946
2.088940269749516e-06,0.006451351655171344,3.336213924707905
2.098940269749518e-06,0.008121323823563727,3.403186473309044
2.10894026974952e-06,0.007119340522528024,3.354817410430434
2.118940269749521e-06,0.008455318257242295,3.373420896152977
2.128940269749516e-06,0.007787329389885463,3.384582987586497
2.138940269749518e-06,0.008455318257242295,3.351096713285926
2.148940269749519e-06,0.00778732938988516,3.395745079020027
2.158940269749521e-06,0.007119340522528024,3.362258804719451
2.168940269749522e-06,0.007453334956206896,3.365979501863973
2.178940269749517e-06,0.008121323823563727,3.395745079020027
2.188940269749519e-06,0.006785346088849456,3.362258804719451
2.19894026974952e-06,0.007119340522528024,3.399465776164535
