traces_bank_current_trigger/sampling_freq_100MHz/ANDi/ANDi_8.csv

#Digilent WaveForms Oscilloscope Acquisition
#Device Name: Discovery2
#Serial Number: SN:210321B3D813
#Date Time: 2023-06-13 15:27:24.820
#Sample rate: 1e+08Hz
#Samples: 8192
#Trigger: Source: Channel 2 Type: Edge Condition: Rising Level: 2 V Hyst.: Auto HoldOff: 0 s
#Channel 1: Range: 5 mV/div Offset: 0 V Attenuation: 1 X Sample Mode: Average
#Channel 2: Range: 2 V/div Offset: 0 V Attenuation: 1 X Sample Mode: Average

Time (s),Channel 1 (V),Channel 2 (V)
-9.570652173912996e-07,0.008121323823563727,-0.001251413916186876
-9.47065217391298e-07,0.008789312690920863,0.05827974039594831
-9.370652173912964e-07,0.007787329389886223,0.002469283228328341
-9.270652173913016e-07,0.01012529042563407,0.0173520718063486
-9.170652173913e-07,0.00778732938988516,0.05083834610693141
-9.070652173912984e-07,0.007453334956206592,-0.004972111060695325
-8.970652173912968e-07,0.008455318257242295,0.02851416323988071
-8.87065217391302e-07,0.007119340522528632,0.02479346609537396
-8.770652173913004e-07,0.009123307124599432,0.01363137466184692
-8.670652173912988e-07,0.007453334956206592,0.04711764896242296
-8.570652173912972e-07,0.008789312690920863,-0.008692808205203774
-8.470652173912956e-07,0.008789312690920406,0.02851416323987056
-8.370652173913008e-07,0.00778732938988516,0.006189980372830022
-8.270652173912992e-07,0.008789312690920863,0.02479346609537227
-8.170652173912976e-07,0.009123307124599432,0.03595555752889761
-8.07065217391296e-07,0.006785346088850519,-0.001251413916175032
-7.970652173913012e-07,0.009123307124598369,0.02479346609536042
-7.870652173912996e-07,0.007119340522528024,-0.001251413916186876
-7.77065217391298e-07,0.00778732938988516,0.02479346609537227
-7.670652173912964e-07,0.006785346088849759,0.04339695181789082
-7.570652173913015e-07,0.007453334956206288,-0.008692808205180085
-7.470652173912999e-07,0.007453334956206592,0.05827974039594831
-7.370652173912983e-07,0.005783362787813752,0.02479346609537227
-7.270652173912967e-07,0.006785346088849456,0.01735207180635537
-7.170652173913019e-07,0.006117357221492624,0.04339695181790267
-7.070652173913003e-07,0.007119340522528024,-0.004972111060695325
-6.970652173912987e-07,0.007453334956206592,0.05083834610693141
-6.870652173912971e-07,0.006451351655170888,0.01735207180635537
-6.770652173912955e-07,0.005783362787813904,0.006189980372850326
-6.670652173913007e-07,0.00611735722149232,0.05083834610693141
-6.570652173912991e-07,0.00778732938988516,0.002469283228321573
-6.470652173912975e-07,0.006451351655170888,0.04711764896242296
-6.370652173912959e-07,0.005449368354135184,0.002469283228330032
-6.270652173913011e-07,0.005449368354135184,0.02107276895085536
-6.170652173912995e-07,0.007453334956206592,0.02479346609537227
-6.070652173912979e-07,0.004781379486778049,-0.008692808205203774
-5.970652173912963e-07,0.006451351655170433,0.0508383461069128
-5.870652173913015e-07,0.00544936835413564,0.00991067751735708
-5.770652173912999e-07,0.007119340522528024,-0.001251413916186876
-5.670652173912983e-07,0.007453334956206592,0.02851416323988071
-5.570652173912967e-07,0.006451351655170888,-0.01241350534971222
-5.470652173913019e-07,0.007787329389884553,0.03967625467338237
-5.370652173913003e-07,0.005449368354135184,-0.004972111060695325
-5.270652173912987e-07,0.006451351655170888,0.002469283228321573
-5.170652173912971e-07,0.007453334956206592,0.04339695181791451
-5.070652173912955e-07,0.006451351655170736,-0.01613420249420037
-4.970652173913006e-07,0.00611735722149232,0.02851416323988071
-4.87065217391299e-07,0.004781379486778049,-0.004972111060695325
-4.770652173912974e-07,0.006451351655170888,0.02107276895086382
-4.670652173912958e-07,0.005783362787813904,0.03223486038436547
-4.57065217391301e-07,0.00611735722149232,-0.01985489963872912
-4.470652173912994e-07,0.005115373920456617,0.03967625467340606
-4.370652173912978e-07,0.005449368354135184,-0.008692808205203774
-4.270652173912962e-07,0.006785346088849152,0.002469283228333416
-4.170652173913014e-07,0.006117357221492624,0.02851416323986887
-4.070652173912998e-07,0.003445401752063777,-0.02357559678323757
-3.970652173912982e-07,0.005449368354135184,0.02479346609537227
-3.870652173912966e-07,0.004781379486778049,0.002469283228321573
-3.770652173913018e-07,0.004781379486778049,-0.004972111060691941
-3.670652173913002e-07,0.006451351655170888,0.02851416323988071
-3.570652173912986e-07,0.007119340522528024,-0.02729629392774602
-3.47065217391297e-07,0.005115373920456617,0.03223486038438916
-3.370652173912954e-07,0.005115373920456617,-0.01613420249420714
-3.270652173913006e-07,0.005115373920456617,0.01363137466184692
-3.17065217391299e-07,0.00778732938988516,0.02107276895086382
-3.070652173912974e-07,0.006785346088849456,-0.01985489963872912
-2.970652173912958e-07,0.007119340522526506,0.01363137466184015
-2.87065217391301e-07,0.003779396185742345,-0.001251413916186876
-2.770652173912994e-07,0.00611735722149232,-0.01241350534971222
-2.670652173912978e-07,0.005783362787813752,0.03223486038438916
-2.570652173912962e-07,0.005449368354135791,-0.008692808205185162
-2.470652173913013e-07,0.006785346088848848,0.03223486038437055
-2.370652173912997e-07,0.005449368354135184,-0.004972111060695325
-2.270652173912981e-07,0.005783362787813752,-0.004972111060695325
-2.170652173912965e-07,0.004781379486778049,0.02851416323988071
-2.070652173913017e-07,0.005449368354134881,-0.008692808205186857
-1.970652173913001e-07,0.006785346088849456,0.01735207180635537
-1.870652173912985e-07,0.005783362787813752,0.006189980372830022
-1.770652173912969e-07,0.004781379486778049,-0.01241350534971222
-1.670652173913021e-07,0.006451351655170129,0.009910677517328319
-1.570652173913005e-07,0.003779396185742345,-0.03473768821676292
-1.470652173912989e-07,0.005783362787813752,0.03595555752889761
-1.370652173912973e-07,0.004113390619420913,-0.01613420249422067
-1.270652173912957e-07,0.007119340522527417,0.002469283228331725
-1.170652173913009e-07,0.005783362787813752,0.02479346609537227
-1.070652173912993e-07,0.005783362787813752,-0.01985489963872912
-9.706521739129769e-08,0.00611735722149232,0.03223486038438916
-8.706521739129609e-08,0.004113390619421824,-0.004972111060707169
-7.706521739130127e-08,0.006117357221491409,-0.03101699107224262
-6.706521739129967e-08,0.004781379486778049,0.04339695181791451
-5.706521739129807e-08,0.003779396185742345,-0.01241350534971222
-4.706521739129648e-08,0.004781379486777289,0.02107276895085705
-3.706521739130165e-08,0.003111407318385969,0.006189980372836789
-2.706521739130006e-08,0.004781379486778049,-0.01613420249422067
-1.706521739129846e-08,0.004447385053099481,0.03595555752889761
-7.065217391296859e-09,0.001107440716313802,0.06200043754045675
2.934782608697963e-09,-0.01459029766657175,2.80043353589743
1.293478260869956e-08,0.01379922919609938,3.38830368473101
2.293478260870116e-08,0.005449368354135184,3.176223947494029
3.293478260870276e-08,0.01513520693081365,3.295286256118299
4.293478260870436e-08,0.004113390619424102,3.31761043898535
5.293478260869918e-08,0.01112727372667084,3.31761043898535
6.293478260870078e-08,0.003445401752063777,3.399465776164535
7.293478260870237e-08,0.007119340522528024,3.328772530418875
8.293478260870397e-08,-0.003234486921504998,3.436672747609551
9.293478260869879e-08,0.002443418451025491,3.284124164684843
1.029347826087004e-07,0.0004394518489566662,3.399465776164535
1.12934782608702e-07,0.005115373920456617,3.280403467540265
1.229347826087036e-07,0.001441435149995256,3.328772530418871
1.329347826086984e-07,0.007787329389882274,3.321331136129862
1.429347826087e-07,0.005783362787813752,3.302727650407316
1.529347826087016e-07,0.0104592848593137,3.332493227563384
1.629347826087032e-07,0.004113390619420913,3.362258804719451
1.72934782608698e-07,0.006117357221491409,3.35109671328593
1.829347826086996e-07,0.003445401752063777,3.43667274760962
1.929347826087012e-07,0.005449368354135184,3.3399346218524
2.029347826087028e-07,0.00144143514999237,3.425510656176095
2.129347826087044e-07,0.002443418451027922,3.339934621852415
2.229347826086992e-07,0.002109424017349506,3.373420896152977
2.329347826087008e-07,0.006451351655170888,3.354817410430434
2.429347826087024e-07,0.005783362787813752,3.325051833274367
2.52934782608704e-07,0.007119340522527113,3.362258804719455
2.629347826086989e-07,0.005115373920457527,3.369700199008464
2.729347826087005e-07,0.008789312690920863,3.351096713285926
2.829347826087021e-07,0.005115373920456617,3.418069261887078
2.929347826087037e-07,0.004113390619420457,3.347376016141448
3.029347826086985e-07,0.003111407318385665,3.414348564742539
3.129347826087001e-07,0.004113390619420913,3.384582987586502
3.229347826087017e-07,0.003111407318385209,3.362258804719451
3.329347826087033e-07,0.004781379486778049,3.403186473309044
3.429347826086981e-07,0.004113390619421216,3.339934621852429
3.529347826086997e-07,0.006451351655170888,3.369700199008468
3.629347826087013e-07,0.00611735722149232,3.358538107574943
3.729347826087029e-07,0.00778732938988516,3.369700199008468
3.829347826087045e-07,0.007453334956206744,3.406907170453521
3.929347826086993e-07,0.00778732938988516,3.336213924707892
4.029347826087009e-07,0.006785346088849456,3.406907170453553
4.129347826087025e-07,0.005115373920456617,3.377141593297485
4.229347826087041e-07,0.006117357221492624,3.380862290442005
4.329347826086989e-07,0.006785346088849152,3.406907170453541
4.429347826087005e-07,0.006785346088849456,3.358538107574943
4.529347826087021e-07,0.007119340522528024,3.395745079020027
4.629347826087037e-07,0.006451351655171952,3.365979501863963
4.729347826086985e-07,0.008789312690919799,3.373420896152973
4.829347826087001e-07,0.00778732938988516,3.392024381875518
4.929347826087017e-07,0.007119340522528024,3.358538107574943
5.029347826087033e-07,0.007453334956206592,3.384582987586502
5.129347826086982e-07,0.006451351655171344,3.392024381875515
5.229347826086998e-07,0.005449368354135184,3.36597950186396
5.329347826087014e-07,0.006451351655170888,3.418069261887078
5.42934782608703e-07,0.005449368354135184,3.354817410430434
5.529347826087046e-07,0.007453334956206137,3.403186473309032
5.629347826086994e-07,0.006451351655170888,3.377141593297485
5.72934782608701e-07,0.009123307124599432,3.362258804719451
5.829347826087026e-07,0.007119340522528024,3.410627867598061
5.929347826087042e-07,0.007453334956207504,3.336213924707923
6.02934782608699e-07,0.009457301558278,3.403186473309044
6.129347826087006e-07,0.006451351655170888,3.380862290441993
6.229347826087022e-07,0.008121323823563727,3.373420896152977
6.329347826087038e-07,0.007787329389884704,3.410627867598032
6.429347826086986e-07,0.006785346088849911,3.347376016141446
6.529347826087002e-07,0.008455318257242295,3.410627867598061
6.629347826087018e-07,0.00611735722149232,3.36597950186396
6.729347826087034e-07,0.008121323823563727,3.369700199008468
6.829347826086982e-07,0.008121323823563727,3.392024381875508
6.929347826086998e-07,0.007119340522528024,3.362258804719451
7.029347826087014e-07,0.007119340522528024,3.399465776164535
7.12934782608703e-07,0.00611735722149232,3.380862290441993
7.229347826087046e-07,0.008455318257241384,3.369700199008481
7.329347826086994e-07,0.006451351655170888,3.399465776164535
7.42934782608701e-07,0.005115373920456617,3.354817410430434
7.529347826087026e-07,0.00778732938988516,3.410627867598061
7.629347826087042e-07,0.005449368354135488,3.388303684731005
7.729347826086991e-07,0.00611735722149232,3.377141593297485
7.829347826087007e-07,0.007119340522528024,3.395745079020027
7.929347826087023e-07,0.006451351655170888,3.358538107574943
8.029347826087039e-07,0.006117357221492928,3.406907170453539
8.129347826086987e-07,0.007453334956205985,3.377141593297498
8.229347826087003e-07,0.007119340522528024,3.380862290441993
8.329347826087019e-07,0.007119340522528024,3.406907170453553
8.429347826087035e-07,0.007119340522528024,3.362258804719451
8.529347826086983e-07,0.007787329389884856,3.399465776164519
8.629347826086999e-07,0.007119340522528024,3.38830368473101
8.729347826087015e-07,0.008455318257242295,3.38830368473101
8.829347826087031e-07,0.008455318257242295,3.403186473309044
8.929347826086979e-07,0.006117357221493384,3.36225880471947
9.029347826086995e-07,0.00778732938988516,3.403186473309044
9.129347826087011e-07,0.005449368354135184,3.369700199008468
9.229347826087027e-07,0.00778732938988516,3.362258804719451
9.329347826087043e-07,0.007119340522527265,3.399465776164508
9.429347826086991e-07,0.005449368354135184,3.3399346218524
9.529347826087007e-07,0.006451351655170888,3.403186473309044
9.629347826087023e-07,0.004447385053099481,3.373420896152977
9.729347826087039e-07,0.0077873293898844,3.354817410430451
9.829347826086987e-07,0.006117357221493079,3.392024381875502
9.929347826087003e-07,0.005115373920456617,3.362258804719451
1.002934782608702e-06,0.005449368354135184,3.41434856474257
1.012934782608704e-06,0.00511537392045692,3.36970019900847
1.022934782608698e-06,0.005783362787813448,3.373420896152975
1.0329347826087e-06,0.004113390619420913,3.38830368473101
1.042934782608702e-06,0.005115373920456617,3.3399346218524
1.052934782608703e-06,0.003111407318385209,3.38830368473101
1.062934782608698e-06,0.005115373920455706,3.37714159329749
1.0729347826087e-06,0.005115373920456617,3.369700199008468
1.082934782608701e-06,0.004113390619420913,3.399465776164535
1.092934782608703e-06,0.004781379486778049,3.347376016141417
1.102934782608704e-06,0.004781379486777745,3.377141593297476
1.112934782608699e-06,0.004113390619420913,3.358538107574943
1.122934782608701e-06,0.005115373920456617,3.358538107574943
1.132934782608702e-06,0.005115373920456617,3.392024381875518
1.142934782608704e-06,0.00377939618574356,3.339934621852427
1.152934782608699e-06,0.006451351655169673,3.399465776164508
1.1629347826087e-06,0.004113390619420913,3.369700199008468
1.172934782608702e-06,0.006785346088849456,3.362258804719451
1.182934782608704e-06,0.00745333495620644,3.395745079020002
1.192934782608698e-06,0.007119340522528176,3.339934621852426
1.2029347826087e-06,0.006785346088849456,3.406907170453553
1.212934782608702e-06,0.005783362787813752,3.358538107574943
1.222934782608703e-06,0.006451351655170888,3.36597950186396
1.232934782608698e-06,0.006451351655170888,3.380862290441986
1.2429347826087e-06,0.005783362787813752,3.36597950186396
1.252934782608701e-06,0.007453334956206592,3.38830368473101
1.262934782608703e-06,0.005115373920456617,3.384582987586502
1.272934782608704e-06,0.004781379486778504,3.365979501863978
1.282934782608699e-06,0.005783362787813752,3.406907170453553
1.292934782608701e-06,0.005115373920456617,3.358538107574943
1.302934782608702e-06,0.005449368354135184,3.425510656176095
1.312934782608704e-06,0.005115373920456161,3.369700199008475
1.322934782608699e-06,0.004113390619421368,3.384582987586495
1.3329347826087e-06,0.005783362787813752,3.406907170453553
1.342934782608702e-06,0.004781379486778049,3.358538107574943
1.352934782608704e-06,0.006117357221491409,3.414348564742554
1.362934782608698e-06,0.004113390619421824,3.380862290442008
1.3729347826087e-06,0.004781379486778049,3.373420896152977
1.382934782608702e-06,0.005115373920456617,3.410627867598061
1.392934782608703e-06,0.002443418451028074,3.358538107574943
1.402934782608698e-06,0.004781379486776986,3.40690717045353
1.4129347826087e-06,0.003779396185742345,3.380862290441993
1.422934782608701e-06,0.00611735722149232,3.36597950186396
1.432934782608703e-06,0.005783362787813752,3.410627867598061
1.442934782608705e-06,0.004781379486778049,3.354817410430451
1.452934782608699e-06,0.004781379486778049,3.392024381875518
1.462934782608701e-06,0.006451351655170888,3.369700199008468
1.472934782608703e-06,0.004781379486778049,3.377141593297485
1.482934782608704e-06,0.005783362787814512,3.399465776164519
1.492934782608699e-06,0.007453334956205832,3.362258804719468
1.502934782608701e-06,0.006451351655170888,3.395745079020027
1.512934782608702e-06,0.007119340522528024,3.369700199008468
1.522934782608704e-06,0.008455318257241839,3.384582987586514
1.532934782608699e-06,0.007453334956207047,3.410627867598049
1.5429347826087e-06,0.007119340522528024,3.36597950186396
1.552934782608702e-06,0.008789312690920863,3.410627867598061
1.562934782608703e-06,0.006785346088849456,3.380862290441993
1.572934782608698e-06,0.007453334956206288,3.380862290441993
1.5829347826087e-06,0.006785346088849456,3.403186473309044
1.592934782608701e-06,0.008121323823563727,3.380862290441993
1.602934782608703e-06,0.007453334956206592,3.406907170453553
1.612934782608705e-06,0.006451351655171192,3.388303684731004
1.622934782608699e-06,0.007119340522528024,3.373420896152977
1.632934782608701e-06,0.008121323823563727,3.403186473309044
1.642934782608703e-06,0.006785346088849456,3.358538107574943
1.652934782608704e-06,0.007119340522527417,3.410627867598046
1.662934782608699e-06,0.005783362787813752,3.377141593297485
1.672934782608701e-06,0.009457301558278,3.36597950186396
1.682934782608702e-06,0.006451351655170888,3.429231353320603
1.692934782608704e-06,0.007119340522528784,3.358538107574961
1.702934782608699e-06,0.008789312690920103,3.399465776164517
1.7129347826087e-06,0.007119340522528024,3.384582987586502
1.722934782608702e-06,0.006785346088849456,3.377141593297485
1.732934782608703e-06,0.008455318257242295,3.41434856474257
1.742934782608698e-06,0.006785346088850215,3.354817410430461
1.7529347826087e-06,0.008789312690920863,3.395745079020027
1.762934782608701e-06,0.006785346088849456,3.373420896152977
1.772934782608703e-06,0.009123307124599432,3.373420896152977
1.782934782608698e-06,0.008121323823564184,3.410627867598044
1.792934782608699e-06,0.007453334956206592,3.343655318996909
1.802934782608701e-06,0.006451351655170888,3.403186473309044
1.812934782608703e-06,0.006785346088849456,3.369700199008468
1.822934782608704e-06,0.007119340522527721,3.36970019900848
1.832934782608699e-06,0.006451351655170888,3.395745079020027
1.842934782608701e-06,0.004447385053099481,3.351096713285926
1.852934782608702e-06,0.007119340522528024,3.392024381875518
1.862934782608704e-06,0.006785346088850216,3.369700199008463
1.872934782608699e-06,0.008455318257241535,3.358538107574947
1.8829347826087e-06,0.007119340522528024,3.392024381875518
1.892934782608702e-06,0.006785346088849456,3.325051833274367
1.902934782608703e-06,0.008121323823563727,3.403186473309044
1.912934782608698e-06,0.005783362787814815,3.369700199008483
1.9229347826087e-06,0.008455318257242295,3.354817410430434
1.932934782608702e-06,0.008121323823563727,3.358538107574943
1.942934782608703e-06,0.006785346088849456,3.332493227563384
1.952934782608698e-06,0.00645135165517104,3.395745079019998
1.9629347826087e-06,0.005449368354135184,3.351096713285926
1.972934782608701e-06,0.00778732938988516,3.351096713285926
1.982934782608703e-06,0.007119340522528024,3.384582987586502
1.992934782608704e-06,0.007119340522528024,3.336213924707909
2.002934782608699e-06,0.007119340522528024,3.373420896152977
2.012934782608701e-06,0.005783362787813752,3.351096713285926
2.022934782608702e-06,0.00611735722149232,3.358538107574943
2.032934782608704e-06,0.00578336278781284,3.392024381875486
2.042934782608699e-06,0.003779396185743256,3.32133113612989
2.0529347826087e-06,0.006451351655170888,3.392024381875518
2.062934782608702e-06,0.005783362787813752,3.362258804719451
2.072934782608704e-06,0.006785346088849759,3.36970019900848
2.082934782608698e-06,0.007453334956206288,3.395745079020015
2.0929347826087e-06,0.00611735722149232,3.343655318996909
2.102934782608702e-06,0.006451351655170888,3.38830368473101
2.112934782608703e-06,0.006785346088849456,3.369700199008468
2.122934782608698e-06,0.007119340522527873,3.369700199008468
2.1329347826087e-06,0.005449368354135184,3.403186473309044
2.142934782608701e-06,0.004447385053099481,3.362258804719451
2.152934782608703e-06,0.006785346088849456,3.395745079020027
2.162934782608704e-06,0.004781379486778809,3.37714159329748
2.172934782608699e-06,0.006451351655170888,3.36597950186396
2.182934782608701e-06,0.006451351655170888,3.403186473309044
2.192934782608702e-06,0.004447385053099481,3.354817410430434
