traces_bank_current_trigger/benchmark_traces/fibonacci_50MHz/fib_2.csv

#Digilent WaveForms Oscilloscope Acquisition
#Device Name: Discovery2
#Serial Number: SN:210321B3D813
#Date Time: 2023-06-23 11:27:43.928
#Sample rate: 5e+07Hz
#Samples: 8192
#Trigger: Source: Channel 2 Type: Edge Condition: Rising Level: 2 V Hyst.: Auto HoldOff: 0 s
#Channel 1: Range: 10 mV/div Offset: 0 V Attenuation: 1 X Sample Mode: Average
#Channel 2: Range: 5 V/div Offset: 0 V Attenuation: 1 X Sample Mode: Average

Time (s),Channel 1 (V),Channel 2 (V)
-5.907762711864406e-06,0.005115373920456617,0.00991067751733847
-5.887762711864403e-06,0.00611735722149232,0.01363137466184692
-5.8677627118644e-06,0.006117357221492776,0.01363137466184692
-5.84776271186441e-06,0.007119340522527569,0.01363137466184692
-5.827762711864407e-06,0.00778732938988516,0.02851416323988071
-5.807762711864404e-06,0.006451351655170888,0.02851416323988071
-5.7877627118644e-06,0.007453334956206592,0.002469283228321573
-5.767762711864411e-06,0.008121323823563424,0.002469283228321573
-5.747762711864407e-06,0.007453334956206592,0.01735207180635537
-5.727762711864404e-06,0.008121323823563727,0.01735207180635537
-5.707762711864401e-06,0.005115373920456617,0.02851416323988071
-5.687762711864398e-06,0.005449368354135791,-0.004972111060698709
-5.667762711864408e-06,0.006785346088849456,-0.01241350534971222
-5.647762711864405e-06,0.006451351655170888,0.01735207180635537
-5.627762711864402e-06,0.004447385053099481,0.03223486038438916
-5.607762711864399e-06,0.002443418451029289,0.02851416323986887
-5.587762711864409e-06,0.005115373920455401,0.002469283228333417
-5.567762711864406e-06,0.005783362787813752,0.002469283228321573
-5.547762711864403e-06,0.004113390619420913,0.02107276895086382
-5.527762711864399e-06,0.006451351655170433,0.02479346609536719
-5.50776271186441e-06,0.00544936835413564,0.013631374661852
-5.487762711864407e-06,0.004781379486778049,0.006189980372830022
-5.467762711864403e-06,0.004113390619420913,0.006189980372830022
-5.4477627118644e-06,0.006451351655170888,0.01735207180635537
-5.427762711864411e-06,0.005783362787814056,0.0322348603843824
-5.407762711864407e-06,0.004447385053099481,0.02479346609537227
-5.387762711864404e-06,0.003445401752063777,0.006189980372830022
-5.367762711864401e-06,0.003445401752063777,0.01363137466184692
-5.347762711864398e-06,0.004447385053099481,0.02107276895086551
-5.327762711864408e-06,0.004447385053099481,0.02479346609537227
-5.307762711864405e-06,0.004447385053099481,0.02107276895086382
-5.287762711864402e-06,0.005449368354135184,0.00991067751733847
-5.267762711864399e-06,0.005449368354134729,0.01735207180635706
-5.247762711864409e-06,0.004447385053099937,0.02107276895086212
-5.227762711864406e-06,0.005449368354135184,0.02851416323988071
-5.207762711864402e-06,0.004781379486778049,0.02107276895086382
-5.187762711864399e-06,0.005449368354135033,0.01363137466183846
-5.16776271186441e-06,0.005115373920456768,-0.004972111060686867
-5.147762711864406e-06,0.003111407318385209,-0.001251413916186876
-5.127762711864403e-06,0.005115373920456617,0.03223486038438916
-5.1077627118644e-06,0.005449368354135184,0.006189980372830022
-5.08776271186441e-06,0.005115373920456768,0.006189980372830022
-5.067762711864407e-06,0.004781379486778049,0.002469283228321573
-5.047762711864404e-06,0.004447385053099481,0.006189980372830022
-5.027762711864401e-06,0.005783362787813752,0.02107276895086382
-5.007762711864398e-06,0.004781379486778656,0.009910677517326626
-4.987762711864408e-06,0.00611735722149232,-0.01613420249422067
-4.967762711864405e-06,0.006451351655170888,0.002469283228321573
-4.947762711864402e-06,0.00778732938988516,0.002469283228321573
-4.927762711864398e-06,0.007453334956207352,0.0247934660953655
-4.907762711864409e-06,0.009123307124599432,0.00991067751733847
-4.887762711864406e-06,0.008789312690920863,0.00991067751733847
-4.867762711864402e-06,0.007453334956206592,-0.004972111060695325
-4.847762711864399e-06,0.007119340522528328,0.01735207180635367
-4.82776271186441e-06,0.007787329389884856,0.01363137466184861
-4.807762711864406e-06,0.005783362787813752,0.02107276895086382
-4.787762711864403e-06,0.006451351655170888,-0.004972111060695325
-4.7677627118644e-06,0.005115373920456617,-0.001251413916186876
-4.74776271186441e-06,0.005449368354135033,0.006189980372826638
-4.727762711864407e-06,0.005449368354135184,0.002469283228321573
-4.707762711864404e-06,0.004781379486778049,0.01735207180635537
-4.687762711864401e-06,0.005115373920456617,0.002469283228321573
-4.667762711864398e-06,0.005115373920456617,-0.001251413916183492
-4.647762711864408e-06,0.005115373920456617,0.006189980372830022
-4.627762711864405e-06,0.005783362787813752,0.01363137466184692
-4.607762711864401e-06,0.005115373920456617,0.02107276895086382
-4.587762711864398e-06,0.005783362787813297,-0.004972111060695325
-4.567762711864409e-06,0.004781379486778049,-0.004972111060695325
-4.547762711864405e-06,0.004113390619420913,0.01363137466184692
-4.527762711864402e-06,0.003445401752063777,0.01735207180635537
-4.507762711864399e-06,0.002443418451028074,0.01735207180635367
-4.487762711864409e-06,0.002443418451028074,0.01363137466184861
-4.467762711864406e-06,0.003111407318385209,0.006189980372830022
-4.447762711864403e-06,0.003445401752063777,0.01735207180635537
-4.4277627118644e-06,0.003111407318385209,0.02851416323988071
-4.40776271186441e-06,0.003111407318385209,0.02851416323988071
-4.387762711864407e-06,0.003779396185742345,0.01735207180635537
-4.367762711864404e-06,0.003445401752063777,0.002469283228321573
-4.347762711864401e-06,0.003779396185742345,0.00991067751733847
-4.327762711864411e-06,0.005115373920456009,0.0247934660953655
-4.307762711864408e-06,0.004447385053099481,0.02479346609537227
-4.287762711864405e-06,0.004113390619420913,0.02479346609537227
-4.267762711864401e-06,0.003779396185742345,0.01363137466184692
-4.247762711864398e-06,0.004113390619421368,0.01735207180635875
-4.227762711864408e-06,0.005115373920456617,0.02479346609537227
-4.207762711864405e-06,0.004113390619420913,0.00991067751733847
-4.187762711864402e-06,0.005449368354135184,0.00991067751733847
-4.167762711864399e-06,0.005449368354134577,-0.008692808205195314
-4.147762711864409e-06,0.004113390619421521,0.009910677517330012
-4.127762711864406e-06,0.004113390619420913,0.02479346609537227
-4.107762711864403e-06,0.005449368354135184,0.01363137466184692
-4.0877627118644e-06,0.006451351655170433,0.002469283228321573
-4.06776271186441e-06,0.00544936835413564,0.002469283228321573
-4.047762711864407e-06,0.00611735722149232,0.02107276895086382
-4.027762711864404e-06,0.007119340522528024,0.00991067751733847
-4.0077627118644e-06,0.007453334956206592,-0.004972111060695325
-3.987762711864411e-06,0.008121323823563424,-0.008692808205202083
-3.967762711864408e-06,0.008121323823563727,0.00991067751733847
-3.947762711864404e-06,0.007119340522528024,-0.001251413916186876
-3.927762711864401e-06,0.008455318257242295,0.006189980372830022
-3.907762711864398e-06,0.006785346088849,0.002469283228321573
-3.887762711864408e-06,0.005783362787813752,0.002469283228321573
-3.867762711864405e-06,0.004447385053099481,0.002469283228321573
-3.847762711864402e-06,0.005449368354135184,0.01363137466184692
-3.827762711864399e-06,0.005449368354135336,0.01735207180635199
-3.807762711864409e-06,0.0057833627878136,0.009910677517341853
-3.787762711864406e-06,0.005115373920456617,0.006189980372830022
-3.767762711864403e-06,0.005783362787813752,0.002469283228321573
-3.7477627118644e-06,0.004781379486778049,0.01363137466184184
-3.72776271186441e-06,0.004781379486778049,0.002469283228326648
-3.707762711864407e-06,0.005449368354135184,0.002469283228321573
-3.687762711864403e-06,0.004781379486778049,0.006189980372830022
-3.6677627118644e-06,0.005115373920456617,-0.02357559678323757
-3.647762711864411e-06,0.004447385053099785,-0.01613420249422405
-3.627762711864407e-06,0.005449368354135184,-0.004972111060695325
-3.607762711864404e-06,0.004781379486778049,-0.008692808205203774
-3.587762711864401e-06,0.004781379486778049,-0.008692808205203774
-3.567762711864398e-06,0.005783362787814056,-0.01613420249421898
-3.547762711864408e-06,0.006451351655170888,-0.01241350534971222
-3.527762711864405e-06,0.005449368354135184,0.002469283228321573
-3.507762711864402e-06,0.004781379486778049,-0.001251413916186876
-3.487762711864399e-06,0.005449368354134729,-0.004972111060702093
-3.467762711864409e-06,0.004447385053099937,-0.01985489963872236
-3.447762711864406e-06,0.005115373920456617,-0.01613420249422067
-3.427762711864403e-06,0.004781379486778049,-0.004972111060695325
-3.407762711864399e-06,0.005115373920456768,0.01363137466183846
-3.38776271186441e-06,0.005449368354135033,-0.004972111060686867
-3.367762711864407e-06,0.005449368354135184,-0.004972111060695325
-3.347762711864403e-06,0.005115373920456617,-0.004972111060695325
-3.3277627118644e-06,0.005783362787813752,0.01735207180635537
-3.307762711864411e-06,0.005449368354135336,0.009910677517341853
-3.287762711864407e-06,0.005783362787813752,0.01363137466184692
-3.267762711864404e-06,0.004781379486778049,0.006189980372830022
-3.247762711864401e-06,0.005783362787813752,0.006189980372830022
-3.227762711864398e-06,0.006785346088849608,0.01363137466184523
-3.207762711864408e-06,0.007119340522528024,0.00991067751733847
-3.187762711864405e-06,0.00778732938988516,-0.004972111060695325
-3.167762711864402e-06,0.006785346088849456,-0.001251413916186876
-3.147762711864399e-06,0.007453334956206896,0.009910677517341855
-3.127762711864409e-06,0.008121323823563424,0.01735207180635199
-3.107762711864406e-06,0.008121323823563727,0.00991067751733847
-3.087762711864402e-06,0.008121323823563727,0.00991067751733847
-3.067762711864399e-06,0.007453334956206137,-0.01613420249421729
-3.04776271186441e-06,0.006451351655171344,-0.008692808205207157
-3.027762711864406e-06,0.006451351655170888,0.006189980372830022
-3.007762711864403e-06,0.005783362787813752,0.00991067751733847
-2.9877627118644e-06,0.006785346088849456,0.002469283228321573
-2.96776271186441e-06,0.00645135165517104,0.002469283228321573
-2.947762711864407e-06,0.00611735722149232,0.00991067751733847
-2.927762711864404e-06,0.006785346088849456,0.01735207180635537
-2.907762711864401e-06,0.006451351655170888,-0.001251413916186876
-2.887762711864398e-06,0.0077873293898844,-0.004972111060693633
-2.867762711864408e-06,0.00611735722149232,-0.001251413916186876
-2.847762711864405e-06,0.006451351655170888,0.00991067751733847
-2.827762711864402e-06,0.00611735722149232,0.01735207180635537
-2.807762711864398e-06,0.004781379486778656,0.01363137466184353
-2.787762711864409e-06,0.00611735722149232,0.006189980372830022
-2.767762711864406e-06,0.006451351655170888,0.00991067751733847
-2.747762711864402e-06,0.00611735722149232,0.006189980372830022
-2.727762711864399e-06,0.007787329389884856,0.02107276895086212
-2.707762711864409e-06,0.007119340522528328,0.01735207180635706
-2.687762711864406e-06,0.007119340522528024,0.00991067751733847
-2.667762711864403e-06,0.006785346088849456,0.00991067751733847
-2.6477627118644e-06,0.006785346088849456,0.01735207180635537
-2.62776271186441e-06,0.006785346088849456,0.02479346609536888
-2.607762711864407e-06,0.006451351655170888,0.006189980372830022
-2.587762711864404e-06,0.005783362787813752,0.002469283228321573
-2.567762711864401e-06,0.006785346088849456,-0.004972111060695325
-2.547762711864397e-06,0.006451351655171192,-0.004972111060695325
-2.527762711864408e-06,0.007119340522528024,-0.004972111060695325
-2.507762711864405e-06,0.005449368354135184,0.00991067751733847
-2.487762711864401e-06,0.005783362787813752,-0.008692808205203774
-2.467762711864398e-06,0.005115373920457376,-0.01241350534970546
-2.447762711864409e-06,0.006785346088849456,0.002469283228321573
-2.427762711864405e-06,0.006451351655170888,-0.004972111060695325
-2.407762711864402e-06,0.00611735722149232,0.00991067751733847
-2.387762711864399e-06,0.006785346088849304,-0.008692808205200389
-2.367762711864409e-06,0.00645135165517104,-0.00125141391619026
-2.347762711864406e-06,0.007453334956206592,0.01735207180635537
-2.327762711864403e-06,0.007119340522528024,0.01735207180635537
-2.3077627118644e-06,0.006785346088849456,0.002469283228321573
-2.28776271186441e-06,0.007119340522527873,-0.008692808205198698
-2.267762711864407e-06,0.008121323823563727,0.01363137466184692
-2.247762711864404e-06,0.006451351655170888,0.02107276895086382
-2.227762711864401e-06,0.008121323823563727,-0.004972111060695325
-2.207762711864411e-06,0.006785346088850064,0.02107276895085197
-2.187762711864408e-06,0.007453334956206592,0.006189980372830022
-2.167762711864404e-06,0.00611735722149232,-0.008692808205203774
-2.147762711864401e-06,0.006451351655170888,0.01363137466184692
-2.127762711864398e-06,0.006785346088849608,0.002469283228318189
-2.107762711864408e-06,0.007119340522528024,-0.004972111060695325
-2.087762711864405e-06,0.006785346088849456,0.00991067751733847
-2.067762711864402e-06,0.007119340522528024,0.006189980372830022
-2.047762711864399e-06,0.006451351655171192,0.009910677517341855
-2.027762711864409e-06,0.007119340522527721,0.01735207180635199
-2.007762711864406e-06,0.006785346088849456,0.02479346609537227
-1.987762711864403e-06,0.006785346088849456,0.01363137466184692
-1.9677627118644e-06,0.005783362787813752,0.01363137466184692
-1.94776271186441e-06,0.005783362787813752,0.01363137466184692
-1.927762711864407e-06,0.005449368354135184,0.02107276895086382
-1.907762711864404e-06,0.005783362787813752,0.01735207180635537
-1.8877627118644e-06,0.005115373920456617,0.01363137466184692
-1.867762711864411e-06,0.00311140731838612,0.01735207180635367
-1.847762711864408e-06,0.005449368354135184,0.02851416323988071
-1.827762711864404e-06,0.005115373920456617,0.02479346609537227
-1.807762711864401e-06,0.004113390619420913,0.03223486038438916
-1.787762711864398e-06,0.005115373920456617,0.009910677517346931
-1.767762711864408e-06,0.005115373920456617,0.02851416323988071
-1.747762711864405e-06,0.005115373920456617,0.02479346609537227
-1.727762711864402e-06,0.005783362787813752,0.02851416323988071
-1.707762711864399e-06,0.005783362787813448,0.02851416323987733
-1.687762711864409e-06,0.00511537392045692,0.0210727689508672
-1.667762711864406e-06,0.00611735722149232,0.006189980372830022
-1.647762711864403e-06,0.005783362787813752,0.02107276895086382
-1.6277627118644e-06,0.006785346088848849,0.006189980372830022
-1.60776271186441e-06,0.005449368354135791,0.006189980372830022
-1.587762711864407e-06,0.005449368354135184,-0.008692808205203774
-1.567762711864403e-06,0.005115373920456617,-0.004972111060695325
-1.5477627118644e-06,0.005115373920456617,0.00991067751733847
-1.527762711864411e-06,0.00645135165517028,0.006189980372831713
-1.507762711864407e-06,0.006451351655170888,0.006189980372830022
-1.487762711864404e-06,0.007119340522528024,-0.004972111060695325
-1.467762711864401e-06,0.008455318257242295,-0.008692808205203774
-1.447762711864398e-06,0.007119340522528176,-0.001251413916186876
-1.427762711864408e-06,0.007453334956206592,-0.001251413916186876
-1.407762711864405e-06,0.006451351655170888,-0.004972111060695325
-1.387762711864402e-06,0.008121323823563727,-0.01241350534971222
-1.367762711864399e-06,0.00812132382356312,-0.008692808205197007
-1.347762711864409e-06,0.006785346088850064,0.006189980372823254
-1.327762711864406e-06,0.00611735722149232,-0.008692808205203774
-1.307762711864403e-06,0.005783362787813752,0.00991067751733847
-1.287762711864399e-06,0.005115373920456313,-0.01613420249422067
-1.26776271186441e-06,0.004447385053099785,-0.01613420249422067
-1.247762711864407e-06,0.005783362787813752,-0.001251413916186876
-1.227762711864403e-06,0.00611735722149232,0.006189980372830022
-1.2077627118644e-06,0.005783362787813752,-0.004972111060695325
-1.18776271186441e-06,0.007453334956205832,-0.0161342024942156
-1.167762711864407e-06,0.007119340522528024,-0.01985489963872912
-1.147762711864404e-06,0.008121323823563727,-0.01241350534971222
-1.127762711864401e-06,0.007453334956206592,0.00991067751733847
-1.107762711864398e-06,0.00711934052252848,-0.004972111060700401
-1.087762711864408e-06,0.008121323823563727,-0.01613420249422067
-1.067762711864405e-06,0.007119340522528024,-0.01241350534971222
-1.047762711864402e-06,0.006785346088849456,0.002469283228321573
-1.027762711864398e-06,0.007119340522528176,0.009910677517336779
-1.007762711864409e-06,0.00745333495620644,0.006189980372831713
-9.877627118644056e-07,0.008455318257242295,-0.001251413916186876
-9.677627118644024e-07,0.00778732938988516,-0.001251413916186876
-9.477627118643992e-07,0.00778732938988592,0.006189980372833405
-9.277627118644096e-07,0.00945730155827724,0.01363137466184354
-9.077627118644064e-07,0.00778732938988516,0.006189980372830022
-8.877627118644032e-07,0.009457301558278,0.00991067751733847
-8.677627118644e-07,0.008789312690920863,0.002469283228321573
-8.477627118644104e-07,0.009123307124599279,0.00618998037282833
-8.277627118644072e-07,0.008789312690920863,0.00991067751733847
-8.07762711864404e-07,0.006785346088849456,0.01363137466184692
-7.877627118644008e-07,0.00778732938988516,-0.004972111060695325
-7.677627118643976e-07,0.007119340522527873,-0.004972111060688557
-7.477627118644079e-07,0.006785346088849456,0.00991067751733847
-7.277627118644047e-07,0.008121323823563727,0.02479346609537227
-7.077627118644015e-07,0.006451351655170888,0.02107276895086382
-6.877627118643983e-07,0.007119340522527721,0.002469283228318189
-6.677627118644087e-07,0.006451351655170888,-0.004972111060695325
-6.477627118644055e-07,0.00611735722149232,0.00991067751733847
-6.277627118644023e-07,0.00611735722149232,0.002469283228321573
-6.077627118643991e-07,0.006785346088849759,0.009910677517335086
-5.877627118644095e-07,0.007453334956206288,0.002469283228324956
-5.677627118644063e-07,0.006451351655170888,-0.001251413916186876
-5.477627118644031e-07,0.004781379486778049,0.006189980372830022
-5.277627118643999e-07,0.00611735722149232,0.002469283228321573
-5.077627118644102e-07,0.00611735722149232,0.00618998037282833
-4.87762711864407e-07,0.007119340522528024,0.01363137466184692
-4.677627118644038e-07,0.004781379486778049,-0.004972111060695325
-4.477627118644006e-07,0.005449368354135184,0.00991067751733847
-4.27762711864411e-07,0.005115373920456768,0.02107276895085874
-4.077627118644078e-07,0.005449368354135184,0.01735207180635537
-3.877627118644046e-07,0.005115373920456617,0.006189980372830022
-3.677627118644014e-07,0.004781379486778049,0.02479346609537227
-3.477627118643982e-07,0.005115373920456465,0.01363137466185369
-3.277627118644086e-07,0.004781379486778049,0.02851416323988071
-3.077627118644054e-07,0.005449368354135184,0.02851416323988071
-2.877627118644022e-07,0.005783362787813752,0.00991067751733847
-2.67762711864399e-07,0.004113390619421368,0.009910677517341855
-2.477627118644093e-07,0.005115373920456161,0.01735207180635199
-2.277627118644061e-07,0.005783362787813752,0.01735207180635537
-2.077627118644029e-07,0.005449368354135184,0.01735207180635537
-1.877627118643997e-07,0.005449368354135184,0.00991067751733847
-1.677627118644101e-07,0.005449368354135184,0.01363137466184523
-1.477627118644069e-07,0.005115373920456617,0.01735207180635537
-1.277627118644037e-07,0.005783362787813752,0.01363137466184692
-1.077627118644005e-07,0.006451351655170888,0.00991067751733847
-8.776271186441086e-08,0.005115373920457224,0.01735207180635199
-6.776271186440766e-08,0.005783362787813752,0.00991067751733847
-4.776271186440447e-08,0.005449368354135184,0.00991067751733847
-2.776271186440127e-08,0.00611735722149232,0.006189980372830022
-7.762711864398074e-09,-0.006908425691963625,1.144723306593414
1.223728813559157e-08,0.01112727372667084,3.3399346218524
3.223728813559477e-08,0.01012529042563514,3.332493227563384
5.223728813559796e-08,0.008121323823563727,3.354817410430434
7.223728813560116e-08,0.003445401752062259,3.365979501863949
9.22372881355908e-08,0.0001054574152796169,3.343655318996919
1.12237288135594e-07,0.003445401752063777,3.313889741840841
1.322372881355972e-07,0.00778732938988516,3.306448347551824
1.522372881356004e-07,0.008455318257241232,3.332493227563394
