traces_bank_current_trigger/benchmark_traces/fibonacci_50MHz/fib_17.csv

#Digilent WaveForms Oscilloscope Acquisition
#Device Name: Discovery2
#Serial Number: SN:210321B3D813
#Date Time: 2023-06-23 15:12:35.008
#Sample rate: 5e+07Hz
#Samples: 8192
#Trigger: Source: Channel 2 Type: Edge Condition: Rising Level: 2 V Hyst.: Auto HoldOff: 0 s
#Channel 1: Range: 10 mV/div Offset: 0 V Attenuation: 1 X Sample Mode: Average
#Channel 2: Range: 5 V/div Offset: 0 V Attenuation: 1 X Sample Mode: Average

Time (s),Channel 1 (V),Channel 2 (V)
-1.791006468305305e-05,0.005115373920456617,0.02479346609537227
-1.789006468305304e-05,0.00611735722149232,0.02107276895086382
-1.787006468305304e-05,0.005783362787813904,0.02107276895086043
-1.785006468305305e-05,0.006117357221492169,0.0136313746618503
-1.783006468305305e-05,0.005783362787813752,0.02479346609537227
-1.781006468305304e-05,0.005783362787813752,0.02107276895086382
-1.779006468305304e-05,0.005783362787813752,0.02851416323988071
-1.777006468305305e-05,0.004447385053100088,0.01363137466185369
-1.775006468305305e-05,0.004781379486778049,0.01363137466184692
-1.773006468305304e-05,0.005449368354135184,0.01735207180635537
-1.771006468305304e-05,0.005449368354135184,0.01735207180635537
-1.769006468305304e-05,0.005115373920456617,0.006189980372830022
-1.767006468305305e-05,0.005115373920456617,0.006189980372830022
-1.765006468305304e-05,0.005115373920456617,0.002469283228321573
-1.763006468305304e-05,0.005115373920456617,0.006189980372830022
-1.761006468305304e-05,0.005449368354136248,0.02479346609537057
-1.759006468305305e-05,0.007787329389884096,0.02107276895086551
-1.757006468305305e-05,0.005783362787813752,0.01735207180635537
-1.755006468305304e-05,0.007119340522528024,0.00991067751733847
-1.753006468305304e-05,0.007453334956206896,0.01363137466185538
-1.751006468305305e-05,0.008121323823563424,0.0322348603843807
-1.749006468305305e-05,0.008455318257242295,0.02479346609537227
-1.747006468305304e-05,0.008455318257242295,0.01735207180635537
-1.745006468305304e-05,0.00778732938988516,0.00991067751733847
-1.743006468305305e-05,0.00778732938988516,0.01363137466184523
-1.741006468305305e-05,0.006451351655170888,0.02479346609537227
-1.739006468305304e-05,0.007453334956206592,0.01735207180635537
-1.737006468305304e-05,0.006785346088849456,0.00991067751733847
-1.735006468305304e-05,0.006117357221492169,0.009910677517345238
-1.733006468305305e-05,0.005783362787813752,0.02479346609537227
-1.731006468305304e-05,0.005449368354135184,0.00991067751733847
-1.729006468305304e-05,0.006451351655170888,0.01363137466184692
-1.727006468305304e-05,0.007453334956206592,0.0173520718063486
-1.725006468305305e-05,0.007453334956206592,0.00246928322832834
-1.723006468305304e-05,0.008121323823563727,0.02107276895086382
-1.721006468305304e-05,0.00778732938988516,0.02107276895086382
-1.719006468305304e-05,0.006785346088849304,0.02107276895085705
-1.717006468305305e-05,0.00645135165517104,0.006189980372836789
-1.715006468305305e-05,0.004781379486778049,0.00991067751733847
-1.713006468305304e-05,0.004447385053099481,0.01363137466184692
-1.711006468305304e-05,0.005115373920456617,0.03595555752889761
-1.709006468305305e-05,0.004113390619421368,0.01735207180636383
-1.707006468305305e-05,0.003779396185742345,0.02107276895086382
-1.705006468305304e-05,0.004447385053099481,-0.004972111060695325
-1.703006468305304e-05,0.004447385053099481,0.02107276895086382
-1.701006468305304e-05,0.003445401752064385,0.01735207180635537
-1.699006468305305e-05,0.004781379486778049,0.01735207180635537
-1.697006468305304e-05,0.003779396185742345,0.01363137466184692
-1.695006468305304e-05,0.003445401752063777,0.01363137466184692
-1.693006468305304e-05,0.003111407318385513,0.01735207180635537
-1.691006468305305e-05,0.003779396185742345,0.01735207180635537
-1.689006468305304e-05,0.005115373920456617,0.02107276895086382
-1.687006468305304e-05,0.004781379486778049,0.01363137466184692
-1.685006468305304e-05,0.004447385053099481,0.009910677517341855
-1.683006468305305e-05,0.004447385053099481,0.01735207180635199
-1.681006468305305e-05,0.004113390619420913,0.01363137466184692
-1.679006468305304e-05,0.005115373920456617,0.01363137466184692
-1.677006468305304e-05,0.004447385053099481,0.002469283228321573
-1.675006468305305e-05,0.004781379486777897,0.00618998037282833
-1.673006468305305e-05,0.004781379486778049,0.006189980372830022
-1.671006468305304e-05,0.004447385053099481,0.01735207180635537
-1.669006468305304e-05,0.005449368354135184,0.01735207180635537
-1.667006468305304e-05,0.0057833627878136,0.002469283228321573
-1.665006468305305e-05,0.005449368354135184,0.002469283228321573
-1.663006468305304e-05,0.00611735722149232,0.01363137466184692
-1.661006468305304e-05,0.006785346088849456,0.00991067751733847
-1.659006468305304e-05,0.008789312690920256,0.006189980372824946
-1.657006468305305e-05,0.007453334956206592,-0.004972111060695325
-1.655006468305304e-05,0.007119340522528024,-0.004972111060695325
-1.653006468305304e-05,0.005783362787813752,0.01363137466184692
-1.651006468305304e-05,0.006117357221492169,0.02107276895085874
-1.649006468305305e-05,0.005783362787813904,0.009910677517343546
-1.647006468305305e-05,0.005783362787813752,0.006189980372830022
-1.645006468305304e-05,0.004447385053099481,0.002469283228321573
-1.643006468305304e-05,0.003445401752063777,0.002469283228321573
-1.641006468305305e-05,0.004781379486777442,0.0173520718063486
-1.639006468305305e-05,0.005783362787813752,0.02479346609537227
-1.637006468305304e-05,0.00611735722149232,0.02107276895086382
-1.635006468305304e-05,0.006451351655170888,-0.004972111060695325
-1.633006468305305e-05,0.006117357221492472,0.009910677517331703
-1.631006468305305e-05,0.005115373920456617,0.01735207180635537
-1.629006468305304e-05,0.00611735722149232,0.01735207180635537
-1.627006468305304e-05,0.005783362787813752,0.006189980372830022
-1.625006468305304e-05,0.005115373920456465,-0.001251413916183492
-1.623006468305305e-05,0.004781379486778049,0.006189980372830022
-1.621006468305304e-05,0.004447385053099481,0.00991067751733847
-1.619006468305304e-05,0.004113390619420913,0.02107276895086382
-1.617006468305304e-05,0.004113390619420609,0.01363137466184523
-1.615006468305305e-05,0.003445401752064081,0.009910677517340162
-1.613006468305305e-05,0.004781379486778049,0.01363137466184692
-1.611006468305304e-05,0.004781379486778049,0.006189980372830022
-1.609006468305304e-05,0.004447385053099785,0.01735207180635706
-1.607006468305305e-05,0.005115373920456313,0.02107276895086212
-1.605006468305305e-05,0.004781379486778049,0.01363137466184692
-1.603006468305304e-05,0.005449368354135184,0.01735207180635537
-1.601006468305304e-05,0.005115373920456617,0.03223486038438916
-1.599006468305305e-05,0.004447385053099785,0.02479346609537565
-1.597006468305305e-05,0.004113390619420913,0.02107276895086382
-1.595006468305304e-05,0.004781379486778049,0.02851416323988071
-1.593006468305304e-05,0.004781379486778049,0.01363137466184692
-1.591006468305304e-05,0.003445401752064081,0.03223486038438916
-1.589006468305305e-05,0.004113390619420913,0.03223486038438916
-1.587006468305304e-05,0.004113390619420913,0.02479346609537227
-1.585006468305304e-05,0.004781379486778049,0.01363137466184692
-1.583006468305304e-05,0.004113390619420609,0.02107276895087228
-1.581006468305305e-05,0.003445401752064081,0.0396762546733976
-1.579006468305305e-05,0.00611735722149232,0.03595555752889761
-1.577006468305304e-05,0.004781379486778049,0.02107276895086382
-1.575006468305304e-05,0.007119340522527721,0.01735207180635706
-1.573006468305305e-05,0.006451351655171192,0.02107276895086212
-1.571006468305305e-05,0.007119340522528024,0.02479346609537227
-1.569006468305304e-05,0.008121323823563727,0.002469283228321573
-1.567006468305304e-05,0.00778732938988516,0.002469283228321573
-1.565006468305305e-05,0.007453334956206744,0.00618998037282833
-1.563006468305305e-05,0.007119340522528024,0.01735207180635537
-1.561006468305304e-05,0.005783362787813752,0.01363137466184692
-1.559006468305304e-05,0.007119340522528024,0.006189980372830022
-1.557006468305304e-05,0.00645135165517104,0.01363137466184015
-1.555006468305305e-05,0.006785346088849456,-0.001251413916186876
-1.553006468305304e-05,0.005115373920456617,0.01363137466184692
-1.551006468305304e-05,0.005449368354135184,0.01735207180635537
-1.549006468305304e-05,0.007453334956205832,0.01735207180635537
-1.547006468305305e-05,0.005783362787814512,0.01735207180635537
-1.545006468305305e-05,0.006451351655170888,-0.001251413916186876
-1.543006468305304e-05,0.006785346088849456,0.006189980372830022
-1.541006468305304e-05,0.006451351655170736,0.02107276895086551
-1.539006468305305e-05,0.006117357221492472,0.02479346609537057
-1.537006468305305e-05,0.005783362787813752,-0.004972111060695325
-1.535006468305304e-05,0.005115373920456617,0.002469283228321573
-1.533006468305304e-05,0.003445401752063777,0.006189980372830022
-1.531006468305305e-05,0.003111407318385361,0.02851416323987056
-1.529006468305305e-05,0.005115373920456617,0.01363137466184692
-1.527006468305304e-05,0.004113390619420913,0.002469283228321573
-1.525006468305304e-05,0.003779396185742345,0.002469283228321573
-1.523006468305304e-05,0.004113390619420609,0.002469283228323264
-1.521006468305305e-05,0.003445401752063777,0.006189980372830022
-1.519006468305304e-05,0.004447385053099481,0.01735207180635537
-1.517006468305304e-05,0.003779396185742345,-0.004972111060695325
-1.515006468305304e-05,0.004447385053099481,-0.008692808205202083
-1.513006468305305e-05,0.004447385053099481,-0.004972111060697016
-1.511006468305304e-05,0.004447385053099481,0.00991067751733847
-1.509006468305304e-05,0.004781379486778049,0.002469283228321573
-1.507006468305304e-05,0.004113390619420306,-0.004972111060698709
-1.505006468305305e-05,0.002777412884707249,-0.01241350534970884
-1.503006468305305e-05,0.002443418451028074,-0.008692808205203774
-1.501006468305304e-05,0.003445401752063777,0.006189980372830022
-1.499006468305304e-05,0.004447385053099481,-0.001251413916186876
-1.497006468305305e-05,0.003779396185742649,-0.01985489963872066
-1.495006468305305e-05,0.004447385053099481,-0.02357559678323757
-1.493006468305304e-05,0.004113390619420913,-0.01613420249422067
-1.491006468305304e-05,0.004113390619420913,-0.008692808205203774
-1.489006468305304e-05,0.006117357221491713,-0.01613420249421221
-1.487006468305305e-05,0.004781379486778049,0.002469283228321573
-1.485006468305304e-05,0.005115373920456617,-0.01613420249422067
-1.483006468305304e-05,0.007119340522528024,-0.008692808205203774
-1.481006468305304e-05,0.007453334956206592,0.006189980372824946
-1.479006468305305e-05,0.007453334956206592,-0.004972111060695325
-1.477006468305304e-05,0.007453334956206592,-0.01241350534971222
-1.475006468305304e-05,0.006785346088849456,-0.01241350534971222
-1.473006468305304e-05,0.007119340522527873,0.006189980372833405
-1.471006468305305e-05,0.006785346088849608,0.01363137466184354
-1.469006468305305e-05,0.006451351655170888,0.01363137466184692
-1.467006468305304e-05,0.005783362787813752,-0.008692808205203774
-1.465006468305304e-05,0.005449368354135184,-0.004972111060695325
-1.463006468305305e-05,0.0057833627878136,0.002469283228318189
-1.461006468305305e-05,0.005115373920456617,0.01735207180635537
-1.459006468305304e-05,0.006785346088849456,0.01363137466184692
-1.457006468305304e-05,0.00611735722149232,0.006189980372830022
-1.455006468305304e-05,0.005449368354135791,0.006189980372823253
-1.453006468305305e-05,0.006785346088849456,-0.008692808205203774
-1.451006468305304e-05,0.005783362787813752,0.00991067751733847
-1.449006468305304e-05,0.005449368354135184,0.00991067751733847
-1.447006468305304e-05,0.005449368354134577,0.01363137466184523
-1.445006468305305e-05,0.004113390619420913,0.00991067751733847
-1.443006468305304e-05,0.003445401752063777,0.002469283228321573
-1.441006468305304e-05,0.002777412884706641,0.00991067751733847
-1.439006468305304e-05,0.003779396185741737,0.01363137466184353
-1.437006468305305e-05,0.002443418451028681,0.006189980372833405
-1.435006468305305e-05,0.001775429583670938,0.01363137466184692
-1.433006468305304e-05,0.002777412884706641,0.01735207180635537
-1.431006468305304e-05,0.003111407318385209,0.00991067751733847
-1.429006468305305e-05,0.003779396185742042,0.01363137466184523
-1.427006468305305e-05,0.003445401752063777,0.002469283228321573
-1.425006468305304e-05,0.003445401752063777,-0.008692808205203774
-1.423006468305304e-05,0.002777412884706641,0.002469283228321573
-1.421006468305305e-05,0.005115373920455553,0.009910677517335088
-1.419006468305305e-05,0.004781379486778049,0.002469283228321573
-1.417006468305304e-05,0.004113390619420913,0.01363137466184692
-1.415006468305304e-05,0.003445401752063777,-0.01241350534971222
-1.413006468305304e-05,0.002443418451028529,0.009910677517335086
-1.411006468305305e-05,0.003445401752063777,0.002469283228321573
-1.409006468305304e-05,0.003445401752063777,0.02107276895086382
-1.407006468305304e-05,0.002777412884706641,0.006189980372830022
-1.405006468305304e-05,0.003111407318385209,-0.008692808205195314
-1.403006468305305e-05,0.003111407318385209,0.009910677517330012
-1.401006468305305e-05,0.003779396185742345,0.03223486038438916
-1.399006468305304e-05,0.005115373920456617,0.02107276895086382
-1.397006468305304e-05,0.00511537392045692,0.02479346609536381
-1.395006468305305e-05,0.005783362787813448,0.00618998037283848
-1.393006468305305e-05,0.006451351655170888,0.01735207180635537
-1.391006468305304e-05,0.007453334956206592,0.02107276895086382
-1.389006468305304e-05,0.008455318257242295,0.02851416323988071
-1.387006468305305e-05,0.007787329389885463,0.01735207180636044
-1.385006468305305e-05,0.007453334956206592,0.01363137466184692
-1.383006468305304e-05,0.006451351655170888,0.01363137466184692
-1.381006468305304e-05,0.005783362787813752,0.03223486038438916
-1.379006468305304e-05,0.006785346088849304,0.0210727689508672
-1.377006468305305e-05,0.006451351655170888,0.02851416323988071
-1.375006468305304e-05,0.004113390619420913,0.01363137466184692
-1.373006468305304e-05,0.005449368354135184,0.01363137466184692
-1.371006468305304e-05,0.005783362787814207,0.02479346609536888
-1.369006468305305e-05,0.006785346088849,0.01735207180635875
-1.367006468305305e-05,0.005783362787813752,0.00991067751733847
-1.365006468305304e-05,0.007119340522528024,0.00991067751733847
-1.363006468305304e-05,0.007787329389884704,0.02851416323988071
-1.361006468305305e-05,0.006785346088849911,0.02851416323988071
-1.359006468305305e-05,0.006785346088849456,0.03967625467340606
-1.357006468305304e-05,0.006451351655170888,0.01363137466184692
-1.355006468305304e-05,0.006785346088849456,0.00991067751733847
-1.353006468305305e-05,0.005449368354135791,0.0247934660953655
-1.351006468305305e-05,0.004781379486778049,0.03595555752889761
-1.349006468305304e-05,0.006451351655170888,0.04339695181791451
-1.347006468305304e-05,0.004781379486778049,0.02851416323988071
-1.345006468305304e-05,0.004781379486778504,0.01363137466185707
-1.343006468305305e-05,0.005783362787813752,0.03595555752889761
-1.341006468305304e-05,0.004447385053099481,0.04339695181791451
-1.339006468305304e-05,0.005115373920456617,0.03967625467340606
-1.337006468305304e-05,0.004447385053099785,0.03223486038438408
-1.335006468305305e-05,0.005115373920456313,0.02107276895086889
-1.333006468305304e-05,0.005449368354135184,0.03967625467340606
-1.331006468305304e-05,0.004447385053099481,0.02851416323988071
-1.329006468305304e-05,0.005115373920456768,0.03223486038438747
-1.327006468305305e-05,0.005449368354135033,0.02851416323988241
-1.325006468305305e-05,0.003779396185742345,0.00991067751733847
-1.323006468305304e-05,0.004113390619420913,0.02107276895086382
-1.321006468305304e-05,0.004447385053099481,0.02851416323988071
-1.319006468305305e-05,0.005115373920456313,0.02479346609537396
-1.317006468305305e-05,0.004447385053099481,0.02851416323988071
-1.315006468305304e-05,0.004113390619420913,0.02479346609537227
-1.313006468305304e-05,0.005783362787813752,0.03223486038438916
-1.311006468305304e-05,0.00511537392045692,0.02479346609537565
-1.309006468305305e-05,0.005783362787813752,0.03223486038438916
-1.307006468305304e-05,0.00611735722149232,0.03595555752889761
-1.305006468305304e-05,0.005783362787813752,0.01363137466184692
-1.303006468305304e-05,0.008121323823563271,0.03223486038439424
-1.301006468305305e-05,0.00711934052252848,0.04339695181790944
-1.299006468305304e-05,0.009457301558278,0.03967625467340606
-1.297006468305304e-05,0.008455318257242295,0.03595555752889761
-1.295006468305304e-05,0.008121323823563727,0.01735207180636214
-1.293006468305305e-05,0.008121323823563727,0.0322348603843824
-1.291006468305305e-05,0.006785346088849456,0.03967625467340606
-1.289006468305304e-05,0.007119340522528024,0.02851416323988071
-1.287006468305304e-05,0.006785346088849456,0.02107276895086382
-1.285006468305305e-05,0.00645135165517104,0.01735207180635706
-1.283006468305305e-05,0.006785346088849456,0.01363137466184692
-1.281006468305304e-05,0.005449368354135184,0.03223486038438916
-1.279006468305304e-05,0.00611735722149232,0.02479346609537227
-1.277006468305304e-05,0.006785346088849152,0.01363137466184692
-1.275006468305305e-05,0.00611735722149232,0.01363137466184692
-1.273006468305304e-05,0.006785346088849456,0.02107276895086382
-1.271006468305304e-05,0.007119340522528024,0.02107276895086382
-1.269006468305304e-05,0.006785346088848696,0.03595555752888915
-1.267006468305305e-05,0.005115373920456617,0.01735207180635537
-1.265006468305304e-05,0.005783362787813752,0.01363137466184692
-1.263006468305304e-05,0.005449368354135184,0.02479346609537227
-1.261006468305304e-05,0.005449368354135184,0.0247934660953655
-1.259006468305305e-05,0.005449368354135184,0.009910677517345238
-1.257006468305305e-05,0.005449368354135184,0.01735207180635537
-1.255006468305304e-05,0.005783362787813752,0.002469283228321573
-1.253006468305304e-05,0.006451351655170888,0.01363137466184692
-1.251006468305305e-05,0.006117357221492472,0.01735207180635367
-1.249006468305305e-05,0.005783362787813752,0.02107276895086382
-1.247006468305304e-05,0.007119340522528024,0.00991067751733847
-1.245006468305304e-05,0.00611735722149232,0.002469283228321573
-1.243006468305305e-05,0.007119340522527569,0.00618998037282833
-1.241006468305305e-05,0.00611735722149232,0.00991067751733847
-1.239006468305304e-05,0.005783362787813752,0.006189980372830022
-1.237006468305304e-05,0.005783362787813752,0.01363137466184692
-1.235006468305304e-05,0.00544936835413564,-0.008692808205197007
-1.233006468305305e-05,0.006451351655170888,0.006189980372830022
-1.231006468305304e-05,0.005449368354135184,0.02107276895086382
-1.229006468305304e-05,0.005115373920456617,0.01735207180635537
-1.227006468305304e-05,0.005783362787813904,0.002469283228316497
-1.225006468305305e-05,0.006117357221492169,-0.008692808205198698
-1.223006468305305e-05,0.00611735722149232,0.01363137466184692
-1.221006468305304e-05,0.006785346088849456,0.01363137466184692
-1.219006468305304e-05,0.006451351655170888,0.01363137466184692
-1.217006468305305e-05,0.007453334956206137,0.002469283228326648
-1.215006468305305e-05,0.00778732938988516,-0.008692808205203774
-1.213006468305304e-05,0.008455318257242295,-0.001251413916186876
-1.211006468305304e-05,0.008455318257242295,0.01363137466184692
-1.209006468305305e-05,0.008455318257242295,0.006189980372833405
-1.207006468305305e-05,0.006785346088849456,-0.008692808205203774
-1.205006468305304e-05,0.008455318257242295,-0.01241350534971222
-1.203006468305304e-05,0.007119340522528024,0.002469283228321573
-1.201006468305304e-05,0.006117357221492776,0.006189980372830022
-1.199006468305305e-05,0.007119340522528024,0.006189980372830022
-1.197006468305304e-05,0.005783362787813752,-0.001251413916186876
-1.195006468305304e-05,0.00611735722149232,-0.004972111060695325
-1.193006468305304e-05,0.0057833627878136,0.002469283228323264
-1.191006468305305e-05,0.005449368354135336,0.00618998037282833
-1.189006468305305e-05,0.006451351655170888,0.006189980372830022
-1.187006468305304e-05,0.007119340522528024,0.002469283228321573
