traces_bank_current_trigger/benchmark_traces/fibonacci_50MHz/fib_9.csv

#Digilent WaveForms Oscilloscope Acquisition
#Device Name: Discovery2
#Serial Number: SN:210321B3D813
#Date Time: 2023-06-23 12:19:05.492
#Sample rate: 5e+07Hz
#Samples: 8192
#Trigger: Source: Channel 2 Type: Edge Condition: Rising Level: 2 V Hyst.: Auto HoldOff: 0 s
#Channel 1: Range: 10 mV/div Offset: 0 V Attenuation: 1 X Sample Mode: Average
#Channel 2: Range: 5 V/div Offset: 0 V Attenuation: 1 X Sample Mode: Average

Time (s),Channel 1 (V),Channel 2 (V)
-9.908765060240963e-06,0.005115373920456617,0.01363137466184692
-9.88876506024096e-06,0.005115373920456617,0.006189980372830022
-9.868765060240956e-06,0.004781379486778201,-0.004972111060686865
-9.848765060240967e-06,0.005115373920456465,0.01363137466183846
-9.828765060240964e-06,0.00611735722149232,0.02107276895086382
-9.80876506024096e-06,0.004447385053099481,0.01363137466184692
-9.788765060240957e-06,0.005115373920456617,0.00991067751733847
-9.768765060240968e-06,0.004113390619421368,0.002469283228324956
-9.748765060240964e-06,0.004113390619420913,0.01363137466184692
-9.728765060240961e-06,0.005115373920456617,0.00991067751733847
-9.708765060240958e-06,0.004113390619420913,0.01735207180635537
-9.688765060240955e-06,0.00444738505309933,-0.004972111060695325
-9.668765060240965e-06,0.004113390619420913,-0.004972111060695325
-9.648765060240962e-06,0.004113390619420913,-0.004972111060695325
-9.628765060240959e-06,0.003779396185742345,0.00991067751733847
-9.608765060240956e-06,0.004447385053099481,0.01363137466184184
-9.588765060240966e-06,0.004447385053099481,0.002469283228326648
-9.568765060240963e-06,0.003779396185742345,-0.001251413916186876
-9.54876506024096e-06,0.004781379486778049,0.01363137466184692
-9.528765060240956e-06,0.003779396185742649,0.01735207180635199
-9.508765060240967e-06,0.004447385053099178,0.009910677517341853
-9.488765060240964e-06,0.00611735722149232,-0.001251413916186876
-9.46876506024096e-06,0.005783362787813752,-0.008692808205203774
-9.448765060240957e-06,0.006785346088849456,-0.004972111060695325
-9.428765060240967e-06,0.007119340522527873,0.009910677517331703
-9.408765060240964e-06,0.00778732938988516,0.00991067751733847
-9.388765060240961e-06,0.009123307124599432,-0.008692808205203774
-9.368765060240958e-06,0.007453334956206592,0.00991067751733847
-9.348765060240955e-06,0.0064513516551718,0.002469283228318189
-9.328765060240965e-06,0.008455318257242295,-0.004972111060695325
-9.308765060240962e-06,0.006785346088849456,0.002469283228321573
-9.288765060240959e-06,0.007453334956206592,-0.008692808205203774
-9.268765060240955e-06,0.006117357221491865,0.002469283228321573
-9.248765060240966e-06,0.005115373920457072,0.002469283228321573
-9.228765060240963e-06,0.00611735722149232,0.002469283228321573
-9.208765060240959e-06,0.005783362787813752,0.002469283228321573
-9.188765060240956e-06,0.006451351655170433,-0.008692808205203774
-9.168765060240967e-06,0.00544936835413564,-0.008692808205203774
-9.148765060240963e-06,0.006451351655170888,0.006189980372830022
-9.12876506024096e-06,0.007119340522528024,0.02107276895086382
-9.108765060240957e-06,0.00611735722149232,-0.008692808205203774
-9.088765060240967e-06,0.006451351655170736,-0.004972111060697016
-9.068765060240964e-06,0.005449368354135184,0.002469283228321573
-9.048765060240961e-06,0.005783362787813752,0.01363137466184692
-9.028765060240958e-06,0.003779396185742345,0.01363137466184692
-9.008765060240955e-06,0.004113390619421673,0.01735207180635367
-8.988765060240965e-06,0.005783362787813752,0.01363137466184692
-8.968765060240962e-06,0.003445401752063777,0.00991067751733847
-8.948765060240959e-06,0.004113390619420913,0.02107276895086382
-8.928765060240955e-06,0.004113390619421065,0.02107276895087059
-8.908765060240966e-06,0.004447385053099481,0.03595555752889761
-8.888765060240962e-06,0.005115373920456617,0.01363137466184692
-8.868765060240959e-06,0.004113390619420913,0.02851416323988071
-8.848765060240956e-06,0.003779396185742801,0.01735207180636044
-8.828765060240966e-06,0.004781379486777594,0.02851416323987564
-8.808765060240963e-06,0.004113390619420913,0.02479346609537227
-8.78876506024096e-06,0.005115373920456617,0.01363137466184692
-8.768765060240957e-06,0.004113390619420913,0.01363137466184692
-8.748765060240967e-06,0.004113390619420913,0.01735207180635367
-8.728765060240964e-06,0.004447385053099481,0.02851416323988071
-8.708765060240961e-06,0.005115373920456617,0.02851416323988071
-8.688765060240958e-06,0.005783362787813752,0.006189980372830022
-8.668765060240954e-06,0.004113390619420913,0.006189980372835097
-8.648765060240965e-06,0.004113390619420913,0.01735207180635537
-8.628765060240962e-06,0.004781379486778049,0.02107276895086382
-8.608765060240958e-06,0.005115373920456617,0.01363137466184692
-8.588765060240955e-06,0.006785346088849152,0.006189980372833405
-8.568765060240966e-06,0.00611735722149232,0.01363137466184692
-8.548765060240962e-06,0.00611735722149232,0.02107276895086382
-8.528765060240959e-06,0.008121323823563727,0.02479346609537227
-8.508765060240956e-06,0.00812132382356388,0.02107276895086043
-8.488765060240966e-06,0.008455318257242142,0.0136313746618503
-8.468765060240963e-06,0.008455318257242295,0.006189980372830022
-8.44876506024096e-06,0.008121323823563727,0.006189980372830022
-8.428765060240957e-06,0.007119340522528024,0.02479346609537227
-8.408765060240967e-06,0.006451351655171192,0.013631374661852
-8.388765060240964e-06,0.008121323823563727,0.00991067751733847
-8.368765060240961e-06,0.006785346088849456,-0.004972111060695325
-8.348765060240957e-06,0.005449368354135184,0.00991067751733847
-8.328765060240968e-06,0.004781379486778353,0.00991067751733847
-8.308765060240965e-06,0.004447385053099481,0.01735207180635537
-8.288765060240961e-06,0.006451351655170888,0.002469283228321573
-8.268765060240958e-06,0.004781379486778049,0.006189980372830022
-8.248765060240955e-06,0.005783362787813904,-0.004972111060691941
-8.228765060240965e-06,0.00611735722149232,0.002469283228321573
-8.208765060240962e-06,0.005449368354135184,0.01735207180635537
-8.188765060240959e-06,0.00611735722149232,0.00991067751733847
-8.168765060240956e-06,0.005115373920455857,-0.004972111060697017
-8.148765060240966e-06,0.003445401752064537,-0.008692808205202083
-8.128765060240963e-06,0.005115373920456617,0.00991067751733847
-8.10876506024096e-06,0.003445401752063777,0.02107276895086382
-8.088765060240957e-06,0.003111407318385209,0.006189980372821561
-8.068765060240967e-06,0.003111407318385209,-0.01241350534970376
-8.048765060240964e-06,0.002777412884706641,0.006189980372830022
-8.028765060240961e-06,0.003445401752063777,0.00991067751733847
-8.008765060240957e-06,0.004113390619420913,0.02479346609537227
-7.988765060240968e-06,0.004781379486777745,0.002469283228331724
-7.968765060240965e-06,0.003779396185742345,0.002469283228321573
-7.948765060240961e-06,0.003111407318385209,0.002469283228321573
-7.928765060240958e-06,0.003779396185742345,0.01735207180635537
-7.908765060240955e-06,0.002443418451028074,0.009910677517335086
-7.888765060240965e-06,0.002443418451028074,0.002469283228321573
-7.868765060240962e-06,0.003445401752063777,-0.008692808205203774
-7.848765060240959e-06,0.004113390619420913,0.002469283228321573
-7.828765060240956e-06,0.004113390619420609,0.01363137466184692
-7.808765060240966e-06,0.003445401752064081,0.01363137466184692
-7.788765060240963e-06,0.004447385053099481,0.00991067751733847
-7.76876506024096e-06,0.004447385053099481,0.00991067751733847
-7.748765060240956e-06,0.004113390619421216,0.01735207180635537
-7.728765060240967e-06,0.004781379486777745,0.01735207180635537
-7.708765060240964e-06,0.005449368354135184,0.02479346609537227
-7.68876506024096e-06,0.006451351655170888,0.02107276895086382
-7.668765060240957e-06,0.007453334956206592,0.02479346609537227
-7.648765060240968e-06,0.007787329389885008,0.02479346609537227
-7.628765060240964e-06,0.009123307124599432,0.03967625467340606
-7.608765060240961e-06,0.008455318257242295,0.04339695181791451
-7.588765060240958e-06,0.008789312690920863,0.02107276895086382
-7.568765060240955e-06,0.008789312690920103,0.02107276895086889
-7.548765060240965e-06,0.007119340522528024,0.03223486038438916
-7.528765060240962e-06,0.008789312690920863,0.03595555752889761
-7.508765060240959e-06,0.00611735722149232,0.04339695181791451
-7.488765060240956e-06,0.007453334956205832,0.03223486038438747
-7.468765060240966e-06,0.005783362787814512,0.02851416323988241
-7.448765060240963e-06,0.00611735722149232,0.02851416323988071
-7.42876506024096e-06,0.006451351655170888,0.02851416323988071
-7.408765060240956e-06,0.00511537392045692,0.03595555752888915
-7.388765060240967e-06,0.005783362787813448,0.01735207180636383
-7.368765060240963e-06,0.005449368354135184,0.01735207180635537
-7.34876506024096e-06,0.005783362787813752,0.01363137466184692
-7.328765060240957e-06,0.005783362787813752,0.02479346609537227
-7.308765060240967e-06,0.006451351655170585,0.02479346609537227
-7.288765060240964e-06,0.00611735722149232,0.01363137466184692
-7.268765060240961e-06,0.005449368354135184,0.002469283228321573
-7.248765060240958e-06,0.004781379486778049,0.00991067751733847
-7.228765060240955e-06,0.004781379486777897,0.01735207180635537
-7.208765060240965e-06,0.004447385053099481,0.01735207180635537
-7.188765060240962e-06,0.003779396185742345,0.006189980372830022
-7.168765060240959e-06,0.004113390619420913,0.01735207180635537
-7.148765060240955e-06,0.004113390619421368,0.01735207180635537
-7.128765060240966e-06,0.005115373920456161,0.01735207180635537
-7.108765060240963e-06,0.004113390619420913,0.03223486038438916
-7.088765060240959e-06,0.004447385053099481,0.00991067751733847
-7.068765060240956e-06,0.004113390619421673,0.01363137466184861
-7.048765060240967e-06,0.005783362787812992,0.01735207180635367
-7.028765060240963e-06,0.00611735722149232,0.02107276895086382
-7.00876506024096e-06,0.004447385053099481,0.02107276895086382
-6.988765060240957e-06,0.005449368354135184,0.01363137466184692
-6.968765060240967e-06,0.005449368354135184,-0.001251413916180109
-6.948765060240964e-06,0.004781379486778049,0.02479346609537227
-6.928765060240961e-06,0.004781379486778049,0.02107276895086382
-6.908765060240958e-06,0.004447385053099481,0.01735207180635537
-6.888765060240955e-06,0.004781379486777897,0.002469283228321573
-6.868765060240965e-06,0.004447385053099481,0.002469283228321573
-6.848765060240962e-06,0.003445401752063777,0.00991067751733847
-6.828765060240958e-06,0.004781379486778049,0.01735207180635537
-6.808765060240955e-06,0.004447385053099785,0.02479346609536042
-6.788765060240966e-06,0.005115373920456617,-0.001251413916186876
-6.768765060240962e-06,0.005115373920456617,0.01735207180635537
-6.748765060240959e-06,0.004781379486778049,0.00991067751733847
-6.728765060240956e-06,0.006117357221492624,0.02479346609537396
-6.708765060240966e-06,0.006785346088849152,0.02851416323987902
-6.688765060240963e-06,0.007119340522528024,0.01735207180635537
-6.66876506024096e-06,0.007119340522528024,0.01363137466184692
-6.648765060240957e-06,0.007119340522528024,0.002469283228321573
-6.628765060240967e-06,0.007119340522528024,0.0173520718063486
-6.608765060240964e-06,0.006451351655170888,0.02107276895086382
-6.588765060240961e-06,0.006785346088849456,0.02479346609537227
-6.568765060240958e-06,0.005783362787813752,0.00991067751733847
-6.548765060240954e-06,0.004781379486778353,0.01363137466184861
-6.528765060240965e-06,0.005449368354135184,0.01735207180635537
-6.508765060240962e-06,0.004781379486778049,0.01735207180635537
-6.488765060240958e-06,0.006785346088849456,0.01735207180635537
-6.468765060240955e-06,0.00611735722149232,0.006189980372835097
-6.448765060240966e-06,0.00611735722149232,0.01735207180635537
-6.428765060240962e-06,0.007119340522528024,0.01735207180635537
-6.408765060240959e-06,0.006785346088849456,0.02479346609537227
-6.388765060240956e-06,0.006785346088849304,0.009910677517341855
-6.368765060240966e-06,0.00645135165517104,0.01735207180635199
-6.348765060240963e-06,0.005115373920456617,0.00991067751733847
-6.32876506024096e-06,0.004781379486778049,0.00991067751733847
-6.308765060240957e-06,0.005449368354135184,0.01735207180635537
-6.288765060240967e-06,0.005449368354135184,0.009910677517341853
-6.268765060240964e-06,0.006785346088849456,0.002469283228321573
-6.248765060240961e-06,0.005449368354135184,0.006189980372830022
-6.228765060240957e-06,0.005449368354135184,0.01735207180635537
-6.208765060240968e-06,0.005449368354135184,0.01735207180635537
-6.188765060240965e-06,0.005783362787813752,0.00991067751733847
-6.168765060240961e-06,0.005115373920456617,-0.001251413916186876
-6.148765060240958e-06,0.005783362787813752,0.00991067751733847
-6.128765060240955e-06,0.006117357221491713,0.0136313746618503
-6.108765060240965e-06,0.004781379486778049,0.02107276895086382
-6.088765060240962e-06,0.005449368354135184,0.01735207180635537
-6.068765060240959e-06,0.004113390619420913,0.002469283228321573
-6.048765060240956e-06,0.004447385053099937,-0.008692808205191929
-6.028765060240966e-06,0.005449368354134729,0.01735207180634352
-6.008765060240963e-06,0.003779396185742345,0.02107276895086382
-5.98876506024096e-06,0.005783362787813752,0.006189980372830022
-5.968765060240957e-06,0.003779396185742801,0.006189980372830022
-5.948765060240967e-06,0.004781379486777594,0.006189980372830022
-5.928765060240964e-06,0.003779396185742345,0.01363137466184692
-5.908765060240961e-06,0.004781379486778049,0.01735207180635537
-5.888765060240957e-06,0.004781379486778049,0.006189980372830022
-5.868765060240968e-06,0.005449368354134881,0.01363137466184354
-5.848765060240964e-06,0.006451351655170888,0.02107276895086382
-5.828765060240961e-06,0.006785346088849456,0.02479346609537227
-5.808765060240958e-06,0.006451351655170888,0.02851416323988071
-5.788765060240955e-06,0.0077873293898844,0.01735207180635706
-5.768765060240965e-06,0.00611735722149232,0.02107276895086382
-5.748765060240962e-06,0.006451351655170888,0.01363137466184692
-5.728765060240959e-06,0.00611735722149232,0.02851416323988071
-5.708765060240956e-06,0.004781379486778049,0.01363137466184861
-5.688765060240966e-06,0.004781379486778049,0.01735207180635367
-5.668765060240963e-06,0.005449368354135184,0.01363137466184692
-5.64876506024096e-06,0.005449368354135184,0.00991067751733847
-5.628765060240956e-06,0.005115373920456313,0.02479346609537227
-5.608765060240967e-06,0.004447385053099785,0.02479346609537227
-5.588765060240964e-06,0.006451351655170888,0.00991067751733847
-5.56876506024096e-06,0.006451351655170888,0.01363137466184692
-5.548765060240957e-06,0.007119340522528024,0.002469283228321573
-5.528765060240968e-06,0.00745333495620644,0.02107276895085536
-5.508765060240964e-06,0.008455318257242295,0.01363137466184692
-5.488765060240961e-06,0.006451351655170888,0.01363137466184692
-5.468765060240958e-06,0.006451351655170888,-0.004972111060695325
-5.448765060240955e-06,0.005115373920457224,0.01735207180635367
-5.428765060240965e-06,0.006451351655170888,0.01363137466184692
-5.408765060240962e-06,0.005449368354135184,0.01735207180635537
-5.388765060240959e-06,0.005449368354135184,0.00991067751733847
-5.368765060240956e-06,0.005783362787813145,0.01363137466184861
-5.348765060240966e-06,0.004447385053100088,0.01735207180635367
-5.328765060240963e-06,0.005449368354135184,0.01363137466184692
-5.308765060240959e-06,0.005449368354135184,0.01735207180635537
-5.288765060240956e-06,0.006117357221492169,0.01363137466184353
-5.268765060240967e-06,0.005783362787813904,0.006189980372833405
-5.248765060240963e-06,0.004781379486778049,0.006189980372830022
-5.22876506024096e-06,0.005783362787813752,0.01735207180635537
-5.208765060240957e-06,0.004781379486778049,0.03223486038438916
-5.188765060240967e-06,0.005783362787813297,0.006189980372841866
-5.168765060240964e-06,0.005115373920456617,-0.001251413916186876
-5.148765060240961e-06,0.004447385053099481,0.002469283228321573
-5.128765060240958e-06,0.005783362787813752,0.02479346609537227
-5.108765060240955e-06,0.005115373920457376,0.01735207180635367
-5.088765060240965e-06,0.006785346088849456,0.01363137466184692
-5.068765060240962e-06,0.005783362787813752,0.002469283228321573
-5.048765060240959e-06,0.00611735722149232,0.00991067751733847
-5.028765060240955e-06,0.006451351655170888,0.01363137466184184
-5.008765060240966e-06,0.006451351655170888,0.002469283228326648
-4.988765060240963e-06,0.007119340522528024,0.002469283228321573
-4.968765060240959e-06,0.006785346088849456,0.006189980372830022
-4.948765060240956e-06,0.007119340522528632,0.002469283228326648
-4.928765060240967e-06,0.008455318257241688,0.01363137466184184
-4.908765060240963e-06,0.009123307124599432,0.01735207180635537
-4.88876506024096e-06,0.008789312690920863,-0.004972111060695325
-4.868765060240957e-06,0.008455318257242295,-0.004972111060695325
-4.848765060240967e-06,0.007119340522528632,0.002469283228318189
-4.828765060240964e-06,0.007119340522528024,0.006189980372830022
-4.808765060240961e-06,0.006451351655170888,0.00991067751733847
-4.788765060240958e-06,0.006451351655170888,-0.001251413916186876
-4.768765060240954e-06,0.005115373920456313,-0.004972111060695325
-4.748765060240965e-06,0.004447385053099481,-0.004972111060695325
-4.728765060240962e-06,0.004781379486778049,0.002469283228321573
-4.708765060240958e-06,0.005115373920456617,0.01735207180635537
-4.688765060240955e-06,0.005115373920456161,-0.008692808205198698
-4.668765060240966e-06,0.004113390619420913,0.002469283228321573
-4.648765060240962e-06,0.005115373920456617,0.002469283228321573
-4.628765060240959e-06,0.005449368354135184,0.002469283228321573
-4.608765060240956e-06,0.005115373920457072,0.009910677517331703
-4.588765060240966e-06,0.006117357221491865,-0.004972111060688558
-4.568765060240963e-06,0.005115373920456617,0.02107276895086382
-4.54876506024096e-06,0.003111407318385209,0.002469283228321573
-4.528765060240957e-06,0.004781379486778049,0.01735207180635537
-4.508765060240967e-06,0.004447385053099633,0.009910677517341853
-4.488765060240964e-06,0.004113390619420913,0.01363137466184692
-4.468765060240961e-06,0.005449368354135184,0.01363137466184692
-4.448765060240958e-06,0.003779396185742345,0.00991067751733847
-4.428765060240968e-06,0.006117357221491257,0.01363137466184523
-4.408765060240965e-06,0.006785346088849456,0.03223486038438916
-4.388765060240962e-06,0.006785346088849456,0.02107276895086382
-4.368765060240958e-06,0.005115373920456617,0.01735207180635537
-4.348765060240955e-06,0.00544936835413564,0.0210727689508672
-4.328765060240965e-06,0.006451351655170888,0.02851416323988071
-4.308765060240962e-06,0.006785346088849456,0.02479346609537227
-4.288765060240959e-06,0.006451351655170888,0.01363137466184692
-4.268765060240956e-06,0.005115373920456161,0.01363137466184523
-4.248765060240966e-06,0.004113390619421368,0.009910677517340162
-4.228765060240963e-06,0.004781379486778049,0.02479346609537227
-4.20876506024096e-06,0.003779396185742345,0.03223486038438916
-4.188765060240957e-06,0.004781379486778049,0.00991067751733847
-4.168765060240967e-06,0.004447385053099633,0.0247934660953655
-4.148765060240964e-06,0.003779396185742345,0.02479346609537227
-4.128765060240961e-06,0.005115373920456617,0.03967625467340606
-4.108765060240957e-06,0.005783362787813752,0.03967625467340606
-4.088765060240968e-06,0.005783362787813752,0.02479346609537903
-4.068765060240965e-06,0.006785346088849456,0.02107276895086382
-4.048765060240961e-06,0.005115373920456617,0.01363137466184692
-4.028765060240958e-06,0.00778732938988516,0.03223486038438916
-4.008765060240955e-06,0.006117357221492776,0.01735207180635537
-3.988765060240965e-06,0.007119340522528024,0.01735207180635537
-3.968765060240962e-06,0.008455318257242295,0.006189980372830022
-3.948765060240959e-06,0.007453334956206592,0.02107276895086382
-3.928765060240956e-06,0.008121323823563424,0.0210727689508672
-3.908765060240966e-06,0.007453334956206896,0.02851416323987733
-3.888765060240963e-06,0.006785346088849456,0.01735207180635537
-3.86876506024096e-06,0.00611735722149232,0.00991067751733847
-3.848765060240957e-06,0.006117357221492928,0.002469283228326648
