traces_bank_current_trigger/benchmark_traces/fibonacci_50MHz/fib_12.csv

#Digilent WaveForms Oscilloscope Acquisition
#Device Name: Discovery2
#Serial Number: SN:210321B3D813
#Date Time: 2023-06-23 14:46:10.571
#Sample rate: 5e+07Hz
#Samples: 8192
#Trigger: Source: Channel 2 Type: Edge Condition: Rising Level: 2 V Hyst.: Auto HoldOff: 0 s
#Channel 1: Range: 10 mV/div Offset: 0 V Attenuation: 1 X Sample Mode: Average
#Channel 2: Range: 5 V/div Offset: 0 V Attenuation: 1 X Sample Mode: Average

Time (s),Channel 1 (V),Channel 2 (V)
-1.79116083916084e-05,0.005783362787813752,0.02107276895086382
-1.78916083916084e-05,0.005449368354135184,0.02479346609537227
-1.787160839160839e-05,0.005449368354135791,0.01363137466184353
-1.78516083916084e-05,0.006785346088848848,0.006189980372833405
-1.78316083916084e-05,0.005449368354135184,0.01363137466184692
-1.78116083916084e-05,0.00611735722149232,0.02107276895086382
-1.779160839160839e-05,0.005783362787813752,0.02851416323988071
-1.77716083916084e-05,0.006785346088849,0.02851416323988071
-1.77516083916084e-05,0.006785346088849456,0.006189980372830022
-1.77316083916084e-05,0.006451351655170888,0.02107276895086382
-1.771160839160839e-05,0.006451351655170888,0.01735207180635537
-1.769160839160839e-05,0.006785346088849608,0.03967625467340098
-1.76716083916084e-05,0.007119340522528024,0.02851416323988071
-1.76516083916084e-05,0.00778732938988516,0.02479346609537227
-1.763160839160839e-05,0.006451351655170888,0.01735207180635537
-1.761160839160839e-05,0.007787329389885463,0.02479346609537396
-1.75916083916084e-05,0.008455318257241991,0.02851416323987902
-1.75716083916084e-05,0.008121323823563727,0.02851416323988071
-1.75516083916084e-05,0.009457301558278,0.006189980372830022
-1.753160839160839e-05,0.01012529042563514,-0.004972111060685173
-1.75116083916084e-05,0.01012529042563514,0.01735207180634522
-1.74916083916084e-05,0.01146126816034941,0.02851416323988071
-1.74716083916084e-05,0.01079327929299227,0.02107276895086382
-1.745160839160839e-05,0.01012529042563514,0.006189980372830022
-1.74316083916084e-05,0.00878931269092147,0.006189980372830022
-1.74116083916084e-05,0.008789312690920863,0.02107276895086382
-1.73916083916084e-05,0.009123307124599432,0.02107276895086382
-1.737160839160839e-05,0.009123307124599432,0.02479346609537227
-1.735160839160839e-05,0.0077873293898844,0.01363137466183846
-1.73316083916084e-05,0.00611735722149232,-0.004972111060695325
-1.73116083916084e-05,0.007119340522528024,-0.001251413916186876
-1.729160839160839e-05,0.006785346088849456,0.006189980372830022
-1.727160839160839e-05,0.008455318257241991,0.01363137466184015
-1.72516083916084e-05,0.007787329389885463,-0.001251413916180109
-1.72316083916084e-05,0.008121323823563727,-0.004972111060695325
-1.72116083916084e-05,0.008789312690920863,0.002469283228321573
-1.719160839160839e-05,0.00745333495620644,0.01363137466184353
-1.71716083916084e-05,0.007119340522528176,0.006189980372833405
-1.71516083916084e-05,0.007119340522528024,0.00991067751733847
-1.71316083916084e-05,0.006451351655170888,0.01363137466184692
-1.711160839160839e-05,0.005783362787813752,0.01735207180635537
-1.70916083916084e-05,0.006451351655170585,0.02107276895086212
-1.70716083916084e-05,0.00611735722149232,0.02479346609537227
-1.70516083916084e-05,0.005449368354135184,0.006189980372830022
-1.703160839160839e-05,0.005783362787813752,0.006189980372830022
-1.701160839160839e-05,0.006451351655170736,0.02107276895086551
-1.69916083916084e-05,0.00611735722149232,0.02479346609537227
-1.69716083916084e-05,0.005115373920456617,0.01363137466184692
-1.695160839160839e-05,0.006451351655170888,0.00991067751733847
-1.693160839160839e-05,0.00611735722149232,0.009910677517340162
-1.69116083916084e-05,0.00611735722149232,0.01363137466184692
-1.68916083916084e-05,0.006451351655170888,0.03595555752889761
-1.687160839160839e-05,0.00611735722149232,0.02479346609537227
-1.685160839160839e-05,0.005449368354135184,0.00618998037283679
-1.68316083916084e-05,0.005449368354135184,0.02107276895085705
-1.68116083916084e-05,0.00611735722149232,0.02479346609537227
-1.67916083916084e-05,0.005449368354135184,0.02479346609537227
-1.677160839160839e-05,0.006785346088849456,0.02851416323988071
-1.67516083916084e-05,0.005783362787814207,0.02479346609537396
-1.67316083916084e-05,0.005449368354135184,0.00991067751733847
-1.67116083916084e-05,0.00611735722149232,0.01363137466184692
-1.669160839160839e-05,0.00778732938988516,0.03967625467340606
-1.667160839160839e-05,0.007787329389885311,0.02107276895085874
-1.66516083916084e-05,0.008121323823563727,0.00991067751733847
-1.66316083916084e-05,0.00778732938988516,0.00991067751733847
-1.661160839160839e-05,0.007119340522528024,0.01735207180635537
-1.659160839160839e-05,0.009457301558278152,0.02107276895086212
-1.65716083916084e-05,0.009791295991956567,0.01735207180635537
-1.65516083916084e-05,0.009791295991956567,0.00991067751733847
-1.653160839160839e-05,0.009123307124599432,0.00991067751733847
-1.651160839160839e-05,0.007453334956207199,0.01363137466185538
-1.64916083916084e-05,0.008789312690920256,0.0322348603843807
-1.64716083916084e-05,0.00778732938988516,0.02479346609537227
-1.64516083916084e-05,0.00778732938988516,0.01363137466184692
-1.643160839160839e-05,0.006785346088849456,0.01363137466184692
-1.64116083916084e-05,0.006117357221492624,0.01735207180635367
-1.63916083916084e-05,0.006785346088849456,0.03967625467340606
-1.63716083916084e-05,0.008121323823563727,0.02851416323988071
-1.635160839160839e-05,0.006451351655170888,0.02107276895086382
-1.63316083916084e-05,0.007119340522527721,0.02479346609537057
-1.63116083916084e-05,0.006785346088849456,0.02851416323988071
-1.62916083916084e-05,0.00611735722149232,0.01735207180635537
-1.627160839160839e-05,0.006451351655170888,0.02851416323988071
-1.625160839160839e-05,0.006451351655169825,0.01363137466184353
-1.62316083916084e-05,0.004113390619420913,0.006189980372830022
-1.62116083916084e-05,0.005115373920456617,0.01735207180635537
-1.619160839160839e-05,0.005449368354135184,0.03595555752889761
-1.617160839160839e-05,0.005449368354135033,0.02107276895085197
-1.61516083916084e-05,0.005115373920456768,-0.00497211106068348
-1.61316083916084e-05,0.005783362787813752,0.006189980372830022
-1.61116083916084e-05,0.007119340522528024,0.01363137466184692
-1.609160839160839e-05,0.006451351655170128,0.02851416323987902
-1.60716083916084e-05,0.004781379486778809,0.02479346609537396
-1.60516083916084e-05,0.00611735722149232,0.002469283228321573
-1.60316083916084e-05,0.005783362787813752,0.002469283228321573
-1.601160839160839e-05,0.006451351655170888,0.01735207180635537
-1.59916083916084e-05,0.00544936835413564,0.01735207180635537
-1.59716083916084e-05,0.006451351655170888,0.02107276895086382
-1.59516083916084e-05,0.005783362787813752,0.01363137466184692
-1.593160839160839e-05,0.005449368354135184,0.002469283228321573
-1.591160839160839e-05,0.005449368354135488,0.009910677517345238
-1.58916083916084e-05,0.00611735722149232,0.02479346609537227
-1.58716083916084e-05,0.005115373920456617,0.01735207180635537
-1.585160839160839e-05,0.006785346088849456,0.00991067751733847
-1.583160839160839e-05,0.005783362787813752,0.002469283228323264
-1.58116083916084e-05,0.005783362787813752,0.00618998037282833
-1.57916083916084e-05,0.00611735722149232,0.02107276895086382
-1.57716083916084e-05,0.006785346088849456,0.00991067751733847
-1.575160839160839e-05,0.007787329389884704,-0.01613420249421898
-1.57316083916084e-05,0.006785346088849911,-0.01241350534971391
-1.57116083916084e-05,0.007453334956206592,0.01363137466184692
-1.56916083916084e-05,0.009457301558278,0.01363137466184692
-1.567160839160839e-05,0.009457301558278,0.002469283228321573
-1.56516083916084e-05,0.009123307124599585,0.002469283228321573
-1.56316083916084e-05,0.008455318257242295,0.006189980372830022
-1.56116083916084e-05,0.006785346088849456,0.00991067751733847
-1.559160839160839e-05,0.007453334956206592,0.02107276895086382
-1.557160839160839e-05,0.006451351655170585,0.006189980372828329
-1.55516083916084e-05,0.005783362787813752,0.002469283228321573
-1.55316083916084e-05,0.005783362787813752,-0.001251413916186876
-1.551160839160839e-05,0.005115373920456617,0.006189980372830022
-1.549160839160839e-05,0.005783362787814056,0.01735207180635367
-1.54716083916084e-05,0.006451351655170585,0.01363137466184861
-1.54516083916084e-05,0.006785346088849456,0.002469283228321573
-1.54316083916084e-05,0.007453334956206592,0.00991067751733847
-1.541160839160839e-05,0.007119340522528024,0.02479346609537565
-1.53916083916084e-05,0.007119340522528024,0.03223486038438578
-1.53716083916084e-05,0.005783362787813752,0.02479346609537227
-1.53516083916084e-05,0.005115373920456617,0.01735207180635537
-1.533160839160839e-05,0.003445401752063777,0.01735207180635537
-1.53116083916084e-05,0.004447385053099026,0.01363137466184861
-1.52916083916084e-05,0.004447385053099481,0.03595555752889761
-1.52716083916084e-05,0.004447385053099481,0.02851416323988071
-1.525160839160839e-05,0.004113390619420913,0.006189980372830022
-1.523160839160839e-05,0.004447385053099481,0.006189980372833405
-1.52116083916084e-05,0.004447385053099481,0.01363137466184692
-1.51916083916084e-05,0.004447385053099481,0.02479346609537227
-1.517160839160839e-05,0.005115373920456617,0.00991067751733847
-1.515160839160839e-05,0.005115373920456465,-0.001251413916183492
-1.51316083916084e-05,0.004781379486778201,0.006189980372826638
-1.51116083916084e-05,0.005115373920456617,0.01735207180635537
-1.50916083916084e-05,0.005449368354135184,0.02479346609537227
-1.507160839160839e-05,0.004781379486778353,0.02479346609536211
-1.50516083916084e-05,0.005449368354134881,0.002469283228331724
-1.50316083916084e-05,0.004781379486778049,0.006189980372830022
-1.50116083916084e-05,0.005115373920456617,0.006189980372830022
-1.499160839160839e-05,0.005115373920456617,0.02479346609537227
-1.49716083916084e-05,0.00645135165517028,0.02851416323987902
-1.49516083916084e-05,0.004781379486778049,0.002469283228321573
-1.49316083916084e-05,0.004781379486778049,0.002469283228321573
-1.491160839160839e-05,0.004447385053099481,0.00991067751733847
-1.489160839160839e-05,0.006785346088849304,0.02479346609537057
-1.48716083916084e-05,0.006451351655170888,0.02107276895086382
-1.48516083916084e-05,0.00778732938988516,0.00991067751733847
-1.483160839160839e-05,0.006451351655170888,0.00991067751733847
-1.481160839160839e-05,0.008455318257241839,0.009910677517348622
-1.47916083916084e-05,0.007453334956206592,0.03223486038438916
-1.47716083916084e-05,0.009123307124599432,0.03223486038438916
-1.475160839160839e-05,0.009123307124599432,0.002469283228321573
-1.473160839160839e-05,0.00812132382356312,0.006189980372835097
-1.47116083916084e-05,0.006785346088850064,0.01735207180635029
-1.46916083916084e-05,0.006451351655170888,0.03967625467340606
-1.46716083916084e-05,0.006785346088849456,0.01735207180635537
-1.465160839160839e-05,0.005783362787813752,0.01363137466184692
-1.46316083916084e-05,0.005783362787813752,0.006189980372833405
-1.46116083916084e-05,0.00611735722149232,0.01363137466184692
-1.45916083916084e-05,0.005115373920456617,0.01735207180635537
-1.457160839160839e-05,0.00611735722149232,0.01735207180635537
-1.455160839160839e-05,0.00611735722149232,0.006189980372828329
-1.45316083916084e-05,0.00611735722149232,0.002469283228321573
-1.45116083916084e-05,0.005783362787813752,0.02107276895086382
-1.449160839160839e-05,0.005449368354135184,0.02851416323988071
-1.447160839160839e-05,0.004447385053099481,0.02851416323987056
-1.44516083916084e-05,0.004447385053099481,0.006189980372830022
-1.44316083916084e-05,0.003779396185742345,0.006189980372830022
-1.441160839160839e-05,0.004113390619420913,0.01735207180635537
-1.439160839160839e-05,0.005449368354134881,0.03223486038438747
-1.43716083916084e-05,0.004781379486778353,0.02851416323988241
-1.43516083916084e-05,0.003445401752063777,0.002469283228321573
-1.43316083916084e-05,0.003779396185742345,0.01363137466184692
-1.431160839160839e-05,0.005115373920456617,0.00991067751733847
-1.42916083916084e-05,0.003779396185742953,0.0247934660953655
-1.42716083916084e-05,0.005115373920456617,0.02479346609537227
-1.42516083916084e-05,0.005115373920456617,0.01363137466184692
-1.423160839160839e-05,0.005115373920456617,0.00991067751733847
-1.42116083916084e-05,0.005115373920456617,0.01735207180635199
-1.41916083916084e-05,0.004447385053099481,0.02851416323988071
-1.41716083916084e-05,0.004447385053099481,0.01735207180635537
-1.415160839160839e-05,0.005115373920456617,0.01735207180635537
-1.413160839160839e-05,0.004781379486778201,0.01735207180635875
-1.41116083916084e-05,0.005115373920456617,0.02479346609537227
-1.40916083916084e-05,0.005115373920456617,0.03595555752889761
-1.407160839160839e-05,0.006451351655170888,0.03223486038438916
-1.405160839160839e-05,0.006117357221492017,0.013631374661852
-1.40316083916084e-05,0.005449368354135488,0.02479346609536719
-1.40116083916084e-05,0.005783362787813752,0.02107276895086382
-1.39916083916084e-05,0.007453334956206592,0.02851416323988071
-1.397160839160839e-05,0.006785346088849759,0.03223486038437901
-1.39516083916084e-05,0.007453334956206288,0.009910677517348622
-1.39316083916084e-05,0.008121323823563727,0.01735207180635537
-1.39116083916084e-05,0.008455318257242295,0.01363137466184692
-1.389160839160839e-05,0.01012529042563514,0.03223486038438916
-1.38716083916084e-05,0.01045928485931355,0.02851416323988241
-1.38516083916084e-05,0.009123307124599432,0.02479346609537227
-1.38316083916084e-05,0.008455318257242295,0.006189980372830022
-1.381160839160839e-05,0.00778732938988516,0.03223486038438916
-1.379160839160839e-05,0.00878931269092071,0.03595555752889592
-1.37716083916084e-05,0.008455318257242295,0.03223486038438916
-1.37516083916084e-05,0.006785346088849456,0.02107276895086382
-1.373160839160839e-05,0.00778732938988516,0.02107276895086382
-1.371160839160839e-05,0.007119340522528328,0.02851416323988579
-1.36916083916084e-05,0.007787329389884856,0.03967625467340098
-1.36716083916084e-05,0.007119340522528024,0.03967625467340606
-1.36516083916084e-05,0.008455318257242295,0.02107276895086382
-1.363160839160839e-05,0.007453334956206592,0.02107276895086551
-1.36116083916084e-05,0.007453334956206592,0.02479346609537057
-1.35916083916084e-05,0.007453334956206592,0.03967625467340606
-1.35716083916084e-05,0.00778732938988516,0.02479346609537227
-1.355160839160839e-05,0.005115373920456617,0.00991067751733847
-1.35316083916084e-05,0.005783362787813448,0.006189980372831713
-1.35116083916084e-05,0.004781379486778049,0.02107276895086382
-1.34916083916084e-05,0.005783362787813752,0.02851416323988071
-1.347160839160839e-05,0.005449368354135184,0.02851416323988071
-1.345160839160839e-05,0.005115373920456617,0.006189980372830022
-1.34316083916084e-05,0.005115373920456617,0.006189980372830022
-1.34116083916084e-05,0.005449368354135184,0.02851416323988071
-1.339160839160839e-05,0.005115373920456617,0.02479346609537227
-1.337160839160839e-05,0.004781379486778353,0.02479346609536719
-1.33516083916084e-05,0.005449368354134881,0.013631374661852
-1.33316083916084e-05,0.003445401752063777,0.006189980372830022
-1.33116083916084e-05,0.004781379486778049,0.02107276895086382
-1.329160839160839e-05,0.003779396185742953,0.02851416323988071
-1.32716083916084e-05,0.005115373920456009,0.02851416323988071
-1.32516083916084e-05,0.004113390619420913,0.01363137466184692
-1.32316083916084e-05,0.004781379486778049,0.006189980372830022
-1.321160839160839e-05,0.005449368354135184,0.02107276895086382
-1.31916083916084e-05,0.004781379486778353,0.02851416323987733
-1.31716083916084e-05,0.006785346088849456,0.00991067751733847
-1.31516083916084e-05,0.005115373920456617,0.01735207180635537
-1.313160839160839e-05,0.004781379486778049,0.002469283228321573
-1.311160839160839e-05,0.00544936835413564,0.00618998037283679
-1.30916083916084e-05,0.006451351655170888,0.02107276895086382
-1.30716083916084e-05,0.006451351655170888,0.01735207180635537
-1.305160839160839e-05,0.008121323823563727,0.006189980372830022
-1.303160839160839e-05,0.00812132382356388,-0.008692808205195314
-1.30116083916084e-05,0.008455318257242142,0.009910677517330012
-1.29916083916084e-05,0.009457301558278,0.02107276895086382
-1.29716083916084e-05,0.009123307124599432,0.01735207180635537
-1.295160839160839e-05,0.009123307124599129,-0.001251413916186876
-1.29316083916084e-05,0.008455318257242599,-0.001251413916186876
-1.29116083916084e-05,0.007119340522528024,0.00991067751733847
-1.28916083916084e-05,0.008121323823563727,0.01735207180635537
-1.287160839160839e-05,0.007119340522528024,0.02479346609537227
-1.28516083916084e-05,0.00745333495620644,0.00618998037283848
-1.28316083916084e-05,0.006785346088849456,0.006189980372830022
-1.28116083916084e-05,0.006451351655170888,0.002469283228321573
-1.279160839160839e-05,0.007453334956206592,0.02479346609537227
-1.277160839160839e-05,0.009123307124599585,0.02479346609536381
-1.27516083916084e-05,0.009457301558278,0.006189980372830022
-1.27316083916084e-05,0.008455318257242295,-0.01241350534971222
-1.271160839160839e-05,0.007453334956206592,-0.001251413916186876
-1.269160839160839e-05,0.00778732938988516,0.01735207180635537
-1.26716083916084e-05,0.00778732938988516,0.01735207180635537
-1.26516083916084e-05,0.007453334956206592,0.006189980372830022
-1.263160839160839e-05,0.006451351655170888,0.002469283228321573
-1.261160839160839e-05,0.006451351655170736,0.009910677517348622
-1.25916083916084e-05,0.006117357221492472,0.03223486038437901
-1.25716083916084e-05,0.007119340522528024,0.01735207180635537
-1.25516083916084e-05,0.005783362787813752,0.002469283228321573
-1.253160839160839e-05,0.00611735722149232,0.00991067751733847
-1.25116083916084e-05,0.006451351655170736,0.02107276895085874
-1.24916083916084e-05,0.006451351655170888,0.02107276895086382
-1.24716083916084e-05,0.007119340522528024,0.02851416323988071
-1.245160839160839e-05,0.007119340522528024,0.01735207180635537
-1.24316083916084e-05,0.006785346088849608,0.009910677517341853
-1.24116083916084e-05,0.006451351655170888,0.01363137466184692
-1.23916083916084e-05,0.006451351655170888,0.02107276895086382
-1.237160839160839e-05,0.007119340522528024,0.01735207180635537
-1.235160839160839e-05,0.007119340522527569,0.006189980372831714
-1.23316083916084e-05,0.00611735722149232,0.00991067751733847
-1.23116083916084e-05,0.005115373920456617,0.02107276895086382
-1.229160839160839e-05,0.005783362787813752,0.01735207180635537
-1.227160839160839e-05,0.005449368354134729,0.02479346609536719
-1.22516083916084e-05,0.004447385053099937,0.013631374661852
-1.22316083916084e-05,0.004447385053099481,0.01363137466184692
-1.22116083916084e-05,0.005115373920456617,0.01735207180635537
-1.219160839160839e-05,0.004781379486778049,0.02479346609537227
-1.21716083916084e-05,0.006117357221491712,0.02479346609537227
-1.21516083916084e-05,0.00611735722149232,0.006189980372830022
-1.21316083916084e-05,0.006451351655170888,0.006189980372830022
-1.211160839160839e-05,0.00778732938988516,0.02107276895086382
-1.20916083916084e-05,0.007453334956206744,0.02479346609537057
-1.20716083916084e-05,0.008789312690920863,0.01363137466184692
-1.20516083916084e-05,0.007119340522528024,0.01363137466184692
-1.203160839160839e-05,0.007453334956206592,0.01735207180635537
-1.201160839160839e-05,0.007119340522526961,0.02107276895086382
-1.19916083916084e-05,0.004781379486778049,0.02107276895086382
-1.19716083916084e-05,0.006451351655170888,0.02851416323988071
-1.195160839160839e-05,0.00611735722149232,0.00991067751733847
-1.193160839160839e-05,0.003445401752064385,0.00618998037283679
-1.19116083916084e-05,0.004781379486777442,0.02107276895085705
-1.18916083916084e-05,0.005115373920456617,0.02107276895086382
-1.18716083916084e-05,0.00611735722149232,0.01363137466184692
-1.185160839160839e-05,0.005783362787813752,-0.004972111060691941
-1.18316083916084e-05,0.005783362787813752,0.002469283228318189
-1.18116083916084e-05,0.005115373920456617,0.01363137466184692
-1.17916083916084e-05,0.005783362787813752,0.006189980372830022
-1.177160839160839e-05,0.004113390619420913,0.02107276895086382
