traces_bank_current_trigger/benchmark_traces/fibonacci_50MHz/fib_4.csv

#Digilent WaveForms Oscilloscope Acquisition
#Device Name: Discovery2
#Serial Number: SN:210321B3D813
#Date Time: 2023-06-23 11:31:50.551
#Sample rate: 5e+07Hz
#Samples: 8192
#Trigger: Source: Channel 2 Type: Edge Condition: Rising Level: 2 V Hyst.: Auto HoldOff: 0 s
#Channel 1: Range: 10 mV/div Offset: 0 V Attenuation: 1 X Sample Mode: Average
#Channel 2: Range: 5 V/div Offset: 0 V Attenuation: 1 X Sample Mode: Average

Time (s),Channel 1 (V),Channel 2 (V)
-5.908437499999998e-06,0.002777412884706641,0.01735207180635537
-5.888437499999995e-06,0.005783362787813752,0.00991067751733847
-5.868437499999992e-06,0.004447385053099937,0.006189980372835097
-5.848437500000002e-06,0.005449368354134729,0.01735207180635029
-5.828437499999999e-06,0.005783362787813752,0.01363137466184692
-5.808437499999996e-06,0.007119340522528024,0.02107276895086382
-5.788437499999993e-06,0.008789312690920863,0.01735207180635537
-5.768437500000003e-06,0.006117357221493536,0.00246928322832834
-5.7484375e-06,0.007119340522528024,0.01363137466184692
-5.728437499999997e-06,0.006785346088849456,0.01735207180635537
-5.708437499999994e-06,0.005449368354135184,0.03967625467340606
-5.68843749999999e-06,0.006451351655170888,0.009910677517335086
-5.668437500000001e-06,0.006451351655170888,0.002469283228321573
-5.648437499999998e-06,0.004781379486778049,0.02107276895086382
-5.628437499999994e-06,0.004781379486778049,0.01735207180635537
-5.608437499999991e-06,0.004781379486778353,0.02107276895085536
-5.588437500000001e-06,0.005449368354134881,0.002469283228330031
-5.568437499999998e-06,0.004781379486778049,0.01363137466184692
-5.548437499999995e-06,0.005783362787813752,0.01363137466184692
-5.528437499999992e-06,0.005783362787814056,0.009910677517341855
-5.508437500000002e-06,0.006451351655170585,0.01735207180635199
-5.488437499999999e-06,0.005783362787813752,0.006189980372830022
-5.468437499999996e-06,0.005115373920456617,-0.001251413916186876
-5.448437499999993e-06,0.005783362787813752,0.006189980372830022
-5.428437500000003e-06,0.005449368354135336,0.01363137466184354
-5.4084375e-06,0.004447385053099481,0.02107276895086382
-5.388437499999997e-06,0.003779396185742345,0.00991067751733847
-5.368437499999993e-06,0.004447385053099481,0.006189980372830022
-5.34843749999999e-06,0.004113390619421065,0.006189980372833405
-5.328437500000001e-06,0.004447385053099481,0.01363137466184692
-5.308437499999997e-06,0.005115373920456617,0.01363137466184692
-5.288437499999994e-06,0.003779396185742345,-0.008692808205203774
-5.268437499999991e-06,0.005115373920456161,0.006189980372835097
-5.248437500000001e-06,0.004113390619421368,0.01735207180635029
-5.228437499999998e-06,0.005449368354135184,0.02479346609537227
-5.208437499999995e-06,0.005449368354135184,0.01735207180635537
-5.188437499999992e-06,0.0057833627878136,0.006189980372835097
-5.168437500000002e-06,0.005449368354135336,0.01735207180635029
-5.148437499999999e-06,0.006451351655170888,0.01363137466184692
-5.128437499999996e-06,0.005783362787813752,0.03595555752889761
-5.108437499999993e-06,0.005115373920456617,0.03595555752889761
-5.088437500000003e-06,0.005783362787813448,0.01735207180636383
-5.0684375e-06,0.005115373920456617,0.02479346609537227
-5.048437499999997e-06,0.005449368354135184,0.03595555752889761
-5.028437499999993e-06,0.005115373920456617,0.01735207180635537
-5.00843749999999e-06,0.004447385053100088,0.01735207180635367
-4.9884375e-06,0.005783362787813752,0.01363137466184692
-4.968437499999997e-06,0.004447385053099481,0.02107276895086382
-4.948437499999994e-06,0.00611735722149232,0.01363137466184692
-4.928437499999991e-06,0.00611735722149232,0.02851416323988071
-4.908437500000001e-06,0.00611735722149232,0.02851416323988071
-4.888437499999998e-06,0.008121323823563727,0.00991067751733847
-4.868437499999995e-06,0.005783362787813752,0.00991067751733847
-4.848437499999992e-06,0.006451351655170736,0.02479346609537565
-4.828437500000002e-06,0.006117357221492472,0.03223486038438578
-4.808437499999999e-06,0.005449368354135184,0.02107276895086382
-4.788437499999996e-06,0.00611735722149232,0.01735207180635537
-4.768437499999992e-06,0.004447385053099481,0.00991067751733847
-4.748437500000003e-06,0.004447385053099481,0.00991067751733847
-4.7284375e-06,0.004447385053099481,0.006189980372830022
-4.708437499999996e-06,0.005783362787813752,0.01735207180635537
-4.688437499999993e-06,0.005783362787813752,0.01735207180635537
-4.66843749999999e-06,0.004781379486778809,-0.001251413916183492
-4.6484375e-06,0.006451351655170888,0.006189980372830022
-4.628437499999997e-06,0.00611735722149232,0.01735207180635537
-4.608437499999994e-06,0.005783362787813752,0.00991067751733847
-4.588437499999991e-06,0.006117357221491713,-0.001251413916188568
-4.568437500000001e-06,0.004781379486778049,-0.004972111060695325
-4.548437499999998e-06,0.005449368354135184,0.00991067751733847
-4.528437499999995e-06,0.005449368354135184,0.01363137466184692
-4.508437499999992e-06,0.005115373920456465,0.009910677517331703
-4.488437500000002e-06,0.004781379486778201,-0.004972111060688558
-4.468437499999999e-06,0.004781379486778049,-0.01241350534971222
-4.448437499999995e-06,0.003779396185742345,0.006189980372830022
-4.428437499999992e-06,0.005449368354135184,0.006189980372830022
-4.408437500000003e-06,0.005115373920456768,0.002469283228323264
-4.388437499999999e-06,0.005449368354135184,-0.01241350534971222
-4.368437499999996e-06,0.005449368354135184,0.002469283228321573
-4.348437499999993e-06,0.005115373920456617,-0.008692808205203774
-4.328437500000003e-06,0.005449368354135033,0.002469283228316497
-4.3084375e-06,0.005783362787813752,0.002469283228321573
-4.288437499999997e-06,0.007119340522528024,-0.01241350534971222
-4.268437499999994e-06,0.00611735722149232,-0.01613420249422067
-4.248437499999991e-06,0.004781379486778353,-0.01241350534971053
-4.228437500000001e-06,0.005449368354135184,-0.008692808205203774
-4.208437499999998e-06,0.005783362787813752,-0.004972111060695325
-4.188437499999995e-06,0.006451351655170888,-0.008692808205203774
-4.168437499999991e-06,0.004447385053099481,-0.008692808205198698
-4.148437500000002e-06,0.004447385053099481,0.002469283228316497
-4.128437499999999e-06,0.005115373920456617,0.002469283228321573
-4.108437499999995e-06,0.005449368354135184,0.002469283228321573
-4.088437499999992e-06,0.006451351655170736,-0.0161342024942156
-4.068437500000002e-06,0.006117357221492472,-0.004972111060700401
-4.048437499999999e-06,0.006451351655170888,0.006189980372830022
-4.028437499999996e-06,0.008455318257242295,0.006189980372830022
-4.008437499999993e-06,0.006785346088849456,0.006189980372830022
-3.988437500000003e-06,0.008789312690919952,-0.001251413916183493
-3.9684375e-06,0.00611735722149232,-0.004972111060695325
-3.948437499999997e-06,0.007453334956206592,-0.001251413916186876
-3.928437499999994e-06,0.00611735722149232,0.006189980372830022
-3.90843749999999e-06,0.005449368354135336,0.01363137466183677
-3.888437500000001e-06,0.005783362787813752,-0.008692808205203774
-3.868437499999998e-06,0.004113390619420913,0.006189980372830022
-3.848437499999994e-06,0.004781379486778049,-0.004972111060695325
-3.828437499999991e-06,0.004447385053099026,0.002469283228323264
-3.808437500000002e-06,0.003445401752064233,0.00618998037282833
-3.788437499999998e-06,0.005449368354135184,-0.001251413916186876
-3.768437499999995e-06,0.005449368354135184,0.00991067751733847
-3.748437499999992e-06,0.006117357221492169,0.009910677517341855
-3.728437500000002e-06,0.005783362787813904,0.01735207180635199
-3.708437499999999e-06,0.004781379486778049,0.00991067751733847
-3.688437499999996e-06,0.005115373920456617,0.00991067751733847
-3.668437499999993e-06,0.003445401752063777,0.006189980372830022
-3.648437500000003e-06,0.004113390619420609,0.02107276895085705
-3.6284375e-06,0.005115373920456617,0.01735207180635537
-3.608437499999997e-06,0.005115373920456617,0.02851416323988071
-3.588437499999994e-06,0.004447385053099481,0.01735207180635537
-3.56843749999999e-06,0.004113390619421216,0.006189980372830022
-3.548437500000001e-06,0.004781379486778049,0.006189980372830022
-3.528437499999998e-06,0.005115373920456617,0.02107276895086382
-3.508437499999994e-06,0.005449368354135184,0.01363137466184692
-3.488437499999991e-06,0.004447385053099633,0.006189980372835097
-3.468437500000001e-06,0.004781379486777897,0.01735207180635029
-3.448437499999998e-06,0.003445401752063777,0.006189980372830022
-3.428437499999995e-06,0.005449368354135184,0.01363137466184692
-3.408437499999992e-06,0.004447385053100088,0.009910677517333395
-3.388437500000002e-06,0.005783362787813145,-0.0012514139161818
-3.368437499999999e-06,0.004113390619420913,-0.008692808205203774
-3.348437499999996e-06,0.005449368354135184,0.002469283228321573
-3.328437499999993e-06,0.005115373920456617,0.02851416323988071
-3.308437500000003e-06,0.006117357221491865,0.0210727689508672
-3.2884375e-06,0.00611735722149232,0.006189980372830022
-3.268437499999997e-06,0.005449368354135184,-0.004972111060695325
-3.248437499999993e-06,0.006785346088849456,0.01363137466184692
-3.22843749999999e-06,0.006117357221492776,0.01363137466184692
-3.208437500000001e-06,0.007119340522528024,0.01363137466184692
-3.188437499999997e-06,0.008121323823563727,0.006189980372830022
-3.168437499999994e-06,0.007453334956206592,-0.004972111060695325
-3.148437499999991e-06,0.008121323823563575,-0.001251413916188568
-3.128437500000001e-06,0.007787329389885311,-0.004972111060693634
-3.108437499999998e-06,0.006785346088849456,0.02107276895086382
-3.088437499999995e-06,0.00778732938988516,0.002469283228321573
-3.068437499999992e-06,0.006785346088849608,-0.008692808205197007
-3.048437500000002e-06,0.007119340522527873,0.006189980372823254
-3.028437499999999e-06,0.007119340522528024,0.002469283228321573
-3.008437499999996e-06,0.006785346088849456,0.00991067751733847
-2.988437499999993e-06,0.006785346088849456,-0.004972111060695325
-2.968437500000003e-06,0.006117357221492624,-0.01985489963872236
-2.9484375e-06,0.006451351655170888,-0.004972111060695325
-2.928437499999996e-06,0.007119340522528024,0.002469283228321573
-2.908437499999993e-06,0.007119340522528024,0.002469283228321573
-2.88843749999999e-06,0.007787329389884553,-0.008692808205202083
-2.8684375e-06,0.006451351655170888,-0.004972111060695325
-2.848437499999997e-06,0.005783362787813752,0.002469283228321573
-2.828437499999994e-06,0.006785346088849456,0.01735207180635537
-2.808437499999991e-06,0.005115373920457072,0.01735207180635029
-2.788437500000001e-06,0.00611735722149232,0.006189980372830022
-2.768437499999998e-06,0.005449368354135184,-0.004972111060695325
-2.748437499999995e-06,0.004781379486778049,0.006189980372830022
-2.728437499999992e-06,0.005783362787814056,0.009910677517345238
-2.708437500000002e-06,0.006451351655170585,0.0247934660953655
-2.688437499999999e-06,0.00611735722149232,0.006189980372830022
-2.668437499999996e-06,0.006785346088849456,0.002469283228321573
-2.648437499999992e-06,0.005783362787813752,0.006189980372830022
-2.628437500000003e-06,0.006117357221492169,0.02851416323987056
-2.6084375e-06,0.004781379486778049,0.02107276895086382
-2.588437499999996e-06,0.005783362787813752,0.002469283228321573
-2.568437499999993e-06,0.004447385053099481,0.002469283228321573
-2.54843749999999e-06,0.003779396185742953,0.006189980372830022
-2.5284375e-06,0.005115373920456617,0.006189980372830022
-2.508437499999997e-06,0.004113390619420913,0.00991067751733847
-2.488437499999994e-06,0.005449368354135184,0.002469283228321573
-2.468437499999991e-06,0.004447385053099633,0.002469283228330032
-2.448437500000001e-06,0.004781379486778049,0.02107276895086382
-2.428437499999998e-06,0.006451351655170888,0.002469283228321573
-2.408437499999995e-06,0.005449368354135184,0.002469283228321573
-2.388437499999991e-06,0.00611735722149232,0.006189980372826638
-2.368437500000002e-06,0.00611735722149232,-0.001251413916183493
-2.348437499999999e-06,0.00611735722149232,-0.004972111060695325
-2.328437499999995e-06,0.006451351655170888,0.02851416323988071
-2.308437499999992e-06,0.006785346088849456,0.01735207180635537
-2.288437500000003e-06,0.007453334956206288,0.00246928322832834
-2.268437499999999e-06,0.006451351655170888,-0.008692808205203774
-2.248437499999996e-06,0.006451351655170888,0.006189980372830022
-2.228437499999993e-06,0.006785346088849456,0.00991067751733847
-2.208437500000003e-06,0.005115373920457376,0.02107276895085874
-2.1884375e-06,0.005449368354135184,0.002469283228321573
-2.168437499999997e-06,0.003779396185742345,0.006189980372830022
-2.148437499999994e-06,0.003445401752063777,0.01363137466184692
-2.128437499999991e-06,0.004113390619421673,0.02479346609536719
-2.108437500000001e-06,0.005783362787813752,0.01363137466184692
-2.088437499999998e-06,0.005783362787813752,0.02479346609537227
-2.068437499999995e-06,0.004113390619420913,0.006189980372830022
-2.048437499999991e-06,0.006117357221492017,0.01735207180635367
-2.028437500000002e-06,0.005449368354135488,0.01363137466184861
-2.008437499999999e-06,0.005115373920456617,0.02851416323988071
-1.988437499999995e-06,0.005115373920456617,0.006189980372830022
-1.968437499999992e-06,0.005115373920456617,0.01363137466184523
-1.948437500000002e-06,0.005115373920456617,0.009910677517340162
-1.928437499999999e-06,0.00611735722149232,0.01363137466184692
-1.908437499999996e-06,0.005115373920456617,0.02107276895086382
-1.888437499999993e-06,0.006451351655170888,-0.008692808205203774
-1.868437500000003e-06,0.006117357221492472,-0.01241350534971053
-1.8484375e-06,0.004447385053099481,0.002469283228321573
-1.828437499999997e-06,0.005115373920456617,0.006189980372830022
-1.808437499999994e-06,0.004113390619420913,0.00991067751733847
-1.78843749999999e-06,0.005449368354135336,0.002469283228319881
-1.768437500000001e-06,0.005783362787813752,-0.001251413916186876
-1.748437499999998e-06,0.005783362787813752,-0.001251413916186876
-1.728437499999994e-06,0.006451351655170888,0.006189980372830022
-1.708437499999991e-06,0.006451351655171344,0.00991067751733001
-1.688437500000002e-06,0.007453334956206137,-0.008692808205195315
-1.668437499999998e-06,0.006451351655170888,0.002469283228321573
-1.648437499999995e-06,0.00611735722149232,0.002469283228321573
-1.628437499999992e-06,0.007453334956206896,0.01735207180635706
-1.608437500000002e-06,0.008121323823563424,0.02107276895086212
-1.588437499999999e-06,0.006785346088849456,0.00991067751733847
-1.568437499999996e-06,0.00611735722149232,0.002469283228321573
-1.548437499999993e-06,0.00611735722149232,0.01735207180635537
-1.528437500000003e-06,0.00611735722149232,0.02107276895086212
-1.5084375e-06,0.007119340522528024,0.01363137466184692
-1.488437499999997e-06,0.008121323823563727,0.01363137466184692
-1.468437499999994e-06,0.007453334956206592,0.01363137466184692
-1.44843749999999e-06,0.007453334956207199,0.006189980372835097
-1.428437500000001e-06,0.008789312690920863,0.01735207180635537
-1.408437499999997e-06,0.008121323823563727,0.01363137466184692
-1.388437499999994e-06,0.009123307124599432,0.01735207180635537
-1.368437499999991e-06,0.008455318257241991,0.013631374661852
-1.348437500000001e-06,0.007787329389885463,0.02479346609536719
-1.328437499999998e-06,0.009123307124599432,0.01735207180635537
-1.308437499999995e-06,0.007119340522528024,0.00991067751733847
-1.288437499999992e-06,0.00745333495620644,0.006189980372826638
-1.268437500000002e-06,0.007119340522528176,-0.001251413916183493
-1.248437499999999e-06,0.007119340522528024,0.006189980372830022
-1.228437499999996e-06,0.008121323823563727,0.002469283228321573
-1.208437499999993e-06,0.007119340522528024,0.02479346609537227
-1.188437500000003e-06,0.008789312690920103,0.002469283228331724
-1.1684375e-06,0.00778732938988516,0.002469283228321573
-1.148437499999997e-06,0.007453334956206592,0.002469283228321573
-1.128437499999993e-06,0.008455318257242295,0.00991067751733847
-1.10843749999999e-06,0.007453334956205985,0.01735207180635029
-1.088437500000001e-06,0.00611735722149232,0.006189980372830022
-1.068437499999997e-06,0.005783362787813752,-0.008692808205203774
-1.048437499999994e-06,0.007119340522528024,0.002469283228321573
-1.028437499999991e-06,0.007119340522527569,0.01363137466184861
-1.008437500000001e-06,0.006117357221492776,0.01735207180635367
-9.884374999999981e-07,0.007453334956206592,0.006189980372830022
-9.684374999999949e-07,0.008121323823563727,0.01735207180635537
-9.484374999999917e-07,0.00711934052252848,-0.001251413916176724
-9.284375000000021e-07,0.008121323823563271,0.02107276895085367
-9.084374999999989e-07,0.007453334956206592,0.02107276895086382
-8.884374999999957e-07,0.008121323823563727,0.002469283228321573
-8.684374999999925e-07,0.006451351655170888,0.002469283228321573
-8.484375000000028e-07,0.008121323823562968,0.00618998037282833
-8.284374999999996e-07,0.008121323823563727,0.006189980372830022
-8.084374999999964e-07,0.006785346088849456,0.01735207180635537
-7.884374999999932e-07,0.006785346088849456,0.006189980372830022
-7.6843749999999e-07,0.006785346088849304,-0.001251413916185184
-7.484375000000004e-07,0.006451351655170888,0.002469283228321573
-7.284374999999972e-07,0.006785346088849456,0.01363137466184692
-7.08437499999994e-07,0.007119340522528024,0.01363137466184692
-6.884374999999908e-07,0.007787329389884704,0.00991067751733001
-6.684375000000012e-07,0.006785346088849456,-0.008692808205203774
-6.48437499999998e-07,0.006451351655170888,-0.008692808205203774
-6.284374999999948e-07,0.008121323823563727,-0.004972111060695325
-6.084374999999916e-07,0.006785346088849,-0.00125141391619026
-5.884375000000019e-07,0.005783362787814207,-0.008692808205200391
-5.684374999999987e-07,0.006785346088849456,-0.01613420249422067
-5.484374999999955e-07,0.00611735722149232,-0.01613420249422067
-5.284374999999923e-07,0.00778732938988516,0.002469283228321573
-5.084375000000027e-07,0.006785346088849911,-0.001251413916185184
-4.884374999999995e-07,0.006451351655170888,-0.008692808205203774
-4.684374999999963e-07,0.003779396185742345,-0.01613420249422067
-4.484374999999931e-07,0.004447385053099481,-0.01241350534971222
-4.284375000000035e-07,0.004781379486777897,0.006189980372821563
-4.084375000000003e-07,0.004113390619420913,0.002469283228321573
-3.884374999999971e-07,0.004781379486778049,-0.004972111060695325
-3.684374999999939e-07,0.004113390619420913,-0.004972111060695325
-3.484374999999907e-07,0.006451351655170585,0.009910677517340162
-3.28437500000001e-07,0.005783362787813752,0.01363137466184692
-3.084374999999978e-07,0.005449368354135184,-0.001251413916186876
-2.884374999999946e-07,0.005783362787813752,-0.008692808205203774
-2.684374999999914e-07,0.00645135165517104,0.006189980372824946
-2.484375000000018e-07,0.006785346088849304,-0.004972111060690249
-2.284374999999986e-07,0.006785346088849456,-0.001251413916186876
-2.084374999999954e-07,0.00611735722149232,0.006189980372830022
-1.884374999999922e-07,0.006785346088849456,-0.004972111060695325
-1.684375000000026e-07,0.006117357221492624,0.002469283228318189
-1.484374999999994e-07,0.00611735722149232,0.002469283228321573
-1.284374999999962e-07,0.006785346088849456,0.006189980372830022
-1.08437499999993e-07,0.007453334956206592,0.006189980372830022
-8.843750000000334e-08,0.007453334956206592,0.002469283228323264
-6.843750000000014e-08,0.006785346088849456,-0.008692808205203774
-4.843749999999694e-08,0.006785346088849456,-0.008692808205203774
-2.843749999999375e-08,0.004781379486778049,0.02479346609537227
-8.437499999990549e-09,-0.005906442390929137,0.9921747236686518
1.15624999999991e-08,0.009457301558278,3.373420896152977
3.156250000000229e-08,0.009791295991956567,3.3399346218524
5.156250000000549e-08,0.00778732938988516,3.354817410430434
7.156250000000869e-08,0.002777412884705426,3.37342089615297
9.156249999999833e-08,0.0001054574152793133,3.358538107574949
1.115625000000015e-07,0.002109424017349506,3.31761043898535
1.315625000000047e-07,0.005115373920456617,3.313889741840841
1.515625000000079e-07,0.006785346088848696,3.332493227563394
1.715624999999976e-07,0.005115373920457376,3.354817410430424
