traces_bank_current_trigger/benchmark_traces/fibonacci_50MHz/fib_6.csv

#Digilent WaveForms Oscilloscope Acquisition
#Device Name: Discovery2
#Serial Number: SN:210321B3D813
#Date Time: 2023-06-23 12:08:10.879
#Sample rate: 5e+07Hz
#Samples: 8192
#Trigger: Source: Channel 2 Type: Edge Condition: Rising Level: 2 V Hyst.: Auto HoldOff: 0 s
#Channel 1: Range: 10 mV/div Offset: 0 V Attenuation: 1 X Sample Mode: Average
#Channel 2: Range: 5 V/div Offset: 0 V Attenuation: 1 X Sample Mode: Average

Time (s),Channel 1 (V),Channel 2 (V)
-9.909742895805137e-06,0.004781379486778049,0.03223486038438916
-9.889742895805134e-06,0.004447385053099481,0.01363137466184692
-9.869742895805131e-06,0.004113390619420306,0.01735207180635367
-9.849742895805141e-06,0.002777412884707249,0.01363137466184861
-9.829742895805138e-06,0.004113390619420913,0.02107276895086382
-9.809742895805135e-06,0.005115373920456617,0.01735207180635537
-9.789742895805132e-06,0.005783362787813752,0.02107276895086382
-9.769742895805142e-06,0.003779396185743256,0.01735207180635706
-9.749742895805139e-06,0.003111407318385209,0.01363137466184692
-9.729742895805136e-06,0.005783362787813752,0.00991067751733847
-9.709742895805133e-06,0.006451351655170888,0.02107276895086382
-9.689742895805129e-06,0.007453334956205377,0.02479346609536719
-9.66974289580514e-06,0.004781379486778049,0.01363137466184692
-9.649742895805137e-06,0.002777412884706641,0.002469283228321573
-9.629742895805133e-06,0.004113390619420913,-0.001251413916186876
-9.60974289580513e-06,0.005783362787813752,0.01735207180635537
-9.589742895805141e-06,0.005783362787813752,0.01735207180635537
-9.569742895805137e-06,0.004447385053099481,0.00991067751733847
-9.549742895805134e-06,0.003779396185742345,0.006189980372830022
-9.529742895805131e-06,0.004781379486778353,0.01363137466185369
-9.509742895805141e-06,0.005449368354134881,0.02851416323987395
-9.489742895805138e-06,0.007453334956206592,0.006189980372830022
-9.469742895805135e-06,0.006785346088849456,0.01363137466184692
-9.449742895805132e-06,0.00611735722149232,0.006189980372830022
-9.429742895805142e-06,0.005783362787813904,0.009910677517336779
-9.409742895805139e-06,0.006451351655170888,0.006189980372830022
-9.389742895805136e-06,0.009457301558278,0.01363137466184692
-9.369742895805132e-06,0.007453334956206592,0.00991067751733847
-9.349742895805129e-06,0.008455318257241839,0.00618998037283679
-9.32974289580514e-06,0.007453334956206592,0.02107276895086382
-9.309742895805136e-06,0.004781379486778049,0.02851416323988071
-9.289742895805133e-06,0.006451351655170888,0.01363137466184692
-9.26974289580513e-06,0.006117357221491865,0.002469283228319881
-9.24974289580514e-06,0.005115373920457072,-0.001251413916185184
-9.229742895805137e-06,0.005449368354135184,0.01735207180635537
-9.209742895805134e-06,0.004447385053099481,0.02851416323988071
-9.189742895805131e-06,0.006451351655170888,0.01735207180635199
-9.169742895805141e-06,0.006451351655170888,0.009910677517341853
-9.149742895805138e-06,0.007119340522528024,-0.004972111060695325
-9.129742895805135e-06,0.007453334956206592,0.01363137466184692
-9.109742895805132e-06,0.006451351655170888,0.02107276895086382
-9.089742895805142e-06,0.006451351655170888,0.02107276895086382
-9.069742895805139e-06,0.005449368354135184,0.01735207180635537
-9.049742895805136e-06,0.004447385053099481,0.00991067751733847
-9.029742895805132e-06,0.005783362787813752,0.01735207180635537
-9.009742895805129e-06,0.005449368354134881,0.03223486038438408
-8.989742895805139e-06,0.004781379486778049,0.02107276895086382
-8.969742895805136e-06,0.004447385053099481,0.02851416323988071
-8.949742895805133e-06,0.004781379486778049,0.01735207180635537
-8.92974289580513e-06,0.004781379486777745,0.0210727689508672
-8.90974289580514e-06,0.004113390619420913,0.02851416323988071
-8.889742895805137e-06,0.005115373920456617,0.02479346609537227
-8.869742895805134e-06,0.004781379486778049,0.02479346609537227
-8.849742895805131e-06,0.004781379486778049,0.006189980372831714
-8.829742895805141e-06,0.004781379486778049,0.009910677517336779
-8.809742895805138e-06,0.004447385053099481,0.01735207180635537
-8.789742895805135e-06,0.004447385053099481,0.00991067751733847
-8.769742895805131e-06,0.004447385053099481,0.01363137466184692
-8.749742895805142e-06,0.004447385053099481,0.01363137466184692
-8.729742895805139e-06,0.004447385053099481,0.02107276895086382
-8.709742895805135e-06,0.004781379486778049,0.02851416323988071
-8.689742895805132e-06,0.004781379486778049,0.02107276895086382
-8.669742895805129e-06,0.004113390619420153,0.02479346609537057
-8.649742895805139e-06,0.002443418451028074,0.02107276895086382
-8.629742895805136e-06,0.004113390619420913,0.01735207180635537
-8.609742895805133e-06,0.004447385053099481,0.03595555752889761
-8.58974289580513e-06,0.00611735722149232,0.01735207180635875
-8.56974289580514e-06,0.00611735722149232,0.02479346609537227
-8.549742895805137e-06,0.006451351655170888,0.01735207180635537
-8.529742895805134e-06,0.007119340522528024,0.03595555752889761
-8.509742895805131e-06,0.006785346088850823,0.02851416323988071
-8.489742895805141e-06,0.0097912959919552,0.02851416323988071
-8.469742895805138e-06,0.009123307124599432,0.02107276895086382
-8.449742895805134e-06,0.007453334956206592,0.01363137466184692
-8.429742895805131e-06,0.007453334956206592,0.02851416323988071
-8.409742895805142e-06,0.005783362787814512,0.04339695181790774
-8.389742895805138e-06,0.006785346088849456,0.02107276895086382
-8.369742895805135e-06,0.005115373920456617,0.02107276895086382
-8.349742895805132e-06,0.00611735722149232,0.02479346609537227
-8.329742895805142e-06,0.00611735722149232,0.03595555752889254
-8.309742895805139e-06,0.005449368354135184,0.03595555752889761
-8.289742895805136e-06,0.007119340522528024,0.03595555752889761
-8.269742895805133e-06,0.00611735722149232,0.02851416323988071
-8.24974289580513e-06,0.006117357221492928,0.0210727689508672
-8.22974289580514e-06,0.007453334956206592,0.02851416323988071
-8.209742895805137e-06,0.006451351655170888,0.02107276895086382
-8.189742895805134e-06,0.006785346088849456,0.02107276895086382
-8.16974289580513e-06,0.005449368354135184,0.002469283228328341
-8.149742895805141e-06,0.005449368354135184,0.0173520718063486
-8.129742895805138e-06,0.005449368354135184,0.01363137466184692
-8.109742895805134e-06,0.005783362787813752,0.02851416323988071
-8.089742895805131e-06,0.004447385053099178,0.01363137466184692
-8.069742895805142e-06,0.003779396185742649,0.01363137466184692
-8.049742895805138e-06,0.004781379486778049,0.00991067751733847
-8.029742895805135e-06,0.004113390619420913,0.02479346609537227
-8.009742895805132e-06,0.005449368354135184,0.02107276895086382
-7.989742895805142e-06,0.006785346088848848,0.009910677517343546
-7.969742895805139e-06,0.005783362787813752,0.006189980372830022
-7.949742895805136e-06,0.005115373920456617,0.006189980372830022
-7.929742895805133e-06,0.006451351655170888,0.01363137466184692
-7.909742895805129e-06,0.006785346088849759,0.02851416323987564
-7.88974289580514e-06,0.007453334956206592,0.01735207180635537
-7.869742895805137e-06,0.00611735722149232,0.006189980372830022
-7.849742895805133e-06,0.006451351655170888,0.01363137466184692
-7.82974289580513e-06,0.007119340522527417,0.01735207180635706
-7.809742895805141e-06,0.005783362787814359,0.02107276895086212
-7.789742895805137e-06,0.008121323823563727,0.02107276895086382
-7.769742895805134e-06,0.00611735722149232,0.006189980372830022
-7.749742895805131e-06,0.005783362787814207,0.01735207180635367
-7.729742895805141e-06,0.006785346088849,0.01363137466184861
-7.709742895805138e-06,0.006785346088849456,0.02107276895086382
-7.689742895805135e-06,0.00778732938988516,0.01735207180635537
-7.669742895805132e-06,0.007453334956206592,0.002469283228321573
-7.649742895805142e-06,0.007453334956206592,0.002469283228321573
-7.629742895805139e-06,0.009123307124599432,0.00991067751733847
-7.609742895805136e-06,0.008455318257242295,0.02107276895086382
-7.589742895805133e-06,0.009791295991956567,0.01735207180635537
-7.569742895805129e-06,0.008455318257242142,0.009910677517336779
-7.54974289580514e-06,0.008121323823563727,0.006189980372830022
-7.529742895805137e-06,0.008789312690920863,0.01363137466184692
-7.509742895805133e-06,0.006785346088849456,0.01735207180635537
-7.48974289580513e-06,0.007119340522528024,-0.001251413916180108
-7.46974289580514e-06,0.007119340522528024,0.01363137466184015
-7.449742895805137e-06,0.005449368354135184,0.01363137466184692
-7.429742895805134e-06,0.005449368354135184,0.006189980372830022
-7.409742895805131e-06,0.005115373920457072,0.02851416323987564
-7.389742895805141e-06,0.006117357221491865,0.01735207180636044
-7.369742895805138e-06,0.004781379486778049,0.01363137466184692
-7.349742895805135e-06,0.005115373920456617,0.01363137466184692
-7.329742895805132e-06,0.005449368354135184,0.006189980372830022
-7.309742895805142e-06,0.005115373920456768,0.01363137466184354
-7.289742895805139e-06,0.00611735722149232,0.01363137466184692
-7.269742895805136e-06,0.004781379486778049,-0.004972111060695325
-7.249742895805132e-06,0.003445401752063777,-0.008692808205203774
-7.229742895805129e-06,0.003779396185742345,0.009910677517345238
-7.20974289580514e-06,0.003779396185742345,0.02479346609537227
-7.189742895805136e-06,0.004447385053099481,-0.004972111060695325
-7.169742895805133e-06,0.003779396185742345,-0.001251413916186876
-7.14974289580513e-06,0.004113390619421065,-0.0012514139161818
-7.12974289580514e-06,0.00444738505309933,0.009910677517333395
-7.109742895805137e-06,0.003779396185742345,0.00991067751733847
-7.089742895805134e-06,0.004781379486778049,0.002469283228321573
-7.069742895805131e-06,0.004447385053099178,-0.001251413916183492
-7.049742895805141e-06,0.003779396185742649,0.006189980372826638
-7.029742895805138e-06,0.004113390619420913,0.002469283228321573
-7.009742895805135e-06,0.004781379486778049,0.00991067751733847
-6.989742895805132e-06,0.005449368354135184,0.002469283228321573
-6.969742895805142e-06,0.005115373920456768,-0.001251413916185184
-6.949742895805139e-06,0.004781379486778049,-0.004972111060695325
-6.929742895805135e-06,0.004113390619420913,0.00991067751733847
-6.909742895805132e-06,0.004113390619420913,0.01363137466184692
-6.889742895805129e-06,0.005115373920456617,0.002469283228321573
-6.869742895805139e-06,0.005115373920456617,0.002469283228321573
-6.849742895805136e-06,0.004113390619420913,0.002469283228321573
-6.829742895805133e-06,0.004781379486778049,-0.001251413916186876
-6.80974289580513e-06,0.006117357221492624,0.01363137466184353
-6.78974289580514e-06,0.006785346088849456,0.006189980372830022
-6.769742895805137e-06,0.00611735722149232,0.006189980372830022
-6.749742895805134e-06,0.006785346088849456,-0.01241350534971222
-6.729742895805131e-06,0.008455318257241991,-0.004972111060685173
-6.709742895805141e-06,0.007787329389885463,0.01735207180634522
-6.689742895805138e-06,0.009457301558278,0.006189980372830022
-6.669742895805135e-06,0.008789312690920863,0.00991067751733847
-6.649742895805131e-06,0.007453334956206592,-0.004972111060695325
-6.629742895805142e-06,0.007453334956206592,0.02479346609535873
-6.609742895805139e-06,0.006785346088849456,0.02107276895086382
-6.589742895805135e-06,0.00778732938988516,0.006189980372830022
-6.569742895805132e-06,0.005449368354135184,0.00991067751733847
-6.549742895805129e-06,0.00645135165517104,-0.0012514139161818
-6.529742895805139e-06,0.006785346088849456,0.00991067751733847
-6.509742895805136e-06,0.005449368354135184,0.03223486038438916
-6.489742895805133e-06,0.00778732938988516,0.02851416323988071
-6.46974289580513e-06,0.00745333495620644,0.009910677517340162
-6.44974289580514e-06,0.007119340522528024,0.01363137466184692
-6.429742895805137e-06,0.008121323823563727,0.00991067751733847
-6.409742895805134e-06,0.008121323823563727,0.02851416323988071
-6.38974289580513e-06,0.008455318257241535,0.01735207180634691
-6.369742895805141e-06,0.006785346088850215,-0.001251413916178418
-6.349742895805138e-06,0.00611735722149232,0.02107276895086382
-6.329742895805134e-06,0.005449368354135184,0.01735207180635537
-6.309742895805131e-06,0.005783362787813752,0.01363137466184692
-6.289742895805142e-06,0.005783362787813752,0.009910677517340162
-6.269742895805138e-06,0.005449368354135184,0.02107276895086382
-6.249742895805135e-06,0.004781379486778049,0.01363137466184692
-6.229742895805132e-06,0.005783362787813752,0.02107276895086382
-6.209742895805142e-06,0.004781379486778504,0.02107276895086382
-6.189742895805139e-06,0.00611735722149232,0.02107276895086382
-6.169742895805136e-06,0.005783362787813752,0.01735207180635537
-6.149742895805133e-06,0.006451351655170888,-0.004972111060695325
-6.12974289580513e-06,0.007119340522527873,0.02479346609537227
-6.10974289580514e-06,0.006785346088849456,0.02479346609537227
-6.089742895805137e-06,0.007453334956206592,0.00991067751733847
-6.069742895805134e-06,0.00611735722149232,0.01735207180635537
-6.04974289580513e-06,0.006117357221492472,0.006189980372835097
-6.029742895805141e-06,0.006451351655170736,0.01735207180635029
-6.009742895805138e-06,0.005449368354135184,0.03223486038438916
-5.989742895805134e-06,0.007453334956206592,0.01735207180635537
-5.969742895805131e-06,0.004781379486778809,0.01735207180635199
-5.949742895805141e-06,0.006451351655170129,0.009910677517341853
-5.929742895805138e-06,0.006785346088849456,0.01735207180635537
-5.909742895805135e-06,0.006451351655170888,0.02851416323988071
-5.889742895805132e-06,0.006451351655170888,0.002469283228321573
-5.869742895805142e-06,0.006451351655170888,0.002469283228321573
-5.849742895805139e-06,0.008121323823563727,-0.001251413916186876
-5.829742895805136e-06,0.00778732938988516,-0.008692808205203774
-5.809742895805133e-06,0.008455318257242295,0.02107276895086382
-5.789742895805129e-06,0.01012529042563483,0.006189980372833405
-5.76974289580514e-06,0.009457301558278,0.01363137466184692
-5.749742895805137e-06,0.008455318257242295,-0.008692808205203774
-5.729742895805133e-06,0.008455318257242295,0.00991067751733847
-5.70974289580513e-06,0.008121323823563424,0.01735207180635029
-5.689742895805141e-06,0.007453334956206896,0.006189980372835097
-5.669742895805137e-06,0.006451351655170888,0.002469283228321573
-5.649742895805134e-06,0.005449368354135184,0.006189980372830022
-5.629742895805131e-06,0.006117357221492624,0.01735207180635367
-5.609742895805141e-06,0.006785346088849152,0.01363137466184861
-5.589742895805138e-06,0.006451351655170888,0.00991067751733847
-5.569742895805135e-06,0.007119340522528024,0.006189980372830022
-5.549742895805132e-06,0.00611735722149232,0.006189980372830022
-5.529742895805142e-06,0.008121323823562817,0.009910677517336779
-5.509742895805139e-06,0.005783362787813752,0.01735207180635537
-5.489742895805136e-06,0.007453334956206592,0.00991067751733847
-5.469742895805133e-06,0.005783362787813752,0.002469283228321573
-5.449742895805129e-06,0.004447385053100088,0.00618998037283679
-5.42974289580514e-06,0.005783362787813752,0.02107276895086382
-5.409742895805136e-06,0.004781379486778049,0.02107276895086382
-5.389742895805133e-06,0.00611735722149232,0.006189980372830022
-5.36974289580513e-06,0.004447385053099633,0.006189980372826638
-5.34974289580514e-06,0.004781379486777897,-0.001251413916183493
-5.329742895805137e-06,0.005783362787813752,0.00991067751733847
-5.309742895805134e-06,0.005115373920456617,0.02479346609537227
-5.289742895805131e-06,0.006451351655170433,0.01363137466184692
-5.269742895805141e-06,0.00544936835413564,0.01363137466184692
-5.249742895805138e-06,0.004113390619420913,0.006189980372830022
-5.229742895805135e-06,0.004113390619420913,0.02479346609537227
-5.209742895805132e-06,0.004781379486778049,0.02107276895086382
-5.189742895805142e-06,0.005115373920456465,0.009910677517343546
-5.169742895805139e-06,0.004113390619420913,0.002469283228321573
-5.149742895805136e-06,0.003445401752063777,-0.004972111060695325
-5.129742895805132e-06,0.003445401752063777,0.01735207180635537
-5.109742895805129e-06,0.003779396185742649,0.02479346609536211
-5.08974289580514e-06,0.004447385053099481,0.002469283228321573
-5.069742895805136e-06,0.004781379486778049,0.00991067751733847
-5.049742895805133e-06,0.004113390619420913,0.006189980372830022
-5.02974289580513e-06,0.004781379486778049,0.01363137466184353
-5.00974289580514e-06,0.004781379486778049,0.006189980372833405
-4.989742895805137e-06,0.00778732938988516,0.00991067751733847
-4.969742895805134e-06,0.007453334956206592,-0.001251413916186876
-4.949742895805131e-06,0.006117357221492928,0.009910677517336779
-4.929742895805141e-06,0.007453334956205985,0.006189980372831713
-4.909742895805138e-06,0.006785346088849456,0.01735207180635537
-4.889742895805135e-06,0.009791295991956567,0.00991067751733847
-4.869742895805131e-06,0.00778732938988516,0.01363137466184692
-4.849742895805142e-06,0.006785346088849911,0.002469283228326648
-4.829742895805139e-06,0.006785346088849456,0.002469283228321573
-4.809742895805135e-06,0.00611735722149232,0.00991067751733847
-4.789742895805132e-06,0.006785346088849456,-0.004972111060695325
-4.769742895805129e-06,0.006451351655170585,-0.001251413916191952
-4.749742895805139e-06,0.005783362787813752,-0.01241350534971222
-4.729742895805136e-06,0.005449368354135184,0.01363137466184692
-4.709742895805133e-06,0.005449368354135184,0.00991067751733847
-4.68974289580513e-06,0.006785346088849152,0.01735207180634691
-4.66974289580514e-06,0.00611735722149232,-0.001251413916186876
-4.649742895805137e-06,0.00611735722149232,0.01363137466184692
-4.629742895805134e-06,0.00778732938988516,0.02107276895086382
-4.609742895805131e-06,0.007453334956206744,0.01735207180635367
-4.589742895805141e-06,0.007787329389885008,0.01363137466184861
-4.569742895805138e-06,0.00778732938988516,0.002469283228321573
-4.549742895805135e-06,0.00611735722149232,0.006189980372830022
-4.529742895805131e-06,0.00611735722149232,0.00991067751733847
-4.509742895805142e-06,0.005783362787813904,0.02107276895085874
-4.489742895805139e-06,0.005449368354135184,0.00991067751733847
-4.469742895805135e-06,0.005449368354135184,0.006189980372830022
-4.449742895805132e-06,0.004447385053099481,0.002469283228321573
-4.429742895805142e-06,0.004113390619421065,0.009910677517335088
-4.409742895805139e-06,0.005783362787813752,0.00991067751733847
-4.389742895805136e-06,0.004113390619420913,0.002469283228321573
-4.369742895805133e-06,0.004447385053099481,-0.001251413916186876
-4.34974289580513e-06,0.0057833627878136,-0.008692808205200389
-4.32974289580514e-06,0.005449368354135184,-0.001251413916186876
-4.309742895805137e-06,0.004113390619420913,0.01363137466184692
-4.289742895805134e-06,0.00611735722149232,-0.001251413916186876
-4.26974289580513e-06,0.004781379486777442,-0.008692808205203774
-4.249742895805141e-06,0.003445401752064385,-0.008692808205203774
-4.229742895805138e-06,0.004113390619420913,-0.001251413916186876
-4.209742895805134e-06,0.003779396185742345,0.01363137466184692
-4.189742895805131e-06,0.004447385053099481,0.006189980372830022
-4.169742895805142e-06,0.004113390619421065,-0.001251413916183493
-4.149742895805138e-06,0.003111407318385209,0.00991067751733847
-4.129742895805135e-06,0.005115373920456617,0.02107276895086382
-4.109742895805132e-06,0.004113390619420913,0.02107276895086382
-4.089742895805142e-06,0.005783362787812992,0.02479346609537057
-4.069742895805139e-06,0.005783362787813752,0.006189980372830022
-4.049742895805136e-06,0.00611735722149232,0.00991067751733847
-4.029742895805133e-06,0.006451351655170888,0.02479346609537227
-4.00974289580513e-06,0.006785346088850063,0.02851416323987564
-3.98974289580514e-06,0.008121323823563727,0.01735207180635537
-3.969742895805137e-06,0.006785346088849456,0.01735207180635537
-3.949742895805134e-06,0.007453334956206592,0.00991067751733847
-3.92974289580513e-06,0.007453334956206137,0.03967625467340606
-3.909742895805141e-06,0.006451351655171344,0.03967625467340606
-3.889742895805137e-06,0.006451351655170888,0.03595555752889761
-3.869742895805134e-06,0.005783362787813752,0.02851416323988071
-3.849742895805131e-06,0.004781379486778353,0.02107276895087059
