traces_bank_current_trigger/benchmark_traces/fibonacci_50MHz/fib_18.csv

#Digilent WaveForms Oscilloscope Acquisition
#Device Name: Discovery2
#Serial Number: SN:210321B3D813
#Date Time: 2023-06-23 15:17:43.934
#Sample rate: 5e+07Hz
#Samples: 8192
#Trigger: Source: Channel 2 Type: Edge Condition: Rising Level: 2 V Hyst.: Auto HoldOff: 0 s
#Channel 1: Range: 10 mV/div Offset: 0 V Attenuation: 1 X Sample Mode: Average
#Channel 2: Range: 5 V/div Offset: 0 V Attenuation: 1 X Sample Mode: Average

Time (s),Channel 1 (V),Channel 2 (V)
-1.791026751592357e-05,0.004447385053099481,0.006189980372830022
-1.789026751592356e-05,0.005783362787813752,-0.004972111060695325
-1.787026751592356e-05,0.006117357221492017,-0.008692808205205465
-1.785026751592357e-05,0.005449368354135488,-0.01241350534971053
-1.783026751592357e-05,0.005783362787813752,0.002469283228321573
-1.781026751592356e-05,0.005115373920456617,0.01735207180635537
-1.779026751592356e-05,0.005783362787813752,-0.001251413916186876
-1.777026751592357e-05,0.006785346088849,-0.008692808205200391
-1.775026751592357e-05,0.00611735722149232,-0.01241350534971222
-1.773026751592357e-05,0.005449368354135184,-0.004972111060695325
-1.771026751592356e-05,0.00611735722149232,0.01363137466184692
-1.769026751592356e-05,0.005115373920456465,-0.004972111060691941
-1.767026751592357e-05,0.004781379486778049,0.002469283228321573
-1.765026751592357e-05,0.00611735722149232,-0.01241350534971222
-1.763026751592356e-05,0.006451351655170888,0.00991067751733847
-1.761026751592356e-05,0.006451351655171192,0.00991067751733847
-1.759026751592357e-05,0.007119340522527721,0.00991067751733847
-1.757026751592357e-05,0.007119340522528024,0.00991067751733847
-1.755026751592356e-05,0.00778732938988516,-0.004972111060695325
-1.753026751592356e-05,0.01112727372667008,0.002469283228326648
-1.751026751592357e-05,0.00945730155827876,0.01363137466184184
-1.749026751592357e-05,0.01112727372667084,0.01363137466184692
-1.747026751592356e-05,0.008789312690920863,0.002469283228321573
-1.745026751592356e-05,0.009457301558278,-0.01613420249422067
-1.743026751592357e-05,0.01045928485931325,-0.008692808205207157
-1.741026751592357e-05,0.00778732938988516,0.006189980372830022
-1.739026751592357e-05,0.006785346088849456,0.006189980372830022
-1.737026751592356e-05,0.006451351655170888,0.002469283228321573
-1.735026751592356e-05,0.006785346088849608,-0.001251413916180108
-1.733026751592357e-05,0.007119340522528024,0.01363137466184692
-1.731026751592357e-05,0.007119340522528024,0.02479346609537227
-1.729026751592356e-05,0.005449368354135184,0.00991067751733847
-1.727026751592356e-05,0.006117357221491865,0.002469283228316497
-1.725026751592357e-05,0.005115373920457072,-0.008692808205198698
-1.723026751592357e-05,0.007119340522528024,0.006189980372830022
-1.721026751592356e-05,0.007453334956206592,0.00991067751733847
-1.719026751592356e-05,0.006117357221491865,0.01363137466184692
-1.717026751592357e-05,0.005115373920457072,0.01363137466184692
-1.715026751592357e-05,0.003779396185742345,0.006189980372830022
-1.713026751592356e-05,0.003445401752063777,0.006189980372830022
-1.711026751592356e-05,0.003779396185742345,0.01363137466184692
-1.709026751592357e-05,0.004113390619420761,0.01363137466184692
-1.707026751592357e-05,0.003445401752063777,0.006189980372830022
-1.705026751592356e-05,0.002777412884706641,-0.008692808205203774
-1.703026751592356e-05,0.002777412884706641,0.01735207180635537
-1.701026751592356e-05,0.004113390619420457,0.00991067751733847
-1.699026751592357e-05,0.003111407318385209,0.00991067751733847
-1.697026751592357e-05,0.004113390619420913,0.006189980372830022
-1.695026751592356e-05,0.003445401752063777,0.01363137466184692
-1.693026751592356e-05,0.003779396185742497,0.006189980372833405
-1.691026751592357e-05,0.004113390619420913,0.01363137466184692
-1.689026751592357e-05,0.005115373920456617,0.00991067751733847
-1.687026751592356e-05,0.004447385053099481,0.01735207180635537
-1.685026751592356e-05,0.004113390619421065,0.01735207180635367
-1.683026751592357e-05,0.00444738505309933,0.01363137466184861
-1.681026751592357e-05,0.002777412884706641,0.02851416323988071
-1.679026751592356e-05,0.003779396185742345,0.02851416323988071
-1.677026751592356e-05,0.004781379486778049,0.02479346609537227
-1.675026751592357e-05,0.004781379486778049,0.00618998037283848
-1.673026751592357e-05,0.004447385053099481,0.01363137466184692
-1.671026751592356e-05,0.005115373920456617,0.02851416323988071
-1.669026751592356e-05,0.005449368354135184,0.02479346609537227
-1.667026751592356e-05,0.005783362787813904,0.013631374661852
-1.665026751592357e-05,0.00611735722149232,0.02479346609537227
-1.663026751592357e-05,0.00778732938988516,0.02479346609537227
-1.661026751592356e-05,0.007453334956206592,0.03223486038438916
-1.659026751592356e-05,0.00812132382356388,0.03595555752888915
-1.657026751592357e-05,0.008455318257242295,0.01735207180635537
-1.655026751592357e-05,0.008455318257242295,0.00991067751733847
-1.653026751592356e-05,0.009457301558278,0.02107276895086382
-1.651026751592356e-05,0.006117357221493232,0.04339695181791112
-1.649026751592357e-05,0.008121323823562817,0.035955557528901
-1.647026751592357e-05,0.006785346088849456,0.02479346609537227
-1.645026751592356e-05,0.005783362787813752,0.01363137466184692
-1.643026751592356e-05,0.005115373920456617,0.03223486038438916
-1.641026751592357e-05,0.006785346088848697,0.04339695181790944
-1.639026751592357e-05,0.00611735722149232,0.02479346609537227
-1.637026751592356e-05,0.004781379486778049,0.01735207180635537
-1.635026751592356e-05,0.005449368354135184,0.002469283228321573
-1.633026751592357e-05,0.0057833627878136,0.0173520718063486
-1.631026751592357e-05,0.00611735722149232,0.02107276895086382
-1.629026751592357e-05,0.005783362787813752,0.00991067751733847
-1.627026751592356e-05,0.005115373920456617,0.02107276895086382
-1.625026751592356e-05,0.004113390619420609,0.01363137466184861
-1.623026751592357e-05,0.003445401752063777,0.01735207180635537
-1.621026751592357e-05,0.004447385053099481,0.02479346609537227
-1.619026751592356e-05,0.003111407318385209,0.02851416323988071
-1.617026751592356e-05,0.004781379486778049,0.02107276895085874
-1.615026751592357e-05,0.004781379486778049,0.009910677517343546
-1.613026751592357e-05,0.005783362787813752,0.01735207180635537
-1.611026751592356e-05,0.005115373920456617,0.02107276895086382
-1.609026751592356e-05,0.006117357221491865,0.01735207180635537
-1.607026751592357e-05,0.005115373920457072,0.01735207180635537
-1.605026751592357e-05,0.006451351655170888,0.006189980372830022
-1.603026751592356e-05,0.006451351655170888,0.01735207180635537
-1.601026751592356e-05,0.005449368354135184,0.01735207180635537
-1.599026751592357e-05,0.007119340522527265,0.01363137466184861
-1.597026751592357e-05,0.00611735722149232,0.01363137466184692
-1.595026751592357e-05,0.00611735722149232,-0.004972111060695325
-1.593026751592356e-05,0.00611735722149232,0.006189980372830022
-1.591026751592356e-05,0.006117357221492472,0.01363137466184861
-1.589026751592357e-05,0.006451351655170888,0.01735207180635537
-1.587026751592357e-05,0.007119340522528024,0.006189980372830022
-1.585026751592356e-05,0.006785346088849456,0.006189980372830022
-1.583026751592356e-05,0.007453334956205985,0.009910677517346931
-1.581026751592357e-05,0.006117357221492929,0.02851416323987226
-1.579026751592357e-05,0.007119340522528024,0.006189980372830022
-1.577026751592356e-05,0.008455318257242295,0.006189980372830022
-1.575026751592356e-05,0.008789312690921015,-0.01985489963871389
-1.573026751592357e-05,0.009123307124599279,0.01363137466183169
-1.571026751592357e-05,0.01079327929299227,0.00991067751733847
-1.569026751592356e-05,0.01079327929299227,0.01363137466184692
-1.567026751592356e-05,0.009457301558278,0.006189980372830022
-1.565026751592357e-05,0.01012529042563483,0.006189980372830022
-1.563026751592357e-05,0.009791295991956567,0.01363137466184692
-1.561026751592357e-05,0.008789312690920863,0.02479346609537227
-1.559026751592356e-05,0.008789312690920863,0.02479346609537227
-1.557026751592356e-05,0.007787329389885311,0.01735207180635029
-1.555026751592357e-05,0.008121323823563727,0.006189980372830022
-1.553026751592357e-05,0.008455318257242295,0.00991067751733847
-1.551026751592356e-05,0.006451351655170888,0.03223486038438916
-1.549026751592356e-05,0.00878931269092071,0.0396762546733976
-1.547026751592357e-05,0.008455318257242448,0.02107276895087228
-1.545026751592357e-05,0.008455318257242295,0.03595555752889761
-1.543026751592356e-05,0.007453334956206592,0.03223486038438916
-1.541026751592356e-05,0.00745333495620644,0.03595555752889761
-1.539026751592357e-05,0.007119340522528176,0.03595555752889761
-1.537026751592357e-05,0.006785346088849456,0.02107276895086382
-1.535026751592356e-05,0.00611735722149232,0.00991067751733847
-1.533026751592356e-05,0.005115373920456617,0.02851416323988071
-1.531026751592357e-05,0.003779396185742953,0.02851416323988071
-1.529026751592357e-05,0.004781379486778049,0.03223486038438916
-1.527026751592357e-05,0.005449368354135184,0.02107276895086382
-1.525026751592356e-05,0.004113390619420913,0.002469283228321573
-1.523026751592356e-05,0.004781379486778049,0.03223486038438408
-1.521026751592357e-05,0.004781379486778049,0.02107276895086382
-1.519026751592357e-05,0.005449368354135184,0.02851416323988071
-1.517026751592356e-05,0.004447385053099481,0.00991067751733847
-1.515026751592356e-05,0.003445401752064233,0.006189980372833405
-1.513026751592357e-05,0.004447385053099026,0.01363137466184354
-1.511026751592357e-05,0.004447385053099481,0.02479346609537227
-1.509026751592356e-05,0.005115373920456617,0.01735207180635537
-1.507026751592356e-05,0.004113390619421065,0.002469283228321573
-1.505026751592357e-05,0.00444738505309933,0.002469283228321573
-1.503026751592357e-05,0.003779396185742345,0.01363137466184692
-1.501026751592356e-05,0.004781379486778049,0.01735207180635537
-1.499026751592356e-05,0.004113390619420913,0.02107276895086382
-1.497026751592357e-05,0.004113390619420913,0.0136313746618503
-1.495026751592357e-05,0.003779396185742345,0.002469283228321573
-1.493026751592356e-05,0.003111407318385209,0.01735207180635537
-1.491026751592356e-05,0.003445401752063777,0.02851416323988071
-1.489026751592356e-05,0.004447385053099178,0.02107276895086551
-1.487026751592357e-05,0.003779396185742345,0.02479346609537227
-1.485026751592357e-05,0.005449368354135184,-0.004972111060695325
-1.483026751592356e-05,0.005449368354135184,0.02107276895086382
-1.481026751592356e-05,0.005115373920457984,0.02107276895086551
-1.479026751592357e-05,0.008121323823563727,0.02479346609537227
-1.477026751592357e-05,0.006785346088849456,0.01363137466184692
-1.475026751592356e-05,0.007119340522528024,0.01735207180635537
-1.473026751592356e-05,0.00611735722149232,0.02107276895086043
-1.471026751592357e-05,0.00611735722149232,0.0136313746618503
-1.469026751592357e-05,0.005449368354135184,0.006189980372830022
-1.467026751592356e-05,0.00611735722149232,0.002469283228321573
-1.465026751592356e-05,0.005449368354135184,0.00991067751733847
-1.463026751592357e-05,0.005115373920456768,-0.0012514139161818
-1.461026751592357e-05,0.005783362787813752,0.006189980372830022
-1.459026751592356e-05,0.005783362787813752,0.01363137466184692
-1.457026751592356e-05,0.006451351655170888,-0.004972111060695325
-1.455026751592356e-05,0.006785346088849456,-0.001251413916178416
-1.453026751592357e-05,0.006785346088849456,0.01735207180635537
-1.451026751592357e-05,0.007453334956206592,0.00991067751733847
-1.449026751592356e-05,0.007453334956206592,0.01735207180635537
-1.447026751592356e-05,0.0057833627878136,0.009910677517335086
-1.445026751592357e-05,0.005449368354135184,0.002469283228321573
-1.443026751592357e-05,0.00611735722149232,-0.004972111060695325
-1.441026751592356e-05,0.005115373920456617,0.002469283228321573
-1.439026751592356e-05,0.005783362787813752,0.002469283228326648
-1.437026751592357e-05,0.005783362787813752,0.01363137466184184
-1.435026751592357e-05,0.005115373920456617,-0.01241350534971222
-1.433026751592356e-05,0.004447385053099481,0.006189980372830022
-1.431026751592356e-05,0.005783362787813752,0.01363137466184692
-1.429026751592357e-05,0.006117357221492169,-0.001251413916180109
-1.427026751592357e-05,0.005449368354135184,-0.001251413916186876
-1.425026751592356e-05,0.005449368354135184,-0.01241350534971222
-1.423026751592356e-05,0.00611735722149232,0.002469283228321573
-1.421026751592357e-05,0.005783362787813904,0.009910677517335088
-1.419026751592357e-05,0.006785346088849456,0.006189980372830022
-1.417026751592357e-05,0.006451351655170888,0.006189980372830022
-1.415026751592356e-05,0.007119340522528024,-0.004972111060695325
-1.413026751592356e-05,0.007119340522527569,0.006189980372831714
-1.411026751592357e-05,0.00611735722149232,0.00991067751733847
-1.409026751592357e-05,0.006785346088849456,0.01735207180635537
-1.407026751592356e-05,0.006451351655170888,0.002469283228321573
-1.405026751592356e-05,0.007119340522527873,-0.008692808205202083
-1.403026751592357e-05,0.006785346088849608,-0.004972111060697016
-1.401026751592357e-05,0.006785346088849456,0.006189980372830022
-1.399026751592356e-05,0.00778732938988516,-0.004972111060695325
-1.397026751592356e-05,0.006785346088850519,0.002469283228318189
-1.395026751592357e-05,0.009123307124598369,-0.004972111060691941
-1.393026751592357e-05,0.007453334956206592,0.002469283228321573
-1.391026751592356e-05,0.008789312690920863,0.00991067751733847
-1.389026751592356e-05,0.008455318257242295,0.01735207180635537
-1.387026751592357e-05,0.009123307124599129,0.00246928322832834
-1.385026751592357e-05,0.008121323823563727,-0.004972111060695325
-1.383026751592357e-05,0.00778732938988516,-0.004972111060695325
-1.381026751592356e-05,0.006451351655170888,0.006189980372830022
-1.379026751592356e-05,0.007119340522527569,0.00991067751733847
-1.377026751592357e-05,0.00611735722149232,0.00991067751733847
-1.375026751592357e-05,0.004781379486778049,0.002469283228321573
-1.373026751592356e-05,0.005783362787813752,0.006189980372830022
-1.371026751592356e-05,0.005449368354135184,0.01363137466184861
-1.369026751592357e-05,0.005449368354135184,0.01735207180635367
-1.367026751592357e-05,0.005449368354135184,0.01363137466184692
-1.365026751592356e-05,0.00611735722149232,0.01363137466184692
-1.363026751592356e-05,0.0057833627878136,0.0136313746618503
-1.361026751592357e-05,0.005449368354135336,0.02107276895086043
-1.359026751592357e-05,0.00611735722149232,0.02479346609537227
-1.357026751592356e-05,0.00611735722149232,0.006189980372830022
-1.355026751592356e-05,0.005115373920456617,0.01735207180635537
-1.353026751592357e-05,0.005449368354135033,0.02107276895086212
-1.351026751592357e-05,0.005115373920456617,0.03223486038438916
-1.349026751592357e-05,0.004781379486778049,0.01735207180635537
-1.347026751592356e-05,0.004781379486778049,0.006189980372830022
-1.345026751592356e-05,0.005115373920456768,0.002469283228321573
-1.343026751592357e-05,0.005449368354135184,0.002469283228321573
-1.341026751592357e-05,0.004447385053099481,0.01363137466184692
-1.339026751592356e-05,0.00611735722149232,0.01735207180635537
-1.337026751592356e-05,0.005449368354135184,-0.00125141391619026
-1.335026751592357e-05,0.005449368354135184,-0.008692808205200391
-1.333026751592357e-05,0.005115373920456617,-0.001251413916186876
-1.331026751592356e-05,0.004781379486778049,0.002469283228321573
-1.329026751592356e-05,0.003779396185742801,-0.0012514139161818
-1.327026751592357e-05,0.004781379486777594,0.009910677517333395
-1.325026751592357e-05,0.004113390619420913,-0.004972111060695325
-1.323026751592356e-05,0.003779396185742345,0.002469283228321573
-1.321026751592356e-05,0.004447385053099481,0.01735207180635537
-1.319026751592357e-05,0.004447385053099481,0.01363137466184861
-1.317026751592357e-05,0.004447385053099481,0.00991067751733847
-1.315026751592357e-05,0.003779396185742345,0.00991067751733847
-1.313026751592356e-05,0.005115373920456617,0.01735207180635537
-1.311026751592356e-05,0.004447385053099937,0.01735207180635537
-1.309026751592357e-05,0.005449368354135184,0.01735207180635537
-1.307026751592357e-05,0.004781379486778049,0.02107276895086382
-1.305026751592356e-05,0.00611735722149232,0.006189980372830022
-1.303026751592356e-05,0.006117357221492776,0.0136313746618503
-1.301026751592357e-05,0.007119340522527569,0.02107276895086043
-1.299026751592357e-05,0.008455318257242295,0.02479346609537227
-1.297026751592356e-05,0.00778732938988516,0.00991067751733847
-1.295026751592356e-05,0.006451351655170888,0.006189980372830022
-1.293026751592357e-05,0.006451351655170888,0.006189980372830022
-1.291026751592357e-05,0.005115373920456617,0.02851416323988071
-1.289026751592356e-05,0.00611735722149232,0.02479346609537227
-1.287026751592356e-05,0.005115373920456617,0.00991067751733847
-1.285026751592357e-05,0.004781379486778201,0.01363137466184523
-1.283026751592357e-05,0.004781379486778049,0.002469283228321573
-1.281026751592356e-05,0.004781379486778049,0.02107276895086382
-1.279026751592356e-05,0.004447385053099481,0.00991067751733847
-1.277026751592356e-05,0.004113390619421673,0.006189980372828329
-1.275026751592357e-05,0.005783362787813752,0.002469283228321573
-1.273026751592357e-05,0.005783362787813752,0.002469283228321573
-1.271026751592356e-05,0.007119340522528024,0.00991067751733847
-1.269026751592356e-05,0.00544936835413564,0.01735207180635537
-1.267026751592357e-05,0.006451351655170888,0.01735207180635537
-1.265026751592357e-05,0.005115373920456617,-0.008692808205203774
-1.263026751592356e-05,0.005115373920456617,0.00991067751733847
-1.261026751592356e-05,0.005115373920456768,0.02851416323987564
-1.259026751592357e-05,0.005449368354135033,0.01735207180636044
-1.257026751592357e-05,0.004781379486778049,0.002469283228321573
-1.255026751592356e-05,0.005449368354135184,0.00991067751733847
-1.253026751592356e-05,0.005115373920456617,0.01363137466184692
-1.251026751592357e-05,0.004447385053099785,0.01363137466184692
-1.249026751592357e-05,0.005449368354135184,0.01363137466184692
-1.247026751592356e-05,0.004447385053099481,0.01363137466184692
-1.245026751592356e-05,0.004113390619420913,0.006189980372830022
-1.243026751592357e-05,0.004781379486777745,0.01735207180635029
-1.241026751592357e-05,0.005449368354135184,0.00991067751733847
-1.239026751592357e-05,0.005783362787813752,0.01735207180635537
-1.237026751592356e-05,0.004781379486778049,0.01363137466184692
-1.235026751592356e-05,0.004113390619421065,0.002469283228330032
-1.233026751592357e-05,0.004447385053099481,0.02107276895086382
-1.231026751592357e-05,0.004781379486778049,0.01735207180635537
-1.229026751592356e-05,0.005783362787813752,0.00991067751733847
-1.227026751592356e-05,0.003779396185742801,0.002469283228319881
-1.225026751592357e-05,0.004781379486777594,-0.001251413916185184
-1.223026751592357e-05,0.005115373920456617,0.006189980372830022
-1.221026751592356e-05,0.004781379486778049,0.01735207180635537
-1.219026751592356e-05,0.00611735722149232,0.006189980372830022
-1.217026751592357e-05,0.007119340522527569,0.01363137466184354
-1.215026751592357e-05,0.00778732938988516,0.006189980372830022
-1.213026751592356e-05,0.008121323823563727,0.00991067751733847
-1.211026751592356e-05,0.008455318257242295,0.02107276895086382
-1.209026751592357e-05,0.00878931269092071,0.0136313746618503
-1.207026751592357e-05,0.008789312690920863,0.006189980372830022
-1.205026751592357e-05,0.009123307124599432,-0.008692808205203774
-1.203026751592356e-05,0.00778732938988516,-0.004972111060695325
-1.201026751592356e-05,0.007453334956206744,0.0173520718063486
-1.199026751592357e-05,0.00778732938988516,0.002469283228321573
-1.197026751592357e-05,0.007453334956206592,0.00991067751733847
-1.195026751592356e-05,0.00611735722149232,-0.01241350534971222
-1.193026751592356e-05,0.005783362787813904,0.002469283228324957
-1.191026751592357e-05,0.006117357221492169,0.009910677517335088
-1.189026751592357e-05,0.006451351655170888,0.01735207180635537
-1.187026751592356e-05,0.006451351655170888,0.006189980372830022
-1.185026751592356e-05,0.006117357221492472,-0.008692808205191929
