traces_bank_current_trigger/sampling_freq_100MHz/CMP/cmp_8.csv

#Digilent WaveForms Oscilloscope Acquisition
#Device Name: Discovery2
#Serial Number: SN:210321B3D813
#Date Time: 2023-07-18 10:53:48.994
#Sample rate: 1e+08Hz
#Samples: 8192
#Trigger: Source: Channel 2 Type: Edge Condition: Rising Level: 2 V Hyst.: Auto HoldOff: 0 s
#Channel 1: Range: 10 mV/div Offset: 0 V Attenuation: 1 X Sample Mode: Average
#Channel 2: Range: 5 V/div Offset: 0 V Attenuation: 1 X Sample Mode: Average

Time (s),Channel 1 (V),Channel 2 (V)
-9.599250936329591e-07,0.008789312690920863,0.002469283228321573
-9.499250936329575e-07,0.00778732938988516,0.02851416323988071
-9.399250936329559e-07,0.008455318257242295,-0.02729629392772233
-9.299250936329611e-07,0.008455318257242295,0.02479346609534858
-9.199250936329595e-07,0.008789312690920863,0.002469283228321573
-9.099250936329579e-07,0.006785346088849456,0.006189980372830022
-8.999250936329563e-07,0.006451351655170888,0.03223486038438916
-8.899250936329615e-07,0.007787329389884553,-0.008692808205185164
-8.799250936329599e-07,0.008455318257242295,0.02851416323988071
-8.699250936329583e-07,0.007119340522528024,0.006189980372830022
-8.599250936329567e-07,0.00778732938988516,-0.008692808205203774
-8.499250936329551e-07,0.005449368354135791,0.0582797403959077
-8.399250936329603e-07,0.006785346088849456,-0.03101699107225447
-8.299250936329587e-07,0.007119340522528024,0.03595555752889761
-8.199250936329571e-07,0.00778732938988516,0.006189980372830022
-8.099250936329555e-07,0.00745333495620568,0.009910677517355391
-7.999250936329606e-07,0.005449368354136095,0.04711764896240604
-7.89925093632959e-07,0.008455318257242295,-0.02357559678323757
-7.799250936329575e-07,0.007453334956206592,0.04711764896242296
-7.699250936329559e-07,0.005783362787813904,0.02479346609537057
-7.59925093632961e-07,0.006117357221492169,0.02107276895086551
-7.499250936329594e-07,0.005783362787813752,0.06572113468496521
-7.399250936329578e-07,0.006451351655170888,0.002469283228321573
-7.299250936329562e-07,0.007119340522528024,0.05083834610693141
-7.199250936329614e-07,0.006451351655171192,0.02107276895087735
-7.099250936329598e-07,0.007119340522528024,0.02479346609537227
-6.999250936329582e-07,0.007453334956206592,0.05083834610693141
-6.899250936329566e-07,0.006785346088849456,-0.01241350534971222
-6.79925093632955e-07,0.0077873293898844,0.05083834610691787
-6.699250936329602e-07,0.00611735722149232,0.02107276895086382
-6.599250936329586e-07,0.007119340522528024,0.01363137466184692
-6.49925093632957e-07,0.005449368354135184,0.05455904325143986
-6.399250936329554e-07,0.004447385053101152,-0.004972111060669945
-6.299250936329606e-07,0.008121323823562057,0.05083834610690603
-6.19925093632959e-07,0.007119340522528024,0.03223486038438916
-6.099250936329574e-07,0.006785346088849456,0.03595555752889761
-5.999250936329558e-07,0.008121323823562968,0.05827974039592124
-5.89925093632961e-07,0.006451351655171647,-0.001251413916159808
-5.799250936329594e-07,0.006451351655170888,0.05827974039594831
-5.699250936329578e-07,0.00778732938988516,0.01363137466184692
-5.599250936329562e-07,0.007119340522528024,0.006189980372830022
-5.499250936329613e-07,0.007119340522528024,0.03595555752888407
-5.399250936329597e-07,0.008789312690920863,0.006189980372830022
-5.299250936329582e-07,0.008121323823563727,0.03967625467340606
-5.199250936329566e-07,0.00778732938988516,0.00991067751733847
-5.09925093632955e-07,0.008455318257241991,0.01735207180636214
-4.999250936329601e-07,0.00778732938988516,0.03223486038438916
-4.899250936329585e-07,0.006785346088849456,0.002469283228321573
-4.799250936329569e-07,0.00778732938988516,0.04711764896242296
-4.699250936329553e-07,0.008789312690920406,0.009910677517343546
-4.599250936329605e-07,0.00778732938988516,0.02107276895086382
-4.499250936329589e-07,0.006785346088849456,0.03595555752889761
-4.399250936329573e-07,0.007119340522528024,0.006189980372830022
-4.299250936329557e-07,0.007787329389884704,0.05083834610691787
-4.199250936329609e-07,0.006785346088849911,0.02107276895087735
-4.099250936329593e-07,0.007453334956206592,0.04339695181791451
-3.999250936329577e-07,0.00611735722149232,0.04339695181791451
-3.899250936329561e-07,0.007453334956206592,-0.01241350534971222
-3.799250936329613e-07,0.007453334956206592,0.04339695181788913
-3.699250936329597e-07,0.007453334956206592,0.03223486038438916
-3.599250936329581e-07,0.007119340522528024,0.01363137466184692
-3.499250936329565e-07,0.007453334956206592,0.04339695181791451
-3.399250936329549e-07,0.007787329389885463,0.002469283228341876
-3.299250936329601e-07,0.008455318257242295,0.04711764896242296
-3.199250936329585e-07,0.00778732938988516,0.01363137466184692
-3.099250936329569e-07,0.006785346088849456,0.02479346609537227
-2.999250936329553e-07,0.00711934052252848,0.04339695181788744
-2.899250936329604e-07,0.008121323823563727,-0.01613420249422067
-2.799250936329588e-07,0.007453334956206592,0.03967625467340606
-2.699250936329573e-07,0.006451351655170888,0.006189980372830022
-2.599250936329557e-07,0.006451351655171648,0.02107276895087735
-2.499250936329608e-07,0.008121323823562968,0.05083834610691787
-2.399250936329592e-07,0.006785346088849456,-0.01985489963872912
-2.299250936329576e-07,0.009123307124599432,0.02107276895086382
-2.19925093632956e-07,0.007119340522528024,0.01735207180635537
-2.099250936329612e-07,0.008121323823563271,0.006189980372835097
-1.999250936329596e-07,0.005449368354135184,0.02851416323988071
-1.89925093632958e-07,0.00778732938988516,-0.01985489963872912
-1.799250936329564e-07,0.008121323823563727,0.03595555752889761
-1.699250936329616e-07,0.006785346088850064,0.009910677517350315
-1.5992509363296e-07,0.007119340522528024,-0.001251413916186876
-1.499250936329584e-07,0.006451351655170888,0.03223486038438916
-1.399250936329568e-07,0.007119340522528024,-0.01985489963872912
-1.299250936329552e-07,0.006785346088849759,0.01363137466184353
-1.199250936329604e-07,0.007453334956206592,0.006189980372830022
-1.099250936329588e-07,0.006451351655170888,-0.001251413916186876
-9.992509363295718e-08,0.005115373920456617,0.02107276895086382
-8.992509363295559e-08,0.004781379486778961,-0.01241350534969361
-7.992509363296076e-08,0.006785346088848544,0.0285141632398621
-6.992509363295917e-08,0.004781379486778049,0.002469283228321573
-5.992509363295757e-08,0.006451351655170888,0.002469283228321573
-4.992509363295597e-08,0.004447385053099937,0.02107276895084859
-3.992509363296115e-08,0.005449368354134729,-0.01241350534969699
-2.992509363295955e-08,0.004447385053099481,0.03223486038438916
-1.992509363295795e-08,0.006451351655170888,0.00991067751733847
-9.925093632956353e-09,0.004447385053099481,0.02479346609537227
7.490636703846951e-11,-0.01325431993185657,2.01164574126198
1.007490636704007e-08,0.01580319579817079,3.909201284962193
2.007490636704167e-08,0.003445401752063777,2.841361204488268
3.007490636704326e-08,0.01346523476242081,3.537131570511348
4.007490636704486e-08,0.006785346088851126,3.213430918939188
5.007490636703968e-08,0.0104592848593137,3.377141593297485
6.007490636704128e-08,0.00144143514999237,3.36597950186396
7.007490636704288e-08,0.003779396185742345,3.321331136129858
8.007490636704448e-08,-0.001230520319434806,3.432952050465025
9.00749063670393e-08,0.001775429583669571,3.243196496095267
1.000749063670409e-07,0.0007734462826352341,3.43667274760962
1.100749063670425e-07,0.003445401752063777,3.209710221794605
1.200749063670441e-07,0.004113390619422432,3.414348564742492
1.300749063670389e-07,0.007453334956205073,3.243196496095258
1.400749063670405e-07,0.006451351655170888,3.38830368473101
1.500749063670421e-07,0.007119340522528024,3.291565558973791
1.600749063670437e-07,0.007453334956206592,3.354817410430434
1.700749063670385e-07,0.005783362787814512,3.3362139247079
1.800749063670401e-07,0.003445401752063777,3.395745079020027
1.900749063670417e-07,0.004781379486778049,3.302727650407316
2.000749063670433e-07,0.00144143514999237,3.421789959031586
2.100749063670449e-07,0.002777412884707097,3.284124164684826
2.200749063670398e-07,0.003779396185742345,3.399465776164535
2.300749063670413e-07,0.003779396185742345,3.313889741840841
2.400749063670429e-07,0.006451351655170888,3.3399346218524
2.500749063670445e-07,0.006451351655170433,3.32505183327437
2.600749063670394e-07,0.00544936835413564,3.33249322756338
2.70074906367041e-07,0.006451351655170888,3.351096713285926
2.800749063670426e-07,0.004447385053099481,3.362258804719451
2.900749063670442e-07,0.00544936835413321,3.325051833274389
3.00074906367039e-07,0.001107440716315776,3.373420896152954
3.100749063670406e-07,0.003779396185742345,3.295286256118299
3.200749063670422e-07,0.002777412884706641,3.377141593297485
3.300749063670438e-07,0.004781379486778049,3.306448347551824
3.400749063670386e-07,0.005115373920456465,3.347376016141399
3.500749063670402e-07,0.005449368354135184,3.343655318996909
3.600749063670418e-07,0.006451351655170888,3.310169044696333
3.700749063670434e-07,0.007119340522528024,3.351096713285926
3.80074906367045e-07,0.006451351655170281,3.343655318996902
3.900749063670398e-07,0.005115373920456617,3.328772530418875
4.000749063670414e-07,0.004781379486778049,3.384582987586502
4.10074906367043e-07,0.005115373920456617,3.310169044696333
4.200749063670446e-07,0.005783362787813904,3.358538107574922
4.300749063670394e-07,0.006117357221492169,3.313889741840862
4.40074906367041e-07,0.00611735722149232,3.336213924707892
4.500749063670426e-07,0.006451351655170888,3.362258804719451
4.600749063670442e-07,0.007119340522527569,3.310169044696353
4.700749063670391e-07,0.006117357221492776,3.354817410430414
4.800749063670407e-07,0.006451351655170888,3.325051833274367
4.900749063670422e-07,0.006451351655170888,3.325051833274367
5.000749063670438e-07,0.006451351655170888,3.380862290441993
5.100749063670387e-07,0.003445401752065144,3.313889741840872
5.200749063670403e-07,0.00611735722149232,3.403186473309044
5.300749063670419e-07,0.006451351655170888,3.332493227563384
5.400749063670435e-07,0.003445401752063777,3.358538107574943
5.500749063670451e-07,0.00544936835413564,3.365979501863941
5.600749063670399e-07,0.006451351655170888,3.325051833274367
5.700749063670415e-07,0.007119340522528024,3.384582987586502
5.800749063670431e-07,0.00778732938988516,3.3399346218524
5.900749063670447e-07,0.006785346088849,3.343655318996922
6.000749063670395e-07,0.005783362787813752,3.373420896152977
6.100749063670411e-07,0.006451351655170888,3.3399346218524
6.200749063670427e-07,0.00778732938988516,3.384582987586502
6.300749063670443e-07,0.007119340522527873,3.347376016141415
6.400749063670391e-07,0.006785346088849608,3.343655318996911
6.500749063670407e-07,0.007119340522528024,3.373420896152977
6.600749063670423e-07,0.00778732938988516,3.343655318996909
6.700749063670439e-07,0.007453334956206592,3.373420896152977
6.800749063670387e-07,0.005449368354136095,3.354817410430443
6.900749063670403e-07,0.007119340522528024,3.358538107574943
7.000749063670419e-07,0.007119340522528024,3.392024381875518
7.100749063670435e-07,0.005783362787813752,3.3399346218524
7.200749063670451e-07,0.00544936835413564,3.395745079020007
7.3007490636704e-07,0.006451351655170888,3.351096713285926
7.400749063670415e-07,0.005783362787813752,3.362258804719451
7.500749063670431e-07,0.004781379486778049,3.399465776164535
7.600749063670447e-07,0.005449368354135488,3.325051833274392
7.700749063670396e-07,0.00611735722149232,3.380862290441993
7.800749063670412e-07,0.00611735722149232,3.351096713285926
7.900749063670428e-07,0.005449368354135184,3.362258804719451
8.000749063670444e-07,0.005449368354135791,3.388303684730992
8.100749063670392e-07,0.006785346088848848,3.347376016141436
8.200749063670408e-07,0.006451351655170888,3.377141593297485
8.300749063670424e-07,0.006785346088849456,3.358538107574943
8.40074906367044e-07,0.00611735722149232,3.362258804719451
8.500749063670388e-07,0.006451351655170736,3.388303684730998
8.600749063670404e-07,0.007119340522528024,3.332493227563384
8.70074906367042e-07,0.007453334956206592,3.38830368473101
8.800749063670436e-07,0.005783362787813752,3.380862290441993
8.900749063670384e-07,0.008789312690919496,3.351096713285939
9.0007490636704e-07,0.007453334956206592,3.392024381875518
9.100749063670416e-07,0.007453334956206592,3.325051833274367
9.200749063670432e-07,0.008121323823563727,3.38830368473101
9.300749063670448e-07,0.006451351655171648,3.362258804719455
9.400749063670396e-07,0.008121323823563727,3.369700199008468
9.500749063670412e-07,0.005783362787813752,3.399465776164535
9.600749063670428e-07,0.006785346088849456,3.3399346218524
9.700749063670444e-07,0.008455318257241688,3.388303684731004
9.800749063670393e-07,0.007119340522528632,3.373420896152983
9.900749063670408e-07,0.007119340522528024,3.354817410430434
1.000074906367042e-06,0.005449368354135184,3.399465776164535
1.010074906367044e-06,0.005783362787814056,3.336213924707914
1.020074906367039e-06,0.006451351655170585,3.38458298758648
1.03007490636704e-06,0.005783362787813752,3.362258804719451
1.040074906367042e-06,0.00611735722149232,3.354817410430434
1.050074906367044e-06,0.00611735722149232,3.384582987586502
1.060074906367038e-06,0.006451351655170736,3.343655318996928
1.07007490636704e-06,0.00611735722149232,3.399465776164535
1.080074906367042e-06,0.004113390619420913,3.377141593297485
1.090074906367043e-06,0.005449368354135184,3.362258804719451
1.100074906367045e-06,0.00611735722149232,3.399465776164507
1.11007490636704e-06,0.00611735722149232,3.336213924707892
1.120074906367041e-06,0.008789312690920863,3.395745079020027
1.130074906367043e-06,0.007119340522528024,3.358538107574943
1.140074906367044e-06,0.006451351655170128,3.369700199008481
1.150074906367039e-06,0.004781379486778809,3.399465776164522
1.160074906367041e-06,0.006785346088849456,3.3399346218524
1.170074906367043e-06,0.009457301558278,3.399465776164535
1.180074906367044e-06,0.007119340522528784,3.351096713285927
1.190074906367039e-06,0.008789312690920103,3.354817410430432
1.200074906367041e-06,0.008121323823563727,3.384582987586502
1.210074906367042e-06,0.008455318257242295,3.332493227563384
1.220074906367044e-06,0.008789312690920863,3.369700199008468
1.230074906367039e-06,0.007787329389885615,3.362258804719455
1.24007490636704e-06,0.00778732938988516,3.351096713285926
1.250074906367042e-06,0.007453334956206592,3.392024381875518
1.260074906367043e-06,0.007119340522528024,3.332493227563384
1.270074906367045e-06,0.009791295991955657,3.399465776164517
1.28007490636704e-06,0.00778732938988516,3.358538107574943
1.290074906367041e-06,0.007453334956206592,3.36597950186396
1.300074906367043e-06,0.008455318257242295,3.395745079020027
1.310074906367045e-06,0.008121323823562968,3.347376016141436
1.320074906367039e-06,0.006451351655171647,3.388303684730992
1.330074906367041e-06,0.00611735722149232,3.369700199008468
1.340074906367043e-06,0.007453334956206592,3.362258804719451
1.350074906367044e-06,0.006451351655170433,3.395745079020004
1.360074906367039e-06,0.00544936835413564,3.343655318996932
1.370074906367041e-06,0.007453334956206592,3.380862290441993
1.380074906367042e-06,0.003779396185742345,3.36597950186396
1.390074906367044e-06,0.007119340522528024,3.373420896152977
1.400074906367039e-06,0.004447385053100696,3.39202438187551
1.41007490636704e-06,0.003111407318385209,3.362258804719451
1.420074906367042e-06,0.005449368354135184,3.406907170453553
1.430074906367043e-06,0.006785346088849456,3.369700199008468
1.440074906367045e-06,0.005783362787813448,3.358538107574959
1.45007490636704e-06,0.005115373920456617,3.395745079020027
1.460074906367041e-06,0.005783362787813752,3.354817410430434
1.470074906367043e-06,0.005783362787813752,3.38830368473101
1.480074906367045e-06,0.007119340522527417,3.384582987586487
1.490074906367039e-06,0.005783362787814359,3.351096713285941
1.500074906367041e-06,0.005783362787813752,3.380862290441993
1.510074906367043e-06,0.006785346088849456,3.354817410430434
1.520074906367044e-06,0.00745333495620644,3.37342089615297
1.530074906367039e-06,0.007119340522528176,3.358538107574949
1.540074906367041e-06,0.007119340522528024,3.36597950186396
1.550074906367042e-06,0.006451351655170888,3.392024381875518
1.560074906367044e-06,0.006785346088849456,3.343655318996909
1.570074906367039e-06,0.007453334956206288,3.37714159329747
1.58007490636704e-06,0.00611735722149232,3.373420896152977
1.590074906367042e-06,0.00611735722149232,3.373420896152977
1.600074906367043e-06,0.005449368354135184,3.380862290441993
1.610074906367045e-06,0.006117357221492624,3.347376016141432
1.62007490636704e-06,0.006785346088849456,3.380862290441993
1.630074906367041e-06,0.00611735722149232,3.362258804719451
1.640074906367043e-06,0.007119340522528024,3.369700199008468
1.650074906367045e-06,0.004447385053100241,3.418069261887039
1.66007490636704e-06,0.00611735722149232,3.332493227563384
1.670074906367041e-06,0.00611735722149232,3.410627867598061
1.680074906367043e-06,0.00611735722149232,3.38830368473101
1.690074906367044e-06,0.00544936835413564,3.365979501863973
1.700074906367039e-06,0.006451351655170433,3.395745079020014
1.710074906367041e-06,0.005449368354135184,3.343655318996909
1.720074906367042e-06,0.005783362787813752,3.380862290441993
1.730074906367044e-06,0.006451351655170888,3.384582987586502
1.740074906367039e-06,0.006785346088849304,3.362258804719461
1.75007490636704e-06,0.005449368354135184,3.418069261887078
1.760074906367042e-06,0.007119340522528024,3.3399346218524
1.770074906367044e-06,0.005783362787813752,3.395745079020027
1.780074906367038e-06,0.005449368354135336,3.36970019900848
1.79007490636704e-06,0.005115373920456617,3.36597950186396
1.800074906367042e-06,0.004781379486778049,3.406907170453553
1.810074906367043e-06,0.005449368354135184,3.354817410430434
1.820074906367045e-06,0.00745333495620568,3.399465776164522
1.83007490636704e-06,0.005449368354135184,3.369700199008468
1.840074906367041e-06,0.004781379486778049,3.373420896152977
1.850074906367043e-06,0.004113390619420913,3.403186473309044
1.860074906367044e-06,0.006451351655171344,3.365979501863975
1.870074906367039e-06,0.007453334956206137,3.39946577616452
1.880074906367041e-06,0.006451351655170888,3.354817410430434
1.890074906367042e-06,0.005783362787813752,3.362258804719451
1.900074906367044e-06,0.005783362787813752,3.399465776164535
1.910074906367039e-06,0.007453334956205832,3.354817410430455
1.92007490636704e-06,0.007453334956206592,3.395745079020027
1.930074906367042e-06,0.006451351655170888,3.36597950186396
1.940074906367044e-06,0.005449368354135184,3.373420896152977
1.950074906367038e-06,0.006117357221492017,3.410627867598044
1.96007490636704e-06,0.006451351655170888,3.373420896152977
1.970074906367042e-06,0.007453334956206592,3.395745079020027
1.980074906367043e-06,0.007119340522528024,3.384582987586502
1.990074906367045e-06,0.006785346088849304,3.373420896152987
2.00007490636704e-06,0.006451351655170888,3.395745079020027
2.010074906367041e-06,0.006785346088849456,3.362258804719451
2.020074906367043e-06,0.008789312690920863,3.406907170453553
2.030074906367044e-06,0.005783362787813448,3.354817410430443
2.040074906367039e-06,0.00511537392045692,3.373420896152968
2.050074906367041e-06,0.006451351655170888,3.38830368473101
2.060074906367042e-06,0.006451351655170888,3.351096713285926
2.070074906367044e-06,0.008455318257242142,3.38086229044199
2.080074906367039e-06,0.00812132382356388,3.37342089615298
2.09007490636704e-06,0.008121323823563727,3.358538107574943
2.100074906367042e-06,0.008121323823563727,3.384582987586502
2.110074906367044e-06,0.008121323823563727,3.347376016141417
2.120074906367039e-06,0.008455318257242142,3.377141593297472
2.13007490636704e-06,0.008789312690920863,3.377141593297485
2.140074906367042e-06,0.00778732938988516,3.36597950186396
2.150074906367043e-06,0.008121323823563727,3.406907170453553
2.160074906367045e-06,0.007453334956207047,3.343655318996932
2.17007490636704e-06,0.008455318257242295,3.395745079020027
2.180074906367041e-06,0.008455318257242295,3.36597950186396
2.190074906367043e-06,0.01012529042563514,3.36597950186396
2.200074906367045e-06,0.006451351655171344,3.414348564742541
