traces_bank_current_trigger/sampling_freq_100MHz/CMP/cmp_9.csv

#Digilent WaveForms Oscilloscope Acquisition
#Device Name: Discovery2
#Serial Number: SN:210321B3D813
#Date Time: 2023-07-18 10:59:23.453
#Sample rate: 1e+08Hz
#Samples: 8192
#Trigger: Source: Channel 2 Type: Edge Condition: Rising Level: 2 V Hyst.: Auto HoldOff: 0 s
#Channel 1: Range: 10 mV/div Offset: 0 V Attenuation: 1 X Sample Mode: Average
#Channel 2: Range: 5 V/div Offset: 0 V Attenuation: 1 X Sample Mode: Average

Time (s),Channel 1 (V),Channel 2 (V)
-9.540993788819866e-07,0.00778732938988516,0.006189980372830022
-9.44099378881985e-07,0.009123307124599432,0.02479346609537227
-9.340993788819834e-07,0.007453334956206744,0.03967625467338914
-9.240993788819886e-07,0.007787329389885008,0.00246928322833849
-9.14099378881987e-07,0.006451351655170888,0.06944183182947365
-9.040993788819854e-07,0.005449368354135184,-0.004972111060695325
-8.940993788819838e-07,0.008789312690920863,0.02479346609537227
-8.840993788819889e-07,0.006785346088850367,0.04711764896241281
-8.740993788819873e-07,0.006451351655170888,0.00991067751733847
-8.640993788819857e-07,0.006785346088849456,0.05827974039594831
-8.540993788819841e-07,0.006451351655170888,-0.001251413916186876
-8.440993788819825e-07,0.006785346088849608,0.03967625467340437
-8.340993788819877e-07,0.007119340522528024,0.03595555752889761
-8.240993788819861e-07,0.007453334956206592,-0.004972111060695325
-8.140993788819845e-07,0.007453334956206592,0.05455904325143986
-8.040993788819829e-07,0.006451351655171192,-0.01241350534969192
-7.940993788819881e-07,0.007119340522527721,0.03223486038436886
-7.840993788819865e-07,0.006785346088849456,0.03595555752889761
-7.740993788819849e-07,0.00611735722149232,0.006189980372830022
-7.640993788819833e-07,0.006451351655170433,0.0508383461069111
-7.540993788819885e-07,0.00544936835413564,0.006189980372850325
-7.440993788819869e-07,0.007453334956206592,0.04711764896242296
-7.340993788819853e-07,0.006451351655170888,0.05455904325143986
-7.240993788819837e-07,0.007119340522528024,0.00991067751733847
-7.140993788819889e-07,0.006451351655171192,0.07316252897395333
-7.040993788819873e-07,0.007119340522528024,0.00991067751733847
-6.940993788819857e-07,0.00611735722149232,0.04339695181791451
-6.840993788819841e-07,0.006785346088849456,0.04711764896242296
-6.740993788819825e-07,0.006785346088848849,0.00246928322834526
-6.640993788819877e-07,0.005449368354135184,0.05455904325143986
-6.540993788819861e-07,0.007119340522528024,0.01735207180635537
-6.440993788819845e-07,0.007453334956206592,0.03967625467340606
-6.340993788819829e-07,0.004781379486778809,0.03967625467339083
-6.24099378881988e-07,0.006451351655170129,0.006189980372845252
-6.140993788819864e-07,0.00611735722149232,0.07316252897398209
-6.040993788819848e-07,0.005783362787813752,0.01363137466184692
-5.940993788819832e-07,0.006451351655170585,0.03595555752890776
-5.840993788819884e-07,0.005783362787814056,0.05827974039593815
-5.740993788819868e-07,0.008121323823563727,0.01363137466184692
-5.640993788819852e-07,0.006785346088849456,0.07688322611849055
-5.540993788819836e-07,0.007119340522528024,0.006189980372830022
-5.440993788819888e-07,0.006785346088849608,0.03223486038437732
-5.340993788819872e-07,0.006451351655170888,0.04339695181791451
-5.240993788819856e-07,0.006785346088849456,0.01363137466184692
-5.14099378881984e-07,0.00611735722149232,0.06572113468496521
-5.040993788819824e-07,0.005449368354135336,0.02107276895086551
-4.940993788819876e-07,0.005783362787813752,0.02479346609537227
-4.84099378881986e-07,0.005449368354135184,0.02851416323988071
-4.740993788819844e-07,0.00611735722149232,0.00991067751733847
-4.640993788819828e-07,0.005115373920455857,0.06200043754043476
-4.54099378881988e-07,0.003445401752063777,0.01363137466184692
-4.440993788819864e-07,0.005783362787813752,0.02107276895086382
-4.340993788819848e-07,0.005783362787813752,0.03967625467340606
-4.240993788819832e-07,0.005449368354135488,-0.001251413916161497
-4.140993788819884e-07,0.006117357221492017,0.05455904325141447
-4.040993788819868e-07,0.005449368354135184,0.002469283228321573
-3.940993788819852e-07,0.005783362787813752,0.03223486038438916
-3.840993788819836e-07,0.005783362787813752,0.03595555752889761
-3.740993788819887e-07,0.006451351655170585,-0.01241350534969023
-3.640993788819871e-07,0.006451351655170888,0.05827974039594831
-3.540993788819855e-07,0.006785346088849456,-0.02357559678323757
-3.440993788819839e-07,0.00778732938988516,0.03223486038438916
-3.340993788819823e-07,0.007787329389884553,0.03967625467338576
-3.240993788819875e-07,0.006451351655170888,-0.004972111060695325
-3.140993788819859e-07,0.008121323823563727,0.05455904325143986
-3.040993788819843e-07,0.006451351655170888,-0.01613420249422067
-2.940993788819827e-07,0.008455318257241384,0.02107276895087735
-2.840993788819879e-07,0.006451351655170888,0.05083834610693141
-2.740993788819863e-07,0.005783362787813752,-0.02357559678323757
-2.640993788819847e-07,0.007119340522528024,0.05083834610693141
-2.540993788819831e-07,0.006785346088850671,0.002469283228331725
-2.440993788819883e-07,0.009457301558276784,0.02479346609536211
-2.340993788819867e-07,0.007453334956206592,0.04339695181791451
-2.240993788819851e-07,0.007453334956206592,-0.01985489963872912
-2.140993788819835e-07,0.00778732938988516,0.06200043754045675
-2.040993788819887e-07,0.006117357221493079,-0.01241350534967839
-1.940993788819871e-07,0.007119340522528024,0.01735207180635537
-1.840993788819855e-07,0.006451351655170888,0.03595555752889761
-1.740993788819839e-07,0.007453334956206592,-0.008692808205203774
-1.640993788819891e-07,0.005783362787814512,0.0285141632398638
-1.540993788819875e-07,0.005115373920456617,-0.02357559678323757
-1.440993788819859e-07,0.005783362787813752,0.00991067751733847
-1.340993788819843e-07,0.00611735722149232,0.02851416323988071
-1.240993788819827e-07,0.006451351655170585,-0.03101699107222063
-1.140993788819878e-07,0.005783362787813752,0.04339695181791451
-1.040993788819862e-07,0.003779396185742345,-0.001251413916186876
-9.409937888198465e-08,0.005115373920456617,-0.01241350534971222
-8.409937888198305e-08,0.006785346088848696,0.01735207180634183
-7.409937888198823e-08,0.005115373920457376,-0.01241350534969869
-6.409937888198663e-08,0.00611735722149232,0.03595555752889761
-5.409937888198503e-08,0.002777412884706641,-0.02729629392774602
-4.409937888198343e-08,0.005783362787813752,0.002469283228331725
-3.409937888198861e-08,0.005783362787813752,0.02479346609536211
-2.409937888198701e-08,0.004781379486778049,-0.02357559678323757
-1.409937888198541e-08,0.005449368354135184,0.02851416323988071
-4.099378881983814e-09,-0.002232503620471877,0.5233668834595044
5.900621118011009e-09,-0.004570464656220788,4.117560325053032
1.590062111801261e-08,0.009457301558278,2.603236587239727
2.590062111801421e-08,0.005115373920456617,3.65247318199111
3.59006211180158e-08,0.01346523476242081,3.057161638869758
4.59006211180174e-08,0.004781379486780023,3.458996930476574
5.590062111801222e-08,0.009123307124599432,3.246917193239689
6.590062111801382e-08,-0.0005625314520790374,3.421789959031586
7.590062111801542e-08,0.003445401752063777,3.287844861829282
8.590062111801702e-08,-0.003568481355183566,3.392024381875475
9.590062111801184e-08,0.002109424017346923,3.295286256118343
1.059006211180134e-07,-0.0005625314520790374,3.332493227563384
1.15900621118015e-07,0.005449368354135184,3.343655318996909
1.259006211180166e-07,0.003779396185745231,3.284124164684813
1.359006211180115e-07,0.01012529042563225,3.369700199008429
1.459006211180131e-07,0.00144143514999237,3.284124164684774
1.559006211180147e-07,0.00778732938988516,3.351096713285926
1.659006211180163e-07,0.003445401752063777,3.332493227563384
1.759006211180111e-07,0.005115373920455857,3.328772530418877
1.859006211180127e-07,0.001107440716313802,3.380862290441993
1.959006211180143e-07,0.003111407318385209,3.328772530418875
2.059006211180159e-07,0.0004394518489566662,3.351096713285926
2.159006211180175e-07,0.003779396185742042,3.347376016141399
2.259006211180123e-07,0.003111407318385209,3.306448347551824
2.359006211180139e-07,0.006785346088849456,3.377141593297485
2.459006211180155e-07,0.003111407318385209,3.310169044696333
2.559006211180171e-07,0.006451351655169825,3.369700199008464
2.659006211180119e-07,0.004113390619421976,3.362258804719455
2.759006211180135e-07,0.004113390619420913,3.328772530418875
2.859006211180151e-07,0.002443418451028074,3.395745079020027
2.959006211180167e-07,0.002109424017349506,3.325051833274379
3.059006211180115e-07,0.002109424017349506,3.351096713285914
3.159006211180131e-07,0.002777412884706641,3.377141593297485
3.259006211180147e-07,0.002443418451028074,3.321331136129858
3.359006211180163e-07,0.003445401752063777,3.395745079020027
3.459006211180111e-07,0.002443418451028529,3.306448347551865
3.559006211180127e-07,0.007119340522528024,3.354817410430434
3.659006211180143e-07,0.004781379486778049,3.369700199008468
3.759006211180159e-07,0.006785346088849456,3.3399346218524
3.859006211180175e-07,0.005449368354134577,3.395745079019997
3.959006211180124e-07,0.004113390619420913,3.328772530418875
4.05900621118014e-07,0.005115373920456617,3.403186473309044
4.159006211180156e-07,0.005449368354135184,3.369700199008468
4.259006211180172e-07,0.0057833627878136,3.343655318996931
4.35900621118012e-07,0.005449368354135336,3.392024381875496
4.459006211180136e-07,0.005115373920456617,3.328772530418875
4.559006211180152e-07,0.006451351655170888,3.36597950186396
4.659006211180168e-07,0.006785346088849608,3.358538107574934
4.759006211180116e-07,0.007119340522527873,3.339934621852409
4.859006211180132e-07,0.006451351655170888,3.406907170453553
4.959006211180148e-07,0.005783362787813752,3.3399346218524
5.059006211180164e-07,0.005783362787813752,3.380862290441993
5.159006211180112e-07,0.007119340522527417,3.369700199008473
5.259006211180128e-07,0.005115373920456617,3.347376016141417
5.359006211180144e-07,0.006785346088849456,3.392024381875518
5.45900621118016e-07,0.004113390619420913,3.36597950186396
5.559006211180176e-07,0.00745333495620568,3.380862290441993
5.659006211180124e-07,0.005449368354135184,3.380862290441993
5.75900621118014e-07,0.007119340522528024,3.343655318996909
5.859006211180156e-07,0.007453334956206592,3.384582987586502
5.959006211180172e-07,0.006451351655172103,3.351096713285948
6.05900621118012e-07,0.009123307124599432,3.399465776164535
6.159006211180136e-07,0.00778732938988516,3.38830368473101
6.259006211180152e-07,0.008455318257242295,3.347376016141417
6.359006211180168e-07,0.007119340522527873,3.406907170453527
6.459006211180117e-07,0.006785346088849608,3.351096713285951
6.559006211180133e-07,0.007453334956206592,3.395745079020027
6.659006211180149e-07,0.008455318257242295,3.380862290441993
6.759006211180165e-07,0.008121323823563727,3.3399346218524
6.859006211180113e-07,0.006785346088850064,3.406907170453522
6.959006211180129e-07,0.005449368354135184,3.3399346218524
7.059006211180145e-07,0.008455318257242295,3.395745079020027
7.159006211180161e-07,0.004781379486778049,3.38830368473101
7.259006211180177e-07,0.006117357221491561,3.354817410430456
7.359006211180125e-07,0.004447385053099481,3.403186473309044
7.459006211180141e-07,0.005115373920456617,3.347376016141417
7.559006211180157e-07,0.004781379486778049,3.380862290441993
7.659006211180173e-07,0.004781379486778504,3.384582987586481
7.759006211180121e-07,0.005783362787813752,3.3399346218524
7.859006211180137e-07,0.004447385053099481,3.395745079020027
7.959006211180153e-07,0.003445401752063777,3.347376016141417
8.059006211180169e-07,0.004781379486778353,3.384582987586504
8.159006211180117e-07,0.005449368354134881,3.388303684731008
8.259006211180133e-07,0.00611735722149232,3.336213924707892
8.359006211180149e-07,0.006451351655170888,3.410627867598061
8.459006211180165e-07,0.005783362787813752,3.354817410430434
8.559006211180113e-07,0.009123307124597912,3.377141593297475
8.659006211180129e-07,0.007453334956206592,3.380862290441993
8.759006211180145e-07,0.006451351655170888,3.336213924707892
8.859006211180161e-07,0.008121323823563727,3.418069261887078
8.95900621118011e-07,0.007453334956206896,3.339934621852436
9.059006211180126e-07,0.008455318257242295,3.38830368473101
9.159006211180142e-07,0.005449368354135184,3.380862290441993
9.259006211180158e-07,0.00778732938988516,3.328772530418875
9.359006211180174e-07,0.008121323823562513,3.418069261887049
9.459006211180122e-07,0.005449368354135184,3.354817410430434
9.559006211180138e-07,0.007119340522528024,3.395745079020027
9.659006211180154e-07,0.007119340522528024,3.38830368473101
9.75900621118017e-07,0.006451351655170736,3.347376016141446
9.859006211180118e-07,0.006117357221492472,3.410627867598032
9.959006211180134e-07,0.005115373920456617,3.343655318996909
1.005900621118015e-06,0.006451351655170888,3.369700199008468
1.015900621118017e-06,0.005115373920456617,3.384582987586489
1.025900621118011e-06,0.005115373920456617,3.354817410430448
1.035900621118013e-06,0.004781379486778049,3.403186473309044
1.045900621118015e-06,0.004781379486778049,3.351096713285926
1.055900621118016e-06,0.004447385053099481,3.373420896152977
1.065900621118011e-06,0.006451351655169977,3.39202438187551
1.075900621118013e-06,0.005783362787813752,3.354817410430434
1.085900621118014e-06,0.006451351655170888,3.41434856474257
1.095900621118016e-06,0.004781379486778049,3.336213924707892
1.105900621118017e-06,0.006451351655171648,3.354817410430451
1.115900621118012e-06,0.008121323823563727,3.392024381875518
1.125900621118014e-06,0.006451351655170888,3.343655318996909
1.135900621118015e-06,0.005115373920456617,3.406907170453553
1.145900621118017e-06,0.005449368354135944,3.362258804719461
1.155900621118012e-06,0.007119340522527265,3.384582987586492
1.165900621118013e-06,0.004781379486778049,3.384582987586502
1.175900621118015e-06,0.006451351655170888,3.354817410430434
1.185900621118017e-06,0.005449368354135336,3.403186473309023
1.195900621118011e-06,0.0057833627878136,3.358538107574963
1.205900621118013e-06,0.008121323823563727,3.392024381875518
1.215900621118015e-06,0.008455318257242295,3.384582987586502
1.225900621118016e-06,0.007453334956206592,3.347376016141417
1.235900621118011e-06,0.008121323823563424,3.418069261887046
1.245900621118013e-06,0.005783362787813752,3.3399346218524
1.255900621118014e-06,0.006451351655170888,3.380862290441993
1.265900621118016e-06,0.006785346088849456,3.392024381875518
1.275900621118017e-06,0.006451351655170888,3.347376016141443
1.285900621118012e-06,0.006451351655170888,3.403186473309044
1.295900621118014e-06,0.005449368354135184,3.369700199008468
1.305900621118016e-06,0.006451351655170888,3.384582987586502
1.315900621118017e-06,0.006117357221491865,3.38458298758649
1.325900621118012e-06,0.005115373920457072,3.358538107574955
1.335900621118014e-06,0.007453334956206592,3.418069261887078
1.345900621118015e-06,0.004781379486778049,3.351096713285926
1.355900621118017e-06,0.006785346088848696,3.384582987586504
1.365900621118012e-06,0.005115373920457376,3.388303684731008
1.375900621118013e-06,0.004781379486778049,3.343655318996909
1.385900621118015e-06,0.005115373920456617,3.418069261887078
1.395900621118016e-06,0.003445401752063777,3.354817410430434
1.405900621118011e-06,0.005115373920455857,3.388303684730995
1.415900621118013e-06,0.003111407318385209,3.380862290441993
1.425900621118014e-06,0.003779396185742345,3.343655318996909
1.435900621118016e-06,0.004447385053099481,3.410627867598061
1.445900621118018e-06,0.004113390619421368,3.339934621852422
1.455900621118012e-06,0.005115373920456617,3.38830368473101
1.465900621118014e-06,0.004113390619420913,3.38830368473101
1.475900621118016e-06,0.005115373920456617,3.358538107574943
1.485900621118017e-06,0.00444738505309933,3.414348564742536
1.495900621118012e-06,0.004113390619421065,3.339934621852434
1.505900621118014e-06,0.005783362787813752,3.399465776164535
1.515900621118015e-06,0.005449368354135184,3.384582987586502
1.525900621118017e-06,0.007453334956205985,3.351096713285951
1.535900621118012e-06,0.006117357221492929,3.406907170453527
1.545900621118013e-06,0.00611735722149232,3.343655318996909
1.555900621118015e-06,0.006785346088849456,3.380862290441993
1.565900621118016e-06,0.007119340522528024,3.392024381875518
1.575900621118011e-06,0.006785346088849608,3.351096713285944
1.585900621118013e-06,0.006451351655170888,3.418069261887078
1.595900621118014e-06,0.003445401752063777,3.3399346218524
1.605900621118016e-06,0.007453334956206592,3.380862290441993
1.615900621118018e-06,0.005449368354135033,3.373420896152958
1.625900621118012e-06,0.005115373920456617,3.332493227563384
1.635900621118014e-06,0.005449368354135184,3.406907170453553
1.645900621118016e-06,0.004781379486778049,3.328772530418875
1.655900621118017e-06,0.007787329389883793,3.377141593297493
1.665900621118012e-06,0.004781379486778049,3.395745079020027
1.675900621118014e-06,0.00611735722149232,3.351096713285926
1.685900621118015e-06,0.005783362787813752,3.41434856474257
1.695900621118017e-06,0.00645135165517104,3.343655318996931
1.705900621118012e-06,0.006785346088849304,3.392024381875496
1.715900621118013e-06,0.006785346088849456,3.384582987586502
1.725900621118015e-06,0.007119340522528024,3.347376016141417
1.735900621118016e-06,0.006785346088849456,3.406907170453553
1.745900621118011e-06,0.005115373920457376,3.351096713285951
1.755900621118013e-06,0.00778732938988516,3.369700199008468
1.765900621118014e-06,0.006451351655170888,3.384582987586502
1.775900621118016e-06,0.005115373920456617,3.347376016141417
1.785900621118011e-06,0.005783362787813448,3.403186473309018
1.795900621118013e-06,0.004781379486778049,3.343655318996909
1.805900621118014e-06,0.006451351655170888,3.38830368473101
1.815900621118016e-06,0.00611735722149232,3.384582987586502
1.825900621118017e-06,0.005115373920456768,3.362258804719466
1.835900621118012e-06,0.005449368354135184,3.395745079020027
1.845900621118014e-06,0.005115373920456617,3.336213924707892
1.855900621118015e-06,0.006451351655170888,3.384582987586502
1.865900621118017e-06,0.005449368354135944,3.395745079020007
1.875900621118012e-06,0.007119340522527265,3.351096713285946
1.885900621118013e-06,0.004113390619420913,3.399465776164535
1.895900621118015e-06,0.004781379486778049,3.3399346218524
1.905900621118017e-06,0.007119340522528024,3.392024381875518
1.915900621118011e-06,0.005449368354135944,3.373420896152985
1.925900621118013e-06,0.005449368354135184,3.343655318996909
1.935900621118015e-06,0.003111407318385209,3.410627867598061
1.945900621118016e-06,0.006785346088849456,3.347376016141417
1.955900621118011e-06,0.006117357221492624,3.377141593297472
1.965900621118013e-06,0.004781379486778049,3.380862290441993
1.975900621118014e-06,0.004781379486778049,3.351096713285926
1.985900621118016e-06,0.005449368354135184,3.410627867598061
1.995900621118017e-06,0.005115373920456768,3.343655318996924
2.005900621118012e-06,0.005449368354135184,3.377141593297485
2.015900621118014e-06,0.005449368354135184,3.373420896152977
2.025900621118015e-06,0.00611735722149232,3.343655318996909
2.035900621118017e-06,0.004447385053098721,3.410627867598029
2.045900621118012e-06,0.002777412884707401,3.339934621852432
2.055900621118013e-06,0.006785346088849456,3.38830368473101
2.065900621118015e-06,0.005449368354135184,3.392024381875518
2.075900621118017e-06,0.006451351655169825,3.354817410430455
2.085900621118011e-06,0.004113390619421976,3.399465776164515
2.095900621118013e-06,0.004781379486778049,3.343655318996909
2.105900621118015e-06,0.007453334956206592,3.399465776164535
2.115900621118016e-06,0.008455318257242295,3.380862290441993
2.125900621118011e-06,0.006785346088850215,3.354817410430446
2.135900621118013e-06,0.006451351655170888,3.41434856474257
2.145900621118014e-06,0.007119340522528024,3.347376016141417
2.155900621118016e-06,0.008455318257242295,3.399465776164535
2.165900621118017e-06,0.006785346088850063,3.388303684730993
2.175900621118012e-06,0.008121323823563727,3.351096713285926
2.185900621118014e-06,0.006451351655170888,3.418069261887078
2.195900621118015e-06,0.005783362787813752,3.3399346218524
