traces_bank_current_trigger/sampling_freq_100MHz/LDR/LDR_4.csv

#Digilent WaveForms Oscilloscope Acquisition
#Device Name: Discovery2
#Serial Number: SN:210321B3D813
#Date Time: 2023-06-16 17:23:42.069
#Sample rate: 1e+08Hz
#Samples: 8192
#Trigger: Source: Channel 2 Type: Edge Condition: Rising Level: 2 V Hyst.: Auto HoldOff: 0 s
#Channel 1: Range: 10 mV/div Offset: 0 V Attenuation: 1 X Sample Mode: Average
#Channel 2: Range: 5 V/div Offset: 0 V Attenuation: 1 X Sample Mode: Average

Time (s),Channel 1 (V),Channel 2 (V)
-9.561576971214023e-07,0.009791295991956567,-0.01613420249422067
-9.461576971214007e-07,0.01112727372667084,0.02479346609537227
-9.361576971213991e-07,0.009457301558278,0.00991067751733001
-9.261576971214043e-07,0.009457301558278,-0.008692808205195315
-9.161576971214027e-07,0.009457301558278,0.04339695181791451
-9.061576971214011e-07,0.008455318257242295,-0.004972111060695325
-8.961576971213995e-07,0.009123307124599432,0.02479346609537227
-8.861576971214046e-07,0.009123307124599432,0.02479346609537227
-8.761576971214031e-07,0.009791295991956567,-0.01241350534971222
-8.661576971214015e-07,0.009123307124599432,0.02851416323988071
-8.561576971213999e-07,0.00778732938988516,-0.01241350534971222
-8.461576971213983e-07,0.01045928485931294,-0.001251413916171648
-8.361576971214034e-07,0.008789312690920863,0.03223486038438916
-8.261576971214018e-07,0.009123307124599432,-0.001251413916186876
-8.161576971214002e-07,0.009457301558278,0.03595555752889761
-8.061576971213986e-07,0.009123307124599585,-0.02357559678322234
-7.961576971214038e-07,0.009457301558277847,0.009910677517323239
-7.861576971214022e-07,0.00778732938988516,0.00991067751733847
-7.761576971214006e-07,0.008121323823563727,-0.008692808205203774
-7.66157697121399e-07,0.007453334956207504,0.02851416323986379
-7.561576971214042e-07,0.009457301558277089,-0.008692808205186857
-7.461576971214026e-07,0.009457301558278,0.02107276895086382
-7.36157697121401e-07,0.009791295991956567,0.01363137466184692
-7.261576971213994e-07,0.008455318257242295,-0.01241350534971222
-7.161576971214046e-07,0.008455318257242295,0.03223486038436886
-7.06157697121403e-07,0.007453334956206592,-0.004972111060695325
-6.961576971214014e-07,0.009123307124599432,0.02851416323988071
-6.861576971213998e-07,0.00611735722149232,0.02107276895086382
-6.761576971213982e-07,0.008455318257241384,0.002469283228335108
-6.661576971214034e-07,0.006451351655170888,0.03223486038438916
-6.561576971214018e-07,0.006451351655170888,-0.008692808205203774
-6.461576971214002e-07,0.008121323823563727,0.03223486038438916
-6.361576971213986e-07,0.004781379486779112,0.02479346609535873
-6.261576971214038e-07,0.007119340522526961,-0.004972111060681791
-6.161576971214022e-07,0.005783362787813752,0.04711764896242296
-6.061576971214006e-07,0.005449368354135184,-0.004972111060695325
-5.96157697121399e-07,0.006785346088848544,0.02851416323988241
-5.861576971214041e-07,0.00478137948677896,0.03223486038438747
-5.761576971214025e-07,0.005449368354135184,0.002469283228321573
-5.661576971214009e-07,0.006785346088849456,0.04339695181791451
-5.561576971213993e-07,0.006451351655170888,-0.001251413916186876
-5.461576971214045e-07,0.006785346088849304,0.03223486038437393
-5.361576971214029e-07,0.005783362787813752,0.02851416323988071
-5.261576971214013e-07,0.007119340522528024,0.00991067751733847
-5.161576971213997e-07,0.009123307124599432,0.04339695181791451
-5.061576971213981e-07,0.006451351655171344,-0.001251413916169956
-4.961576971214033e-07,0.007453334956206592,0.03595555752889761
-4.861576971214017e-07,0.006451351655170888,0.00991067751733847
-4.761576971214001e-07,0.007119340522528024,0.01363137466184692
-4.661576971213985e-07,0.006451351655170736,0.03595555752887731
-4.561576971214037e-07,0.00611735722149232,-0.008692808205203774
-4.461576971214021e-07,0.007119340522528024,0.02479346609537227
-4.361576971214005e-07,0.005783362787813752,0.03595555752889761
-4.261576971213989e-07,0.006451351655171648,0.0173520718063689
-4.161576971214041e-07,0.008121323823562968,0.04711764896240943
-4.061576971214025e-07,0.00611735722149232,0.01363137466184692
-3.961576971214009e-07,0.009123307124599432,0.03223486038438916
-3.861576971213993e-07,0.006785346088849456,0.05083834610693141
-3.761576971214044e-07,0.008789312690919952,-0.001251413916163187
-3.661576971214029e-07,0.008455318257242295,0.05455904325143986
-3.561576971214013e-07,0.008121323823563727,0.006189980372830022
-3.461576971213997e-07,0.008121323823563727,0.04711764896242296
-3.361576971213981e-07,0.00812132382356388,0.02479346609536381
-3.261576971214032e-07,0.008455318257242295,0.006189980372830022
-3.161576971214016e-07,0.00778732938988516,0.05455904325143986
-3.061576971214e-07,0.008455318257242295,0.00991067751733847
-2.961576971213984e-07,0.008789312690921015,0.03967625467340606
-2.861576971214036e-07,0.009123307124599432,0.03967625467340606
-2.76157697121402e-07,0.009791295991956567,0.006189980372830022
-2.661576971214004e-07,0.009123307124599432,0.03223486038438916
-2.561576971213988e-07,0.00778732938988592,-0.001251413916178416
-2.46157697121404e-07,0.00945730155827724,0.01735207180634691
-2.361576971214024e-07,0.00778732938988516,0.02479346609537227
-2.261576971214008e-07,0.008455318257242295,-0.01613420249422067
-2.161576971213992e-07,0.009123307124599432,0.03595555752889761
-2.061576971214044e-07,0.007787329389885767,-0.001251413916169959
-1.961576971214028e-07,0.008121323823563727,0.03967625467340606
-1.861576971214012e-07,0.007119340522528024,0.02107276895086382
-1.761576971213996e-07,0.008789312690920863,0.002469283228321573
-1.661576971214048e-07,0.008455318257242448,0.03223486038437563
-1.561576971214032e-07,0.00778732938988516,-0.001251413916186876
-1.461576971214016e-07,0.00778732938988516,0.03223486038438916
-1.361576971214e-07,0.007119340522528024,0.01735207180635537
-1.261576971213984e-07,0.007453334956207655,-0.00497211106067333
-1.161576971214036e-07,0.009791295991956567,0.04339695181791451
-1.06157697121402e-07,0.007453334956206592,-0.008692808205203774
-9.615769712140035e-08,0.009123307124599432,0.02851416323988071
-8.615769712139876e-08,0.007787329389885463,0.00991067751733847
-7.615769712140393e-08,0.008455318257241991,0.00991067751733847
-6.615769712140234e-08,0.00778732938988516,0.03223486038438916
-5.615769712140074e-08,0.00611735722149232,-0.001251413916186876
-4.615769712139914e-08,0.0077873293898844,0.03223486038438578
-3.615769712140432e-08,0.006117357221493079,0.02479346609537565
-2.615769712140272e-08,0.007119340522528024,-0.03845838536127136
-1.615769712140112e-08,0.006451351655170888,0.02851416323988071
-6.157697121399522e-09,0.004113390619420913,0.1661799575866933
3.8423028785953e-09,-0.009246386727715727,3.139016976047592
1.38423028785969e-08,0.01112727372667084,3.265520678962231
2.38423028785985e-08,0.01212925702770654,3.194827433216571
3.384230287860009e-08,0.01513520693081365,3.310169044696333
4.384230287860169e-08,0.006451351655174077,3.25807928467326
5.384230287859652e-08,0.01346523476242081,3.358538107574943
6.384230287859811e-08,0.006451351655170888,3.358538107574943
7.384230287859971e-08,0.003779396185742345,3.347376016141417
8.384230287860131e-08,0.0001054574152796172,3.392024381875491
9.384230287859613e-08,0.003445401752062259,3.332493227563411
1.038423028785977e-07,0.003111407318385209,3.343655318996909
1.138423028785993e-07,0.004447385053099481,3.31761043898535
1.238423028786009e-07,0.004447385053101912,3.276682770395787
1.338423028785957e-07,0.009791295991954137,3.343655318996878
1.438423028785973e-07,0.007453334956206592,3.284124164684774
1.538423028785989e-07,0.009123307124599432,3.31761043898535
1.638423028786005e-07,0.005783362787813752,3.336213924707892
1.738423028785954e-07,0.009123307124597912,3.343655318996905
1.83842302878597e-07,0.004781379486778049,3.362258804719451
1.938423028785986e-07,0.003111407318385209,3.321331136129858
2.038423028786002e-07,0.004781379486778049,3.354817410430434
2.138423028786018e-07,0.005115373920456768,3.351096713285902
2.238423028785966e-07,0.005449368354135184,3.299006953262807
2.338423028785982e-07,0.006785346088849456,3.325051833274367
2.438423028785998e-07,0.008455318257242295,3.295286256118299
2.538423028786014e-07,0.009791295991955657,3.31761043898536
2.638423028785962e-07,0.00778732938988607,3.33993462185239
2.738423028785978e-07,0.008455318257242295,3.321331136129858
2.838423028785994e-07,0.008789312690920863,3.36597950186396
2.93842302878601e-07,0.006117357221491865,3.354817410430434
3.038423028785958e-07,0.005115373920457072,3.354817410430434
3.138423028785974e-07,0.004447385053099481,3.347376016141417
3.23842302878599e-07,0.00778732938988516,3.3399346218524
3.338423028786006e-07,0.008789312690920863,3.36597950186396
3.438423028785954e-07,0.006451351655171952,3.310169044696358
3.53842302878597e-07,0.01012529042563514,3.343655318996909
3.638423028785986e-07,0.008455318257242295,3.336213924707892
3.738423028786002e-07,0.008789312690920863,3.306448347551824
3.838423028786018e-07,0.009123307124598976,3.384582987586477
3.938423028785966e-07,0.008121323823563727,3.328772530418875
4.038423028785982e-07,0.009457301558278,3.36597950186396
4.138423028785998e-07,0.008455318257242295,3.377141593297485
4.238423028786014e-07,0.007453334956207504,3.339934621852429
4.338423028785963e-07,0.009457301558277089,3.403186473309015
4.438423028785979e-07,0.008455318257242295,3.336213924707892
4.538423028785995e-07,0.008455318257242295,3.369700199008468
4.638423028786011e-07,0.008455318257242902,3.347376016141414
4.738423028785959e-07,0.00979129599195596,3.339934621852404
4.838423028785975e-07,0.009791295991956567,3.395745079020027
4.938423028785991e-07,0.008455318257242295,3.343655318996909
5.038423028786007e-07,0.009791295991956567,3.380862290441993
5.138423028785955e-07,0.008455318257242902,3.365979501863966
5.238423028785971e-07,0.007453334956206592,3.358538107574943
5.338423028785987e-07,0.008789312690920863,3.399465776164535
5.438423028786003e-07,0.006451351655170888,3.347376016141417
5.538423028786019e-07,0.009123307124599585,3.377141593297478
5.638423028785967e-07,0.009457301558278,3.362258804719451
5.738423028785983e-07,0.009791295991956567,3.347376016141417
5.838423028785999e-07,0.01079327929299227,3.395745079020027
5.938423028786015e-07,0.007787329389886375,3.358538107574959
6.038423028785963e-07,0.0104592848593137,3.395745079020027
6.138423028785979e-07,0.009123307124599432,3.377141593297485
6.238423028785995e-07,0.009457301558278,3.347376016141417
6.338423028786011e-07,0.01012529042563453,3.406907170453532
6.438423028785959e-07,0.00878931269092147,3.362258804719472
6.538423028785975e-07,0.01179526259402797,3.38830368473101
6.638423028785991e-07,0.008121323823563727,3.380862290441993
6.738423028786007e-07,0.007453334956206592,3.354817410430434
6.838423028785956e-07,0.009791295991955504,3.403186473309022
6.938423028785972e-07,0.008121323823563727,3.347376016141417
7.038423028785988e-07,0.01079327929299227,3.403186473309044
7.138423028786004e-07,0.008789312690920863,3.38830368473101
7.23842302878602e-07,0.008789312690920863,3.347376016141444
7.338423028785968e-07,0.008789312690920863,3.406907170453553
7.438423028785984e-07,0.007119340522528024,3.354817410430434
7.538423028786e-07,0.008789312690920863,3.380862290441993
7.638423028786016e-07,0.006785346088849304,3.380862290441975
7.738423028785964e-07,0.006451351655170888,3.3399346218524
7.83842302878598e-07,0.007453334956206592,3.392024381875518
7.938423028785996e-07,0.006451351655170888,3.351096713285926
8.038423028786012e-07,0.008455318257241991,3.365979501863966
8.13842302878596e-07,0.007787329389885463,3.380862290441986
8.238423028785976e-07,0.009791295991956567,3.3399346218524
8.338423028785992e-07,0.006785346088849456,3.410627867598061
8.438423028786008e-07,0.006451351655170888,3.351096713285926
8.538423028785956e-07,0.008789312690919799,3.395745079020007
8.638423028785972e-07,0.007453334956206592,3.38830368473101
8.738423028785988e-07,0.008455318257242295,3.369700199008468
8.838423028786004e-07,0.009457301558278,3.41434856474257
8.938423028785952e-07,0.008455318257242751,3.351096713285954
9.038423028785968e-07,0.01112727372667084,3.392024381875518
9.138423028785984e-07,0.008455318257242295,3.380862290441993
9.238423028786e-07,0.008455318257242295,3.351096713285926
9.338423028786016e-07,0.007787329389884856,3.403186473309018
9.438423028785965e-07,0.007119340522528024,3.347376016141417
9.538423028785981e-07,0.008121323823563727,3.384582987586502
9.638423028785997e-07,0.006451351655170888,3.392024381875518
9.738423028786013e-07,0.007119340522527417,3.354817410430456
9.838423028785961e-07,0.005783362787814359,3.403186473309022
9.938423028785977e-07,0.006451351655170888,3.343655318996909
1.003842302878599e-06,0.007119340522528024,3.38830368473101
1.013842302878601e-06,0.006451351655170888,3.384582987586495
1.023842302878596e-06,0.006451351655170888,3.369700199008475
1.033842302878597e-06,0.00611735722149232,3.403186473309044
1.043842302878599e-06,0.004781379486778049,3.358538107574943
1.0538423028786e-06,0.005783362787813752,3.373420896152977
1.063842302878595e-06,0.005783362787813752,3.384582987586497
1.073842302878597e-06,0.005115373920456617,3.354817410430434
1.083842302878599e-06,0.005115373920456617,3.410627867598061
1.0938423028786e-06,0.00611735722149232,3.343655318996909
1.103842302878602e-06,0.005115373920456617,3.392024381875508
1.113842302878597e-06,0.005115373920456617,3.369700199008468
1.123842302878598e-06,0.005449368354135184,3.336213924707892
1.1338423028786e-06,0.006451351655170888,3.399465776164535
1.143842302878601e-06,0.006117357221491865,3.351096713285946
1.153842302878596e-06,0.005115373920457072,3.395745079020007
1.163842302878598e-06,0.003779396185742345,3.369700199008468
1.173842302878599e-06,0.004113390619420913,3.36597950186396
1.183842302878601e-06,0.005449368354135488,3.399465776164515
1.193842302878596e-06,0.006117357221492017,3.354817410430455
1.203842302878597e-06,0.004447385053099481,3.373420896152977
1.213842302878599e-06,0.004781379486778049,3.377141593297485
1.223842302878601e-06,0.005115373920456617,3.358538107574943
1.233842302878595e-06,0.005783362787813448,3.399465776164517
1.243842302878597e-06,0.005449368354135184,3.3399346218524
1.253842302878599e-06,0.005115373920456617,3.38830368473101
1.2638423028786e-06,0.004447385053099481,3.373420896152977
1.273842302878602e-06,0.00444738505309933,3.351096713285948
1.283842302878597e-06,0.004113390619420913,3.399465776164535
1.293842302878598e-06,0.00611735722149232,3.36597950186396
1.3038423028786e-06,0.004113390619420913,3.392024381875518
1.313842302878601e-06,0.004781379486778656,3.377141593297476
1.323842302878596e-06,0.006117357221491712,3.358538107574951
1.333842302878598e-06,0.00611735722149232,3.399465776164535
1.343842302878599e-06,0.005449368354135184,3.3399346218524
1.353842302878601e-06,0.005783362787813145,3.384582987586497
1.363842302878596e-06,0.004447385053100088,3.373420896152981
1.373842302878597e-06,0.006451351655170888,3.358538107574943
1.383842302878599e-06,0.00611735722149232,3.403186473309044
1.393842302878601e-06,0.004447385053099481,3.343655318996909
1.403842302878595e-06,0.006785346088848392,3.369700199008456
1.413842302878597e-06,0.003445401752063777,3.373420896152977
1.423842302878599e-06,0.00611735722149232,3.358538107574943
1.4338423028786e-06,0.005115373920456617,3.403186473309044
1.443842302878602e-06,0.004113390619421368,3.347376016141438
1.453842302878597e-06,0.005115373920456617,3.392024381875518
1.463842302878598e-06,0.00611735722149232,3.38830368473101
1.4738423028786e-06,0.004781379486778049,3.362258804719451
1.483842302878601e-06,0.005449368354134881,3.388303684730998
1.493842302878596e-06,0.004781379486778353,3.362258804719463
1.503842302878598e-06,0.006451351655170888,3.395745079020027
1.513842302878599e-06,0.004781379486778049,3.38830368473101
1.523842302878601e-06,0.005449368354135944,3.362258804719463
1.533842302878596e-06,0.007119340522527265,3.388303684730998
1.543842302878597e-06,0.004447385053099481,3.354817410430434
1.553842302878599e-06,0.005783362787813752,3.395745079020027
1.563842302878601e-06,0.005783362787813752,3.392024381875518
1.573842302878596e-06,0.004781379486778504,3.369700199008478
1.583842302878597e-06,0.004447385053099481,3.41434856474257
1.593842302878599e-06,0.004113390619420913,3.373420896152977
1.6038423028786e-06,0.006785346088849456,3.392024381875518
1.613842302878602e-06,0.004781379486778049,3.388303684731
1.623842302878597e-06,0.004781379486778049,3.36597950186396
1.633842302878598e-06,0.007453334956206592,3.421789959031586
1.6438423028786e-06,0.005783362787813752,3.369700199008468
1.653842302878602e-06,0.007453334956205073,3.395745079020034
1.663842302878596e-06,0.004113390619420913,3.410627867598061
1.673842302878598e-06,0.005449368354135184,3.351096713285926
1.6838423028786e-06,0.008121323823563727,3.410627867598061
1.693842302878601e-06,0.005783362787814967,3.358538107574959
1.703842302878596e-06,0.008455318257241079,3.39574507902001
1.713842302878598e-06,0.006451351655170888,3.395745079020027
1.723842302878599e-06,0.006451351655170888,3.373420896152977
1.733842302878601e-06,0.006785346088849456,3.410627867598061
1.743842302878596e-06,0.005115373920457376,3.362258804719473
1.753842302878597e-06,0.008121323823563727,3.395745079020027
1.763842302878599e-06,0.003111407318385209,3.384582987586502
1.7738423028786e-06,0.00611735722149232,3.377141593297485
1.783842302878595e-06,0.005449368354135488,3.414348564742553
1.793842302878597e-06,0.005115373920456617,3.358538107574943
1.803842302878598e-06,0.005449368354135184,3.395745079020027
1.8138423028786e-06,0.00611735722149232,3.384582987586502
1.823842302878602e-06,0.006451351655170888,3.365979501863978
1.833842302878596e-06,0.006451351655170888,3.406907170453553
1.843842302878598e-06,0.006451351655170888,3.362258804719451
1.8538423028786e-06,0.00611735722149232,3.377141593297485
1.863842302878601e-06,0.004447385053100088,3.395745079020012
1.873842302878596e-06,0.005783362787813145,3.362258804719466
1.883842302878598e-06,0.005783362787813752,3.406907170453553
1.893842302878599e-06,0.005115373920456617,3.362258804719451
1.903842302878601e-06,0.007119340522528024,3.410627867598061
1.913842302878596e-06,0.005449368354135944,3.380862290442006
1.923842302878597e-06,0.004781379486778049,3.336213924707892
1.933842302878599e-06,0.006451351655170888,3.406907170453553
1.9438423028786e-06,0.004781379486778049,3.347376016141417
1.953842302878595e-06,0.007119340522526961,3.392024381875498
1.963842302878597e-06,0.005115373920456617,3.384582987586502
1.973842302878598e-06,0.007119340522528024,3.351096713285926
1.9838423028786e-06,0.00611735722149232,3.399465776164535
1.993842302878602e-06,0.006785346088848849,3.36597950186397
2.003842302878596e-06,0.005449368354135184,3.38830368473101
2.013842302878598e-06,0.00611735722149232,3.380862290441993
2.0238423028786e-06,0.006451351655170888,3.36597950186396
2.033842302878601e-06,0.007453334956205377,3.39574507902001
2.043842302878596e-06,0.004781379486779264,3.358538107574959
2.053842302878598e-06,0.007453334956206592,3.392024381875518
2.063842302878599e-06,0.007453334956206592,3.380862290441993
2.073842302878601e-06,0.007453334956206896,3.377141593297498
2.083842302878596e-06,0.008121323823563424,3.406907170453539
2.093842302878597e-06,0.005449368354135184,3.358538107574943
2.103842302878599e-06,0.006785346088849456,3.395745079020027
2.113842302878601e-06,0.005449368354135184,3.373420896152977
2.123842302878595e-06,0.007453334956205681,3.362258804719456
2.133842302878597e-06,0.007453334956206592,3.403186473309044
2.143842302878599e-06,0.006785346088849456,3.354817410430434
2.1538423028786e-06,0.007119340522528024,3.384582987586502
2.163842302878602e-06,0.006451351655171192,3.384582987586485
2.173842302878597e-06,0.007119340522528024,3.347376016141417
2.183842302878598e-06,0.006451351655170888,3.410627867598061
2.1938423028786e-06,0.006785346088849456,3.347376016141417
2.203842302878601e-06,0.007787329389884704,3.403186473309029
