traces_bank_current_trigger/sampling_freq_100MHz/SUB/sub_3.csv

#Digilent WaveForms Oscilloscope Acquisition
#Device Name: Discovery2
#Serial Number: SN:210321B3D813
#Date Time: 2023-07-19 14:02:26.539
#Sample rate: 1e+08Hz
#Samples: 8192
#Trigger: Source: Channel 2 Type: Edge Condition: Rising Level: 2 V Hyst.: Auto HoldOff: 0 s
#Channel 1: Range: 10 mV/div Offset: 0 V Attenuation: 1 X Sample Mode: Average
#Channel 2: Range: 5 V/div Offset: 0 V Attenuation: 1 X Sample Mode: Average

Time (s),Channel 1 (V),Channel 2 (V)
-9.565551425030956e-07,0.008121323823563727,-0.01613420249422067
-9.46555142503094e-07,0.008455318257242295,0.05083834610693141
-9.365551425030924e-07,0.006785346088850671,-0.008692808205191929
-9.265551425030976e-07,0.009457301558276784,0.01735207180634352
-9.16555142503096e-07,0.00778732938988516,0.03595555752889761
-9.065551425030944e-07,0.007453334956206592,-0.04217908250577981
-8.965551425030928e-07,0.009123307124599432,0.02851416323988071
-8.86555142503098e-07,0.007119340522528935,-0.008692808205186857
-8.765551425030964e-07,0.009123307124599432,0.006189980372830022
-8.665551425030948e-07,0.007119340522528024,0.02107276895086382
-8.565551425030932e-07,0.00778732938988516,-0.01613420249422067
-8.465551425030916e-07,0.00778732938988516,0.03223486038437055
-8.365551425030968e-07,0.00778732938988516,-0.008692808205203774
-8.265551425030952e-07,0.006785346088849456,-0.001251413916186876
-8.165551425030936e-07,0.008455318257242295,0.01735207180635537
-8.06555142503092e-07,0.006451351655171192,-0.02357559678321388
-7.965551425030972e-07,0.007119340522527721,0.02851416323985703
-7.865551425030956e-07,0.00611735722149232,-0.02729629392774602
-7.76555142503094e-07,0.006451351655170888,0.01735207180635537
-7.665551425030924e-07,0.008121323823563271,0.0247934660953435
-7.565551425030975e-07,0.00711934052252848,-0.0384583853612426
-7.465551425030959e-07,0.006785346088849456,0.03595555752889761
-7.365551425030944e-07,0.007119340522528024,-0.01985489963872912
-7.265551425030928e-07,0.006451351655170888,-0.008692808205203774
-7.165551425030979e-07,0.007453334956206137,0.006189980372823254
-7.065551425030963e-07,0.00778732938988516,-0.04217908250577981
-6.965551425030947e-07,0.007453334956206592,0.03595555752889761
-6.865551425030931e-07,0.005783362787813752,-0.02729629392774602
-6.765551425030915e-07,0.007453334956206137,0.02107276895085536
-6.665551425030967e-07,0.006451351655170888,0.002469283228321573
-6.565551425030951e-07,0.005783362787813752,-0.02729629392774602
-6.465551425030935e-07,0.007119340522528024,0.03595555752889761
-6.365551425030919e-07,0.006785346088849,-0.0012514139161818
-6.265551425030971e-07,0.005783362787814207,0.009910677517333395
-6.165551425030955e-07,0.007453334956206592,0.01363137466184692
-6.065551425030939e-07,0.007119340522528024,-0.01613420249422067
-5.965551425030923e-07,0.006451351655170888,0.03223486038436717
-5.865551425030975e-07,0.006451351655170888,-0.01613420249419868
-5.765551425030959e-07,0.007453334956206592,0.006189980372830022
-5.665551425030943e-07,0.00778732938988516,0.02107276895086382
-5.565551425030927e-07,0.006785346088849456,-0.01985489963872912
-5.465551425030979e-07,0.007119340522527873,0.0471176489623925
-5.365551425030963e-07,0.007119340522528024,0.002469283228321573
-5.265551425030947e-07,0.008455318257242295,0.02107276895086382
-5.165551425030931e-07,0.006785346088849456,0.01363137466184692
-5.065551425030915e-07,0.006451351655170433,-0.03845838536123414
-4.965551425030966e-07,0.005449368354135184,0.04339695181791451
-4.865551425030951e-07,0.005115373920456617,-0.03473768821676292
-4.765551425030935e-07,0.005783362787813752,0.01735207180635537
-4.665551425030919e-07,0.004447385053099633,0.02851416323985534
-4.56555142503097e-07,0.004781379486778049,-0.02729629392774602
-4.465551425030954e-07,0.005115373920456617,0.04711764896242296
-4.365551425030938e-07,0.005115373920456617,-0.03473768821676292
-4.265551425030922e-07,0.005115373920457224,0.002469283228324957
-4.165551425030974e-07,0.00645135165517028,0.009910677517335088
-4.065551425030958e-07,0.005115373920456617,-0.01241350534971222
-3.965551425030942e-07,0.006451351655170888,0.03223486038438916
-3.865551425030926e-07,0.006785346088849456,-0.02357559678323757
-3.765551425030978e-07,0.007453334956206288,0.002469283228309728
-3.665551425030962e-07,0.005115373920456617,0.02479346609537227
-3.565551425030946e-07,0.007453334956206592,-0.02729629392774602
-3.46555142503093e-07,0.006785346088849456,0.02107276895086382
-3.365551425030914e-07,0.005449368354135944,-0.02357559678322065
-3.265551425030966e-07,0.007119340522528024,0.01363137466184692
-3.16555142503095e-07,0.00611735722149232,0.002469283228321573
-3.065551425030934e-07,0.007119340522528024,-0.03101699107225447
-2.965551425030918e-07,0.00611735722149232,0.03595555752887223
-2.86555142503097e-07,0.00611735722149232,-0.01985489963872912
-2.765551425030954e-07,0.007453334956206592,-0.001251413916186876
-2.665551425030938e-07,0.006451351655170888,0.03595555752889761
-2.565551425030922e-07,0.007787329389885008,-0.0235755967832105
-2.465551425030973e-07,0.007453334956206744,0.03595555752887054
-2.365551425030958e-07,0.007453334956206592,-0.01241350534971222
-2.265551425030942e-07,0.006451351655170888,0.002469283228321573
-2.165551425030926e-07,0.007119340522528024,0.02479346609537227
-2.065551425030977e-07,0.007787329389884856,-0.02357559678321557
-1.965551425030961e-07,0.007453334956206592,0.03967625467340606
-1.865551425030945e-07,0.00778732938988516,-0.008692808205203774
-1.765551425030929e-07,0.008121323823563727,0.01363137466184692
-1.665551425030981e-07,0.008121323823563727,0.02107276895086043
-1.565551425030965e-07,0.007119340522528024,-0.001251413916186876
-1.465551425030949e-07,0.00778732938988516,0.03223486038438916
-1.365551425030933e-07,0.007453334956206592,-0.01613420249422067
-1.265551425030917e-07,0.007787329389885008,0.01363137466185707
-1.165551425030969e-07,0.007453334956206592,0.03595555752889761
-1.065551425030953e-07,0.008789312690920863,-0.03101699107225447
-9.65551425030937e-08,0.007119340522528024,0.02851416323988071
-8.65551425030921e-08,0.008121323823563424,-0.01241350534971053
-7.655514250309728e-08,0.007453334956206896,-0.008692808205205465
-6.655514250309568e-08,0.006785346088849456,0.03595555752889761
-5.655514250309409e-08,0.00778732938988516,-0.01985489963872912
-4.655514250309249e-08,0.008789312690919799,0.02851416323985872
-3.655514250309767e-08,0.006451351655171952,-0.01985489963870712
-2.655514250309607e-08,0.005783362787813752,0.006189980372830022
-1.655514250309447e-08,0.005783362787813752,0.03967625467340606
-6.55514250309287e-09,0.006785346088849456,0.02851416323988071
3.444857496901952e-09,-0.01358831436553392,3.031116758856834
1.344485749690355e-08,0.01814115683392076,3.3399346218524
2.344485749690515e-08,0.003111407318385209,3.239475798950672
3.344485749690675e-08,0.02014512343599217,3.284124164684774
4.344485749690835e-08,0.002777412884711957,3.373420896152928
5.344485749690317e-08,0.01446721806345652,3.265520678962231
6.344485749690477e-08,0.00144143514999237,3.429231353320603
7.344485749690636e-08,0.008455318257242295,3.239475798950672
8.344485749690796e-08,-0.003902475788859856,3.4850418104881
9.344485749690278e-08,0.006785346088844595,3.19854813036121
1.034448574969044e-07,-0.0008965258857576053,3.481321113343721
1.13444857496906e-07,0.007453334956206592,3.217151616083621
1.234448574969076e-07,0.001775429583674735,3.395745079019966
1.334448574969024e-07,0.01012529042563134,3.261799981817784
1.43444857496904e-07,0.006451351655170888,3.373420896152977
1.534448574969056e-07,0.01079327929299227,3.306448347551824
1.634448574969072e-07,0.004113390619420913,3.38830368473101
1.73444857496902e-07,0.008455318257240321,3.295286256118341
1.834448574969036e-07,0.002443418451028074,3.451555536187654
1.934448574969052e-07,0.004781379486778049,3.272962073251248
2.034448574969068e-07,0.0007734462826352341,3.429231353320603
2.134448574969084e-07,0.005115373920455705,3.299006953262838
2.234448574969032e-07,0.003111407318385209,3.36597950186396
2.334448574969048e-07,0.00778732938988516,3.328772530418875
2.434448574969064e-07,0.004781379486778049,3.343655318996909
2.53444857496908e-07,0.008789312690919799,3.358538107574941
2.634448574969029e-07,0.006451351655171952,3.354817410430436
2.734448574969044e-07,0.006785346088849456,3.325051833274367
2.83444857496906e-07,0.005449368354135184,3.429231353320603
2.934448574969076e-07,0.006117357221491105,3.302727650407372
3.034448574969025e-07,0.003445401752064993,3.425510656176039
3.134448574969041e-07,0.003779396185742345,3.299006953262807
3.234448574969057e-07,0.004113390619420913,3.392024381875518
3.334448574969073e-07,0.005783362787813752,3.351096713285926
3.434448574969021e-07,0.004113390619421672,3.343655318996912
3.534448574969037e-07,0.00611735722149232,3.36597950186396
3.634448574969053e-07,0.005115373920456617,3.354817410430434
3.734448574969069e-07,0.00778732938988516,3.358538107574943
3.834448574969085e-07,0.005115373920456617,3.399465776164502
3.934448574969033e-07,0.005115373920456617,3.325051833274367
4.034448574969049e-07,0.005783362787813752,3.41434856474257
4.134448574969065e-07,0.006451351655170888,3.336213924707892
4.234448574969081e-07,0.00544936835413564,3.392024381875503
4.334448574969029e-07,0.006451351655170433,3.358538107574958
4.434448574969045e-07,0.005449368354135184,3.332493227563384
4.534448574969061e-07,0.00778732938988516,3.392024381875518
4.634448574969077e-07,0.007787329389884704,3.358538107574941
4.734448574969025e-07,0.006785346088849911,3.354817410430436
4.834448574969041e-07,0.007453334956206592,3.399465776164535
4.934448574969057e-07,0.007119340522528024,3.325051833274367
5.034448574969073e-07,0.008121323823563727,3.432952050465111
5.134448574969022e-07,0.005115373920457984,3.343655318996949
5.234448574969037e-07,0.006785346088849456,3.392024381875518
5.334448574969053e-07,0.00778732938988516,3.392024381875518
5.434448574969069e-07,0.005449368354135184,3.362258804719451
5.534448574969085e-07,0.009123307124598521,3.40318647330902
5.634448574969034e-07,0.007119340522528024,3.351096713285926
5.73444857496905e-07,0.009791295991956567,3.377141593297485
5.834448574969066e-07,0.008455318257242295,3.410627867598061
5.934448574969082e-07,0.01012529042563483,3.325051833274407
6.03444857496903e-07,0.009457301558278,3.41434856474257
6.134448574969046e-07,0.009123307124599432,3.343655318996909
6.234448574969062e-07,0.0104592848593137,3.384582987586502
6.334448574969078e-07,0.009457301558277847,3.406907170453517
6.434448574969026e-07,0.009123307124599585,3.32877253041891
6.534448574969042e-07,0.009123307124599432,3.403186473309044
6.634448574969058e-07,0.008789312690920863,3.351096713285926
6.734448574969074e-07,0.009123307124599432,3.384582987586502
6.834448574969022e-07,0.01012529042563468,3.373420896152981
6.934448574969038e-07,0.009457301558278,3.313889741840841
7.034448574969054e-07,0.009457301558278,3.421789959031586
7.13444857496907e-07,0.008789312690920863,3.373420896152977
7.234448574969086e-07,0.008455318257241991,3.38458298758651
7.334448574969034e-07,0.00778732938988516,3.403186473309044
7.43444857496905e-07,0.006785346088849456,3.3399346218524
7.534448574969066e-07,0.008121323823563727,3.421789959031586
7.634448574969082e-07,0.006451351655171344,3.362258804719458
7.73444857496903e-07,0.007453334956206592,3.377141593297485
7.834448574969046e-07,0.00611735722149232,3.410627867598061
7.934448574969062e-07,0.006785346088849456,3.3399346218524
8.034448574969078e-07,0.008455318257241384,3.425510656176066
8.134448574969027e-07,0.0064513516551718,3.36225880471948
8.234448574969043e-07,0.008455318257242295,3.395745079020027
8.334448574969059e-07,0.008455318257242295,3.399465776164535
8.434448574969075e-07,0.005783362787813752,3.347376016141417
8.534448574969023e-07,0.009791295991954746,3.429231353320566
8.634448574969039e-07,0.008121323823563727,3.3399346218524
8.734448574969055e-07,0.009791295991956567,3.380862290441993
8.834448574969071e-07,0.009457301558278,3.403186473309044
8.934448574969019e-07,0.01012529042563483,3.343655318996936
9.034448574969035e-07,0.009457301558278,3.425510656176095
9.134448574969051e-07,0.01012529042563514,3.347376016141417
9.234448574969067e-07,0.008455318257242295,3.406907170453553
9.334448574969083e-07,0.009457301558277393,3.406907170453534
9.434448574969031e-07,0.008121323823563727,3.36597950186396
9.534448574969047e-07,0.009457301558278,3.421789959031586
9.634448574969063e-07,0.007119340522528024,3.358538107574943
9.734448574969079e-07,0.008789312690920863,3.399465776164539
9.834448574969027e-07,0.008789312690920863,3.406907170453549
9.934448574969043e-07,0.008121323823563727,3.351096713285926
1.003444857496906e-06,0.009457301558278,3.410627867598061
1.013444857496908e-06,0.008121323823563271,3.362258804719458
1.023444857496902e-06,0.00711934052252848,3.377141593297478
1.033444857496904e-06,0.009457301558278,3.38830368473101
1.043444857496906e-06,0.007453334956206592,3.336213924707892
1.053444857496907e-06,0.007453334956206592,3.403186473309044
1.063444857496902e-06,0.007119340522528176,3.354817410430456
1.073444857496904e-06,0.009457301558278,3.384582987586502
1.083444857496905e-06,0.008121323823563727,3.399465776164535
1.093444857496907e-06,0.007453334956206592,3.328772530418875
1.103444857496908e-06,0.007453334956206137,3.418069261887047
1.113444857496903e-06,0.006451351655170888,3.351096713285926
1.123444857496905e-06,0.00778732938988516,3.38830368473101
1.133444857496906e-06,0.007119340522528024,3.392024381875518
1.143444857496908e-06,0.007453334956207199,3.34365531899694
1.153444857496903e-06,0.008789312690920256,3.41062786759803
1.163444857496904e-06,0.008121323823563727,3.347376016141417
1.173444857496906e-06,0.008121323823563727,3.380862290441993
1.183444857496908e-06,0.009123307124598521,3.399465776164508
1.193444857496902e-06,0.007119340522528935,3.339934621852427
1.203444857496904e-06,0.009457301558278,3.410627867598061
1.213444857496906e-06,0.00778732938988516,3.369700199008468
1.223444857496907e-06,0.008789312690920863,3.395745079020027
1.233444857496902e-06,0.007787329389885615,3.399465776164534
1.243444857496904e-06,0.008789312690920863,3.354817410430434
1.253444857496905e-06,0.008455318257242295,3.425510656176095
1.263444857496907e-06,0.007119340522528024,3.351096713285926
1.273444857496908e-06,0.009791295991955353,3.399465776164525
1.283444857496903e-06,0.007119340522528024,3.377141593297485
1.293444857496905e-06,0.00611735722149232,3.347376016141417
1.303444857496906e-06,0.006451351655170888,3.410627867598061
1.313444857496908e-06,0.007453334956206288,3.365979501863963
1.323444857496903e-06,0.006785346088849759,3.373420896152973
1.333444857496904e-06,0.006451351655170888,3.410627867598061
1.343444857496906e-06,0.006785346088849456,3.351096713285926
1.353444857496908e-06,0.008789312690919799,3.425510656176058
1.363444857496902e-06,0.006451351655171952,3.343655318996946
1.373444857496904e-06,0.006785346088849456,3.38830368473101
1.383444857496906e-06,0.005783362787813752,3.380862290441993
1.393444857496907e-06,0.00611735722149232,3.328772530418875
1.403444857496902e-06,0.004781379486778656,3.429231353320557
1.413444857496904e-06,0.005783362787813752,3.354817410430434
1.423444857496905e-06,0.007453334956206592,3.392024381875518
1.433444857496907e-06,0.006785346088849456,3.399465776164535
1.443444857496908e-06,0.004447385053100545,3.328772530418917
1.453444857496903e-06,0.006785346088849456,3.421789959031586
1.463444857496905e-06,0.005449368354135184,3.354817410430434
1.473444857496907e-06,0.006785346088849456,3.384582987586502
1.483444857496908e-06,0.006785346088849304,3.38830368473099
1.493444857496903e-06,0.00645135165517104,3.343655318996929
1.503444857496905e-06,0.006451351655170888,3.429231353320603
1.513444857496906e-06,0.005449368354135184,3.347376016141417
1.523444857496908e-06,0.008455318257241688,3.373420896152992
1.533444857496903e-06,0.007119340522528632,3.406907170453537
1.543444857496904e-06,0.006785346088849456,3.336213924707892
1.553444857496906e-06,0.007119340522528024,3.421789959031586
1.563444857496907e-06,0.006451351655170888,3.351096713285926
1.573444857496902e-06,0.007787329389884553,3.388303684730993
1.583444857496904e-06,0.006451351655170888,3.384582987586502
1.593444857496905e-06,0.006785346088849456,3.3399346218524
1.603444857496907e-06,0.005783362787813752,3.41434856474257
1.613444857496909e-06,0.0077873293898844,3.362258804719465
1.623444857496903e-06,0.00611735722149232,3.392024381875518
1.633444857496905e-06,0.006451351655170888,3.399465776164535
1.643444857496907e-06,0.006451351655170888,3.351096713285926
1.653444857496908e-06,0.007119340522527721,3.418069261887053
1.663444857496903e-06,0.006451351655170888,3.362258804719451
1.673444857496905e-06,0.006785346088849456,3.362258804719451
1.683444857496906e-06,0.007453334956206592,3.38830368473101
1.693444857496908e-06,0.006451351655171648,3.347376016141456
1.703444857496903e-06,0.008121323823562968,3.432952050465072
1.713444857496904e-06,0.007119340522528024,3.362258804719451
1.723444857496906e-06,0.0104592848593137,3.395745079020027
1.733444857496907e-06,0.009123307124599432,3.403186473309044
1.743444857496902e-06,0.007787329389885767,3.339934621852429
1.753444857496904e-06,0.008121323823563727,3.425510656176095
1.763444857496905e-06,0.008455318257242295,3.347376016141417
1.773444857496907e-06,0.007453334956206592,3.392024381875518
1.783444857496902e-06,0.006785346088849759,3.392024381875518
1.793444857496903e-06,0.006451351655170888,3.362258804719451
1.803444857496905e-06,0.008455318257242295,3.399465776164535
1.813444857496907e-06,0.008121323823563727,3.351096713285926
1.823444857496908e-06,0.008121323823563271,3.38458298758651
1.833444857496903e-06,0.007119340522528024,3.403186473309044
1.843444857496905e-06,0.006451351655170888,3.343655318996909
1.853444857496906e-06,0.008121323823563727,3.418069261887078
1.863444857496908e-06,0.007453334956207047,3.362258804719456
1.873444857496903e-06,0.008455318257241839,3.373420896152972
1.883444857496904e-06,0.008455318257242295,3.395745079020027
1.893444857496906e-06,0.00778732938988516,3.343655318996909
1.903444857496907e-06,0.007453334956206592,3.406907170453553
1.913444857496902e-06,0.007119340522528176,3.362258804719472
1.923444857496904e-06,0.008121323823563727,3.38830368473101
1.933444857496905e-06,0.01012529042563514,3.410627867598061
1.943444857496907e-06,0.009123307124599432,3.354817410430434
1.953444857496902e-06,0.007787329389885767,3.414348564742542
1.963444857496904e-06,0.007119340522528024,3.358538107574943
1.973444857496905e-06,0.008121323823563727,3.399465776164535
1.983444857496907e-06,0.00778732938988516,3.395745079020027
1.993444857496908e-06,0.006451351655171344,3.362258804719478
2.003444857496903e-06,0.007453334956206592,3.421789959031586
2.013444857496905e-06,0.004781379486778049,3.354817410430434
2.023444857496906e-06,0.008455318257242295,3.392024381875518
2.033444857496908e-06,0.006451351655170281,3.41434856474253
2.043444857496903e-06,0.005115373920457224,3.328772530418914
2.053444857496904e-06,0.006451351655170888,3.432952050465111
2.063444857496906e-06,0.00611735722149232,3.3399346218524
2.073444857496908e-06,0.007119340522526961,3.406907170453554
2.083444857496902e-06,0.004781379486779112,3.410627867598059
2.093444857496904e-06,0.00611735722149232,3.351096713285926
2.103444857496906e-06,0.004781379486778049,3.429231353320603
2.113444857496907e-06,0.006785346088849456,3.377141593297485
2.123444857496902e-06,0.006785346088849456,3.392024381875512
2.133444857496904e-06,0.007119340522528024,3.41434856474257
2.143444857496905e-06,0.006451351655170888,3.3399346218524
2.153444857496907e-06,0.00778732938988516,3.43667274760962
2.163444857496908e-06,0.005115373920457376,3.369700199008475
2.173444857496903e-06,0.006785346088849456,3.384582987586502
2.183444857496905e-06,0.007453334956206592,3.399465776164535
2.193444857496906e-06,0.007119340522528024,3.343655318996909
2.203444857496908e-06,0.006785346088848849,3.429231353320574
