traces_bank_current_trigger/benchmark_traces/qsort_50MHz/qsort_3.csv

#Digilent WaveForms Oscilloscope Acquisition
#Device Name: Discovery2
#Serial Number: SN:210321B3D813
#Date Time: 2023-06-23 17:06:07.660
#Sample rate: 5e+07Hz
#Samples: 8192
#Trigger: Source: Channel 2 Type: Edge Condition: Rising Level: 2 V Hyst.: Auto HoldOff: 0 s
#Channel 1: Range: 10 mV/div Offset: 0 V Attenuation: 1 X Sample Mode: Average
#Channel 2: Range: 5 V/div Offset: 0 V Attenuation: 1 X Sample Mode: Average

Time (s),Channel 1 (V),Channel 2 (V)
-1.918023850085173e-06,0.007453334956206592,0.01735207180635537
-1.89802385008517e-06,0.007453334956206592,-0.01241350534971222
-1.878023850085167e-06,0.007453334956206592,0.00991067751733847
-1.858023850085177e-06,0.007453334956206592,0.00991067751733847
-1.838023850085174e-06,0.00778732938988516,0.002469283228321573
-1.818023850085171e-06,0.007119340522528024,0.00991067751733847
-1.798023850085168e-06,0.007453334956206592,0.002469283228321573
-1.778023850085178e-06,0.006785346088849759,0.009910677517335088
-1.758023850085175e-06,0.007119340522528024,0.01735207180635537
-1.738023850085172e-06,0.006785346088849456,0.00991067751733847
-1.718023850085169e-06,0.008455318257242295,0.01363137466184692
-1.698023850085165e-06,0.007453334956207352,-0.001251413916186876
-1.678023850085176e-06,0.009123307124599432,-0.001251413916186876
-1.658023850085173e-06,0.008455318257242295,0.006189980372830022
-1.638023850085169e-06,0.008455318257242295,0.03223486038438916
-1.618023850085166e-06,0.008121323823563575,0.002469283228316497
-1.598023850085176e-06,0.007787329389885311,-0.008692808205198698
-1.578023850085173e-06,0.006451351655170888,-0.004972111060695325
-1.55802385008517e-06,0.00611735722149232,0.01735207180635537
-1.538023850085167e-06,0.007119340522527569,0.01735207180635706
-1.518023850085177e-06,0.006117357221492776,0.02107276895086212
-1.498023850085174e-06,0.005449368354135184,0.002469283228321573
-1.478023850085171e-06,0.006451351655170888,0.006189980372830022
-1.458023850085168e-06,0.00611735722149232,0.00991067751733847
-1.438023850085178e-06,0.005783362787813904,0.02107276895085874
-1.418023850085175e-06,0.005449368354135184,0.02479346609537227
-1.398023850085172e-06,0.004781379486778049,0.006189980372830022
-1.378023850085168e-06,0.004781379486778049,0.006189980372830022
-1.358023850085165e-06,0.004447385053100241,0.01363137466184692
-1.338023850085176e-06,0.00611735722149232,0.01363137466184692
-1.318023850085172e-06,0.005783362787813752,0.01363137466184692
-1.298023850085169e-06,0.005783362787813752,0.002469283228321573
-1.278023850085166e-06,0.005449368354135336,0.009910677517343546
-1.258023850085176e-06,0.0057833627878136,0.02107276895085874
-1.238023850085173e-06,0.005783362787813752,0.02479346609537227
-1.21802385008517e-06,0.005783362787813752,0.02851416323988071
-1.198023850085167e-06,0.005783362787813904,0.006189980372833405
-1.178023850085177e-06,0.006117357221492169,0.01363137466184354
-1.158023850085174e-06,0.005783362787813752,0.006189980372830022
-1.138023850085171e-06,0.006451351655170888,0.02107276895086382
-1.118023850085168e-06,0.007119340522528024,0.02107276895086382
-1.098023850085178e-06,0.007119340522528024,-0.00497211106068348
-1.078023850085175e-06,0.00778732938988516,0.00991067751733847
-1.058023850085171e-06,0.00778732938988516,0.02107276895086382
-1.038023850085168e-06,0.009123307124599432,0.02479346609537227
-1.018023850085165e-06,0.009457301558277696,0.01363137466184184
-9.980238500851754e-07,0.008789312690920863,0.002469283228321573
-9.780238500851722e-07,0.009457301558278,-0.008692808205203774
-9.58023850085169e-07,0.00778732938988516,0.006189980372830022
-9.380238500851658e-07,0.009457301558277089,0.006189980372830022
-9.180238500851762e-07,0.007453334956206592,0.006189980372830022
-8.98023850085173e-07,0.008121323823563727,0.002469283228321573
-8.780238500851698e-07,0.008455318257242295,-0.004972111060695325
-8.580238500851666e-07,0.007787329389885463,0.01735207180635367
-8.38023850085177e-07,0.008455318257241991,0.01363137466184861
-8.180238500851738e-07,0.008455318257242295,0.01363137466184692
-7.980238500851706e-07,0.00778732938988516,0.00991067751733847
-7.780238500851674e-07,0.00778732938988516,0.00991067751733847
-7.580238500851777e-07,0.007453334956206744,0.01363137466184523
-7.380238500851745e-07,0.008121323823563727,0.02851416323988071
-7.180238500851713e-07,0.00778732938988516,0.02107276895086382
-6.980238500851681e-07,0.007119340522528024,0.00991067751733847
-6.780238500851649e-07,0.007119340522527569,0.02107276895086382
-6.580238500851753e-07,0.00611735722149232,0.02107276895086382
-6.380238500851721e-07,0.007453334956206592,0.03595555752889761
-6.180238500851689e-07,0.007119340522528024,0.01363137466184692
-5.980238500851657e-07,0.007787329389884856,0.0173520718063486
-5.780238500851761e-07,0.007119340522528024,0.002469283228321573
-5.580238500851729e-07,0.006451351655170888,0.02851416323988071
-5.380238500851697e-07,0.006785346088849456,0.01735207180635537
-5.180238500851665e-07,0.006117357221492472,0.03223486038436886
-4.980238500851768e-07,0.006451351655170736,-0.01241350534969192
-4.780238500851736e-07,0.00611735722149232,0.01363137466184692
-4.580238500851704e-07,0.005449368354135184,0.03595555752889761
-4.380238500851672e-07,0.006451351655170888,0.02851416323988071
-4.180238500851776e-07,0.00544936835413564,0.03223486038438747
-3.980238500851744e-07,0.005449368354135184,0.006189980372830022
-3.780238500851712e-07,0.005449368354135184,0.00991067751733847
-3.58023850085168e-07,0.005449368354135184,0.03223486038438916
-3.380238500851784e-07,0.007453334956205681,0.03223486038438916
-3.180238500851752e-07,0.005783362787813752,0.03595555752889761
-2.98023850085172e-07,0.006451351655170888,0.02851416323988071
-2.780238500851688e-07,0.006785346088849456,0.01735207180635537
-2.580238500851656e-07,0.006117357221492776,0.02851416323988579
-2.380238500851759e-07,0.007119340522528024,0.03967625467340606
-2.180238500851727e-07,0.005783362787813752,0.03595555752889761
-1.980238500851695e-07,0.007119340522528024,0.00991067751733847
-1.780238500851663e-07,0.005783362787813752,0.02479346609537396
-1.580238500851767e-07,0.005783362787813752,0.02851416323987902
-1.380238500851735e-07,0.00778732938988516,0.03967625467340606
-1.180238500851703e-07,0.007119340522528024,0.03967625467340606
-9.802385008516711e-08,0.00611735722149232,0.013631374661852
-7.802385008517747e-08,0.00611735722149232,0.02479346609536719
-5.802385008517427e-08,0.004781379486778049,0.03223486038438916
-3.802385008517108e-08,0.005115373920456617,0.03223486038438916
-1.802385008516788e-08,0.004781379486778049,0.02851416323988071
1.976149914821763e-09,-0.002566498054147104,2.212563387065347
2.197614991482496e-08,0.007119340522528024,3.179944644638537
4.197614991482816e-08,0.009123307124599432,3.287844861829282
6.197614991483135e-08,0.006451351655170888,3.373420896152977
8.197614991483455e-08,0.0004394518489568181,3.377141593297475
1.019761499148242e-07,0.0007734462826352341,3.354817410430434
1.219761499148274e-07,0.002777412884706641,3.328772530418875
1.419761499148306e-07,0.006785346088849456,3.336213924707892
1.619761499148338e-07,0.006785346088848392,3.362258804719455
1.819761499148234e-07,0.004447385053100545,3.369700199008464
2.019761499148266e-07,0.0001054574152780984,3.362258804719451
2.219761499148298e-07,0.002109424017349506,3.343655318996909
2.41976149914833e-07,0.003445401752064537,3.33993462185241
2.619761499148227e-07,0.005115373920455857,3.362258804719441
2.819761499148259e-07,0.004113390619420913,3.36597950186396
3.019761499148291e-07,0.002443418451028074,3.362258804719451
3.219761499148323e-07,0.0004394518489566662,3.354817410430434
3.419761499148219e-07,0.002777412884705578,3.351096713285927
3.619761499148251e-07,0.004113390619420913,3.373420896152977
3.819761499148283e-07,0.00611735722149232,3.369700199008468
4.019761499148315e-07,0.004113390619420913,3.358538107574943
4.219761499148347e-07,0.002777412884706945,3.380862290441988
4.419761499148243e-07,0.003445401752063777,3.369700199008468
4.619761499148275e-07,0.005115373920456617,3.369700199008468
4.819761499148307e-07,0.005783362787813752,3.380862290441993
5.019761499148339e-07,0.005115373920456617,3.365979501863958
5.219761499148236e-07,0.005115373920456617,3.362258804719453
5.419761499148268e-07,0.004113390619420913,3.380862290441993
5.6197614991483e-07,0.005783362787813752,3.384582987586502
5.819761499148332e-07,0.00611735722149232,3.377141593297476
6.019761499148228e-07,0.00611735722149232,3.358538107574951
6.21976149914826e-07,0.005783362787813752,3.377141593297485
6.419761499148292e-07,0.006451351655170888,3.377141593297485
6.619761499148324e-07,0.005449368354135184,3.392024381875518
6.81976149914822e-07,0.007119340522527265,3.384582987586505
7.019761499148252e-07,0.006451351655170888,3.362258804719451
7.219761499148284e-07,0.006785346088849456,3.36597950186396
7.419761499148316e-07,0.00611735722149232,3.377141593297485
7.619761499148348e-07,0.006785346088849304,3.384582987586497
7.819761499148245e-07,0.006451351655170888,3.373420896152977
8.019761499148277e-07,0.00778732938988516,3.373420896152977
8.219761499148309e-07,0.007453334956206592,3.369700199008468
8.41976149914834e-07,0.007453334956206288,3.384582987586504
8.619761499148237e-07,0.006785346088849759,3.388303684731008
8.819761499148269e-07,0.006785346088849456,3.38830368473101
9.019761499148301e-07,0.006451351655170888,3.373420896152977
9.219761499148333e-07,0.006785346088849456,3.37342089615298
9.419761499148229e-07,0.006785346088849456,3.38086229044199
9.619761499148261e-07,0.006451351655170888,3.384582987586502
9.819761499148293e-07,0.007453334956206592,3.377141593297485
1.001976149914833e-06,0.007119340522528024,3.369700199008468
1.021976149914822e-06,0.005783362787814359,3.365979501863961
1.041976149914825e-06,0.006785346088849456,3.377141593297485
1.061976149914829e-06,0.006451351655170888,3.38830368473101
1.081976149914832e-06,0.005783362787813752,3.377141593297485
1.101976149914835e-06,0.005449368354135184,3.369700199008466
1.121976149914825e-06,0.005449368354135184,3.36597950186396
1.141976149914828e-06,0.004781379486778049,3.377141593297485
1.161976149914831e-06,0.006785346088849456,3.384582987586502
1.181976149914834e-06,0.005115373920457528,3.3845829875865
1.201976149914824e-06,0.007119340522528024,3.380862290441993
1.221976149914827e-06,0.006451351655170888,3.38830368473101
1.24197614991483e-06,0.006451351655170888,3.380862290441993
1.261976149914833e-06,0.007453334956206137,3.395745079020024
1.281976149914823e-06,0.006451351655171344,3.388303684731014
1.301976149914826e-06,0.00611735722149232,3.373420896152977
1.321976149914829e-06,0.005783362787813752,3.392024381875518
1.341976149914833e-06,0.004447385053099481,3.38830368473101
1.361976149914822e-06,0.006785346088848392,3.395745079020024
1.381976149914825e-06,0.006785346088849456,3.380862290441993
1.401976149914829e-06,0.007119340522528024,3.380862290441993
1.421976149914832e-06,0.005449368354135184,3.38830368473101
1.441976149914835e-06,0.006117357221493232,3.384582987586505
1.461976149914825e-06,0.008121323823563727,3.392024381875518
1.481976149914828e-06,0.00778732938988516,3.399465776164535
1.501976149914831e-06,0.006451351655170888,3.373420896152977
1.521976149914834e-06,0.006451351655170736,3.388303684731005
1.541976149914824e-06,0.00611735722149232,3.377141593297485
1.561976149914827e-06,0.009123307124599432,3.395745079020027
1.58197614991483e-06,0.007453334956206592,3.38830368473101
1.601976149914834e-06,0.007119340522527873,3.388303684731002
1.621976149914823e-06,0.006785346088849608,3.369700199008476
1.641976149914826e-06,0.00778732938988516,3.380862290441993
1.66197614991483e-06,0.008121323823563727,3.392024381875518
1.681976149914833e-06,0.008121323823563727,3.38830368473101
1.701976149914822e-06,0.006785346088850064,3.380862290441997
1.721976149914826e-06,0.005783362787813752,3.380862290441993
1.741976149914829e-06,0.005449368354135184,3.38830368473101
1.761976149914832e-06,0.00611735722149232,3.384582987586502
1.781976149914822e-06,0.0077873293898844,3.384582987586502
1.801976149914825e-06,0.008121323823563727,3.38830368473101
1.821976149914828e-06,0.007119340522528024,3.377141593297485
1.841976149914831e-06,0.006785346088849456,3.392024381875518
1.861976149914834e-06,0.006785346088849304,3.384582987586505
1.881976149914824e-06,0.006451351655170888,3.392024381875518
1.901976149914827e-06,0.008121323823563727,3.377141593297485
1.92197614991483e-06,0.007453334956206592,3.36597950186396
1.941976149914834e-06,0.007453334956206744,3.399465776164537
1.961976149914823e-06,0.007787329389885008,3.403186473309042
1.981976149914827e-06,0.00778732938988516,3.38830368473101
2.00197614991483e-06,0.007453334956206592,3.38830368473101
2.021976149914833e-06,0.00812132382356312,3.380862290441998
2.041976149914823e-06,0.006785346088850064,3.392024381875514
2.061976149914826e-06,0.007453334956206592,3.380862290441993
2.081976149914829e-06,0.004447385053099481,3.392024381875518
2.101976149914832e-06,0.005449368354135184,3.384582987586502
2.121976149914822e-06,0.005449368354135184,3.369700199008475
2.141976149914825e-06,0.005783362787813752,3.38830368473101
2.161976149914828e-06,0.006785346088849456,3.403186473309044
2.181976149914831e-06,0.007119340522528024,3.392024381875518
2.201976149914835e-06,0.007119340522527721,3.373420896152981
2.221976149914824e-06,0.006451351655170888,3.384582987586502
2.241976149914827e-06,0.006785346088849456,3.384582987586502
2.261976149914831e-06,0.007453334956206592,3.392024381875518
2.281976149914834e-06,0.005449368354134881,3.39202438187551
2.301976149914823e-06,0.004781379486778353,3.373420896152985
2.321976149914827e-06,0.00611735722149232,3.377141593297485
2.34197614991483e-06,0.004781379486778049,3.392024381875518
2.361976149914833e-06,0.005783362787814056,3.388303684731012
2.381976149914823e-06,0.006451351655170585,3.392024381875517
2.401976149914826e-06,0.005449368354135184,3.380862290441993
2.421976149914829e-06,0.00611735722149232,3.369700199008468
2.441976149914832e-06,0.005783362787813752,3.377141593297485
2.461976149914822e-06,0.006451351655170585,3.395745079020019
2.481976149914825e-06,0.005783362787813752,3.384582987586502
2.501976149914828e-06,0.006785346088849456,3.373420896152977
2.521976149914832e-06,0.005783362787813752,3.377141593297485
2.541976149914835e-06,0.007119340522528024,3.388303684731014
2.561976149914824e-06,0.007119340522528024,3.395745079020027
2.581976149914828e-06,0.00778732938988516,3.380862290441993
2.601976149914831e-06,0.00778732938988516,3.380862290441993
2.621976149914834e-06,0.006451351655170888,3.388303684731014
2.641976149914824e-06,0.006451351655170888,3.395745079020024
2.661976149914827e-06,0.007453334956206592,3.403186473309044
2.68197614991483e-06,0.007453334956206592,3.399465776164535
2.701976149914833e-06,0.006785346088849456,3.377141593297485
2.721976149914823e-06,0.006785346088849456,3.377141593297485
2.741976149914826e-06,0.00778732938988516,3.38830368473101
2.761976149914829e-06,0.009123307124599432,3.395745079020027
2.781976149914832e-06,0.008789312690920863,3.38830368473101
2.801976149914822e-06,0.007453334956207199,3.37714159329749
2.821976149914825e-06,0.007119340522528024,3.373420896152977
2.841976149914828e-06,0.00778732938988516,3.380862290441993
2.861976149914832e-06,0.008789312690920863,3.38830368473101
2.881976149914835e-06,0.009123307124598672,3.384582987586497
2.901976149914824e-06,0.007453334956206592,3.373420896152977
2.921976149914828e-06,0.008121323823563727,3.377141593297485
2.941976149914831e-06,0.00778732938988516,3.392024381875518
2.961976149914834e-06,0.008455318257242295,3.392024381875512
2.981976149914824e-06,0.008455318257242295,3.377141593297492
3.001976149914827e-06,0.008789312690920863,3.358538107574943
3.02197614991483e-06,0.008121323823563727,3.362258804719451
3.041976149914833e-06,0.008455318257242448,3.377141593297492
3.061976149914823e-06,0.00878931269092071,3.392024381875512
3.081976149914826e-06,0.008789312690920863,3.384582987586502
3.101976149914829e-06,0.00778732938988516,3.36597950186396
3.121976149914833e-06,0.007453334956206592,3.377141593297485
3.141976149914822e-06,0.008121323823563424,3.388303684731005
3.161976149914825e-06,0.008455318257242295,3.384582987586502
3.181976149914829e-06,0.008121323823563727,3.38830368473101
3.201976149914832e-06,0.007453334956206592,3.392024381875518
3.221976149914835e-06,0.007787329389884553,3.365979501863975
3.241976149914825e-06,0.006451351655170888,3.399465776164535
3.261976149914828e-06,0.006451351655170888,3.392024381875518
3.281976149914831e-06,0.006785346088849456,3.395745079020027
3.301976149914834e-06,0.005783362787813448,3.373420896152978
3.321976149914824e-06,0.005115373920456617,3.377141593297485
3.341976149914827e-06,0.005449368354135184,3.395745079020027
3.36197614991483e-06,0.00611735722149232,3.38830368473101
3.381976149914833e-06,0.005783362787813448,3.39202438187551
3.401976149914823e-06,0.00511537392045692,3.373420896152985
3.421976149914826e-06,0.005783362787813752,3.380862290441993
3.441976149914829e-06,0.005783362787813752,3.384582987586502
3.461976149914833e-06,0.008455318257242295,3.395745079020027
3.481976149914822e-06,0.007453334956207047,3.388303684731014
3.501976149914826e-06,0.007453334956206592,3.377141593297485
3.521976149914829e-06,0.008121323823563727,3.38830368473101
3.541976149914832e-06,0.007119340522528024,3.392024381875518
3.561976149914822e-06,0.007119340522528024,3.395745079020025
3.581976149914825e-06,0.007453334956206592,3.410627867598061
3.601976149914828e-06,0.005449368354135184,3.384582987586502
3.621976149914831e-06,0.005115373920456617,3.395745079020027
3.641976149914834e-06,0.005115373920457832,3.388303684731014
3.661976149914824e-06,0.00778732938988516,3.395745079020027
3.681976149914827e-06,0.006451351655170888,3.403186473309044
3.70197614991483e-06,0.00778732938988516,3.369700199008468
3.721976149914834e-06,0.007119340522528328,3.384582987586509
3.741976149914823e-06,0.007787329389884856,3.399465776164529
3.761976149914826e-06,0.008455318257242295,3.403186473309044
3.78197614991483e-06,0.008455318257242295,3.38830368473101
3.801976149914833e-06,0.009123307124599432,3.373420896152977
3.821976149914822e-06,0.008455318257242599,3.358538107574949
3.841976149914826e-06,0.00778732938988516,3.377141593297485
3.861976149914829e-06,0.008789312690920863,3.38830368473101
3.881976149914832e-06,0.009123307124599432,3.377141593297485
3.901976149914822e-06,0.009123307124599432,3.373420896152978
3.921976149914825e-06,0.008789312690920863,3.36597950186396
3.941976149914828e-06,0.008455318257242295,3.369700199008468
3.961976149914831e-06,0.008121323823563727,3.384582987586502
3.981976149914834e-06,0.008121323823563424,3.384582987586492
4.001976149914824e-06,0.007453334956206592,3.362258804719451
4.021976149914827e-06,0.00778732938988516,3.36597950186396
4.041976149914831e-06,0.007119340522528024,3.362258804719451
4.061976149914834e-06,0.01012529042563453,3.373420896152977
4.081976149914823e-06,0.00878931269092147,3.373420896152977
4.101976149914827e-06,0.009123307124599432,3.347376016141417
4.12197614991483e-06,0.008789312690920863,3.373420896152977
4.141976149914833e-06,0.007453334956207199,3.369700199008468
4.161976149914823e-06,0.008789312690920256,3.369700199008468
4.181976149914826e-06,0.008455318257242295,3.377141593297485
4.201976149914829e-06,0.006451351655170888,3.358538107574943
4.221976149914832e-06,0.006785346088849456,3.373420896152977
4.241976149914822e-06,0.006117357221492624,3.373420896152977
4.261976149914825e-06,0.006451351655170888,3.380862290441993
4.281976149914828e-06,0.006451351655170888,3.380862290441993
4.301976149914831e-06,0.00611735722149232,3.373420896152977
4.321976149914835e-06,0.007119340522528328,3.365979501863964
4.341976149914824e-06,0.00778732938988516,3.377141593297485
4.361976149914827e-06,0.007453334956206592,3.384582987586502
4.381976149914831e-06,0.008455318257242295,3.384582987586502
