traces_bank_current_trigger/benchmark_traces/qsort_50MHz/qsort_5.csv

#Digilent WaveForms Oscilloscope Acquisition
#Device Name: Discovery2
#Serial Number: SN:210321B3D813
#Date Time: 2023-06-23 17:16:39.079
#Sample rate: 5e+07Hz
#Samples: 8192
#Trigger: Source: Channel 2 Type: Edge Condition: Rising Level: 2 V Hyst.: Auto HoldOff: 0 s
#Channel 1: Range: 10 mV/div Offset: 0 V Attenuation: 1 X Sample Mode: Average
#Channel 2: Range: 5 V/div Offset: 0 V Attenuation: 1 X Sample Mode: Average

Time (s),Channel 1 (V),Channel 2 (V)
-1.908991097922843e-06,0.007119340522528024,0.006189980372830022
-1.88899109792284e-06,0.00611735722149232,0.006189980372830022
-1.868991097922837e-06,0.006117357221492928,-0.0161342024942139
-1.848991097922847e-06,0.007453334956205985,-0.001251413916193643
-1.828991097922844e-06,0.007453334956206592,-0.004972111060695325
-1.808991097922841e-06,0.007453334956206592,0.01363137466184692
-1.788991097922838e-06,0.008121323823563727,0.00991067751733847
-1.768991097922848e-06,0.006785346088850064,-0.0012514139161818
-1.748991097922845e-06,0.006451351655170888,0.00991067751733847
-1.728991097922842e-06,0.007453334956206592,0.02851416323988071
-1.708991097922838e-06,0.007453334956206592,0.02479346609537227
-1.688991097922835e-06,0.007787329389885311,0.01735207180635367
-1.668991097922846e-06,0.008121323823563727,0.01363137466184692
-1.648991097922842e-06,0.00778732938988516,0.01735207180635537
-1.628991097922839e-06,0.008455318257242295,0.03967625467340606
-1.608991097922836e-06,0.007787329389885311,0.03223486038438578
-1.588991097922846e-06,0.008121323823563575,0.02479346609537565
-1.568991097922843e-06,0.007119340522528024,0.01363137466184692
-1.54899109792284e-06,0.005449368354135184,0.02107276895086382
-1.528991097922837e-06,0.006451351655171495,0.03967625467340606
-1.508991097922847e-06,0.007787329389884553,0.03967625467340606
-1.488991097922844e-06,0.007453334956206592,0.02107276895086382
-1.468991097922841e-06,0.007119340522528024,0.00991067751733847
-1.448991097922838e-06,0.007453334956206592,0.01735207180635537
-1.428991097922848e-06,0.007119340522528176,0.02479346609536888
-1.408991097922845e-06,0.00611735722149232,0.03595555752889761
-1.388991097922842e-06,0.007119340522528024,0.03595555752889761
-1.368991097922838e-06,0.006785346088849456,0.01363137466184692
-1.348991097922835e-06,0.006785346088850519,0.02107276895086382
-1.328991097922845e-06,0.009123307124599432,0.02107276895086382
-1.308991097922842e-06,0.007119340522528024,0.02107276895086382
-1.288991097922839e-06,0.00778732938988516,0.01735207180635537
-1.268991097922836e-06,0.007453334956206137,0.02479346609537057
-1.248991097922846e-06,0.006451351655171344,0.02107276895086551
-1.228991097922843e-06,0.007453334956206592,0.02479346609537227
-1.20899109792284e-06,0.00778732938988516,0.02107276895086382
-1.188991097922837e-06,0.008789312690920256,0.009910677517340162
-1.168991097922847e-06,0.007453334956207199,0.01363137466184523
-1.148991097922844e-06,0.008455318257242295,0.006189980372830022
-1.128991097922841e-06,0.009123307124599432,0.006189980372830022
-1.108991097922837e-06,0.009123307124599432,0.02107276895086382
-1.088991097922848e-06,0.009791295991956264,0.006189980372836789
-1.068991097922845e-06,0.009791295991956567,0.01735207180635537
-1.048991097922841e-06,0.01012529042563514,0.002469283228321573
-1.028991097922838e-06,0.01146126816034941,0.01363137466184692
-1.008991097922835e-06,0.01112727372667099,0.02479346609535873
-9.889910979228453e-07,0.01146126816034941,-0.004972111060695325
-9.689910979228421e-07,0.009791295991956567,0.002469283228321573
-9.489910979228389e-07,0.009457301558278,0.00991067751733847
-9.289910979228357e-07,0.009457301558277847,0.009910677517343546
-9.089910979228461e-07,0.009123307124599432,0.02107276895086382
-8.889910979228429e-07,0.009123307124599432,0.01363137466184692
-8.689910979228397e-07,0.009457301558278,0.006189980372830022
-8.489910979228365e-07,0.008455318257242295,0.006189980372833405
-8.289910979228469e-07,0.008455318257242295,0.01363137466184354
-8.089910979228437e-07,0.008121323823563727,0.02479346609537227
-7.889910979228405e-07,0.009123307124599432,0.006189980372830022
-7.689910979228373e-07,0.008121323823563727,-0.004972111060695325
-7.489910979228476e-07,0.007787329389885311,-0.004972111060695325
-7.289910979228444e-07,0.008121323823563727,0.01363137466184692
-7.089910979228412e-07,0.007119340522528024,0.00991067751733847
-6.88991097922838e-07,0.007119340522528024,0.006189980372830022
-6.689910979228348e-07,0.006451351655170888,-0.001251413916183492
-6.489910979228452e-07,0.006451351655170888,0.006189980372830022
-6.28991097922842e-07,0.006451351655170888,0.00991067751733847
-6.089910979228388e-07,0.006451351655170888,0.02107276895086382
-5.889910979228356e-07,0.007119340522527873,0.01363137466184353
-5.68991097922846e-07,0.006785346088849456,0.006189980372830022
-5.489910979228428e-07,0.007119340522528024,0.002469283228321573
-5.289910979228396e-07,0.008121323823563727,0.01735207180635537
-5.089910979228364e-07,0.007453334956206288,0.01363137466184523
-4.889910979228467e-07,0.006785346088849759,0.009910677517340162
-4.689910979228435e-07,0.007119340522528024,-0.004972111060695325
-4.489910979228403e-07,0.006451351655170888,0.006189980372830022
-4.289910979228371e-07,0.006785346088849456,0.03595555752889761
-4.089910979228475e-07,0.007787329389884704,0.02107276895087058
-3.889910979228443e-07,0.008455318257242295,0.002469283228321573
-3.689910979228411e-07,0.00778732938988516,0.002469283228321573
-3.489910979228379e-07,0.007453334956206592,0.01363137466184692
-3.289910979228483e-07,0.007787329389885008,0.02107276895086043
-3.089910979228451e-07,0.006451351655170888,0.01363137466184692
-2.889910979228419e-07,0.00778732938988516,0.01363137466184692
-2.689910979228387e-07,0.006785346088849456,0.006189980372830022
-2.489910979228355e-07,0.007787329389884856,-0.001251413916180108
-2.289910979228458e-07,0.007119340522528024,0.01363137466184692
-2.089910979228426e-07,0.00611735722149232,0.02479346609537227
-1.889910979228394e-07,0.005783362787813752,0.006189980372830022
-1.689910979228362e-07,0.006451351655170736,0.009910677517335086
-1.489910979228466e-07,0.006117357221492472,0.002469283228324956
-1.289910979228434e-07,0.005783362787813752,0.002469283228321573
-1.089910979228402e-07,0.00611735722149232,0.00991067751733847
-8.899109792283701e-08,0.005783362787813448,0.009910677517333395
-6.899109792284737e-08,0.00511537392045692,-0.0012514139161818
-4.899109792284417e-08,0.005449368354135184,-0.008692808205203774
-2.899109792284097e-08,0.004447385053099481,0.006189980372830022
-8.991097922837776e-09,-0.005238453523578988,0.8693917178987902
1.100890207715187e-08,0.007787329389879236,3.377141593296344
3.100890207715506e-08,0.01079327929299227,3.358538107574943
5.100890207715826e-08,0.008121323823563727,3.354817410430434
7.100890207716146e-08,0.003111407318385209,3.369700199008468
9.100890207716465e-08,0.0007734462826366011,3.347376016141405
1.110089020771543e-07,0.003779396185742345,3.321331136129858
1.310089020771575e-07,0.005783362787813752,3.313889741840841
1.510089020771607e-07,0.008789312690920863,3.336213924707892
1.710089020771639e-07,0.006451351655170128,3.351096713285938
1.910089020771535e-07,0.004781379486778809,3.377141593297473
2.110089020771567e-07,0.002777412884706641,3.332493227563384
2.310089020771599e-07,0.005449368354135184,3.3399346218524
2.510089020771631e-07,0.006451351655171344,3.3362139247079
2.710089020771528e-07,0.007453334956206137,3.354817410430426
2.91008902077156e-07,0.006451351655170888,3.377141593297485
3.110089020771592e-07,0.004781379486778049,3.36597950186396
3.310089020771624e-07,0.004781379486778049,3.343655318996909
3.51008902077152e-07,0.006117357221491712,3.339934621852402
3.710089020771552e-07,0.008789312690920863,3.354817410430434
3.910089020771584e-07,0.007453334956206592,3.377141593297485
4.110089020771616e-07,0.006785346088849456,3.362258804719451
4.310089020771648e-07,0.005783362787814056,3.37342089615297
4.510089020771544e-07,0.006451351655170888,3.358538107574943
4.710089020771576e-07,0.007119340522528024,3.362258804719451
4.910089020771608e-07,0.006785346088849456,3.358538107574943
5.11008902077164e-07,0.006785346088849456,3.369700199008464
5.310089020771537e-07,0.006785346088849456,3.362258804719455
5.510089020771569e-07,0.00611735722149232,3.369700199008468
5.710089020771601e-07,0.007119340522528024,3.362258804719451
5.910089020771633e-07,0.007119340522528176,3.369700199008466
6.110089020771529e-07,0.00745333495620644,3.365979501863961
6.310089020771561e-07,0.006451351655170888,3.36597950186396
6.510089020771593e-07,0.005783362787813752,3.358538107574943
6.710089020771625e-07,0.007119340522528024,3.377141593297485
6.910089020771521e-07,0.006785346088849608,3.377141593297485
7.110089020771553e-07,0.007119340522528024,3.36597950186396
7.310089020771585e-07,0.00611735722149232,3.354817410430434
7.510089020771617e-07,0.005783362787813752,3.369700199008468
7.710089020771649e-07,0.006117357221492624,3.369700199008466
7.910089020771546e-07,0.006785346088849456,3.36597950186396
8.110089020771578e-07,0.006785346088849456,3.354817410430434
8.31008902077161e-07,0.005115373920456617,3.358538107574943
8.510089020771642e-07,0.006117357221492169,3.365979501863963
8.710089020771538e-07,0.005783362787813904,3.373420896152973
8.91008902077157e-07,0.005783362787813752,3.377141593297485
9.110089020771602e-07,0.006451351655170888,3.369700199008468
9.310089020771634e-07,0.005449368354136096,3.351096713285929
9.51008902077153e-07,0.007453334956205681,3.358538107574939
9.710089020771562e-07,0.006785346088849456,3.377141593297485
9.910089020771594e-07,0.007453334956206592,3.377141593297485
1.011008902077163e-06,0.007119340522528024,3.362258804719451
1.031008902077152e-06,0.007119340522528024,3.362258804719451
1.051008902077155e-06,0.006451351655170888,3.362258804719451
1.071008902077159e-06,0.005783362787813752,3.377141593297485
1.091008902077162e-06,0.005783362787813752,3.36597950186396
1.111008902077165e-06,0.006785346088849152,3.369700199008466
1.131008902077155e-06,0.00611735722149232,3.36597950186396
1.151008902077158e-06,0.006785346088849456,3.369700199008468
1.171008902077161e-06,0.00778732938988516,3.373420896152977
1.191008902077164e-06,0.007787329389885463,3.373420896152978
1.211008902077154e-06,0.008455318257242295,3.377141593297485
1.231008902077157e-06,0.006785346088849456,3.369700199008468
1.25100890207716e-06,0.005783362787813752,3.362258804719451
1.271008902077164e-06,0.00745333495620568,3.369700199008473
1.291008902077153e-06,0.005449368354136095,3.380862290441988
1.311008902077156e-06,0.00611735722149232,3.369700199008468
1.33100890207716e-06,0.005115373920456617,3.36597950186396
1.351008902077163e-06,0.005449368354135184,3.358538107574943
1.371008902077152e-06,0.006451351655170433,3.37342089615297
1.391008902077156e-06,0.00611735722149232,3.36597950186396
1.411008902077159e-06,0.00611735722149232,3.369700199008468
1.431008902077162e-06,0.005115373920456617,3.358538107574943
1.451008902077165e-06,0.005449368354136096,3.358538107574944
1.471008902077155e-06,0.007453334956206592,3.362258804719451
1.491008902077158e-06,0.006785346088849456,3.36597950186396
1.511008902077161e-06,0.007453334956206592,3.362258804719451
1.531008902077164e-06,0.007119340522527721,3.365979501863958
1.551008902077154e-06,0.006451351655170888,3.362258804719451
1.571008902077157e-06,0.007453334956206592,3.36597950186396
1.59100890207716e-06,0.008121323823563727,3.373420896152977
1.611008902077164e-06,0.00878931269092071,3.37342089615297
1.631008902077153e-06,0.008455318257242448,3.358538107574949
1.651008902077156e-06,0.008455318257242295,3.362258804719451
1.67100890207716e-06,0.008455318257242295,3.384582987586502
1.691008902077163e-06,0.008455318257242295,3.384582987586502
1.711008902077153e-06,0.007119340522528632,3.380862290441995
1.731008902077156e-06,0.006785346088849456,3.36597950186396
1.751008902077159e-06,0.005449368354135184,3.384582987586502
1.771008902077162e-06,0.007119340522528024,3.369700199008468
1.791008902077152e-06,0.006785346088849608,3.380862290441988
1.811008902077155e-06,0.006785346088849456,3.373420896152977
1.831008902077158e-06,0.00611735722149232,3.358538107574943
1.851008902077161e-06,0.005783362787813752,3.369700199008468
1.871008902077165e-06,0.006451351655171344,3.380862290441998
1.891008902077154e-06,0.007453334956206592,3.392024381875518
1.911008902077157e-06,0.007119340522528024,3.377141593297485
1.931008902077161e-06,0.006451351655170888,3.36597950186396
1.951008902077164e-06,0.006451351655171495,3.377141593297487
1.971008902077153e-06,0.007787329389884553,3.380862290441991
1.991008902077157e-06,0.006785346088849456,3.380862290441993
2.01100890207716e-06,0.007453334956206592,3.36597950186396
2.031008902077163e-06,0.005783362787813448,3.365979501863955
2.051008902077153e-06,0.00511537392045692,3.354817410430439
2.071008902077156e-06,0.00611735722149232,3.373420896152977
2.091008902077159e-06,0.00611735722149232,3.369700199008468
2.111008902077162e-06,0.005783362787813752,3.369700199008468
2.131008902077152e-06,0.004447385053100088,3.358538107574947
2.151008902077155e-06,0.005115373920456617,3.36597950186396
2.171008902077158e-06,0.006451351655170888,3.369700199008468
2.191008902077161e-06,0.006785346088849456,3.377141593297485
2.211008902077165e-06,0.0077873293898844,3.377141593297481
2.231008902077154e-06,0.00611735722149232,3.369700199008468
2.251008902077158e-06,0.006785346088849456,3.377141593297485
2.271008902077161e-06,0.006451351655170888,3.384582987586502
2.291008902077164e-06,0.005783362787813752,3.388303684731005
2.311008902077154e-06,0.005783362787813752,3.37714159329749
2.331008902077157e-06,0.00611735722149232,3.377141593297485
2.35100890207716e-06,0.005783362787813752,3.380862290441993
2.371008902077163e-06,0.006785346088849,3.377141593297492
2.391008902077153e-06,0.005783362787814207,3.392024381875512
2.411008902077156e-06,0.006785346088849456,3.380862290441993
2.431008902077159e-06,0.006785346088849456,3.373420896152977
2.451008902077162e-06,0.006451351655170888,3.392024381875518
2.471008902077152e-06,0.007453334956206137,3.395745079020025
2.491008902077155e-06,0.00611735722149232,3.399465776164535
2.511008902077158e-06,0.00778732938988516,3.392024381875518
2.531008902077162e-06,0.006451351655170888,3.38830368473101
2.551008902077165e-06,0.005783362787814512,3.388303684731014
2.571008902077154e-06,0.007453334956206592,3.395745079020027
2.591008902077158e-06,0.006451351655170888,3.403186473309044
2.611008902077161e-06,0.006451351655170888,3.380862290441993
2.631008902077164e-06,0.005115373920457072,3.388303684731014
2.651008902077154e-06,0.006117357221491865,3.395745079020024
2.671008902077157e-06,0.004781379486778049,3.399465776164535
2.69100890207716e-06,0.004781379486778049,3.392024381875518
2.711008902077163e-06,0.005115373920456465,3.377141593297488
2.731008902077153e-06,0.004781379486778201,3.384582987586498
2.751008902077156e-06,0.004781379486778049,3.38830368473101
2.771008902077159e-06,0.005783362787813752,3.395745079020027
2.791008902077163e-06,0.00611735722149232,3.38830368473101
2.811008902077152e-06,0.004447385053100241,3.384582987586504
2.831008902077155e-06,0.004781379486778049,3.377141593297485
2.851008902077159e-06,0.004781379486778049,3.380862290441993
2.871008902077162e-06,0.00611735722149232,3.384582987586502
2.891008902077165e-06,0.005115373920456465,3.392024381875517
2.911008902077155e-06,0.004781379486778049,3.38830368473101
2.931008902077158e-06,0.003779396185742345,3.384582987586502
2.951008902077161e-06,0.004447385053099481,3.380862290441993
2.971008902077164e-06,0.004781379486778201,3.395745079020031
2.991008902077154e-06,0.005115373920456465,3.40318647330904
3.011008902077157e-06,0.005783362787813752,3.380862290441993
3.03100890207716e-06,0.005783362787813752,3.380862290441993
3.051008902077163e-06,0.004781379486778353,3.373420896152985
3.071008902077153e-06,0.005449368354134881,3.39202438187551
3.091008902077156e-06,0.005449368354135184,3.38830368473101
3.111008902077159e-06,0.005115373920456617,3.380862290441993
3.131008902077163e-06,0.004781379486778049,3.380862290441993
3.151008902077152e-06,0.005449368354134881,3.388303684731007
3.171008902077155e-06,0.006785346088849456,3.399465776164535
3.191008902077159e-06,0.00611735722149232,3.392024381875518
3.211008902077162e-06,0.006785346088849456,3.380862290441993
3.231008902077165e-06,0.005449368354135488,3.38086229044199
3.251008902077155e-06,0.00611735722149232,3.373420896152977
3.271008902077158e-06,0.005115373920456617,3.369700199008468
3.291008902077161e-06,0.00611735722149232,3.380862290441993
3.311008902077164e-06,0.006451351655170128,3.380862290441986
3.331008902077154e-06,0.004781379486778049,3.36597950186396
3.351008902077157e-06,0.006785346088849456,3.369700199008468
3.37100890207716e-06,0.006451351655170888,3.380862290441993
3.391008902077164e-06,0.005449368354135488,3.388303684731004
3.411008902077153e-06,0.006117357221492017,3.373420896152983
3.431008902077156e-06,0.005783362787813752,3.36597950186396
3.45100890207716e-06,0.006451351655170888,3.377141593297485
3.471008902077163e-06,0.008455318257242295,3.380862290441993
3.491008902077152e-06,0.008455318257242295,3.377141593297487
3.511008902077156e-06,0.009123307124599432,3.377141593297485
3.531008902077159e-06,0.007453334956206592,3.373420896152977
3.551008902077162e-06,0.008121323823563727,3.373420896152977
3.571008902077152e-06,0.007787329389885311,3.373420896152977
3.591008902077155e-06,0.00778732938988516,3.38830368473101
3.611008902077158e-06,0.006785346088849456,3.373420896152977
3.631008902077161e-06,0.007453334956206592,3.362258804719451
3.651008902077164e-06,0.006117357221492928,3.365979501863963
3.671008902077154e-06,0.007453334956206592,3.373420896152977
3.691008902077157e-06,0.007119340522528024,3.380862290441993
3.71100890207716e-06,0.008455318257242295,3.362258804719451
3.731008902077164e-06,0.00745333495620644,3.358538107574944
3.751008902077153e-06,0.007119340522528176,3.362258804719449
3.771008902077157e-06,0.008455318257242295,3.380862290441993
3.79100890207716e-06,0.008789312690920863,3.373420896152977
3.811008902077163e-06,0.0104592848593137,3.36597950186396
3.831008902077153e-06,0.008789312690921623,3.358538107574946
3.851008902077156e-06,0.008455318257242295,3.369700199008468
3.871008902077159e-06,0.008789312690920863,3.380862290441993
3.891008902077162e-06,0.009457301558278,3.377141593297485
3.911008902077152e-06,0.008455318257242751,3.384582987586498
3.931008902077155e-06,0.009457301558278,3.373420896152977
3.951008902077158e-06,0.00778732938988516,3.377141593297485
3.971008902077161e-06,0.008455318257242295,3.380862290441993
3.991008902077165e-06,0.008455318257242599,3.388303684731004
4.011008902077154e-06,0.009123307124599432,3.373420896152977
4.031008902077157e-06,0.009457301558278,3.369700199008468
4.051008902077161e-06,0.009457301558278,3.380862290441993
4.071008902077164e-06,0.009457301558278152,3.384582987586502
4.091008902077153e-06,0.009791295991956415,3.384582987586502
4.111008902077157e-06,0.01146126816034941,3.384582987586502
4.13100890207716e-06,0.009123307124599432,3.369700199008468
4.151008902077163e-06,0.009457301558277696,3.377141593297483
4.171008902077153e-06,0.008789312690921166,3.373420896152978
4.191008902077156e-06,0.008789312690920863,3.380862290441993
4.211008902077159e-06,0.007453334956206592,3.373420896152977
4.231008902077162e-06,0.00778732938988516,3.373420896152977
4.251008902077152e-06,0.007453334956206744,3.377141593297483
4.271008902077155e-06,0.008455318257242295,3.392024381875518
4.291008902077158e-06,0.00778732938988516,3.392024381875518
4.311008902077162e-06,0.009457301558278,3.395745079020027
4.331008902077165e-06,0.008121323823563575,3.384582987586497
4.351008902077154e-06,0.00778732938988516,3.373420896152977
4.371008902077158e-06,0.007453334956206592,3.395745079020027
4.391008902077161e-06,0.008455318257242295,3.38830368473101
4.411008902077164e-06,0.008121323823562968,3.369700199008471
