traces_bank_current_trigger/sampling_freq_100MHz/MOV/mov_1.csv

#Digilent WaveForms Oscilloscope Acquisition
#Device Name: Discovery2
#Serial Number: SN:210321B3D813
#Date Time: 2023-07-17 14:40:24.612
#Sample rate: 1e+08Hz
#Samples: 8192
#Trigger: Source: Channel 2 Type: Edge Condition: Rising Level: 2 V Hyst.: Auto HoldOff: 0 s
#Channel 1: Range: 10 mV/div Offset: 0 V Attenuation: 1 X Sample Mode: Average
#Channel 2: Range: 5 V/div Offset: 0 V Attenuation: 1 X Sample Mode: Average

Time (s),Channel 1 (V),Channel 2 (V)
-9.541416309012866e-07,0.005783362787813752,-0.004972111060695325
-9.44141630901285e-07,0.008121323823563727,0.03595555752889761
-9.341416309012834e-07,0.006785346088848849,0.02851416323987564
-9.241416309012886e-07,0.005449368354135791,0.01735207180636044
-9.14141630901287e-07,0.006451351655170888,0.05827974039594831
-9.041416309012854e-07,0.004113390619420913,-0.01985489963872912
-8.941416309012838e-07,0.008455318257242295,0.02851416323988071
-8.84141630901289e-07,0.007453334956207047,0.03595555752889423
-8.741416309012874e-07,0.006785346088849456,-0.004972111060695325
-8.641416309012858e-07,0.007453334956206592,0.05083834610693141
-8.541416309012842e-07,0.00611735722149232,-0.004972111060695325
-8.441416309012826e-07,0.007119340522528176,0.02107276895086889
-8.341416309012878e-07,0.007453334956206592,0.03223486038438916
-8.241416309012862e-07,0.006785346088849456,-0.008692808205203774
-8.141416309012846e-07,0.00611735722149232,0.03595555752889761
-8.04141630901283e-07,0.006451351655172103,-0.008692808205193622
-7.941416309012881e-07,0.009123307124598218,0.01363137466183677
-7.841416309012865e-07,0.00778732938988516,0.02107276895086382
-7.741416309012849e-07,0.006451351655170888,-0.02357559678323757
-7.641416309012833e-07,0.00745333495620568,0.0471176489623942
-7.541416309012885e-07,0.005449368354136095,-0.01613420249419191
-7.441416309012869e-07,0.008455318257242295,0.002469283228321573
-7.341416309012853e-07,0.005783362787813752,0.03223486038438916
-7.241416309012837e-07,0.006451351655170888,-0.01241350534971222
-7.141416309012889e-07,0.008121323823562968,0.03967625467338237
-7.041416309012873e-07,0.006785346088849456,-0.004972111060695325
-6.941416309012857e-07,0.00611735722149232,0.02107276895086382
-6.841416309012841e-07,0.00611735722149232,0.02107276895086382
-6.741416309012825e-07,0.005449368354135488,0.006189980372845249
-6.641416309012877e-07,0.00611735722149232,0.03967625467340606
-6.541416309012861e-07,0.00611735722149232,-0.004972111060695325
-6.441416309012845e-07,0.007119340522528024,0.006189980372830022
-6.341416309012829e-07,0.00611735722149232,0.03967625467338068
-6.241416309012881e-07,0.00611735722149232,-0.01613420249419529
-6.141416309012865e-07,0.007453334956206592,0.04711764896242296
-6.041416309012849e-07,0.006451351655170888,0.006189980372830022
-5.941416309012833e-07,0.009123307124598218,0.002469283228338492
-5.841416309012884e-07,0.006451351655172103,0.03967625467338914
-5.741416309012869e-07,0.009123307124599432,-0.01613420249422067
-5.641416309012853e-07,0.007119340522528024,0.02851416323988071
-5.541416309012837e-07,0.005449368354135184,-0.01613420249422067
-5.441416309012888e-07,0.008455318257240928,0.002469283228313114
-5.341416309012872e-07,0.006451351655170888,0.03595555752889761
-5.241416309012856e-07,0.008455318257242295,-0.01985489963872912
-5.14141630901284e-07,0.007119340522528024,0.04339695181791451
-5.041416309012824e-07,0.00711934052252848,-0.008692808205198698
-4.941416309012876e-07,0.008121323823563727,0.002469283228321573
-4.84141630901286e-07,0.007453334956206592,0.02851416323988071
-4.741416309012844e-07,0.00778732938988516,-0.01985489963872912
-4.641416309012828e-07,0.005115373920457224,0.03223486038436378
-4.54141630901288e-07,0.006451351655170888,-0.02357559678323757
-4.441416309012864e-07,0.008121323823563727,0.006189980372830022
-4.341416309012848e-07,0.005449368354135184,0.006189980372830022
-4.241416309012832e-07,0.005783362787814512,-0.01985489963870882
-4.141416309012884e-07,0.007453334956205832,0.02479346609535196
-4.041416309012868e-07,0.004447385053099481,-0.01985489963872912
-3.941416309012852e-07,0.006785346088849456,-0.004972111060695325
-3.841416309012836e-07,0.006785346088849456,0.02851416323988071
-3.741416309012888e-07,0.00645135165517104,-0.0310169910722274
-3.641416309012872e-07,0.007119340522528024,0.03223486038438916
-3.541416309012856e-07,0.00611735722149232,-0.03845838536127136
-3.44141630901284e-07,0.007119340522528024,-0.001251413916186876
-3.341416309012824e-07,0.007453334956205832,0.01363137466183338
-3.241416309012876e-07,0.005783362787813752,-0.01613420249422067
-3.14141630901286e-07,0.008121323823563727,0.03223486038438916
-3.041416309012844e-07,0.005115373920456617,0.002469283228321573
-2.941416309012828e-07,0.007119340522528024,-0.004972111060690249
-2.841416309012879e-07,0.007119340522528024,0.006189980372830022
-2.741416309012863e-07,0.006451351655170888,-0.02729629392774602
-2.641416309012847e-07,0.007453334956206592,0.03595555752889761
-2.541416309012831e-07,0.004781379486778961,-0.02357559678323419
-2.441416309012883e-07,0.006785346088848544,-0.01613420249422405
-2.341416309012867e-07,0.007453334956206592,0.01363137466184692
-2.241416309012851e-07,0.006451351655170888,-0.03101699107225447
-2.141416309012835e-07,0.007119340522528024,0.02851416323988071
-2.041416309012887e-07,0.005115373920457527,-0.01241350534969361
-1.941416309012871e-07,0.008121323823563727,-0.001251413916186876
-1.841416309012855e-07,0.006785346088849456,0.002469283228321573
-1.741416309012839e-07,0.005449368354135184,-0.04217908250577981
-1.641416309012891e-07,0.006451351655170433,0.02107276895083506
-1.541416309012875e-07,0.00611735722149232,-0.01985489963872912
-1.441416309012859e-07,0.005783362787813752,-0.004972111060695325
-1.341416309012843e-07,0.00611735722149232,0.02107276895086382
-1.241416309012827e-07,0.008121323823562664,-0.03101699107222401
-1.141416309012879e-07,0.005783362787813752,0.03595555752889761
-1.041416309012863e-07,0.007119340522528024,-0.01613420249422067
-9.414163090128467e-08,0.00611735722149232,0.00991067751733847
-8.414163090128307e-08,0.005783362787814056,0.009910677517326626
-7.414163090128825e-08,0.006451351655170585,-0.01613420249420883
-6.414163090128665e-08,0.004781379486778049,0.04339695181791451
-5.414163090128505e-08,0.005783362787813752,-0.02357559678323757
-4.414163090128346e-08,0.005449368354135184,-0.001251413916183492
-3.414163090128863e-08,0.005449368354135184,0.006189980372826638
-2.414163090128704e-08,0.006451351655170888,-0.02357559678323757
-1.414163090128544e-08,0.006451351655170888,0.03967625467340606
-4.141630901283839e-09,-0.003568481355186148,0.5605738549045889
5.858369098710983e-09,-0.0025664980541509,4.028263593584886
1.585836909871258e-08,0.00778732938988516,2.744623078731049
2.585836909871418e-08,0.009123307124599432,3.540852267655857
3.585836909871578e-08,0.01647118466552792,3.157620461771486
4.585836909871738e-08,0.004447385053102063,3.39946577616449
5.58583690987122e-08,0.01012529042563514,3.299006953262807
6.58583690987138e-08,0.001107440716313802,3.380862290441993
7.58583690987154e-08,0.00611735722149232,3.310169044696333
8.585836909871699e-08,-0.003568481355182655,3.384582987586465
9.585836909871182e-08,0.00411339061941742,3.302727650407353
1.058583690987134e-07,0.003111407318385209,3.332493227563384
1.15858369098715e-07,0.009123307124599432,3.328772530418875
1.258583690987166e-07,0.003779396185745079,3.291565558973811
1.358583690987114e-07,0.009791295991953834,3.336213924707871
1.45858369098713e-07,0.006451351655170888,3.310169044696333
1.558583690987146e-07,0.0104592848593137,3.332493227563384
1.658583690987162e-07,0.003445401752063777,3.362258804719451
1.75858369098711e-07,0.007119340522526354,3.310169044696356
1.858583690987126e-07,0.002777412884706641,3.38830368473101
1.958583690987142e-07,0.004113390619420913,3.325051833274367
2.058583690987158e-07,0.002109424017349506,3.358538107574943
2.158583690987174e-07,0.003445401752064385,3.351096713285905
2.258583690987123e-07,0.004781379486778049,3.306448347551824
2.358583690987139e-07,0.008455318257242295,3.36597950186396
2.458583690987155e-07,0.005783362787813752,3.302727650407316
2.558583690987171e-07,0.00945730155827648,3.343655318996926
2.658583690987119e-07,0.006117357221493839,3.380862290441976
2.758583690987135e-07,0.00778732938988516,3.325051833274367
2.858583690987151e-07,0.003445401752063777,3.399465776164535
2.958583690987167e-07,0.003445401752064081,3.332493227563402
3.058583690987115e-07,0.004113390619420609,3.373420896152958
3.158583690987131e-07,0.005783362787813752,3.362258804719451
3.258583690987147e-07,0.003779396185742345,3.325051833274367
3.358583690987163e-07,0.00778732938988516,3.373420896152977
3.458583690987111e-07,0.005115373920457832,3.336213924707909
3.558583690987127e-07,0.01112727372667084,3.358538107574943
3.658583690987143e-07,0.007453334956206592,3.36597950186396
3.758583690987159e-07,0.008789312690920863,3.325051833274367
3.858583690987175e-07,0.008455318257240775,3.388303684730987
3.958583690987123e-07,0.005115373920456617,3.336213924707892
4.058583690987139e-07,0.007453334956206592,3.377141593297485
4.158583690987155e-07,0.008121323823563727,3.362258804719451
4.258583690987171e-07,0.007787329389885463,3.339934621852421
4.358583690987119e-07,0.008455318257241991,3.384582987586481
4.458583690987135e-07,0.006451351655170888,3.351096713285926
4.558583690987151e-07,0.008789312690920863,3.358538107574943
4.658583690987167e-07,0.008121323823563575,3.380862290441968
4.758583690987116e-07,0.007787329389885311,3.325051833274392
4.858583690987132e-07,0.008121323823563727,3.410627867598061
4.958583690987148e-07,0.007119340522528024,3.343655318996909
5.058583690987164e-07,0.008455318257242295,3.369700199008468
5.158583690987112e-07,0.004113390619422887,3.373420896152975
5.258583690987128e-07,0.006451351655170888,3.347376016141417
5.358583690987144e-07,0.007119340522528024,3.38830368473101
5.45858369098716e-07,0.004781379486778049,3.343655318996909
5.558583690987176e-07,0.009123307124598976,3.3845829875865
5.658583690987124e-07,0.008121323823563727,3.380862290441993
5.75858369098714e-07,0.00778732938988516,3.362258804719451
5.858583690987156e-07,0.01012529042563514,3.399465776164535
5.958583690987172e-07,0.009123307124599129,3.358538107574951
6.05858369098712e-07,0.008455318257242295,3.377141593297485
6.158583690987136e-07,0.009123307124599432,3.406907170453553
6.258583690987152e-07,0.009791295991956567,3.351096713285926
6.358583690987168e-07,0.007453334956206896,3.414348564742542
6.458583690987116e-07,0.008121323823563424,3.354817410430461
6.558583690987132e-07,0.009123307124599432,3.369700199008468
6.658583690987148e-07,0.00778732938988516,3.380862290441993
6.758583690987164e-07,0.009123307124599432,3.358538107574943
6.858583690987112e-07,0.009791295991956264,3.410627867598037
6.958583690987128e-07,0.008121323823563727,3.354817410430434
7.058583690987144e-07,0.008455318257242295,3.384582987586502
7.15858369098716e-07,0.008789312690920863,3.395745079020027
7.258583690987176e-07,0.006117357221493536,3.336213924707927
7.358583690987125e-07,0.008789312690920863,3.41434856474257
7.458583690987141e-07,0.006785346088849456,3.347376016141417
7.558583690987157e-07,0.01012529042563514,3.373420896152977
7.658583690987173e-07,0.006785346088850519,3.384582987586489
7.758583690987121e-07,0.009123307124599432,3.354817410430434
7.858583690987137e-07,0.008121323823563727,3.395745079020027
7.958583690987153e-07,0.00778732938988516,3.351096713285926
8.058583690987169e-07,0.009791295991956111,3.358538107574956
8.158583690987117e-07,0.008789312690921319,3.388303684730997
8.258583690987133e-07,0.01012529042563514,3.358538107574943
8.358583690987149e-07,0.008789312690920863,3.406907170453553
8.458583690987165e-07,0.009457301558278,3.336213924707892
8.558583690987113e-07,0.01045928485931325,3.380862290441973
8.658583690987129e-07,0.01112727372667084,3.392024381875518
8.758583690987145e-07,0.01079327929299227,3.351096713285926
8.858583690987161e-07,0.01212925702770654,3.406907170453553
8.958583690987109e-07,0.007787329389887134,3.351096713285951
9.058583690987125e-07,0.01179526259402797,3.384582987586502
9.158583690987141e-07,0.0104592848593137,3.399465776164535
9.258583690987157e-07,0.008455318257242295,3.3399346218524
9.358583690987173e-07,0.009457301558277847,3.406907170453529
9.458583690987121e-07,0.009123307124599432,3.354817410430434
9.558583690987137e-07,0.0104592848593137,3.38830368473101
9.658583690987153e-07,0.009457301558278,3.399465776164535
9.758583690987169e-07,0.009791295991957327,3.343655318996936
9.858583690987118e-07,0.01146126816034865,3.403186473309017
9.958583690987134e-07,0.008789312690920863,3.36597950186396
1.005858369098715e-06,0.009123307124599432,3.38830368473101
1.015858369098717e-06,0.009791295991956111,3.384582987586489
1.025858369098711e-06,0.008789312690921319,3.354817410430448
1.035858369098713e-06,0.009791295991956567,3.403186473309044
1.045858369098715e-06,0.008789312690920863,3.343655318996909
1.055858369098716e-06,0.01012529042563514,3.384582987586502
1.065858369098711e-06,0.009123307124599888,3.388303684731008
1.075858369098713e-06,0.009123307124599432,3.362258804719451
1.085858369098714e-06,0.008121323823563727,3.421789959031586
1.095858369098716e-06,0.00778732938988516,3.354817410430434
1.105858369098717e-06,0.009457301558277847,3.399465776164527
1.115858369098712e-06,0.009123307124599432,3.380862290441993
1.125858369098714e-06,0.00778732938988516,3.358538107574943
1.135858369098715e-06,0.008455318257242295,3.410627867598061
1.145858369098717e-06,0.006451351655172255,3.365979501863968
1.155858369098712e-06,0.009457301558276633,3.384582987586493
1.165858369098713e-06,0.008789312690920863,3.38830368473101
1.175858369098715e-06,0.008789312690920863,3.362258804719451
1.185858369098717e-06,0.008789312690920559,3.414348564742547
1.195858369098711e-06,0.008121323823564031,3.365979501863982
1.205858369098713e-06,0.009791295991956567,3.373420896152977
1.215858369098715e-06,0.009123307124599432,3.38830368473101
1.225858369098716e-06,0.008789312690920863,3.347376016141417
1.235858369098711e-06,0.009791295991956111,3.399465776164512
1.245858369098713e-06,0.00778732938988516,3.354817410430434
1.255858369098714e-06,0.009457301558278,3.377141593297485
1.265858369098716e-06,0.008121323823563727,3.373420896152977
1.275858369098717e-06,0.008455318257241688,3.358538107574961
1.285858369098712e-06,0.007119340522528024,3.399465776164535
1.295858369098714e-06,0.006451351655170888,3.3399346218524
1.305858369098715e-06,0.00778732938988516,3.373420896152977
1.315858369098717e-06,0.006785346088849608,3.388303684730992
1.325858369098712e-06,0.007119340522527873,3.347376016141436
1.335858369098713e-06,0.007119340522528024,3.429231353320603
1.345858369098715e-06,0.007453334956206592,3.373420896152977
1.355858369098717e-06,0.008121323823562817,3.388303684731019
1.365858369098712e-06,0.006117357221493232,3.406907170453544
1.375858369098713e-06,0.005783362787813752,3.358538107574943
1.385858369098715e-06,0.006451351655170888,3.425510656176095
1.395858369098716e-06,0.005115373920456617,3.351096713285926
1.405858369098711e-06,0.00645135165517028,3.395745079020007
1.415858369098713e-06,0.00611735722149232,3.403186473309044
1.425858369098714e-06,0.005449368354135184,3.354817410430434
1.435858369098716e-06,0.007119340522528024,3.399465776164535
1.445858369098718e-06,0.006117357221492624,3.373420896152985
1.455858369098712e-06,0.006785346088849456,3.392024381875518
1.465858369098714e-06,0.00611735722149232,3.406907170453553
1.475858369098716e-06,0.005115373920456617,3.343655318996909
1.485858369098717e-06,0.006451351655170736,3.418069261887054
1.495858369098712e-06,0.006117357221492472,3.365979501863983
1.505858369098714e-06,0.00778732938988516,3.395745079020027
1.515858369098715e-06,0.007453334956206592,3.410627867598061
1.525858369098717e-06,0.007453334956206744,3.373420896153
1.535858369098712e-06,0.007787329389885008,3.425510656176071
1.545858369098713e-06,0.00611735722149232,3.358538107574943
1.555858369098715e-06,0.008455318257242295,3.403186473309044
1.565858369098716e-06,0.006785346088849456,3.395745079020027
1.575858369098711e-06,0.007453334956206288,3.388303684731014
1.585858369098713e-06,0.00778732938988516,3.418069261887078
1.595858369098714e-06,0.005115373920456617,3.36597950186396
1.605858369098716e-06,0.007453334956206592,3.392024381875518
1.615858369098718e-06,0.005115373920457376,3.406907170453537
1.625858369098712e-06,0.006785346088849456,3.373420896152977
1.635858369098714e-06,0.00778732938988516,3.421789959031586
1.645858369098716e-06,0.005115373920456617,3.369700199008468
1.655858369098717e-06,0.0077873293898844,3.406907170453551
1.665858369098712e-06,0.00611735722149232,3.403186473309044
1.675858369098714e-06,0.00778732938988516,3.362258804719451
1.685858369098715e-06,0.006451351655170888,3.43667274760962
1.695858369098717e-06,0.005783362787814815,3.365979501863973
1.705858369098712e-06,0.008121323823562664,3.395745079020014
1.715858369098713e-06,0.007119340522528024,3.421789959031586
1.725858369098715e-06,0.008121323823563727,3.354817410430434
1.735858369098716e-06,0.008789312690920863,3.43667274760962
1.745858369098711e-06,0.007787329389885615,3.384582987586525
1.755858369098713e-06,0.009123307124599432,3.395745079020027
1.765858369098714e-06,0.006451351655170888,3.410627867598061
1.775858369098716e-06,0.006785346088849456,3.392024381875518
1.785858369098711e-06,0.008455318257241535,3.414348564742559
1.795858369098712e-06,0.006451351655170888,3.392024381875518
1.805858369098714e-06,0.008121323823563727,3.38830368473101
1.815858369098716e-06,0.005783362787813752,3.406907170453553
1.825858369098717e-06,0.007453334956206592,3.365979501863988
1.835858369098712e-06,0.007453334956206592,3.429231353320603
1.845858369098714e-06,0.005449368354135184,3.358538107574943
1.855858369098715e-06,0.008121323823563727,3.380862290441993
1.865858369098717e-06,0.007787329389884704,3.418069261887053
1.875858369098712e-06,0.006785346088849911,3.362258804719477
1.885858369098713e-06,0.00778732938988516,3.425510656176095
1.895858369098715e-06,0.007119340522528024,3.36597950186396
1.905858369098717e-06,0.01079327929299227,3.403186473309044
1.915858369098711e-06,0.007787329389886527,3.369700199008483
1.925858369098713e-06,0.00778732938988516,3.354817410430434
1.935858369098715e-06,0.009457301558278,3.403186473309044
1.945858369098716e-06,0.007119340522528024,3.369700199008468
1.955858369098711e-06,0.008455318257241688,3.377141593297481
1.965858369098713e-06,0.00778732938988516,3.392024381875518
1.975858369098714e-06,0.007453334956206592,3.36597950186396
1.985858369098716e-06,0.008121323823563727,3.418069261887078
1.995858369098717e-06,0.00711934052252848,3.362258804719461
2.005858369098712e-06,0.008121323823563727,3.384582987586502
2.015858369098714e-06,0.007453334956206592,3.392024381875518
2.025858369098715e-06,0.007119340522528024,3.343655318996909
2.035858369098717e-06,0.006117357221491713,3.40318647330902
2.045858369098712e-06,0.004781379486778656,3.351096713285949
2.055858369098713e-06,0.009123307124599432,3.373420896152977
2.065858369098715e-06,0.007119340522528024,3.380862290441993
2.075858369098717e-06,0.006451351655171495,3.351096713285948
2.085858369098711e-06,0.007787329389884553,3.399465776164513
2.095858369098713e-06,0.005783362787813752,3.347376016141417
2.105858369098715e-06,0.005783362787813752,3.377141593297485
2.115858369098716e-06,0.006451351655170888,3.395745079020027
2.125858369098711e-06,0.005115373920457224,3.328772530418906
2.135858369098713e-06,0.007453334956206592,3.395745079020027
2.145858369098714e-06,0.006451351655170888,3.343655318996909
2.155858369098716e-06,0.007119340522528024,3.362258804719451
2.165858369098717e-06,0.006785346088849911,3.380862290441968
2.175858369098712e-06,0.00778732938988516,3.325051833274367
2.185858369098714e-06,0.007453334956206592,3.406907170453553
2.195858369098715e-06,0.005783362787813752,3.3399346218524
