traces_bank_current_trigger/sampling_freq_100MHz/MOV/mov_8.csv

#Digilent WaveForms Oscilloscope Acquisition
#Device Name: Discovery2
#Serial Number: SN:210321B3D813
#Date Time: 2023-07-17 15:18:11.579
#Sample rate: 1e+08Hz
#Samples: 8192
#Trigger: Source: Channel 2 Type: Edge Condition: Rising Level: 2 V Hyst.: Auto HoldOff: 0 s
#Channel 1: Range: 10 mV/div Offset: 0 V Attenuation: 1 X Sample Mode: Average
#Channel 2: Range: 5 V/div Offset: 0 V Attenuation: 1 X Sample Mode: Average

Time (s),Channel 1 (V),Channel 2 (V)
-9.53916755602986e-07,0.007453334956206592,0.02107276895086382
-9.439167556029844e-07,0.009457301558278,0.02107276895086382
-9.339167556029828e-07,0.009123307124598369,0.04711764896239927
-9.23916755602988e-07,0.006785346088850519,-0.004972111060671636
-9.139167556029864e-07,0.006451351655170888,0.05827974039594831
-9.039167556029848e-07,0.005783362787813752,0.02107276895086382
-8.939167556029832e-07,0.00778732938988516,0.02851416323988071
-8.839167556029884e-07,0.007453334956206744,0.04339695181790774
-8.739167556029868e-07,0.006451351655170888,-0.001251413916186876
-8.639167556029852e-07,0.008121323823563727,0.05083834610693141
-8.539167556029836e-07,0.005783362787813752,0.002469283228321573
-8.43916755602982e-07,0.005449368354136399,0.02479346609537903
-8.339167556029872e-07,0.008121323823563727,0.03967625467340606
-8.239167556029856e-07,0.006451351655170888,-0.001251413916186876
-8.13916755602984e-07,0.006451351655170888,0.06572113468496521
-8.039167556029824e-07,0.004781379486779871,-0.001251413916178416
-7.939167556029875e-07,0.008789312690919041,0.01735207180634691
-7.839167556029859e-07,0.00611735722149232,0.03595555752889761
-7.739167556029844e-07,0.005449368354135184,-0.004972111060695325
-7.639167556029828e-07,0.006117357221491865,0.05455904325141279
-7.539167556029879e-07,0.005115373920457072,-0.004972111060668256
-7.439167556029863e-07,0.007119340522528024,0.03223486038438916
-7.339167556029847e-07,0.006451351655170888,0.03223486038438916
-7.239167556029831e-07,0.006785346088849456,0.00991067751733847
-7.139167556029883e-07,0.006117357221492624,0.0508383461069128
-7.039167556029867e-07,0.003445401752063777,0.002469283228321573
-6.939167556029851e-07,0.00611735722149232,0.02479346609537227
-6.839167556029835e-07,0.006451351655170888,0.04339695181791451
-6.739167556029819e-07,0.006117357221491865,0.002469283228340185
-6.639167556029871e-07,0.005115373920456617,0.04339695181791451
-6.539167556029855e-07,0.003111407318385209,0.006189980372830022
-6.439167556029839e-07,0.00611735722149232,0.02107276895086382
-6.339167556029823e-07,0.004781379486778049,0.04339695181789251
-6.239167556029875e-07,0.004781379486778049,-0.004972111060673329
-6.139167556029859e-07,0.005449368354135184,0.05455904325143986
-6.039167556029843e-07,0.005115373920456617,0.002469283228321573
-5.939167556029827e-07,0.007119340522527265,0.02479346609538749
-5.839167556029879e-07,0.005449368354135944,0.05827974039593307
-5.739167556029863e-07,0.005115373920456617,-0.01613420249422067
-5.639167556029847e-07,0.00611735722149232,0.05083834610693141
-5.539167556029831e-07,0.005783362787813752,-0.004972111060695325
-5.439167556029882e-07,0.008121323823562664,-0.001251413916188568
-5.339167556029866e-07,0.00611735722149232,0.03223486038438916
-5.239167556029851e-07,0.00778732938988516,-0.01985489963872912
-5.139167556029835e-07,0.005783362787813752,0.03595555752889761
-5.039167556029819e-07,0.006451351655171495,-0.008692808205190238
-4.93916755602987e-07,0.00778732938988516,0.02107276895086382
-4.839167556029854e-07,0.007119340522528024,0.02479346609537227
-4.739167556029838e-07,0.006785346088849456,-0.001251413916186876
-4.639167556029822e-07,0.006785346088849304,0.03223486038437732
-4.539167556029874e-07,0.006451351655170888,0.006189980372830022
-4.439167556029858e-07,0.008455318257242295,0.02851416323988071
-4.339167556029842e-07,0.00611735722149232,0.01735207180635537
-4.239167556029826e-07,0.006785346088850063,-0.02729629392771556
-4.139167556029878e-07,0.00812132382356312,0.0396762546733756
-4.039167556029862e-07,0.005783362787813752,0.002469283228321573
-3.939167556029846e-07,0.008455318257242295,0.01735207180635537
-3.83916755602983e-07,0.00778732938988516,0.01735207180635537
-3.739167556029882e-07,0.008121323823563575,-0.004972111060685173
-3.639167556029866e-07,0.007453334956206592,0.03595555752889761
-3.53916755602985e-07,0.007453334956206592,-0.001251413916186876
-3.439167556029834e-07,0.009123307124599432,0.02851416323988071
-3.339167556029818e-07,0.007119340522528328,0.02479346609535704
-3.23916755602987e-07,0.00778732938988516,-0.008692808205203774
-3.139167556029854e-07,0.00778732938988516,0.05455904325143986
-3.039167556029838e-07,0.008455318257242295,-0.01241350534971222
-2.939167556029822e-07,0.007787329389885615,0.01363137466186215
-2.839167556029873e-07,0.008789312690920863,0.04711764896242296
-2.739167556029857e-07,0.007453334956206592,-0.01241350534971222
-2.639167556029842e-07,0.007119340522528024,0.04339695181791451
-2.539167556029826e-07,0.006785346088850975,-0.004972111060693633
-2.439167556029877e-07,0.01012529042563362,-0.001251413916188568
-2.339167556029861e-07,0.007453334956206592,0.02851416323988071
-2.239167556029845e-07,0.008455318257242295,-0.02357559678323757
-2.139167556029829e-07,0.008789312690920863,0.03967625467340606
-2.039167556029881e-07,0.007119340522528784,-0.01613420249419529
-1.939167556029865e-07,0.008455318257242295,0.006189980372830022
-1.839167556029849e-07,0.006785346088849456,0.03967625467340606
-1.739167556029833e-07,0.005115373920456617,-0.004972111060695325
-1.639167556029885e-07,0.006785346088848697,0.05083834610690603
-1.539167556029869e-07,0.005783362787813752,0.002469283228321573
-1.439167556029853e-07,0.008789312690920863,0.01363137466184692
-1.339167556029837e-07,0.006451351655170888,0.05083834610693141
-1.239167556029821e-07,0.005783362787814664,-0.01241350534968684
-1.139167556029873e-07,0.00778732938988516,0.04339695181791451
-1.039167556029857e-07,0.007119340522528024,-0.01241350534971222
-9.391675560298409e-08,0.008121323823563727,0.02107276895086382
-8.391675560298249e-08,0.007453334956206137,0.02479346609535873
-7.391675560298766e-08,0.006451351655171344,-0.004972111060681791
-6.391675560298607e-08,0.007119340522528024,0.05455904325143986
-5.391675560298447e-08,0.004447385053099481,-0.008692808205203774
-4.391675560298287e-08,0.00745333495620568,0.01363137466185369
-3.391675560298805e-08,0.005449368354136095,0.02851416323987395
-2.391675560298645e-08,0.005115373920456617,-0.004972111060695325
-1.391675560298485e-08,0.00611735722149232,0.05827974039594831
-3.916755602983253e-09,-0.004570464656221852,0.6312671006502495
6.083244397011569e-09,-0.0002285370184024436,4.117560325053081
1.608324439701317e-08,0.00611735722149232,2.659047044407354
2.608324439701477e-08,0.01212925702770654,3.648752484846602
3.608324439701636e-08,0.01446721806345652,3.105530701748368
4.608324439701796e-08,0.00812132382356388,3.440393444754057
5.608324439701278e-08,0.008455318257242295,3.284124164684774
6.608324439701438e-08,0.002777412884706641,3.429231353320603
7.608324439701598e-08,0.002109424017349506,3.299006953262807
8.608324439701758e-08,-0.0005625314520776704,3.369700199008441
9.60832443970124e-08,0.002443418451026707,3.31016904469636
1.06083244397014e-07,0.004113390619420913,3.313889741840841
1.160832443970156e-07,0.00778732938988516,3.343655318996909
1.260832443970172e-07,0.004447385053102063,3.272962073251284
1.36083244397012e-07,0.01012529042563255,3.35109671328589
1.460832443970136e-07,0.005783362787813752,3.280403467540265
1.560832443970152e-07,0.01012529042563514,3.343655318996909
1.660832443970168e-07,0.003111407318385209,3.3399346218524
1.760832443970116e-07,0.007119340522526203,3.325051833274373
1.860832443970132e-07,0.003445401752063777,3.384582987586502
1.960832443970148e-07,0.002777412884706641,3.321331136129858
2.060832443970164e-07,0.002777412884706641,3.3399346218524
2.16083244397018e-07,0.004447385053099785,3.358538107574911
2.260832443970129e-07,0.005115373920456617,3.287844861829282
2.360832443970144e-07,0.006451351655170888,3.36597950186396
2.46083244397016e-07,0.004113390619420913,3.302727650407316
2.560832443970176e-07,0.007787329389883641,3.325051833274387
2.660832443970125e-07,0.004447385053101,3.369700199008447
2.760832443970141e-07,0.005115373920456617,3.332493227563384
2.860832443970157e-07,0.004113390619420913,3.369700199008468
2.960832443970173e-07,0.003445401752063322,3.32877253041889
3.060832443970121e-07,0.002443418451028529,3.362258804719436
3.160832443970137e-07,0.005115373920456617,3.362258804719451
3.260832443970153e-07,0.002777412884706641,3.313889741840841
3.360832443970169e-07,0.008121323823563727,3.369700199008468
3.460832443970117e-07,0.004781379486779568,3.328772530418894
3.560832443970133e-07,0.008121323823563727,3.351096713285926
3.660832443970149e-07,0.007119340522528024,3.38830368473101
3.760832443970165e-07,0.007119340522528024,3.325051833274367
3.860832443970181e-07,0.007787329389883945,3.406907170453517
3.960832443970129e-07,0.005115373920456617,3.328772530418875
4.060832443970145e-07,0.00778732938988516,3.392024381875518
4.160832443970161e-07,0.00611735722149232,3.369700199008468
4.260832443970177e-07,0.004113390619422432,3.339934621852424
4.360832443970125e-07,0.007453334956205073,3.392024381875495
4.460832443970141e-07,0.008455318257242295,3.3399346218524
4.560832443970157e-07,0.009791295991956567,3.3399346218524
4.660832443970173e-07,0.006117357221493384,3.384582987586473
4.760832443970122e-07,0.008455318257241232,3.321331136129887
4.860832443970137e-07,0.006785346088849456,3.395745079020027
4.960832443970153e-07,0.007453334956206592,3.332493227563384
5.060832443970169e-07,0.00778732938988516,3.36597950186396
5.160832443970118e-07,0.009123307124598825,3.388303684731
5.260832443970134e-07,0.00611735722149232,3.325051833274367
5.36083244397015e-07,0.007119340522528024,3.410627867598061
5.460832443970166e-07,0.006451351655170888,3.321331136129858
5.560832443970182e-07,0.00878931269092071,3.354817410430439
5.66083244397013e-07,0.008455318257242295,3.36597950186396
5.760832443970146e-07,0.007453334956206592,3.328772530418875
5.860832443970162e-07,0.008789312690920863,3.395745079020027
5.960832443970178e-07,0.008121323823564791,3.343655318996928
6.060832443970126e-07,0.0104592848593137,3.384582987586502
6.160832443970142e-07,0.009123307124599432,3.377141593297485
6.260832443970158e-07,0.008121323823563727,3.336213924707892
6.360832443970174e-07,0.008789312690919799,3.395745079020009
6.460832443970122e-07,0.006451351655171952,3.354817410430453
6.560832443970138e-07,0.009457301558278,3.36597950186396
6.660832443970154e-07,0.008455318257242295,3.380862290441993
6.76083244397017e-07,0.009457301558278,3.3399346218524
6.860832443970118e-07,0.008789312690921166,3.403186473309015
6.960832443970134e-07,0.005783362787813752,3.362258804719451
7.06083244397015e-07,0.009457301558278,3.377141593297485
7.160832443970166e-07,0.008121323823563727,3.392024381875518
7.260832443970182e-07,0.006785346088850063,3.336213924707924
7.360832443970131e-07,0.008121323823563727,3.406907170453553
7.460832443970146e-07,0.005449368354135184,3.351096713285926
7.560832443970162e-07,0.007119340522528024,3.369700199008468
7.660832443970178e-07,0.007119340522527721,3.39574507902
7.760832443970127e-07,0.006451351655170888,3.336213924707892
7.860832443970143e-07,0.006451351655170888,3.41434856474257
7.960832443970159e-07,0.006451351655170888,3.354817410430434
8.060832443970175e-07,0.008455318257241839,3.369700199008483
8.160832443970123e-07,0.007453334956207047,3.403186473309029
8.260832443970139e-07,0.008455318257242295,3.347376016141417
8.360832443970155e-07,0.008455318257242295,3.406907170453553
8.460832443970171e-07,0.007119340522528024,3.347376016141417
8.560832443970119e-07,0.008789312690920103,3.369700199008458
8.660832443970135e-07,0.008455318257242295,3.384582987586502
8.760832443970151e-07,0.009123307124599432,3.347376016141417
8.860832443970167e-07,0.008789312690920863,3.406907170453553
8.960832443970115e-07,0.009123307124599279,3.358538107574965
9.060832443970131e-07,0.01012529042563514,3.369700199008468
9.160832443970147e-07,0.009457301558278,3.392024381875518
9.260832443970163e-07,0.007119340522528024,3.354817410430434
9.360832443970179e-07,0.008789312690920103,3.399465776164512
9.460832443970127e-07,0.007119340522528024,3.347376016141417
9.560832443970143e-07,0.008455318257242295,3.380862290441993
9.660832443970159e-07,0.007119340522528024,3.395745079020027
9.760832443970175e-07,0.006785346088850063,3.347376016141441
9.860832443970124e-07,0.00812132382356312,3.399465776164512
9.960832443970139e-07,0.00778732938988516,3.347376016141417
1.006083244397016e-06,0.008121323823563727,3.373420896152977
1.016083244397017e-06,0.00611735722149308,3.395745079020005
1.026083244397012e-06,0.0077873293898844,3.347376016141439
1.036083244397014e-06,0.008455318257242295,3.418069261887078
1.046083244397015e-06,0.005449368354135184,3.3399346218524
1.056083244397017e-06,0.008121323823563727,3.380862290441993
1.066083244397012e-06,0.00711934052252848,3.399465776164527
1.076083244397013e-06,0.006785346088849456,3.343655318996909
1.086083244397015e-06,0.007453334956206592,3.406907170453553
1.096083244397016e-06,0.007119340522528024,3.351096713285926
1.106083244397018e-06,0.00979129599195596,3.369700199008473
1.116083244397013e-06,0.008455318257242295,3.380862290441993
1.126083244397014e-06,0.00778732938988516,3.336213924707892
1.136083244397016e-06,0.00778732938988516,3.410627867598061
1.146083244397018e-06,0.006451351655172407,3.354817410430436
1.156083244397012e-06,0.009791295991955048,3.358538107574941
1.166083244397014e-06,0.009123307124599432,3.38830368473101
1.176083244397016e-06,0.009457301558278,3.343655318996909
1.186083244397017e-06,0.008121323823564031,3.414348564742538
1.196083244397012e-06,0.008789312690920559,3.343655318996941
1.206083244397014e-06,0.009791295991956567,3.373420896152977
1.216083244397015e-06,0.009457301558278,3.384582987586502
1.226083244397017e-06,0.008789312690920863,3.343655318996909
1.236083244397012e-06,0.009457301558277696,3.41062786759803
1.246083244397013e-06,0.009123307124599432,3.347376016141417
1.256083244397015e-06,0.008455318257242295,3.369700199008468
1.266083244397016e-06,0.00778732938988516,3.392024381875518
1.276083244397018e-06,0.005449368354136399,3.339934621852431
1.286083244397013e-06,0.008121323823563727,3.406907170453553
1.296083244397014e-06,0.005783362787813752,3.332493227563384
1.306083244397016e-06,0.009123307124599432,3.358538107574943
1.316083244397018e-06,0.00812132382356312,3.395745079020005
1.326083244397012e-06,0.006785346088850064,3.347376016141439
1.336083244397014e-06,0.00778732938988516,3.406907170453553
1.346083244397016e-06,0.00611735722149232,3.354817410430434
1.356083244397017e-06,0.007453334956205832,3.362258804719451
1.366083244397012e-06,0.005783362787814512,3.362258804719451
1.376083244397014e-06,0.005449368354135184,3.343655318996909
1.386083244397015e-06,0.005449368354135184,3.399465776164535
1.396083244397017e-06,0.004113390619420913,3.343655318996909
1.406083244397012e-06,0.007453334956205073,3.369700199008456
1.416083244397013e-06,0.005449368354135184,3.36597950186396
1.426083244397015e-06,0.004447385053099481,3.332493227563384
1.436083244397017e-06,0.005449368354135184,3.406907170453553
1.446083244397018e-06,0.004113390619421673,3.336213924707905
1.456083244397013e-06,0.005783362787813752,3.36597950186396
1.466083244397015e-06,0.006451351655170888,3.373420896152977
1.476083244397016e-06,0.004781379486778049,3.336213924707892
1.486083244397018e-06,0.006117357221491409,3.418069261887042
1.496083244397013e-06,0.004113390619421824,3.339934621852436
1.506083244397014e-06,0.007119340522528024,3.358538107574943
1.516083244397016e-06,0.007119340522528024,3.403186473309044
1.526083244397017e-06,0.005449368354136096,3.336213924707923
1.536083244397012e-06,0.007453334956205681,3.403186473309013
1.546083244397014e-06,0.00611735722149232,3.347376016141417
1.556083244397015e-06,0.007453334956206592,3.384582987586502
1.566083244397017e-06,0.006785346088849456,3.384582987586502
1.576083244397012e-06,0.007787329389884704,3.336213924707914
1.586083244397013e-06,0.006451351655170888,3.384582987586502
1.596083244397015e-06,0.00611735722149232,3.354817410430434
1.606083244397017e-06,0.006451351655170888,3.380862290441993
1.616083244397018e-06,0.006785346088849,3.395745079020009
1.626083244397013e-06,0.005783362787813752,3.354817410430434
1.636083244397015e-06,0.007119340522528024,3.418069261887078
1.646083244397016e-06,0.003779396185742345,3.336213924707892
1.656083244397018e-06,0.006785346088849759,3.36970019900848
1.666083244397013e-06,0.007453334956206592,3.395745079020027
1.676083244397014e-06,0.006451351655170888,3.347376016141417
1.686083244397016e-06,0.008455318257242295,3.41434856474257
1.696083244397017e-06,0.006451351655172559,3.362258804719465
1.706083244397012e-06,0.01012529042563346,3.392024381875505
1.716083244397014e-06,0.007119340522528024,3.38830368473101
1.726083244397015e-06,0.008455318257242295,3.3399346218524
1.736083244397017e-06,0.00778732938988516,3.410627867598061
1.746083244397012e-06,0.006117357221493079,3.35481741043046
1.756083244397013e-06,0.008455318257242295,3.380862290441993
1.766083244397015e-06,0.007453334956206592,3.38830368473101
1.776083244397017e-06,0.007119340522528024,3.3399346218524
1.786083244397011e-06,0.007119340522528024,3.414348564742536
1.796083244397013e-06,0.005449368354135184,3.347376016141417
1.806083244397015e-06,0.00778732938988516,3.38830368473101
1.816083244397016e-06,0.006785346088849456,3.38830368473101
1.826083244397018e-06,0.005783362787814512,3.343655318996938
1.836083244397013e-06,0.007453334956206592,3.406907170453553
1.846083244397014e-06,0.005115373920456617,3.369700199008468
1.856083244397016e-06,0.007453334956206592,3.373420896152977
1.866083244397017e-06,0.005783362787814512,3.395745079020005
1.876083244397012e-06,0.007453334956205832,3.347376016141439
1.886083244397014e-06,0.007453334956206592,3.406907170453553
1.896083244397015e-06,0.006785346088849456,3.36597950186396
1.906083244397017e-06,0.008121323823563727,3.395745079020027
1.916083244397012e-06,0.005115373920457984,3.395745079020027
1.926083244397014e-06,0.007453334956206592,3.362258804719451
1.936083244397015e-06,0.00611735722149232,3.410627867598061
1.946083244397017e-06,0.005783362787813752,3.351096713285926
1.956083244397012e-06,0.00511537392045692,3.38086229044198
1.966083244397013e-06,0.006785346088849456,3.380862290441993
1.976083244397015e-06,0.005449368354135184,3.347376016141417
1.986083244397016e-06,0.00611735722149232,3.418069261887078
1.996083244397018e-06,0.004447385053101152,3.354817410430455
2.006083244397013e-06,0.008121323823563727,3.399465776164535
2.016083244397014e-06,0.004781379486778049,3.418069261887078
2.026083244397016e-06,0.005115373920456617,3.3399346218524
2.036083244397018e-06,0.004113390619421216,3.418069261887051
2.046083244397012e-06,0.004781379486777745,3.35853810757497
2.056083244397014e-06,0.00611735722149232,3.380862290441993
2.066083244397016e-06,0.005115373920456617,3.38830368473101
2.076083244397017e-06,0.006785346088848849,3.351096713285951
2.086083244397012e-06,0.005449368354135791,3.406907170453527
2.096083244397014e-06,0.005115373920456617,3.351096713285926
2.106083244397015e-06,0.005449368354135184,3.384582987586502
2.116083244397017e-06,0.007119340522528024,3.410627867598061
2.126083244397012e-06,0.005115373920457527,3.351096713285953
2.136083244397013e-06,0.006451351655170888,3.410627867598061
2.146083244397015e-06,0.005449368354135184,3.354817410430434
2.156083244397016e-06,0.007119340522528024,3.380862290441993
2.166083244397018e-06,0.006117357221492472,3.395745079020007
2.176083244397013e-06,0.006451351655170888,3.351096713285926
2.186083244397014e-06,0.006785346088849456,3.41434856474257
2.196083244397016e-06,0.005449368354135184,3.362258804719451
2.206083244397018e-06,0.0057833627878136,3.384582987586504
