traces_bank_current_trigger/sampling_freq_100MHz/LSR/LSR_1.csv

#Digilent WaveForms Oscilloscope Acquisition
#Device Name: Discovery2
#Serial Number: SN:210321B3D813
#Date Time: 2023-06-16 09:33:44.211
#Sample rate: 1e+08Hz
#Samples: 8192
#Trigger: Source: Channel 2 Type: Edge Condition: Rising Level: 2 V Hyst.: Auto HoldOff: 0 s
#Channel 1: Range: 10 mV/div Offset: 0 V Attenuation: 1 X Sample Mode: Average
#Channel 2: Range: 5 V/div Offset: 0 V Attenuation: 1 X Sample Mode: Average

Time (s),Channel 1 (V),Channel 2 (V)
-9.552184179456902e-07,0.007119340522528024,-0.008692808205203774
-9.452184179456886e-07,0.007119340522528024,0.01363137466184692
-9.35218417945687e-07,0.007787329389885311,0.01735207180633845
-9.252184179456922e-07,0.008121323823563575,-0.0198548996387122
-9.152184179456906e-07,0.007453334956206592,0.02479346609537227
-9.05218417945689e-07,0.00778732938988516,-0.004972111060695325
-8.952184179456874e-07,0.007453334956206592,0.01363137466184692
-8.852184179456926e-07,0.009123307124598672,0.03967625467339422
-8.75218417945691e-07,0.007119340522528024,-0.01985489963872912
-8.652184179456894e-07,0.00778732938988516,0.05083834610693141
-8.552184179456878e-07,0.006451351655170888,-0.01241350534971222
-8.452184179456862e-07,0.007453334956206288,0.01735207180635875
-8.352184179456914e-07,0.006785346088849456,0.02479346609537227
-8.252184179456898e-07,0.006451351655170888,0.006189980372830022
-8.152184179456882e-07,0.006451351655170888,0.03223486038438916
-8.052184179456866e-07,0.007453334956207047,-0.0161342024942156
-7.952184179456918e-07,0.008455318257241839,-0.004972111060700401
-7.852184179456902e-07,0.008789312690920863,0.01735207180635537
-7.752184179456886e-07,0.007453334956206592,-0.02357559678323757
-7.65218417945687e-07,0.006451351655170281,0.03967625467339252
-7.552184179456922e-07,0.005115373920457224,0.009910677517352005
-7.452184179456906e-07,0.006451351655170888,0.02107276895086382
-7.35218417945689e-07,0.005449368354135184,0.03595555752889761
-7.252184179456874e-07,0.005783362787813752,-0.01241350534971222
-7.152184179456925e-07,0.006785346088849,0.01363137466183507
-7.052184179456909e-07,0.00611735722149232,-0.01241350534971222
-6.952184179456893e-07,0.008121323823563727,-0.01241350534971222
-6.852184179456877e-07,0.007119340522528024,0.03595555752889761
-6.752184179456861e-07,0.005783362787814207,-0.01613420249418514
-6.652184179456913e-07,0.006785346088849456,0.06200043754045675
-6.552184179456897e-07,0.003445401752063777,0.00991067751733847
-6.452184179456881e-07,0.00611735722149232,0.02851416323988071
-6.352184179456865e-07,0.003779396185742042,0.02479346609535704
-6.252184179456917e-07,0.003111407318385513,-0.008692808205188543
-6.152184179456901e-07,0.004113390619420913,0.02107276895086382
-6.052184179456885e-07,0.004781379486778049,-0.01613420249422067
-5.952184179456869e-07,0.006451351655170281,0.009910677517340162
-5.852184179456921e-07,0.005115373920457224,0.01363137466184523
-5.752184179456905e-07,0.005783362787813752,-0.01241350534971222
-5.652184179456889e-07,0.003779396185742345,0.03595555752889761
-5.552184179456873e-07,0.003445401752063777,-0.001251413916186876
-5.452184179456925e-07,0.004447385053099026,0.002469283228319881
-5.352184179456909e-07,0.005449368354135184,0.02107276895086382
-5.252184179456893e-07,0.003779396185742345,-0.01241350534971222
-5.152184179456877e-07,0.003111407318385209,0.03595555752889761
-5.052184179456861e-07,0.00411339061942228,-0.01985489963872743
-4.952184179456913e-07,0.007119340522528024,-0.01613420249422067
-4.852184179456897e-07,0.004447385053099481,-0.01241350534971222
-4.752184179456881e-07,0.00611735722149232,-0.02357559678323757
-4.652184179456865e-07,0.006451351655170281,0.00618998037281987
-4.552184179456916e-07,0.005115373920456617,-0.01613420249422067
-4.4521841794569e-07,0.007119340522528024,0.002469283228321573
-4.352184179456884e-07,0.005115373920456617,0.03223486038438916
-4.252184179456868e-07,0.003445401752064385,-0.03101699107222401
-4.15218417945692e-07,0.004781379486777442,0.03595555752886715
-4.052184179456904e-07,0.002443418451028074,-0.01613420249422067
-3.952184179456888e-07,0.005115373920456617,0.006189980372830022
-3.852184179456872e-07,0.004447385053099481,0.01363137466184692
-3.752184179456924e-07,0.005449368354134729,-0.03101699107223416
-3.652184179456908e-07,0.005783362787813752,0.03595555752889761
-3.552184179456892e-07,0.005115373920456617,-0.001251413916186876
-3.452184179456876e-07,0.006451351655170888,0.01735207180635537
-3.35218417945686e-07,0.003779396185743256,0.02851416323986549
-3.252184179456912e-07,0.005783362787813752,-0.004972111060695325
-3.152184179456896e-07,0.006451351655170888,0.04339695181791451
-3.05218417945688e-07,0.004447385053099481,-0.004972111060695325
-2.952184179456864e-07,0.00578336278781284,0.009910677517350315
-2.852184179456916e-07,0.003779396185742345,0.03595555752889761
-2.7521841794569e-07,0.006451351655170888,-0.008692808205203774
-2.652184179456884e-07,0.00611735722149232,0.03595555752889761
-2.552184179456868e-07,0.005115373920457224,-0.02729629392773248
-2.45218417945692e-07,0.00645135165517028,0.002469283228308038
-2.352184179456904e-07,0.005449368354135184,0.02479346609537227
-2.252184179456888e-07,0.00611735722149232,-0.02357559678323757
-2.152184179456872e-07,0.006451351655170888,0.04711764896242296
-2.052184179456923e-07,0.004447385053100392,-0.01985489963869866
-1.952184179456907e-07,0.006785346088849456,0.01735207180635537
-1.852184179456891e-07,0.005449368354135184,0.01735207180635537
-1.752184179456875e-07,0.005783362787813752,-0.01241350534971222
-1.652184179456927e-07,0.005449368354135336,0.05083834610690265
-1.552184179456911e-07,0.004781379486778049,-0.01241350534971222
-1.452184179456895e-07,0.007119340522528024,0.01363137466184692
-1.352184179456879e-07,0.005449368354135184,0.02107276895086382
-1.252184179456863e-07,0.005783362787813448,-0.004972111060675021
-1.152184179456915e-07,0.005115373920456617,0.03967625467340606
-1.052184179456899e-07,0.006785346088849456,0.00991067751733847
-9.521841794568831e-08,0.00611735722149232,0.02107276895086382
-8.521841794568671e-08,0.004447385053099937,0.04711764896240096
-7.521841794569189e-08,0.005449368354134729,-0.00125141391616488
-6.521841794569029e-08,0.003779396185742345,0.03967625467340606
-5.521841794568869e-08,0.004113390619420913,-0.001251413916186876
-4.521841794568709e-08,0.005783362787813297,0.02107276895086551
-3.521841794569227e-08,0.004781379486778504,0.02479346609537057
-2.521841794569067e-08,0.003111407318385209,-0.001251413916186876
-1.521841794568907e-08,0.003445401752063777,0.05083834610693141
-5.218417945687475e-09,-0.001230520319436173,0.3522148148121158
4.781582054307347e-09,-0.006240436824612412,3.503645296209339
1.478158205430895e-08,0.005783362787813752,3.116692793181894
2.478158205431054e-08,0.006785346088849456,3.299006953262807
3.478158205431214e-08,0.01580319579817079,3.313889741840841
4.478158205431374e-08,0.0024434184510302,3.313889741840863
5.478158205430856e-08,0.007119340522528024,3.362258804719451
6.478158205431016e-08,0.003779396185742345,3.395745079020027
7.478158205431176e-08,0.003779396185742345,3.369700199008468
8.478158205431336e-08,-0.002232503620471269,3.3920243818755
9.478158205430818e-08,-0.0008965258857582129,3.351096713285944
1.047815820543098e-07,-0.0008965258857576053,3.328772530418875
1.147815820543114e-07,0.004447385053099481,3.3399346218524
1.24781582054313e-07,0.002109424017350721,3.287844861829307
1.347815820543078e-07,0.004781379486776834,3.343655318996884
1.447815820543094e-07,0.003779396185742345,3.302727650407316
1.54781582054311e-07,0.008121323823563727,3.336213924707892
1.647815820543126e-07,0.002443418451028074,3.373420896152977
1.747815820543074e-07,0.003111407318384905,3.351096713285936
1.84781582054309e-07,0.0004394518489566662,3.406907170453553
1.947815820543106e-07,0.002109424017349506,3.369700199008468
2.047815820543122e-07,0.0001054574152780984,3.358538107574943
2.147815820543138e-07,-0.0002285370183995582,3.373420896152956
2.247815820543086e-07,0.001775429583670938,3.328772530418875
2.347815820543102e-07,0.003445401752063777,3.36597950186396
2.447815820543118e-07,0.003445401752063777,3.328772530418875
2.547815820543134e-07,0.006451351655170433,3.358538107574946
2.647815820543082e-07,0.00544936835413564,3.365979501863956
2.747815820543098e-07,0.004447385053099481,3.347376016141417
2.847815820543114e-07,0.004447385053099481,3.399465776164535
2.94781582054313e-07,0.000105457415278554,3.354817410430439
3.047815820543079e-07,0.001107440716313346,3.365979501863955
3.147815820543095e-07,0.003445401752063777,3.399465776164535
3.247815820543111e-07,0.002443418451028074,3.332493227563384
3.347815820543127e-07,0.003445401752063777,3.384582987586502
3.447815820543075e-07,0.003445401752063777,3.3287725304189
3.547815820543091e-07,0.005115373920456617,3.354817410430434
3.647815820543107e-07,0.005115373920456617,3.373420896152977
3.747815820543123e-07,0.00611735722149232,3.336213924707892
3.847815820543139e-07,0.004447385053098266,3.395745079020009
3.947815820543087e-07,0.001775429583670938,3.354817410430434
4.047815820543103e-07,0.003779396185742345,3.380862290441993
4.147815820543119e-07,0.003111407318385209,3.377141593297485
4.247815820543135e-07,0.002777412884707401,3.336213924707915
4.347815820543083e-07,0.004447385053098721,3.388303684730987
4.447815820543099e-07,0.003111407318385209,3.332493227563384
4.547815820543115e-07,0.005115373920456617,3.351096713285926
4.647815820543131e-07,0.005449368354135184,3.38458298758648
4.747815820543079e-07,0.005449368354135184,3.336213924707914
4.847815820543095e-07,0.003445401752063777,3.377141593297485
4.947815820543111e-07,0.003779396185742345,3.351096713285926
5.047815820543127e-07,0.002443418451028074,3.351096713285926
5.147815820543075e-07,0.004781379486776986,3.377141593297473
5.247815820543091e-07,0.001775429583670938,3.321331136129858
5.347815820543107e-07,0.003111407318385209,3.377141593297485
5.447815820543123e-07,0.0004394518489566662,3.336213924707892
5.547815820543139e-07,0.004113390619421368,3.339934621852407
5.647815820543088e-07,0.005115373920456617,3.354817410430434
5.747815820543104e-07,0.004781379486778049,3.328772530418875
5.84781582054312e-07,0.005783362787813752,3.38830368473101
5.947815820543136e-07,0.004113390619421976,3.32505183327438
6.047815820543084e-07,0.006451351655170888,3.354817410430434
6.1478158205431e-07,0.007119340522528024,3.377141593297485
6.247815820543116e-07,0.005783362787813752,3.3399346218524
6.347815820543132e-07,0.007119340522527417,3.377141593297466
6.44781582054308e-07,0.005783362787814359,3.336213924707911
6.547815820543096e-07,0.006785346088849456,3.36597950186396
6.647815820543112e-07,0.006785346088849456,3.358538107574943
6.747815820543128e-07,0.006451351655170888,3.336213924707892
6.847815820543076e-07,0.006117357221492472,3.37342089615296
6.947815820543092e-07,0.003445401752063777,3.336213924707892
7.047815820543108e-07,0.007119340522528024,3.358538107574943
7.147815820543124e-07,0.005115373920456617,3.362258804719451
7.24781582054314e-07,0.005449368354135033,3.328772530418897
7.347815820543088e-07,0.005115373920456617,3.377141593297485
7.447815820543104e-07,0.004781379486778049,3.336213924707892
7.54781582054312e-07,0.004447385053099481,3.347376016141417
7.647815820543136e-07,0.004781379486777897,3.369700199008449
7.747815820543084e-07,0.004447385053099481,3.328772530418875
7.8478158205431e-07,0.005783362787813752,3.380862290441993
7.947815820543116e-07,0.004113390619420913,3.3399346218524
8.047815820543132e-07,0.006117357221492472,3.36970019900847
8.147815820543081e-07,0.006451351655170736,3.373420896152975
8.247815820543097e-07,0.004113390619420913,3.328772530418875
8.347815820543113e-07,0.005115373920456617,3.392024381875518
8.447815820543129e-07,0.005115373920456617,3.332493227563384
8.547815820543077e-07,0.006117357221491865,3.362258804719438
8.647815820543093e-07,0.008121323823563727,3.377141593297485
8.747815820543109e-07,0.006785346088849456,3.343655318996909
8.847815820543125e-07,0.007119340522528024,3.384582987586502
8.947815820543073e-07,0.005783362787814359,3.332493227563407
9.047815820543089e-07,0.009123307124599432,3.36597950186396
9.147815820543105e-07,0.006451351655170888,3.377141593297485
9.247815820543121e-07,0.007119340522528024,3.347376016141417
9.347815820543137e-07,0.005449368354135791,3.384582987586487
9.447815820543085e-07,0.006785346088849456,3.351096713285926
9.547815820543101e-07,0.005783362787813752,3.36597950186396
9.647815820543117e-07,0.005783362787813752,3.380862290441993
9.747815820543133e-07,0.007119340522526961,3.336213924707917
9.847815820543081e-07,0.004781379486779112,3.392024381875493
9.947815820543097e-07,0.00611735722149232,3.3399346218524
1.004781582054311e-06,0.006451351655170888,3.369700199008468
1.014781582054313e-06,0.004781379486777897,3.38086229044197
1.024781582054308e-06,0.004447385053099633,3.328772530418898
1.034781582054309e-06,0.004113390619420913,3.418069261887078
1.044781582054311e-06,0.004113390619420913,3.369700199008468
1.054781582054313e-06,0.005115373920456617,3.377141593297485
1.064781582054307e-06,0.004447385053099785,3.410627867598046
1.074781582054309e-06,0.00611735722149232,3.362258804719451
1.084781582054311e-06,0.003779396185742345,3.41434856474257
1.094781582054312e-06,0.005115373920456617,3.362258804719451
1.104781582054314e-06,0.007119340522527721,3.373420896152977
1.114781582054309e-06,0.006451351655170888,3.373420896152977
1.12478158205431e-06,0.005449368354135184,3.358538107574943
1.134781582054312e-06,0.005449368354135184,3.38830368473101
1.144781582054313e-06,0.005115373920456768,3.354817410430446
1.154781582054308e-06,0.005449368354135033,3.380862290441981
1.16478158205431e-06,0.008789312690920863,3.395745079020027
1.174781582054311e-06,0.005449368354135184,3.369700199008468
1.184781582054313e-06,0.007119340522527417,3.399465776164522
1.194781582054308e-06,0.005783362787814359,3.369700199008481
1.204781582054309e-06,0.009123307124599432,3.380862290441993
1.214781582054311e-06,0.008455318257242295,3.392024381875518
1.224781582054313e-06,0.008455318257242295,3.362258804719451
1.234781582054307e-06,0.009123307124599129,3.399465776164519
1.244781582054309e-06,0.006451351655170888,3.358538107574943
1.254781582054311e-06,0.006785346088849456,3.380862290441993
1.264781582054312e-06,0.00611735722149232,3.392024381875518
1.274781582054314e-06,0.006785346088849152,3.354817410430455
1.284781582054309e-06,0.00611735722149232,3.399465776164535
1.29478158205431e-06,0.005783362787813752,3.369700199008468
1.304781582054312e-06,0.007119340522528024,3.373420896152977
1.314781582054313e-06,0.006785346088849304,3.38830368473099
1.324781582054308e-06,0.00645135165517104,3.343655318996929
1.33478158205431e-06,0.005115373920456617,3.395745079020027
1.344781582054311e-06,0.004113390619420913,3.354817410430434
1.354781582054313e-06,0.005115373920456465,3.373420896152981
1.364781582054308e-06,0.004781379486778201,3.384582987586497
1.374781582054309e-06,0.004113390619420913,3.362258804719451
1.384781582054311e-06,0.003111407318385209,3.41434856474257
1.394781582054313e-06,0.003779396185742345,3.3399346218524
1.404781582054307e-06,0.004447385053099178,3.362258804719441
1.414781582054309e-06,0.003111407318385209,3.384582987586502
1.424781582054311e-06,0.004113390619420913,3.354817410430434
1.434781582054312e-06,0.003445401752063777,3.403186473309044
1.444781582054314e-06,0.001107440716315321,3.351096713285934
1.454781582054309e-06,0.004447385053099481,3.369700199008468
1.46478158205431e-06,0.002777412884706641,3.392024381875518
1.474781582054312e-06,0.002109424017349506,3.351096713285926
1.484781582054314e-06,0.002109424017350417,3.399465776164512
1.494781582054308e-06,0.004113390619420001,3.347376016141441
1.50478158205431e-06,0.003779396185742345,3.38830368473101
1.514781582054312e-06,0.005115373920456617,3.38830368473101
1.524781582054313e-06,0.004113390619421065,3.339934621852431
1.534781582054308e-06,0.00444738505309933,3.406907170453522
1.54478158205431e-06,0.003111407318385209,3.336213924707892
1.554781582054311e-06,0.004447385053099481,3.373420896152977
1.564781582054313e-06,0.004447385053099481,3.373420896152977
1.574781582054308e-06,0.003445401752064233,3.343655318996922
1.584781582054309e-06,0.005783362787813752,3.399465776164535
1.594781582054311e-06,0.003445401752063777,3.354817410430434
1.604781582054312e-06,0.003779396185742345,3.369700199008468
1.614781582054314e-06,0.005115373920455401,3.384582987586481
1.624781582054309e-06,0.002443418451028074,3.3399346218524
1.63478158205431e-06,0.004781379486778049,3.406907170453553
1.644781582054312e-06,0.003779396185742345,3.358538107574943
1.654781582054314e-06,0.005783362787813448,3.377141593297485
1.664781582054308e-06,0.005115373920456617,3.377141593297485
1.67478158205431e-06,0.003445401752063777,3.343655318996909
1.684781582054312e-06,0.004447385053099481,3.399465776164535
1.694781582054313e-06,0.004447385053100241,3.336213924707905
1.704781582054308e-06,0.006117357221491562,3.365979501863946
1.71478158205431e-06,0.004781379486778049,3.377141593297485
1.724781582054311e-06,0.005115373920456617,3.343655318996909
1.734781582054313e-06,0.004781379486778049,3.403186473309044
1.744781582054308e-06,0.005115373920456465,3.365979501863976
1.754781582054309e-06,0.004781379486778049,3.362258804719451
1.764781582054311e-06,0.006451351655170888,3.380862290441993
1.774781582054312e-06,0.004113390619420913,3.347376016141417
1.784781582054307e-06,0.00444738505309933,3.392024381875498
1.794781582054309e-06,0.004781379486778049,3.36597950186396
1.80478158205431e-06,0.00611735722149232,3.377141593297485
1.814781582054312e-06,0.005449368354135184,3.38830368473101
1.824781582054314e-06,0.005449368354136096,3.362258804719473
1.834781582054308e-06,0.007453334956206592,3.410627867598061
1.84478158205431e-06,0.005115373920456617,3.351096713285926
1.854781582054312e-06,0.006451351655170888,3.373420896152977
1.864781582054313e-06,0.006785346088849759,3.388303684730992
1.874781582054308e-06,0.007453334956206288,3.347376016141436
1.88478158205431e-06,0.00778732938988516,3.41434856474257
1.894781582054311e-06,0.005115373920456617,3.354817410430434
1.904781582054313e-06,0.009457301558278,3.362258804719451
1.914781582054308e-06,0.008121323823564335,3.399465776164519
1.924781582054309e-06,0.00611735722149232,3.362258804719451
1.934781582054311e-06,0.008121323823563727,3.41434856474257
1.944781582054312e-06,0.006451351655170888,3.354817410430434
1.954781582054307e-06,0.008121323823562968,3.388303684730995
1.964781582054309e-06,0.007119340522528024,3.395745079020027
1.974781582054311e-06,0.006451351655170888,3.362258804719451
1.984781582054312e-06,0.00611735722149232,3.399465776164535
1.994781582054314e-06,0.005783362787814359,3.358538107574946
2.004781582054309e-06,0.007119340522528024,3.36597950186396
2.01478158205431e-06,0.005115373920456617,3.392024381875518
2.024781582054312e-06,0.005115373920456617,3.358538107574943
2.034781582054313e-06,0.006117357221491257,3.41062786759804
2.044781582054308e-06,0.003779396185743408,3.36597950186398
2.05478158205431e-06,0.006451351655170888,3.380862290441993
2.064781582054311e-06,0.005449368354135184,3.380862290441993
2.074781582054313e-06,0.006117357221492017,3.365979501863975
2.084781582054308e-06,0.005449368354135488,3.39946577616452
2.094781582054309e-06,0.004447385053099481,3.347376016141417
2.104781582054311e-06,0.007119340522528024,3.369700199008468
2.114781582054313e-06,0.006451351655170888,3.384582987586502
2.124781582054307e-06,0.006117357221492472,3.358538107574955
2.134781582054309e-06,0.006785346088849456,3.399465776164535
2.144781582054311e-06,0.005115373920456617,3.354817410430434
2.154781582054312e-06,0.005449368354135184,3.377141593297485
2.164781582054314e-06,0.007453334956205985,3.384582987586483
2.174781582054309e-06,0.00611735722149232,3.343655318996909
2.18478158205431e-06,0.006451351655170888,3.377141593297485
2.194781582054312e-06,0.005783362787813752,3.351096713285926
