traces_bank_current_trigger/sampling_freq_100MHz/LSR/LSR_7.csv

#Digilent WaveForms Oscilloscope Acquisition
#Device Name: Discovery2
#Serial Number: SN:210321B3D813
#Date Time: 2023-06-16 10:04:59.459
#Sample rate: 1e+08Hz
#Samples: 8192
#Trigger: Source: Channel 2 Type: Edge Condition: Rising Level: 2 V Hyst.: Auto HoldOff: 0 s
#Channel 1: Range: 10 mV/div Offset: 0 V Attenuation: 1 X Sample Mode: Average
#Channel 2: Range: 5 V/div Offset: 0 V Attenuation: 1 X Sample Mode: Average

Time (s),Channel 1 (V),Channel 2 (V)
-9.511940298507444e-07,0.00778732938988516,0.03967625467340606
-9.411940298507428e-07,0.006785346088849456,0.006189980372830022
-9.311940298507412e-07,0.00945730155827724,0.03223486038438747
-9.211940298507463e-07,0.00778732938988592,0.02851416323988241
-9.111940298507448e-07,0.006451351655170888,0.002469283228321573
-9.011940298507432e-07,0.007119340522528024,0.03595555752889761
-8.911940298507416e-07,0.007119340522528024,-0.004972111060695325
-8.811940298507467e-07,0.007787329389884856,0.05083834610690603
-8.711940298507451e-07,0.00778732938988516,0.02107276895086382
-8.611940298507435e-07,0.007453334956206592,0.006189980372830022
-8.511940298507419e-07,0.00778732938988516,0.05083834610693141
-8.411940298507403e-07,0.007453334956206744,0.006189980372835097
-8.311940298507455e-07,0.00778732938988516,0.01735207180635537
-8.211940298507439e-07,0.00611735722149232,0.03595555752889761
-8.111940298507423e-07,0.00611735722149232,0.02851416323988071
-8.011940298507407e-07,0.006451351655171495,0.06200043754043645
-7.911940298507459e-07,0.007787329389884553,0.01735207180637567
-7.811940298507443e-07,0.008121323823563727,0.03223486038438916
-7.711940298507427e-07,0.00778732938988516,0.03223486038438916
-7.611940298507411e-07,0.004781379486778961,0.02851416323989594
-7.511940298507463e-07,0.006785346088848544,0.06200043754044152
-7.411940298507447e-07,0.00611735722149232,0.02107276895086382
-7.311940298507431e-07,0.008121323823563727,0.04339695181791451
-7.211940298507415e-07,0.007119340522528024,0.02851416323988071
-7.111940298507467e-07,0.007119340522528024,0.02479346609537396
-7.011940298507451e-07,0.005449368354135184,0.04711764896242296
-6.911940298507435e-07,0.005783362787813752,0.01735207180635537
-6.811940298507419e-07,0.00611735722149232,0.03967625467340606
-6.711940298507403e-07,0.004447385053100241,0.03595555752888915
-6.611940298507455e-07,0.00611735722149232,0.01735207180635537
-6.511940298507439e-07,0.005115373920456617,0.05827974039594831
-6.411940298507423e-07,0.006451351655170888,0.00991067751733847
-6.311940298507407e-07,0.005449368354135488,0.03595555752889085
-6.211940298507458e-07,0.006117357221492017,0.02107276895087058
-6.111940298507442e-07,0.005783362787813752,0.03223486038438916
-6.011940298507426e-07,0.00611735722149232,0.07316252897398209
-5.91194029850741e-07,0.005449368354136399,0.01363137466185876
-5.811940298507462e-07,0.008121323823562513,0.03967625467339422
-5.711940298507446e-07,0.007119340522528024,0.03595555752889761
-5.61194029850743e-07,0.006451351655170888,0.02851416323988071
-5.511940298507414e-07,0.005783362787813752,0.05455904325143986
-5.411940298507466e-07,0.007787329389884249,0.002469283228345262
-5.31194029850745e-07,0.009123307124599432,0.03595555752889761
-5.211940298507434e-07,0.00778732938988516,0.04339695181791451
-5.111940298507418e-07,0.007119340522528024,0.02107276895086382
-5.011940298507402e-07,0.006785346088849759,0.05827974039592631
-4.911940298507454e-07,0.007453334956206592,0.00991067751733847
-4.811940298507438e-07,0.00778732938988516,0.05455904325143986
-4.711940298507422e-07,0.007453334956206592,0.03223486038438916
-4.611940298507406e-07,0.006117357221492776,0.01363137466186215
-4.511940298507458e-07,0.007119340522528024,0.04711764896242296
-4.411940298507442e-07,0.005449368354135184,0.02479346609537227
-4.311940298507426e-07,0.00611735722149232,0.05827974039594831
-4.21194029850741e-07,0.006785346088848392,0.04339695181790774
-4.111940298507461e-07,0.004447385053100545,0.02851416323988748
-4.011940298507446e-07,0.00611735722149232,0.05083834610693141
-3.91194029850743e-07,0.006785346088849456,0.00991067751733847
-3.811940298507414e-07,0.00778732938988516,0.03223486038438916
-3.711940298507465e-07,0.006117357221493079,0.04339695181790944
-3.611940298507449e-07,0.006785346088849456,0.02107276895086382
-3.511940298507433e-07,0.008455318257242295,0.03967625467340606
-3.411940298507417e-07,0.006785346088849456,-0.001251413916186876
-3.311940298507401e-07,0.007787329389885008,0.0545590432514297
-3.211940298507453e-07,0.007453334956206592,0.03223486038438916
-3.111940298507437e-07,0.00611735722149232,0.02479346609537227
-3.011940298507421e-07,0.006785346088849456,0.05827974039594831
-2.911940298507405e-07,0.005449368354136551,0.01735207180636552
-2.811940298507457e-07,0.008455318257242295,0.03967625467340606
-2.711940298507441e-07,0.007119340522528024,0.03595555752889761
-2.611940298507425e-07,0.008121323823563727,0.02479346609537227
-2.511940298507409e-07,0.006451351655171192,0.05455904325142125
-2.411940298507461e-07,0.007119340522527721,0.01363137466186553
-2.311940298507445e-07,0.008789312690920863,0.05827974039594831
-2.211940298507429e-07,0.005449368354135184,0.03223486038438916
-2.111940298507413e-07,0.006451351655170888,0.03595555752889761
-2.011940298507465e-07,0.007787329389884553,0.03967625467340437
-1.911940298507449e-07,0.00778732938988516,0.01363137466184692
-1.811940298507433e-07,0.008121323823563727,0.04339695181791451
-1.711940298507417e-07,0.006785346088849456,0.02851416323988071
-1.611940298507468e-07,0.00812132382356312,0.0210727689508672
-1.511940298507453e-07,0.007453334956206592,0.03967625467340606
-1.411940298507437e-07,0.007119340522528024,0.01735207180635537
-1.311940298507421e-07,0.007453334956206592,0.02851416323988071
-1.211940298507405e-07,0.005115373920457528,0.01735207180635367
-1.111940298507456e-07,0.007119340522528024,0.01363137466184692
-1.01194029850744e-07,0.006785346088849456,0.06572113468496521
-9.119402985074244e-08,0.005115373920456617,0.00991067751733847
-8.119402985074084e-08,0.006451351655170888,0.0396762546733976
-7.119402985074602e-08,0.006451351655170888,0.02107276895087228
-6.119402985074442e-08,0.005783362787813752,0.006189980372830022
-5.119402985074282e-08,0.005115373920456617,0.04711764896242296
-4.119402985074122e-08,0.005783362787813904,0.00618998037283679
-3.11940298507464e-08,0.006117357221492169,0.02107276895085705
-2.11940298507448e-08,0.005783362787813752,0.02107276895086382
-1.11940298507432e-08,0.004781379486778049,0.02479346609537227
-1.194029850741605e-09,-0.01358831436554318,1.758638335436309
8.805970149253217e-09,0.01480121249712218,3.752932004891931
1.880597014925482e-08,0.004113390619420913,3.031116758858199
2.880597014925641e-08,0.01246325146138511,3.328772530418875
3.880597014925801e-08,0.005115373920456617,3.325051833274367
4.880597014925961e-08,0.01446721806345196,3.310169044696378
5.880597014925443e-08,0.004447385053099481,3.410627867598061
6.880597014925603e-08,0.004113390619420913,3.336213924707892
7.880597014925763e-08,-0.0005625314520790374,3.425510656176095
8.880597014925923e-08,0.002443418451028225,3.321331136129896
9.880597014925405e-08,0.002777412884706489,3.403186473309006
1.088059701492556e-07,0.0001054574152780984,3.276682770395757
1.188059701492572e-07,0.006451351655170888,3.369700199008468
1.288059701492588e-07,0.00611735722149232,3.317610438985362
1.388059701492537e-07,0.00611735722149232,3.343655318996897
1.488059701492553e-07,0.006451351655170888,3.343655318996909
1.588059701492569e-07,0.005449368354135184,3.351096713285926
1.688059701492585e-07,0.006785346088849456,3.351096713285926
1.788059701492533e-07,0.004113390619422128,3.373420896152966
1.888059701492549e-07,0.003111407318385209,3.354817410430434
1.988059701492565e-07,0.001775429583670938,3.380862290441993
2.088059701492581e-07,0.00144143514999237,3.336213924707892
2.188059701492597e-07,0.005115373920456161,3.365979501863948
2.288059701492545e-07,0.004113390619420913,3.3399346218524
2.388059701492561e-07,0.005115373920456617,3.325051833274367
2.488059701492577e-07,0.007453334956206592,3.36597950186396
2.588059701492593e-07,0.005783362787814056,3.347376016141427
2.688059701492541e-07,0.006451351655170585,3.369700199008458
2.788059701492557e-07,0.004113390619420913,3.384582987586502
2.888059701492573e-07,0.004447385053099481,3.380862290441993
2.988059701492589e-07,0.003445401752062714,3.399465776164517
3.088059701492537e-07,0.001107440716314865,3.358538107574961
3.188059701492553e-07,0.003445401752063777,3.373420896152977
3.288059701492569e-07,0.003445401752063777,3.377141593297485
3.388059701492585e-07,0.004781379486778049,3.347376016141417
3.488059701492534e-07,0.006451351655170129,3.384582987586485
3.588059701492549e-07,0.00778732938988516,3.343655318996909
3.688059701492565e-07,0.007453334956206592,3.369700199008468
3.788059701492581e-07,0.00778732938988516,3.380862290441993
3.888059701492597e-07,0.007787329389883793,3.373420896152993
3.988059701492546e-07,0.004781379486778049,3.410627867598061
4.088059701492562e-07,0.006451351655170888,3.362258804719451
4.188059701492578e-07,0.005115373920456617,3.384582987586502
4.288059701492594e-07,0.004781379486778353,3.373420896152978
4.388059701492542e-07,0.005449368354134881,3.377141593297483
4.488059701492558e-07,0.007119340522528024,3.384582987586502
4.588059701492574e-07,0.007453334956206592,3.358538107574943
4.68805970149259e-07,0.00812132382356388,3.392024381875517
4.788059701492538e-07,0.008455318257242142,3.388303684731012
4.888059701492554e-07,0.00611735722149232,3.373420896152977
4.98805970149257e-07,0.006451351655170888,3.395745079020027
5.088059701492586e-07,0.005783362787813752,3.373420896152977
5.188059701492534e-07,0.005449368354135336,3.373420896152977
5.28805970149255e-07,0.00611735722149232,3.395745079020027
5.388059701492566e-07,0.006785346088849456,3.347376016141417
5.488059701492582e-07,0.007119340522528024,3.392024381875518
5.588059701492598e-07,0.005783362787814664,3.354817410430439
5.688059701492546e-07,0.00778732938988516,3.36597950186396
5.788059701492562e-07,0.008455318257242295,3.373420896152977
5.888059701492578e-07,0.008121323823563727,3.362258804719451
5.988059701492594e-07,0.006451351655171648,3.388303684731004
6.088059701492542e-07,0.008121323823563727,3.373420896152977
6.188059701492558e-07,0.01012529042563514,3.392024381875518
6.288059701492574e-07,0.007119340522528024,3.377141593297485
6.38805970149259e-07,0.00711934052252848,3.362258804719466
6.488059701492539e-07,0.008121323823563271,3.395745079020012
6.588059701492555e-07,0.005449368354135184,3.354817410430434
6.688059701492571e-07,0.008789312690920863,3.392024381875518
6.788059701492587e-07,0.008455318257242295,3.377141593297485
6.888059701492535e-07,0.007453334956207047,3.362258804719458
6.988059701492551e-07,0.007453334956206592,3.403186473309044
7.088059701492567e-07,0.00778732938988516,3.369700199008468
7.188059701492583e-07,0.006785346088849456,3.399465776164535
7.288059701492599e-07,0.006117357221492624,3.388303684731
7.388059701492547e-07,0.006785346088849456,3.36597950186396
7.488059701492563e-07,0.007119340522528024,3.395745079020027
7.588059701492579e-07,0.006451351655170888,3.358538107574943
7.688059701492595e-07,0.006117357221492624,3.380862290441988
7.788059701492543e-07,0.006785346088849456,3.369700199008468
7.888059701492559e-07,0.005449368354135184,3.36597950186396
7.988059701492575e-07,0.007119340522528024,3.406907170453553
8.088059701492591e-07,0.008121323823563575,3.358538107574961
8.188059701492539e-07,0.007787329389885311,3.399465776164517
8.288059701492555e-07,0.007453334956206592,3.395745079020027
8.388059701492571e-07,0.007453334956206592,3.373420896152977
8.488059701492587e-07,0.008789312690920863,3.392024381875518
8.588059701492535e-07,0.007119340522528784,3.362258804719465
8.688059701492551e-07,0.009791295991956567,3.392024381875518
8.788059701492567e-07,0.008455318257242295,3.369700199008468
8.888059701492583e-07,0.009123307124599432,3.347376016141417
8.988059701492532e-07,0.008455318257242599,3.403186473309018
9.088059701492548e-07,0.007453334956206592,3.351096713285926
9.188059701492564e-07,0.008789312690920863,3.377141593297485
9.28805970149258e-07,0.00778732938988516,3.38830368473101
9.388059701492596e-07,0.007787329389884704,3.380862290441998
9.488059701492544e-07,0.006785346088849456,3.392024381875518
9.58805970149256e-07,0.008789312690920863,3.373420896152977
9.688059701492576e-07,0.01012529042563514,3.377141593297485
9.788059701492592e-07,0.007119340522529088,3.388303684731008
9.88805970149254e-07,0.009457301558276936,3.384582987586504
9.988059701492556e-07,0.008455318257242295,3.395745079020027
1.008805970149257e-06,0.00778732938988516,3.36597950186396
1.018805970149259e-06,0.008789312690920406,3.399465776164532
1.028805970149254e-06,0.007787329389885615,3.392024381875522
1.038805970149255e-06,0.007119340522528024,3.380862290441993
1.048805970149257e-06,0.006785346088849456,3.380862290441993
1.058805970149258e-06,0.008121323823563727,3.36597950186396
1.068805970149253e-06,0.007787329389885311,3.395745079020014
1.078805970149255e-06,0.00778732938988516,3.38830368473101
1.088805970149256e-06,0.008455318257242295,3.369700199008468
1.098805970149258e-06,0.008789312690920863,3.403186473309044
1.10880597014926e-06,0.007787329389886071,3.358538107574959
1.118805970149254e-06,0.009791295991956567,3.395745079020027
1.128805970149256e-06,0.008455318257242295,3.38830368473101
1.138805970149258e-06,0.006785346088849456,3.384582987586502
1.148805970149259e-06,0.007787329389885767,3.406907170453534
1.158805970149254e-06,0.009123307124598825,3.365979501863978
1.168805970149256e-06,0.008789312690920863,3.38830368473101
1.178805970149257e-06,0.009457301558278,3.38830368473101
1.188805970149259e-06,0.009457301558277393,3.362258804719461
1.198805970149254e-06,0.008121323823564335,3.384582987586492
1.208805970149255e-06,0.01079327929299227,3.351096713285926
1.218805970149257e-06,0.01012529042563514,3.380862290441993
1.228805970149258e-06,0.008789312690920863,3.377141593297485
1.238805970149253e-06,0.009791295991956111,3.365979501863964
1.248805970149255e-06,0.009123307124599432,3.392024381875518
1.258805970149256e-06,0.008121323823563727,3.362258804719451
1.268805970149258e-06,0.009791295991956567,3.384582987586502
1.27880597014926e-06,0.008455318257241688,3.377141593297476
1.288805970149255e-06,0.007119340522528024,3.358538107574943
1.298805970149256e-06,0.00778732938988516,3.38830368473101
1.308805970149258e-06,0.009123307124599432,3.351096713285926
1.318805970149259e-06,0.008121323823562968,3.37342089615297
1.328805970149254e-06,0.006451351655171647,3.358538107574949
1.338805970149256e-06,0.007119340522528024,3.354817410430434
1.348805970149257e-06,0.007453334956206592,3.373420896152977
1.358805970149259e-06,0.00544936835413564,3.365979501863968
1.368805970149254e-06,0.006451351655170433,3.384582987586493
1.378805970149255e-06,0.005783362787813752,3.36597950186396
1.388805970149257e-06,0.003779396185742345,3.358538107574943
1.398805970149259e-06,0.005449368354135184,3.395745079020027
1.408805970149253e-06,0.005449368354135184,3.354817410430453
1.418805970149255e-06,0.006785346088849456,3.384582987586502
1.428805970149257e-06,0.00611735722149232,3.384582987586502
1.438805970149258e-06,0.005449368354135184,3.358538107574943
1.44880597014926e-06,0.00645135165517104,3.39946577616452
1.458805970149255e-06,0.006785346088849456,3.36597950186396
1.468805970149256e-06,0.006785346088849456,3.38830368473101
1.478805970149258e-06,0.004781379486778049,3.38830368473101
1.488805970149259e-06,0.005449368354135184,3.365979501863973
1.498805970149254e-06,0.005449368354135184,3.395745079020014
1.508805970149256e-06,0.00611735722149232,3.347376016141417
1.518805970149257e-06,0.00778732938988516,3.395745079020027
1.528805970149259e-06,0.006785346088849152,3.395745079020017
1.538805970149254e-06,0.006117357221492624,3.373420896152987
1.548805970149255e-06,0.006785346088849456,3.399465776164535
1.558805970149257e-06,0.008455318257242295,3.362258804719451
1.568805970149259e-06,0.006785346088849456,3.399465776164535
1.578805970149253e-06,0.008455318257241535,3.384582987586509
1.588805970149255e-06,0.00611735722149232,3.36597950186396
1.598805970149257e-06,0.008789312690920863,3.392024381875518
1.608805970149258e-06,0.005783362787813752,3.36597950186396
1.61880597014926e-06,0.01012529042563392,3.377141593297481
1.628805970149255e-06,0.007453334956206592,3.369700199008468
1.638805970149256e-06,0.005783362787813752,3.36597950186396
1.648805970149258e-06,0.007119340522528024,3.395745079020027
1.658805970149259e-06,0.006117357221492776,3.358538107574958
1.668805970149254e-06,0.007119340522528024,3.392024381875518
1.678805970149256e-06,0.006451351655170888,3.392024381875518
1.688805970149257e-06,0.006785346088849456,3.358538107574943
1.698805970149259e-06,0.006785346088850063,3.380862290441981
1.708805970149254e-06,0.00812132382356312,3.354817410430446
1.718805970149255e-06,0.008789312690920863,3.377141593297485
1.728805970149257e-06,0.006451351655170888,3.392024381875518
1.738805970149259e-06,0.009123307124599432,3.369700199008468
1.748805970149253e-06,0.006451351655172103,3.384582987586495
1.758805970149255e-06,0.007119340522528024,3.358538107574943
1.768805970149257e-06,0.006785346088849456,3.392024381875518
1.778805970149258e-06,0.006785346088849456,3.380862290441993
1.788805970149253e-06,0.00478137948677896,3.37342089615298
1.798805970149255e-06,0.006451351655170888,3.399465776164535
1.808805970149256e-06,0.006451351655170888,3.362258804719451
1.818805970149258e-06,0.009123307124599432,3.36597950186396
1.82880597014926e-06,0.004781379486778809,3.388303684731004
1.838805970149254e-06,0.006451351655170888,3.373420896152977
1.848805970149256e-06,0.005115373920456617,3.392024381875518
1.858805970149258e-06,0.007119340522528024,3.358538107574943
1.868805970149259e-06,0.007453334956205985,3.380862290441993
1.878805970149254e-06,0.006117357221492929,3.380862290441993
1.888805970149256e-06,0.005449368354135184,3.36597950186396
1.898805970149257e-06,0.006451351655170888,3.395745079020027
1.908805970149259e-06,0.005449368354135184,3.358538107574943
1.918805970149254e-06,0.009457301558276177,3.399465776164517
1.928805970149255e-06,0.007119340522528024,3.377141593297485
1.938805970149257e-06,0.007119340522528024,3.392024381875518
1.948805970149258e-06,0.005449368354135184,3.395745079020027
1.958805970149253e-06,0.006451351655170433,3.351096713285946
1.968805970149255e-06,0.006451351655170888,3.395745079020027
1.978805970149256e-06,0.006451351655170888,3.384582987586502
1.988805970149258e-06,0.006451351655170888,3.369700199008468
1.99880597014926e-06,0.006785346088849304,3.403186473309018
2.008805970149254e-06,0.006451351655170888,3.347376016141417
2.018805970149256e-06,0.006451351655170888,3.38830368473101
2.028805970149258e-06,0.004781379486778049,3.384582987586502
2.038805970149259e-06,0.005783362787813752,3.373420896152987
2.048805970149254e-06,0.005783362787813752,3.395745079020017
2.058805970149256e-06,0.00611735722149232,3.373420896152977
2.068805970149257e-06,0.007453334956206592,3.399465776164535
2.078805970149259e-06,0.006785346088849152,3.373420896152973
2.088805970149254e-06,0.006117357221492624,3.365979501863963
2.098805970149255e-06,0.00611735722149232,3.373420896152977
2.108805970149257e-06,0.005783362787813752,3.354817410430434
2.118805970149258e-06,0.008789312690920863,3.399465776164535
2.128805970149253e-06,0.007787329389885615,3.369700199008481
2.138805970149255e-06,0.006785346088849456,3.358538107574943
2.148805970149256e-06,0.007119340522528024,3.392024381875518
2.158805970149258e-06,0.00611735722149232,3.354817410430434
2.16880597014926e-06,0.007787329389884856,3.380862290441993
2.178805970149254e-06,0.007119340522528024,3.380862290441993
2.188805970149256e-06,0.005449368354135184,3.36597950186396
2.198805970149258e-06,0.006785346088849456,3.392024381875518
2.208805970149259e-06,0.005115373920457528,3.362258804719463
