traces_bank_current_trigger/sampling_freq_100MHz/LSR/LSR_4.csv

#Digilent WaveForms Oscilloscope Acquisition
#Device Name: Discovery2
#Serial Number: SN:210321B3D813
#Date Time: 2023-06-16 09:49:48.813
#Sample rate: 1e+08Hz
#Samples: 8192
#Trigger: Source: Channel 2 Type: Edge Condition: Rising Level: 2 V Hyst.: Auto HoldOff: 0 s
#Channel 1: Range: 10 mV/div Offset: 0 V Attenuation: 1 X Sample Mode: Average
#Channel 2: Range: 5 V/div Offset: 0 V Attenuation: 1 X Sample Mode: Average

Time (s),Channel 1 (V),Channel 2 (V)
-9.573558368495061e-07,0.00611735722149232,-0.02357559678323757
-9.473558368495045e-07,0.008789312690920863,0.02107276895086382
-9.373558368495029e-07,0.006117357221492472,-0.01241350534971391
-9.273558368495081e-07,0.006451351655170736,-0.01613420249421898
-9.173558368495065e-07,0.005783362787813752,0.02851416323988071
-9.073558368495049e-07,0.006785346088849456,-0.01985489963872912
-8.973558368495033e-07,0.007453334956206592,0.00991067751733847
-8.873558368495085e-07,0.006117357221492929,-0.01241350534970207
-8.773558368495069e-07,0.008121323823563727,-0.001251413916186876
-8.673558368495053e-07,0.007453334956206592,0.006189980372830022
-8.573558368495037e-07,0.006785346088849456,-0.01613420249422067
-8.473558368495021e-07,0.00645135165517104,0.0173520718063486
-8.373558368495072e-07,0.006785346088849456,0.002469283228321573
-8.273558368495056e-07,0.006451351655170888,-0.004972111060695325
-8.173558368495041e-07,0.007119340522528024,0.01735207180635537
-8.073558368495025e-07,0.007119340522527113,-0.03101699107222909
-7.973558368495076e-07,0.005115373920457527,0.02479346609534688
-7.87355836849506e-07,0.006785346088849456,-0.001251413916186876
-7.773558368495044e-07,0.00778732938988516,-0.01241350534971222
-7.673558368495028e-07,0.007787329389884553,0.00618998037281987
-7.57355836849508e-07,0.006451351655171496,-0.01613420249421052
-7.473558368495064e-07,0.007119340522528024,0.02851416323988071
-7.373558368495048e-07,0.006451351655170888,-0.02357559678323757
-7.273558368495032e-07,0.00611735722149232,-0.004972111060695325
-7.173558368495084e-07,0.006451351655170736,-0.001251413916188568
-7.073558368495068e-07,0.00611735722149232,-0.008692808205203774
-6.973558368495052e-07,0.006451351655170888,0.02107276895086382
-6.873558368495036e-07,0.005783362787813752,-0.01241350534971222
-6.77355836849502e-07,0.006117357221492776,0.01363137466185876
-6.673558368495072e-07,0.007119340522528024,0.03967625467340606
-6.573558368495056e-07,0.006451351655170888,-0.01613420249422067
-6.47355836849504e-07,0.006451351655170888,0.03223486038438916
-6.373558368495024e-07,0.005115373920457376,0.002469283228316497
-6.273558368495076e-07,0.006785346088848697,-0.008692808205198698
-6.17355836849506e-07,0.006451351655170888,0.03223486038438916
-6.073558368495044e-07,0.005449368354135184,-0.02357559678323757
-5.973558368495028e-07,0.005115373920456768,0.03595555752889085
-5.873558368495079e-07,0.005449368354135033,0.02107276895087058
-5.773558368495063e-07,0.005449368354135184,0.002469283228321573
-5.673558368495048e-07,0.007119340522528024,0.03223486038438916
-5.573558368495032e-07,0.006451351655170888,-0.01985489963872912
-5.473558368495083e-07,0.007119340522527721,0.03967625467337899
-5.373558368495067e-07,0.00611735722149232,-0.01241350534971222
-5.273558368495051e-07,0.006451351655170888,0.002469283228321573
-5.173558368495035e-07,0.006451351655170888,0.006189980372830022
-5.073558368495019e-07,0.006451351655170433,-0.004972111060676713
-4.973558368495071e-07,0.005449368354135184,0.03595555752889761
-4.873558368495055e-07,0.005449368354135184,-0.004972111060695325
-4.773558368495039e-07,0.005449368354135184,-0.008692808205203774
-4.673558368495023e-07,0.00511537392045692,0.03595555752887392
-4.573558368495075e-07,0.005783362787813752,-0.01613420249422067
-4.473558368495059e-07,0.005115373920456617,0.00991067751733847
-4.373558368495043e-07,0.003111407318385209,-0.004972111060695325
-4.273558368495027e-07,0.00511537392045692,-0.012413505349697
-4.173558368495079e-07,0.005783362787813448,0.02107276895084859
-4.073558368495063e-07,0.004781379486778049,-0.02729629392774602
-3.973558368495047e-07,0.005449368354135184,0.01363137466184692
-3.873558368495031e-07,0.004447385053099481,0.00991067751733847
-3.773558368495083e-07,0.005783362787813145,-0.008692808205195315
-3.673558368495067e-07,0.00611735722149232,0.02851416323988071
-3.573558368495051e-07,0.005783362787813752,-0.04217908250577981
-3.473558368495035e-07,0.004447385053099481,0.02851416323988071
-3.373558368495019e-07,0.004781379486779112,0.006189980372818178
-3.27355836849507e-07,0.007119340522528024,-0.01985489963872912
-3.173558368495055e-07,0.005783362787813752,0.03595555752889761
-3.073558368495039e-07,0.006785346088849456,-0.03101699107225447
-2.973558368495023e-07,0.007119340522527417,0.02851416323986887
-2.873558368495074e-07,0.005783362787813752,0.002469283228321573
-2.773558368495058e-07,0.005115373920456617,-0.008692808205203774
-2.673558368495042e-07,0.00611735722149232,0.03967625467340606
-2.573558368495026e-07,0.005115373920458135,-0.0235755967832105
-2.473558368495078e-07,0.008455318257240777,0.03595555752887054
-2.373558368495062e-07,0.003779396185742345,-0.008692808205203774
-2.273558368495046e-07,0.007119340522528024,-0.004972111060695325
-2.17355836849503e-07,0.007119340522528024,0.03223486038438916
-2.073558368495082e-07,0.00745333495620644,-0.008692808205185164
-1.973558368495066e-07,0.006785346088849456,0.01735207180635537
-1.87355836849505e-07,0.006785346088849456,0.002469283228321573
-1.773558368495034e-07,0.00611735722149232,-0.008692808205203774
-1.673558368495086e-07,0.007453334956205985,0.02107276895085028
-1.57355836849507e-07,0.007119340522528024,-0.03845838536127136
-1.473558368495054e-07,0.007453334956206592,0.02479346609537227
-1.373558368495038e-07,0.006451351655170888,-0.01985489963872912
-1.273558368495022e-07,0.006117357221492017,0.002469283228331725
-1.173558368495074e-07,0.005449368354135184,0.02479346609537227
-1.073558368495058e-07,0.00611735722149232,-0.03101699107225447
-9.735583684950417e-08,0.007119340522528024,0.02851416323988071
-8.735583684950257e-08,0.005783362787813904,-0.004972111060697017
-7.735583684950775e-08,0.006117357221492169,-0.008692808205202083
-6.735583684950615e-08,0.007119340522528024,0.02107276895086382
-5.735583684950455e-08,0.004781379486778049,-0.01613420249422067
-4.735583684950295e-08,0.006785346088848392,0.02851416323986549
-3.735583684950813e-08,0.004447385053100545,-0.004972111060680094
-2.735583684950653e-08,0.00611735722149232,-0.01241350534971222
-1.735583684950493e-08,0.006451351655170888,0.03595555752889761
-7.355836849503336e-09,0.004113390619420913,0.05083834610693141
2.644163150491486e-09,-0.01459029766657038,2.696254015851236
1.264416315049308e-08,0.01513520693081365,3.421789959031586
2.264416315049468e-08,0.005449368354135184,3.161341158915995
3.264416315049628e-08,0.01580319579817079,3.306448347551824
4.264416315049788e-08,0.003445401752067727,3.287844861829287
5.26441631504927e-08,0.01212925702770654,3.299006953262807
6.26441631504943e-08,0.003779396185742345,3.377141593297485
7.26441631504959e-08,0.005449368354135184,3.310169044696333
8.26441631504975e-08,-0.001564514753112615,3.414348564742509
9.264416315049232e-08,0.003111407318383083,3.280403467540326
1.026441631504939e-07,0.002109424017349506,3.373420896152977
1.126441631504955e-07,0.003779396185742345,3.272962073251248
1.226441631504971e-07,0.003779396185744623,3.302727650407316
1.326441631504919e-07,0.008789312690918583,3.302727650407316
1.426441631504935e-07,0.008789312690920863,3.306448347551824
1.526441631504951e-07,0.008789312690920863,3.310169044696333
1.626441631504967e-07,0.004781379486778049,3.325051833274367
1.726441631504916e-07,0.007787329389883793,3.339934621852394
1.826441631504932e-07,0.005115373920456617,3.380862290441993
1.926441631504947e-07,0.003445401752063777,3.313889741840841
2.026441631504963e-07,0.00144143514999237,3.369700199008468
2.126441631504979e-07,0.004113390619420761,3.336213924707885
2.226441631504928e-07,0.003779396185742345,3.321331136129858
2.326441631504944e-07,0.006785346088849456,3.3399346218524
2.42644163150496e-07,0.005783362787813752,3.302727650407316
2.526441631504976e-07,0.006451351655171495,3.33249322756339
2.626441631504924e-07,0.007787329389884553,3.347376016141411
2.72644163150494e-07,0.00611735722149232,3.328772530418875
2.826441631504956e-07,0.003779396185742345,3.384582987586502
2.926441631504972e-07,0.004447385053099178,3.332493227563402
3.02644163150492e-07,0.003779396185742649,3.373420896152958
3.126441631504936e-07,0.004781379486778049,3.336213924707892
3.226441631504952e-07,0.004113390619420913,3.328772530418875
3.326441631504968e-07,0.004781379486778049,3.36597950186396
3.426441631504916e-07,0.004447385053099633,3.310169044696358
3.526441631504932e-07,0.00611735722149232,3.358538107574943
3.626441631504948e-07,0.005115373920456617,3.354817410430434
3.726441631504964e-07,0.00611735722149232,3.328772530418875
3.82644163150498e-07,0.007453334956206744,3.377141593297472
3.926441631504928e-07,0.00778732938988516,3.347376016141417
4.026441631504944e-07,0.005449368354135184,3.38830368473101
4.12644163150496e-07,0.005449368354135184,3.347376016141417
4.226441631504976e-07,0.005783362787814056,3.365979501863973
4.326441631504925e-07,0.006451351655170585,3.395745079020014
4.42644163150494e-07,0.005449368354135184,3.328772530418875
4.526441631504956e-07,0.006451351655170888,3.38830368473101
4.626441631504972e-07,0.005449368354136399,3.351096713285919
4.726441631504921e-07,0.008121323823562513,3.336213924707899
4.826441631504937e-07,0.00611735722149232,3.38830368473101
4.926441631504953e-07,0.00611735722149232,3.3399346218524
5.026441631504969e-07,0.005783362787813752,3.406907170453553
5.126441631504917e-07,0.003779396185743256,3.369700199008485
5.226441631504933e-07,0.005449368354135184,3.377141593297485
5.326441631504949e-07,0.005115373920456617,3.406907170453553
5.426441631504965e-07,0.003445401752063777,3.332493227563384
5.526441631504981e-07,0.006785346088849304,3.40690717045353
5.626441631504929e-07,0.006451351655170888,3.358538107574943
5.726441631504945e-07,0.006451351655170888,3.377141593297485
5.826441631504961e-07,0.008455318257242295,3.410627867598061
5.926441631504977e-07,0.006785346088849759,3.358538107574961
6.026441631504925e-07,0.007453334956206592,3.399465776164535
6.126441631504941e-07,0.007119340522528024,3.380862290441993
6.226441631504957e-07,0.007453334956206592,3.373420896152977
6.326441631504973e-07,0.007119340522527569,3.403186473309022
6.426441631504921e-07,0.006117357221492776,3.354817410430456
6.526441631504937e-07,0.008455318257242295,3.406907170453553
6.626441631504953e-07,0.006451351655170888,3.369700199008468
6.726441631504969e-07,0.007453334956206592,3.380862290441993
6.826441631504918e-07,0.007787329389885008,3.403186473309034
6.926441631504934e-07,0.006785346088849456,3.343655318996909
7.026441631504949e-07,0.007453334956206592,3.399465776164535
7.126441631504965e-07,0.005783362787813752,3.377141593297485
7.226441631504981e-07,0.006451351655170585,3.369700199008488
7.32644163150493e-07,0.005783362787813752,3.41434856474257
7.426441631504946e-07,0.005783362787813752,3.336213924707892
7.526441631504962e-07,0.006785346088849456,3.373420896152977
7.626441631504978e-07,0.005115373920456465,3.384582987586497
7.726441631504926e-07,0.004781379486778049,3.373420896152977
7.826441631504942e-07,0.005783362787813752,3.41434856474257
7.926441631504958e-07,0.003779396185742345,3.358538107574943
8.026441631504974e-07,0.005449368354134881,3.395745079020015
8.126441631504922e-07,0.004781379486778353,3.36970019900848
8.226441631504938e-07,0.006785346088849456,3.384582987586502
8.326441631504954e-07,0.006451351655170888,3.403186473309044
8.42644163150497e-07,0.004781379486778049,3.343655318996909
8.526441631504918e-07,0.006785346088848544,3.414348564742538
8.626441631504934e-07,0.007119340522528024,3.369700199008468
8.72644163150495e-07,0.008121323823563727,3.380862290441993
8.826441631504966e-07,0.006785346088849456,3.392024381875518
8.926441631504914e-07,0.007787329389884704,3.354817410430451
9.02644163150493e-07,0.007453334956206592,3.395745079020027
9.126441631504946e-07,0.005449368354135184,3.384582987586502
9.226441631504962e-07,0.008121323823563727,3.369700199008468
9.326441631504978e-07,0.005449368354135184,3.388303684730997
9.426441631504927e-07,0.005449368354135184,3.358538107574943
9.526441631504942e-07,0.008455318257242295,3.410627867598061
9.626441631504958e-07,0.005449368354135184,3.377141593297485
9.726441631504974e-07,0.006785346088849304,3.395745079020032
9.826441631504923e-07,0.00645135165517104,3.406907170453548
9.926441631504939e-07,0.007453334956206592,3.354817410430434
1.002644163150495e-06,0.006451351655170888,3.41434856474257
1.012644163150497e-06,0.004781379486779264,3.384582987586495
1.022644163150492e-06,0.007453334956205377,3.369700199008475
1.032644163150493e-06,0.00778732938988516,3.399465776164535
1.042644163150495e-06,0.005783362787813752,3.3399346218524
1.052644163150497e-06,0.006451351655170888,3.403186473309044
1.062644163150492e-06,0.006117357221492472,3.369700199008483
1.072644163150493e-06,0.006451351655170888,3.362258804719451
1.082644163150495e-06,0.006785346088849456,3.410627867598061
1.092644163150496e-06,0.006451351655170888,3.362258804719451
1.102644163150498e-06,0.006785346088849456,3.39946577616452
1.112644163150493e-06,0.006785346088849456,3.36597950186396
1.122644163150494e-06,0.007453334956206592,3.380862290441993
1.132644163150496e-06,0.007453334956206592,3.418069261887078
1.142644163150498e-06,0.007119340522528632,3.351096713285956
1.152644163150492e-06,0.008455318257241688,3.418069261887047
1.162644163150494e-06,0.007119340522528024,3.377141593297485
1.172644163150496e-06,0.009791295991956567,3.369700199008468
1.182644163150497e-06,0.009123307124598672,3.399465776164519
1.192644163150492e-06,0.007453334956207352,3.362258804719468
1.202644163150494e-06,0.007453334956206592,3.395745079020027
1.212644163150495e-06,0.009123307124599432,3.380862290441993
1.222644163150497e-06,0.009123307124599432,3.362258804719451
1.232644163150492e-06,0.01012529042563468,3.410627867598039
1.242644163150493e-06,0.008121323823563727,3.347376016141417
1.252644163150495e-06,0.009791295991956567,3.421789959031586
1.262644163150496e-06,0.008789312690920863,3.373420896152977
1.272644163150498e-06,0.008789312690920863,3.377141593297502
1.282644163150493e-06,0.008789312690920863,3.41434856474257
1.292644163150494e-06,0.007453334956206592,3.373420896152977
1.302644163150496e-06,0.007453334956206592,3.41434856474257
1.312644163150498e-06,0.009457301558277544,3.388303684731007
1.322644163150492e-06,0.008455318257242751,3.380862290441997
1.332644163150494e-06,0.009457301558278,3.399465776164535
1.342644163150496e-06,0.006785346088849456,3.358538107574943
1.352644163150497e-06,0.008121323823563424,3.421789959031569
1.362644163150492e-06,0.007453334956206896,3.384582987586519
1.372644163150494e-06,0.00611735722149232,3.373420896152977
1.382644163150495e-06,0.008455318257242295,3.418069261887078
1.392644163150497e-06,0.005783362787813752,3.358538107574943
1.402644163150492e-06,0.006451351655170585,3.414348564742544
1.412644163150493e-06,0.00611735722149232,3.384582987586502
1.422644163150495e-06,0.006451351655170888,3.377141593297485
1.432644163150496e-06,0.007119340522528024,3.406907170453553
1.442644163150498e-06,0.006451351655171344,3.362258804719473
1.452644163150493e-06,0.007453334956206592,3.410627867598061
1.462644163150494e-06,0.00778732938988516,3.369700199008468
1.472644163150496e-06,0.006785346088849456,3.380862290441993
1.482644163150498e-06,0.007119340522527873,3.403186473309015
1.492644163150492e-06,0.006785346088849608,3.339934621852429
1.502644163150494e-06,0.008121323823563727,3.432952050465111
1.512644163150496e-06,0.007119340522528024,3.36597950186396
1.522644163150497e-06,0.007119340522528176,3.362258804719477
1.532644163150492e-06,0.00745333495620644,3.418069261887053
1.542644163150494e-06,0.006451351655170888,3.354817410430434
1.552644163150495e-06,0.008789312690920863,3.392024381875518
1.562644163150497e-06,0.007453334956206592,3.36597950186396
1.572644163150492e-06,0.008121323823563424,3.373420896152973
1.582644163150493e-06,0.007453334956206592,3.399465776164535
1.592644163150495e-06,0.007119340522528024,3.347376016141417
1.602644163150496e-06,0.006451351655170888,3.41434856474257
1.612644163150498e-06,0.006117357221492017,3.380862290441985
1.622644163150493e-06,0.005449368354135184,3.362258804719451
1.632644163150495e-06,0.006451351655170888,3.421789959031586
1.642644163150496e-06,0.005449368354135184,3.351096713285926
1.652644163150498e-06,0.008455318257241535,3.388303684731005
1.662644163150493e-06,0.006785346088849456,3.377141593297485
1.672644163150494e-06,0.006451351655170888,3.36597950186396
1.682644163150496e-06,0.007453334956206592,3.403186473309044
1.692644163150497e-06,0.006117357221492928,3.347376016141444
1.702644163150492e-06,0.007453334956205985,3.406907170453525
1.712644163150494e-06,0.007119340522528024,3.351096713285926
1.722644163150495e-06,0.008455318257242295,3.369700199008468
1.732644163150497e-06,0.007453334956206592,3.403186473309044
1.742644163150492e-06,0.006117357221492929,3.343655318996936
1.752644163150493e-06,0.007453334956206592,3.395745079020027
1.762644163150495e-06,0.005115373920456617,3.36597950186396
1.772644163150497e-06,0.007119340522528024,3.362258804719451
1.782644163150491e-06,0.006451351655171192,3.395745079020012
1.792644163150493e-06,0.005115373920456617,3.336213924707892
1.802644163150495e-06,0.005783362787813752,3.384582987586502
1.812644163150496e-06,0.00611735722149232,3.369700199008468
1.822644163150498e-06,0.007119340522528176,3.380862290441997
1.832644163150493e-06,0.007453334956206592,3.38830368473101
1.842644163150494e-06,0.005449368354135184,3.343655318996909
1.852644163150496e-06,0.007119340522528024,3.384582987586502
1.862644163150497e-06,0.005449368354136399,3.365979501863953
1.872644163150492e-06,0.008121323823562513,3.351096713285932
1.882644163150494e-06,0.00611735722149232,3.406907170453553
1.892644163150495e-06,0.005115373920456617,3.347376016141417
1.902644163150497e-06,0.006785346088849456,3.395745079020027
1.912644163150492e-06,0.00645135165517104,3.365979501863973
1.922644163150493e-06,0.006785346088849456,3.351096713285926
1.932644163150495e-06,0.00611735722149232,3.392024381875518
1.942644163150497e-06,0.005783362787813752,3.325051833274367
1.952644163150491e-06,0.007453334956205832,3.395745079019995
1.962644163150493e-06,0.005449368354135184,3.377141593297485
1.972644163150495e-06,0.00778732938988516,3.36597950186396
1.982644163150496e-06,0.006451351655170888,3.399465776164535
1.992644163150498e-06,0.004781379486778809,3.358538107574965
2.002644163150493e-06,0.006451351655170888,3.406907170453553
2.012644163150494e-06,0.00611735722149232,3.380862290441993
2.022644163150496e-06,0.00611735722149232,3.373420896152977
2.032644163150497e-06,0.005115373920456465,3.414348564742544
2.042644163150492e-06,0.004781379486778201,3.358538107574968
2.052644163150494e-06,0.005115373920456617,3.399465776164535
2.062644163150495e-06,0.003445401752063777,3.380862290441993
2.072644163150497e-06,0.006117357221492017,3.388303684731014
2.082644163150492e-06,0.005449368354135488,3.395745079020024
2.092644163150493e-06,0.004113390619420913,3.354817410430434
2.102644163150495e-06,0.005449368354135184,3.418069261887078
2.112644163150497e-06,0.004781379486778049,3.403186473309044
2.122644163150492e-06,0.006117357221491712,3.38458298758651
2.132644163150493e-06,0.004781379486778049,3.406907170453553
2.142644163150495e-06,0.00611735722149232,3.384582987586502
2.152644163150496e-06,0.006451351655170888,3.41434856474257
2.162644163150498e-06,0.005115373920457072,3.373420896152978
2.172644163150493e-06,0.00611735722149232,3.377141593297485
2.182644163150494e-06,0.006785346088849456,3.444114141898637
