traces_bank_current_trigger/benchmark_traces/matrix_mult_100MHz/mat_mult_9.csv

#Digilent WaveForms Oscilloscope Acquisition
#Device Name: Discovery2
#Serial Number: SN:210321B3D813
#Date Time: 2023-07-18 16:20:43.810
#Sample rate: 1e+08Hz
#Samples: 8192
#Trigger: Source: Channel 2 Type: Edge Condition: Rising Level: 2 V Hyst.: Auto HoldOff: 0 s
#Channel 1: Range: 10 mV/div Offset: 0 V Attenuation: 1 X Sample Mode: Average
#Channel 2: Range: 5 V/div Offset: 0 V Attenuation: 1 X Sample Mode: Average

Time (s),Channel 1 (V),Channel 2 (V)
-9.549780701754328e-07,0.006451351655170888,0.006189980372830022
-9.449780701754312e-07,0.008121323823563727,0.02851416323988071
-9.349780701754296e-07,0.007787329389885311,0.04711764896240096
-9.249780701754348e-07,0.008121323823563575,-0.00125141391616488
-9.149780701754332e-07,0.00611735722149232,0.06572113468496521
-9.049780701754316e-07,0.005115373920456617,-0.004972111060695325
-8.9497807017543e-07,0.006785346088849456,0.05455904325143986
-8.849780701754352e-07,0.006785346088849456,0.02851416323989256
-8.749780701754336e-07,0.006785346088849456,0.00991067751733847
-8.64978070175432e-07,0.008455318257242295,0.06572113468496521
-8.549780701754304e-07,0.006785346088849456,0.002469283228321573
-8.449780701754288e-07,0.009123307124598521,0.03967625467341283
-8.34978070175434e-07,0.007119340522528024,0.05455904325143986
-8.249780701754324e-07,0.009457301558278,-0.004972111060695325
-8.149780701754308e-07,0.007453334956206592,0.06944183182947365
-8.049780701754292e-07,0.007119340522528328,-0.001251413916169956
-7.949780701754344e-07,0.007787329389884856,0.0359555575288807
-7.849780701754328e-07,0.006451351655170888,0.03223486038438916
-7.749780701754312e-07,0.007119340522528024,0.00991067751733847
-7.649780701754296e-07,0.007787329389884856,0.06572113468493475
-7.549780701754348e-07,0.007119340522528328,-0.001251413916156421
-7.449780701754332e-07,0.00778732938988516,0.01735207180635537
-7.349780701754316e-07,0.006785346088849456,0.02851416323988071
-7.2497807017543e-07,0.006451351655170888,-0.01985489963872912
-7.149780701754351e-07,0.006785346088849304,0.05827974039591279
-7.049780701754335e-07,0.00778732938988516,0.006189980372830022
-6.949780701754319e-07,0.00778732938988516,0.03223486038438916
-6.849780701754303e-07,0.006451351655170888,0.05083834610693141
-6.749780701754287e-07,0.006451351655170433,-0.004972111060666562
-6.649780701754339e-07,0.005449368354135184,0.05827974039594831
-6.549780701754323e-07,0.003111407318385209,0.006189980372830022
-6.449780701754307e-07,0.006785346088849456,0.03967625467340606
-6.349780701754291e-07,0.006117357221492017,0.02107276895085028
-6.249780701754343e-07,0.005449368354135488,-0.00869280820519024
-6.149780701754327e-07,0.005115373920456617,0.05455904325143986
-6.049780701754311e-07,0.003779396185742345,-0.004972111060695325
-5.949780701754295e-07,0.006451351655170888,0.01363137466185538
-5.849780701754347e-07,0.006451351655170888,0.0322348603843807
-5.749780701754331e-07,0.004447385053099481,-0.008692808205203774
-5.649780701754315e-07,0.006451351655170888,0.05455904325143986
-5.549780701754299e-07,0.006785346088849456,-0.004972111060695325
-5.449780701754351e-07,0.006785346088849456,0.035955557528879
-5.349780701754335e-07,0.007453334956206592,0.03967625467340606
-5.249780701754319e-07,0.007453334956206592,-0.01241350534971222
-5.149780701754303e-07,0.006451351655170888,0.05827974039594831
-5.049780701754287e-07,0.006785346088849456,0.006189980372845249
-4.949780701754339e-07,0.006785346088849456,0.03967625467340606
-4.849780701754323e-07,0.005115373920456617,0.02851416323988071
-4.749780701754307e-07,0.005783362787813752,0.002469283228321573
-4.649780701754291e-07,0.004447385053099481,0.05827974039592292
-4.549780701754342e-07,0.004447385053099481,0.002469283228321573
-4.449780701754326e-07,0.007119340522528024,0.02851416323988071
-4.34978070175431e-07,0.00611735722149232,0.03967625467340606
-4.249780701754294e-07,0.006451351655170888,-0.008692808205176702
-4.149780701754346e-07,0.006451351655170888,0.05083834610690434
-4.04978070175433e-07,0.004447385053099481,-0.001251413916186876
-3.949780701754314e-07,0.006451351655170888,0.02107276895086382
-3.849780701754298e-07,0.00611735722149232,0.02851416323988071
-3.74978070175435e-07,0.007119340522527569,0.002469283228333417
-3.649780701754334e-07,0.007453334956206592,0.04711764896242296
-3.549780701754318e-07,0.007119340522528024,-0.004972111060695325
-3.449780701754302e-07,0.006785346088849456,0.03967625467340606
-3.349780701754286e-07,0.006451351655170888,0.0433969518178959
-3.249780701754338e-07,0.006451351655170888,0.002469283228321573
-3.149780701754322e-07,0.007453334956206592,0.04711764896242296
-3.049780701754306e-07,0.004447385053099481,0.02107276895086382
-2.94978070175429e-07,0.007453334956206592,0.03595555752889931
-2.849780701754342e-07,0.007453334956206592,0.03967625467340606
-2.749780701754326e-07,0.005783362787813752,-0.008692808205203774
-2.64978070175431e-07,0.007119340522528024,0.05083834610693141
-2.549780701754294e-07,0.004781379486778961,-0.01241350534969361
-2.449780701754346e-07,0.006785346088848544,0.0285141632398621
-2.34978070175433e-07,0.005783362787813752,0.02851416323988071
-2.249780701754314e-07,0.006785346088849456,0.002469283228321573
-2.149780701754298e-07,0.006451351655170888,0.04711764896242296
-2.049780701754349e-07,0.006451351655170888,-0.01613420249419191
-1.949780701754333e-07,0.008121323823563727,0.00991067751733847
-1.849780701754317e-07,0.007453334956206592,0.006189980372830022
-1.749780701754301e-07,0.006451351655170888,-0.008692808205203774
-1.649780701754353e-07,0.00544936835413564,0.03967625467338406
-1.549780701754337e-07,0.007119340522528024,-0.03845838536127136
-1.449780701754321e-07,0.006785346088849456,0.01735207180635537
-1.349780701754305e-07,0.008121323823563727,0.00991067751733847
-1.249780701754289e-07,0.007787329389885463,-0.03101699107222909
-1.149780701754341e-07,0.008455318257242295,0.02479346609537227
-1.049780701754325e-07,0.006785346088849456,-0.004972111060695325
-9.497807017543091e-08,0.007453334956206592,0.006189980372830022
-8.497807017542931e-08,0.008121323823562664,0.02479346609535027
-7.497807017543449e-08,0.005783362787814815,-0.02357559678321557
-6.497807017543289e-08,0.008121323823563727,0.01363137466184692
-5.497807017543129e-08,0.006451351655170888,-0.02729629392774602
-4.497807017542969e-08,0.007453334956206288,0.002469283228333416
-3.497807017543487e-08,0.006785346088849759,0.02851416323986887
-2.497807017543327e-08,0.005783362787813752,-0.02357559678323757
-1.497807017543167e-08,0.006785346088849456,0.03967625467340606
-4.978070175430075e-09,0.0007734462826352341,0.3075664490780144
5.021929824564747e-09,-0.006908425691968333,3.700842244868177
1.502192982456635e-08,0.009457301558278,2.941820027389996
2.502192982456794e-08,0.008455318257242295,3.406907170453553
3.502192982456954e-08,0.01613719023184936,3.205989524650096
4.502192982457114e-08,0.006785346088851583,3.343655318996887
5.502192982456596e-08,0.01146126816034941,3.295286256118299
6.502192982456756e-08,0.001775429583670938,3.395745079020027
7.502192982456916e-08,0.00611735722149232,3.325051833274367
8.502192982457076e-08,-0.001898509186791334,3.403186473308996
9.502192982456558e-08,0.002443418451026099,3.299006953262855
1.050219298245672e-07,0.001775429583670938,3.369700199008468
1.150219298245688e-07,0.00611735722149232,3.313889741840841
1.250219298245704e-07,0.001775429583674431,3.310169044696346
1.350219298245652e-07,0.009457301558274506,3.339934621852387
1.450219298245668e-07,0.004781379486778049,3.299006953262807
1.550219298245684e-07,0.009457301558278,3.3399346218524
1.6502192982457e-07,0.004447385053099481,3.377141593297485
1.750219298245648e-07,0.004447385053099481,3.328772530418897
1.850219298245664e-07,0.003111407318385209,3.399465776164535
1.95021929824568e-07,0.003445401752063777,3.336213924707892
2.050219298245696e-07,0.00144143514999237,3.362258804719451
2.150219298245712e-07,0.003445401752064537,3.32133113612986
2.25021929824566e-07,0.005115373920456617,3.325051833274367
2.350219298245676e-07,0.007119340522528024,3.377141593297485
2.450219298245692e-07,0.004781379486778049,3.31761043898535
2.550219298245708e-07,0.006785346088848544,3.358538107574946
2.650219298245656e-07,0.00478137948677896,3.365979501863956
2.750219298245672e-07,0.005783362787813752,3.328772530418875
2.850219298245688e-07,0.004113390619420913,3.410627867598061
2.950219298245704e-07,0.004113390619420913,3.32505183327439
3.050219298245653e-07,0.004113390619420913,3.377141593297461
3.150219298245669e-07,0.004781379486778049,3.354817410430434
3.250219298245685e-07,0.003779396185742345,3.354817410430434
3.350219298245701e-07,0.003779396185742345,3.403186473309044
3.450219298245649e-07,0.003445401752063929,3.332493227563416
3.550219298245665e-07,0.007453334956206592,3.362258804719451
3.650219298245681e-07,0.005449368354135184,3.380862290441993
3.750219298245697e-07,0.007119340522528024,3.332493227563384
3.850219298245713e-07,0.006451351655170433,3.406907170453525
3.950219298245661e-07,0.005449368354135184,3.347376016141417
4.050219298245677e-07,0.006451351655170888,3.377141593297485
4.150219298245693e-07,0.004447385053099481,3.384582987586502
4.250219298245709e-07,0.004781379486778201,3.358538107574956
4.350219298245657e-07,0.005115373920456465,3.388303684730997
4.450219298245673e-07,0.005783362787813752,3.3399346218524
4.550219298245689e-07,0.007119340522528024,3.369700199008468
4.650219298245705e-07,0.006117357221492472,3.380862290441983
4.750219298245653e-07,0.006451351655170736,3.358538107574953
4.850219298245669e-07,0.00611735722149232,3.399465776164535
4.950219298245685e-07,0.005783362787813752,3.336213924707892
5.050219298245701e-07,0.00611735722149232,3.384582987586502
5.150219298245649e-07,0.003779396185743408,3.377141593297488
5.250219298245665e-07,0.004781379486778049,3.373420896152977
5.350219298245681e-07,0.006785346088849456,3.384582987586502
5.450219298245697e-07,0.003111407318385209,3.343655318996909
5.550219298245713e-07,0.00745333495620568,3.373420896152978
5.650219298245662e-07,0.005449368354135184,3.377141593297485
5.750219298245678e-07,0.005449368354135184,3.336213924707892
5.850219298245694e-07,0.00611735722149232,3.395745079020027
5.95021929824571e-07,0.005449368354135944,3.328772530418898
6.050219298245658e-07,0.007119340522528024,3.380862290441993
6.150219298245674e-07,0.004113390619420913,3.362258804719451
6.25021929824569e-07,0.006451351655170888,3.336213924707892
6.350219298245706e-07,0.004447385053099178,3.403186473309012
6.450219298245654e-07,0.003779396185742649,3.332493227563416
6.55021929824567e-07,0.004781379486778049,3.377141593297485
6.650219298245686e-07,0.006785346088849456,3.351096713285926
6.750219298245702e-07,0.005449368354135184,3.332493227563384
6.85021929824565e-07,0.006451351655170433,3.380862290441971
6.950219298245666e-07,0.00611735722149232,3.325051833274367
7.050219298245682e-07,0.00611735722149232,3.380862290441993
7.150219298245698e-07,0.004447385053099481,3.36597950186396
7.250219298245714e-07,0.004781379486776986,3.351096713285951
7.350219298245662e-07,0.002443418451028074,3.406907170453553
7.450219298245678e-07,0.002443418451028074,3.347376016141417
7.550219298245694e-07,0.004781379486778049,3.36597950186396
7.65021929824571e-07,0.007119340522527569,3.369700199008446
7.750219298245658e-07,0.00611735722149232,3.321331136129858
7.850219298245674e-07,0.007453334956206592,3.406907170453553
7.95021929824569e-07,0.006785346088849456,3.3399346218524
8.050219298245706e-07,0.006451351655169521,3.406907170453548
8.150219298245655e-07,0.003445401752065144,3.395745079020032
8.250219298245671e-07,0.004447385053099481,3.358538107574943
8.350219298245687e-07,0.006451351655170888,3.410627867598061
8.450219298245703e-07,0.005783362787813752,3.354817410430434
8.550219298245651e-07,0.006451351655170585,3.388303684730995
8.650219298245667e-07,0.005449368354135184,3.384582987586502
8.750219298245683e-07,0.008121323823563727,3.354817410430434
8.850219298245699e-07,0.006785346088849456,3.392024381875518
8.950219298245647e-07,0.006785346088849456,3.365979501863972
9.050219298245663e-07,0.004781379486778049,3.38830368473101
9.150219298245679e-07,0.006451351655170888,3.406907170453553
9.250219298245695e-07,0.005449368354135184,3.347376016141417
9.350219298245711e-07,0.005783362787812992,3.418069261887047
9.450219298245659e-07,0.004113390619420913,3.351096713285926
9.550219298245675e-07,0.00778732938988516,3.38830368473101
9.650219298245691e-07,0.007119340522528024,3.377141593297485
9.750219298245707e-07,0.006785346088849456,3.354817410430463
9.850219298245655e-07,0.006785346088849456,3.418069261887049
9.950219298245671e-07,0.007453334956206592,3.351096713285926
1.005021929824569e-06,0.009457301558278,3.399465776164535
1.01502192982457e-06,0.007119340522527721,3.399465776164524
1.025021929824565e-06,0.006451351655171192,3.373420896152989
1.035021929824567e-06,0.005115373920456617,3.425510656176095
1.045021929824568e-06,0.003779396185742345,3.380862290441993
1.05502192982457e-06,0.007453334956206592,3.384582987586502
1.065021929824565e-06,0.004781379486779264,3.369700199008475
1.075021929824566e-06,0.006451351655170888,3.358538107574943
1.085021929824568e-06,0.00611735722149232,3.403186473309044
1.09502192982457e-06,0.00611735722149232,3.354817410430434
1.105021929824571e-06,0.006451351655171648,3.403186473309035
1.115021929824566e-06,0.008121323823563727,3.384582987586502
1.125021929824568e-06,0.00611735722149232,3.358538107574943
1.135021929824569e-06,0.005115373920456617,3.410627867598061
1.145021929824571e-06,0.007119340522528328,3.343655318996936
1.155021929824566e-06,0.007787329389884856,3.403186473309017
1.165021929824567e-06,0.008121323823563727,3.384582987586502
1.175021929824569e-06,0.007119340522528024,3.351096713285926
1.18502192982457e-06,0.006451351655170281,3.410627867598035
1.195021929824565e-06,0.005115373920457224,3.35481741043046
1.205021929824567e-06,0.007453334956206592,3.373420896152977
1.215021929824568e-06,0.005115373920456617,3.380862290441993
1.22502192982457e-06,0.007453334956206592,3.351096713285926
1.235021929824565e-06,0.006451351655171344,3.40318647330902
1.245021929824566e-06,0.00611735722149232,3.354817410430434
1.255021929824568e-06,0.006785346088849456,3.377141593297485
1.26502192982457e-06,0.005783362787813752,3.38830368473101
1.275021929824571e-06,0.005115373920457832,3.34365531899694
1.285021929824566e-06,0.00778732938988516,3.410627867598061
1.295021929824568e-06,0.004113390619420913,3.362258804719451
1.305021929824569e-06,0.005449368354135184,3.38830368473101
1.315021929824571e-06,0.006117357221492169,3.384582987586487
1.325021929824566e-06,0.005783362787813904,3.351096713285941
1.335021929824567e-06,0.006451351655170888,3.410627867598061
1.345021929824569e-06,0.00611735722149232,3.351096713285926
1.35502192982457e-06,0.007119340522527265,3.384582987586504
1.365021929824565e-06,0.005449368354135944,3.388303684731008
1.375021929824567e-06,0.00611735722149232,3.362258804719451
1.385021929824568e-06,0.005783362787813752,3.421789959031586
1.39502192982457e-06,0.004113390619420913,3.36597950186396
1.405021929824565e-06,0.006451351655169825,3.403186473309027
1.415021929824566e-06,0.004781379486778049,3.373420896152977
1.425021929824568e-06,0.006785346088849456,3.351096713285926
1.43502192982457e-06,0.005783362787813752,3.421789959031586
1.445021929824571e-06,0.005449368354135184,3.354817410430453
1.455021929824566e-06,0.005449368354135184,3.395745079020027
1.465021929824568e-06,0.005783362787813752,3.406907170453553
1.475021929824569e-06,0.00611735722149232,3.351096713285926
1.485021929824571e-06,0.006451351655170585,3.406907170453536
1.495021929824566e-06,0.005783362787814056,3.369700199008485
1.505021929824567e-06,0.009123307124599432,3.406907170453553
1.515021929824569e-06,0.00611735722149232,3.38830368473101
1.525021929824571e-06,0.008121323823562968,3.343655318996944
1.535021929824565e-06,0.006451351655171647,3.421789959031551
1.545021929824567e-06,0.005449368354135184,3.358538107574943
1.555021929824569e-06,0.008121323823563727,3.399465776164535
1.56502192982457e-06,0.006785346088849456,3.392024381875518
1.575021929824565e-06,0.006785346088849456,3.347376016141438
1.585021929824567e-06,0.006451351655170888,3.43667274760962
1.595021929824568e-06,0.005449368354135184,3.347376016141417
1.60502192982457e-06,0.006785346088849456,3.377141593297485
1.615021929824571e-06,0.005783362787814207,3.395745079020007
1.625021929824566e-06,0.006785346088849456,3.351096713285926
1.635021929824568e-06,0.006785346088849456,3.418069261887078
1.645021929824569e-06,0.007453334956206592,3.351096713285926
1.655021929824571e-06,0.007119340522528024,3.395745079020021
1.665021929824566e-06,0.007119340522528024,3.380862290441993
1.675021929824567e-06,0.00611735722149232,3.373420896152977
1.685021929824569e-06,0.00778732938988516,3.410627867598061
1.695021929824571e-06,0.005449368354135944,3.373420896152985
1.705021929824565e-06,0.007119340522527265,3.39202438187551
1.715021929824567e-06,0.006785346088849456,3.392024381875518
1.725021929824569e-06,0.007119340522528024,3.369700199008468
1.73502192982457e-06,0.00778732938988516,3.395745079020027
1.745021929824565e-06,0.006451351655171496,3.358538107574959
1.755021929824567e-06,0.007453334956206592,3.392024381875518
1.765021929824568e-06,0.005783362787813752,3.373420896152977
1.77502192982457e-06,0.005783362787813752,3.36597950186396
1.785021929824565e-06,0.005783362787813752,3.403186473309027
1.795021929824566e-06,0.004447385053099481,3.377141593297485
1.805021929824568e-06,0.007119340522528024,3.384582987586502
1.815021929824569e-06,0.005449368354135184,3.373420896152977
1.825021929824571e-06,0.006451351655170433,3.343655318996938
1.835021929824566e-06,0.005449368354135184,3.406907170453553
1.845021929824567e-06,0.004781379486778049,3.343655318996909
1.855021929824569e-06,0.00778732938988516,3.392024381875518
1.865021929824571e-06,0.006117357221492472,3.380862290441976
1.875021929824565e-06,0.006451351655170736,3.343655318996926
1.885021929824567e-06,0.006785346088849456,3.41434856474257
1.895021929824569e-06,0.004781379486778049,3.347376016141417
1.90502192982457e-06,0.009457301558278,3.38830368473101
1.915021929824565e-06,0.006117357221493839,3.392024381875517
1.925021929824567e-06,0.006451351655170888,3.351096713285926
1.935021929824568e-06,0.007119340522528024,3.403186473309044
1.94502192982457e-06,0.006785346088849456,3.3399346218524
1.955021929824565e-06,0.007453334956206288,3.388303684730988
1.965021929824566e-06,0.007119340522528024,3.384582987586502
1.975021929824568e-06,0.004113390619420913,3.354817410430434
1.98502192982457e-06,0.008121323823563727,3.429231353320603
1.995021929824571e-06,0.005115373920457376,3.365979501863972
2.005021929824566e-06,0.006785346088849456,3.392024381875518
2.015021929824568e-06,0.008121323823563727,3.38830368473101
2.025021929824569e-06,0.006451351655170888,3.373420896152977
2.035021929824571e-06,0.007119340522527721,3.421789959031566
2.045021929824566e-06,0.006451351655171192,3.377141593297505
2.055021929824567e-06,0.008455318257242295,3.406907170453553
2.065021929824569e-06,0.00611735722149232,3.377141593297485
2.07502192982457e-06,0.006117357221492472,3.369700199008481
2.085021929824565e-06,0.006451351655170736,3.399465776164522
2.095021929824567e-06,0.006451351655170888,3.36597950186396
2.105021929824568e-06,0.006785346088849456,3.403186473309044
2.11502192982457e-06,0.00611735722149232,3.384582987586502
2.125021929824565e-06,0.005449368354135488,3.369700199008475
2.135021929824566e-06,0.005449368354135184,3.421789959031586
2.145021929824568e-06,0.00611735722149232,3.354817410430434
2.15502192982457e-06,0.005449368354135184,3.395745079020027
2.165021929824571e-06,0.004447385053099937,3.395745079020014
2.175021929824566e-06,0.005449368354135184,3.36597950186396
2.185021929824568e-06,0.004447385053099481,3.406907170453553
2.195021929824569e-06,0.005115373920456617,3.36597950186396
