traces_bank_current_trigger/benchmark_traces/matrix_mult_100MHz/mat_mult_5.csv

#Digilent WaveForms Oscilloscope Acquisition
#Device Name: Discovery2
#Serial Number: SN:210321B3D813
#Date Time: 2023-07-18 16:00:47.273
#Sample rate: 1e+08Hz
#Samples: 8192
#Trigger: Source: Channel 2 Type: Edge Condition: Rising Level: 2 V Hyst.: Auto HoldOff: 0 s
#Channel 1: Range: 10 mV/div Offset: 0 V Attenuation: 1 X Sample Mode: Average
#Channel 2: Range: 5 V/div Offset: 0 V Attenuation: 1 X Sample Mode: Average

Time (s),Channel 1 (V),Channel 2 (V)
-9.572902338376865e-07,0.008789312690920863,-0.02357559678323757
-9.472902338376849e-07,0.00778732938988516,0.02851416323988071
-9.372902338376833e-07,0.004781379486778809,0.002469283228316497
-9.272902338376885e-07,0.006451351655170129,-0.008692808205198698
-9.172902338376869e-07,0.00778732938988516,0.03595555752889761
-9.072902338376853e-07,0.00611735722149232,-0.03101699107225447
-8.972902338376837e-07,0.007453334956206592,0.03223486038438916
-8.872902338376889e-07,0.007119340522528176,-0.008692808205185164
-8.772902338376873e-07,0.006451351655170888,0.006189980372830022
-8.672902338376857e-07,0.005783362787813752,0.02107276895086382
-8.572902338376841e-07,0.00611735722149232,-0.008692808205203774
-8.472902338376825e-07,0.006451351655170585,0.0322348603843807
-8.372902338376877e-07,0.005783362787813752,0.01363137466184692
-8.272902338376861e-07,0.008121323823563727,0.00991067751733847
-8.172902338376845e-07,0.00611735722149232,0.02851416323988071
-8.072902338376829e-07,0.007119340522528176,-0.02729629392771556
-7.972902338376881e-07,0.00745333495620644,0.0396762546733756
-7.872902338376865e-07,0.00778732938988516,0.002469283228321573
-7.772902338376849e-07,0.008121323823563727,0.002469283228321573
-7.672902338376833e-07,0.007453334956205832,0.02479346609535366
-7.572902338376885e-07,0.005783362787814512,-0.01613420249420206
-7.472902338376869e-07,0.007453334956206592,0.02851416323988071
-7.372902338376853e-07,0.006451351655170888,-0.02357559678323757
-7.272902338376837e-07,0.008121323823563727,-0.001251413916186876
-7.172902338376888e-07,0.007787329389885311,0.01363137466184015
-7.072902338376872e-07,0.008121323823563727,-0.02357559678323757
-6.972902338376856e-07,0.008455318257242295,0.03595555752889761
-6.87290233837684e-07,0.006451351655170888,-0.004972111060695325
-6.772902338376824e-07,0.007453334956206137,0.02107276895087228
-6.672902338376876e-07,0.006451351655170888,0.03967625467340606
-6.57290233837686e-07,0.00611735722149232,-0.001251413916186876
-6.472902338376844e-07,0.00778732938988516,0.05083834610693141
-6.372902338376828e-07,0.006117357221492928,0.006189980372830022
-6.27290233837688e-07,0.007453334956205985,0.006189980372830022
-6.172902338376864e-07,0.006451351655170888,0.05083834610693141
-6.072902338376848e-07,0.006451351655170888,-0.01241350534971222
-5.972902338376832e-07,0.00745333495620644,0.02851416323986887
-5.872902338376884e-07,0.007119340522528176,0.002469283228333417
-5.772902338376868e-07,0.006451351655170888,0.01735207180635537
-5.672902338376852e-07,0.008121323823563727,0.03595555752889761
-5.572902338376836e-07,0.00778732938988516,0.002469283228321573
-5.472902338376888e-07,0.007119340522528328,0.02851416323986887
-5.372902338376872e-07,0.00778732938988516,-0.008692808205203774
-5.272902338376856e-07,0.007119340522528024,0.01363137466184692
-5.17290233837684e-07,0.007119340522528024,0.01735207180635537
-5.072902338376824e-07,0.007787329389884856,-0.03101699107222232
-4.972902338376876e-07,0.007119340522528024,0.03967625467340606
-4.87290233837686e-07,0.008455318257242295,-0.008692808205203774
-4.772902338376844e-07,0.008789312690920863,0.006189980372830022
-4.672902338376828e-07,0.007119340522527873,0.02479346609535535
-4.572902338376879e-07,0.006785346088849456,-0.01241350534971222
-4.472902338376863e-07,0.007453334956206592,0.04339695181791451
-4.372902338376847e-07,0.006451351655170888,0.002469283228321573
-4.272902338376831e-07,0.007453334956207199,0.009910677517340162
-4.172902338376883e-07,0.008789312690920256,0.01363137466184523
-4.072902338376867e-07,0.005449368354135184,-0.02729629392774602
-3.972902338376851e-07,0.006451351655170888,0.02107276895086382
-3.872902338376835e-07,0.005449368354135184,-0.001251413916186876
-3.772902338376887e-07,0.006785346088848848,0.009910677517333395
-3.672902338376871e-07,0.00778732938988516,0.01363137466184692
-3.572902338376855e-07,0.00778732938988516,-0.01241350534971222
-3.472902338376839e-07,0.007453334956206592,0.02851416323988071
-3.372902338376823e-07,0.006785346088849911,0.009910677517331703
-3.272902338376875e-07,0.00778732938988516,-0.004972111060695325
-3.172902338376859e-07,0.007119340522528024,0.03967625467340606
-3.072902338376843e-07,0.007453334956206592,-0.001251413916186876
-2.972902338376827e-07,0.008121323823563271,0.03223486038436547
-2.872902338376879e-07,0.007119340522528024,-0.01985489963872912
-2.772902338376863e-07,0.008121323823563727,0.00991067751733847
-2.672902338376847e-07,0.007453334956206592,0.03967625467340606
-2.572902338376831e-07,0.006451351655171495,-0.02729629392771556
-2.472902338376883e-07,0.007787329389884553,0.0396762546733756
-2.372902338376867e-07,0.007119340522528024,0.00991067751733847
-2.272902338376851e-07,0.007453334956206592,0.01363137466184692
-2.172902338376835e-07,0.007453334956206592,0.03595555752889761
-2.072902338376886e-07,0.006117357221492929,-0.001251413916169959
-1.97290233837687e-07,0.006451351655170888,0.03967625467340606
-1.872902338376854e-07,0.005115373920456617,-0.01241350534971222
-1.772902338376838e-07,0.00611735722149232,0.01735207180635537
-1.67290233837689e-07,0.007453334956205985,0.03595555752888915
-1.572902338376874e-07,0.00611735722149232,-0.004972111060695325
-1.472902338376858e-07,0.00611735722149232,0.05455904325143986
-1.372902338376842e-07,0.005115373920456617,0.00991067751733847
-1.272902338376826e-07,0.006451351655171648,-0.00497211106067333
-1.172902338376878e-07,0.008121323823563727,0.04339695181791451
-1.072902338376862e-07,0.00611735722149232,-0.004972111060695325
-9.729023383768461e-08,0.007453334956206592,0.05827974039594831
-8.729023383768301e-08,0.005783362787814359,0.002469283228321573
-7.729023383768819e-08,0.007119340522527417,0.002469283228321573
-6.729023383768659e-08,0.005449368354135184,0.03967625467340606
-5.729023383768499e-08,0.006451351655170888,-0.008692808205203774
-4.729023383768339e-08,0.006117357221491713,0.04711764896239758
-3.729023383768857e-08,0.004781379486778656,-0.008692808205178391
-2.729023383768697e-08,0.005115373920456617,0.02107276895086382
-1.729023383768537e-08,0.006785346088849456,0.05455904325143986
-7.290233837683774e-09,0.005449368354135184,0.02479346609537227
2.709766162311048e-09,-0.01425630323289136,2.729740290151784
1.270976616231265e-08,0.01546920136449222,3.511086690499789
2.270976616231424e-08,0.006785346088849456,3.135296278904436
3.270976616231584e-08,0.01580319579817079,3.343655318996909
4.270976616231744e-08,0.004781379486780783,3.302727650407324
5.270976616231226e-08,0.01079327929299227,3.321331136129858
6.270976616231386e-08,0.004447385053099481,3.38830368473101
7.270976616231546e-08,0.006451351655170888,3.31761043898535
8.270976616231706e-08,0.0001054574152808323,3.451555536187571
9.270976616231188e-08,0.006117357221489587,3.269241376106823
1.027097661623135e-07,-0.0005625314520790374,3.421789959031586
1.127097661623151e-07,0.007119340522528024,3.265520678962231
1.227097661623167e-07,0.004781379486779719,3.377141593297444
1.327097661623115e-07,0.008455318257240624,3.287844861829322
1.427097661623131e-07,0.007119340522528024,3.328772530418875
1.527097661623147e-07,0.01012529042563514,3.332493227563384
1.627097661623163e-07,0.005783362787813752,3.362258804719451
1.727097661623111e-07,0.008121323823562664,3.325051833274383
1.827097661623127e-07,0.004781379486778049,3.410627867598061
1.927097661623143e-07,0.004447385053099481,3.295286256118299
2.027097661623159e-07,0.002443418451028074,3.421789959031586
2.127097661623175e-07,0.005115373920456465,3.30272765040734
2.227097661623123e-07,0.004781379486778049,3.354817410430434
2.327097661623139e-07,0.00778732938988516,3.321331136129858
2.427097661623155e-07,0.006451351655170888,3.313889741840841
2.527097661623171e-07,0.01045928485931264,3.351096713285921
2.627097661623119e-07,0.008121323823564791,3.339934621852405
2.727097661623135e-07,0.009457301558278,3.336213924707892
2.827097661623151e-07,0.006451351655170888,3.395745079020027
2.927097661623167e-07,0.006451351655170281,3.31388974184088
3.027097661623116e-07,0.005115373920457224,3.399465776164496
3.127097661623132e-07,0.003445401752063777,3.325051833274367
3.227097661623148e-07,0.007119340522528024,3.351096713285926
3.327097661623164e-07,0.006785346088849456,3.354817410430434
3.427097661623112e-07,0.005783362787814207,3.321331136129873
3.527097661623128e-07,0.009123307124599432,3.369700199008468
3.627097661623144e-07,0.008455318257242295,3.343655318996909
3.72709766162316e-07,0.009791295991956567,3.332493227563384
3.827097661623176e-07,0.008121323823563727,3.373420896152948
3.927097661623124e-07,0.008121323823563727,3.310169044696333
4.02709766162314e-07,0.008455318257242295,3.392024381875518
4.127097661623156e-07,0.006451351655170888,3.347376016141417
4.227097661623172e-07,0.006785346088850671,3.351096713285936
4.32709766162312e-07,0.009457301558276784,3.373420896152966
4.427097661623136e-07,0.00778732938988516,3.328772530418875
4.527097661623152e-07,0.009123307124599432,3.36597950186396
4.627097661623168e-07,0.009123307124599736,3.343655318996914
4.727097661623116e-07,0.009791295991956264,3.354817410430429
4.827097661623132e-07,0.008455318257242295,3.399465776164535
4.927097661623148e-07,0.008121323823563727,3.351096713285926
5.027097661623164e-07,0.008455318257242295,3.392024381875518
5.127097661623112e-07,0.0064513516551718,3.365979501863972
5.227097661623128e-07,0.006451351655170888,3.377141593297485
5.327097661623144e-07,0.005115373920456617,3.373420896152977
5.42709766162316e-07,0.006785346088849456,3.351096713285926
5.527097661623176e-07,0.008121323823564184,3.377141593297481
5.627097661623125e-07,0.009123307124599432,3.369700199008468
5.727097661623141e-07,0.01012529042563514,3.358538107574943
5.827097661623157e-07,0.009791295991956567,3.395745079020027
5.927097661623173e-07,0.00979129599195596,3.347376016141443
6.027097661623121e-07,0.008455318257242295,3.403186473309044
6.127097661623137e-07,0.006785346088849456,3.36597950186396
6.227097661623153e-07,0.007453334956206592,3.38830368473101
6.327097661623169e-07,0.006117357221493384,3.380862290441975
6.427097661623117e-07,0.008455318257241232,3.339934621852419
6.527097661623133e-07,0.008789312690920863,3.384582987586502
6.627097661623149e-07,0.008455318257242295,3.354817410430434
6.727097661623165e-07,0.01012529042563514,3.354817410430434
6.827097661623113e-07,0.007787329389886223,3.406907170453529
6.927097661623129e-07,0.005449368354135184,3.358538107574943
7.027097661623145e-07,0.005449368354135184,3.41434856474257
7.127097661623161e-07,0.005115373920456617,3.369700199008468
7.227097661623177e-07,0.005115373920457072,3.380862290441998
7.327097661623125e-07,0.00611735722149232,3.392024381875518
7.427097661623141e-07,0.007119340522528024,3.336213924707892
7.527097661623157e-07,0.006451351655170888,3.373420896152977
7.627097661623173e-07,0.006117357221492776,3.354817410430436
7.727097661623121e-07,0.007119340522528024,3.358538107574943
7.827097661623137e-07,0.007453334956206592,3.395745079020027
7.927097661623153e-07,0.00778732938988516,3.358538107574943
8.027097661623169e-07,0.006117357221492472,3.403186473309027
8.127097661623118e-07,0.006451351655170736,3.365979501863976
8.227097661623134e-07,0.006451351655170888,3.36597950186396
8.32709766162315e-07,0.006785346088849456,3.392024381875518
8.427097661623166e-07,0.006785346088849456,3.332493227563384
8.527097661623114e-07,0.007787329389884704,3.392024381875491
8.62709766162313e-07,0.007453334956206592,3.347376016141417
8.727097661623146e-07,0.008455318257242295,3.351096713285926
8.827097661623162e-07,0.00778732938988516,3.38830368473101
8.92709766162311e-07,0.006117357221493079,3.343655318996929
9.027097661623126e-07,0.007453334956206592,3.410627867598061
9.127097661623142e-07,0.007453334956206592,3.369700199008468
9.227097661623158e-07,0.007119340522528024,3.384582987586502
9.327097661623174e-07,0.006785346088849,3.399465776164515
9.427097661623122e-07,0.005783362787813752,3.354817410430434
9.527097661623138e-07,0.00778732938988516,3.421789959031586
9.627097661623154e-07,0.007453334956206592,3.36597950186396
9.72709766162317e-07,0.008455318257243358,3.377141593297502
9.827097661623118e-07,0.01079327929299121,3.414348564742553
9.927097661623134e-07,0.008121323823563727,3.362258804719451
1.002709766162315e-06,0.009791295991956567,3.421789959031586
1.012709766162317e-06,0.008789312690920256,3.380862290441995
1.022709766162311e-06,0.007453334956207199,3.3845829875865
1.032709766162313e-06,0.008455318257242295,3.403186473309044
1.042709766162315e-06,0.007119340522528024,3.354817410430434
1.052709766162316e-06,0.008121323823563727,3.421789959031586
1.062709766162311e-06,0.007453334956206896,3.399465776164546
1.072709766162313e-06,0.007453334956206592,3.380862290441993
1.082709766162314e-06,0.005783362787813752,3.418069261887078
1.092709766162316e-06,0.006785346088849456,3.36597950186396
1.102709766162317e-06,0.006451351655171192,3.403186473309029
1.112709766162312e-06,0.007119340522528024,3.369700199008468
1.122709766162314e-06,0.008789312690920863,3.358538107574943
1.132709766162315e-06,0.006785346088849456,3.399465776164535
1.142709766162317e-06,0.007453334956207047,3.354817410430458
1.152709766162312e-06,0.008455318257241839,3.406907170453529
1.162709766162313e-06,0.006785346088849456,3.369700199008468
1.172709766162315e-06,0.00778732938988516,3.377141593297485
1.182709766162317e-06,0.006117357221493232,3.403186473309027
1.192709766162312e-06,0.008121323823562817,3.365979501863976
1.202709766162313e-06,0.006451351655170888,3.410627867598061
1.212709766162315e-06,0.008121323823563727,3.354817410430434
1.222709766162316e-06,0.008121323823563727,3.373420896152977
1.232709766162311e-06,0.005783362787814815,3.395745079020017
1.242709766162313e-06,0.006451351655170888,3.351096713285926
1.252709766162314e-06,0.006451351655170888,3.403186473309044
1.262709766162316e-06,0.007453334956206592,3.362258804719451
1.272709766162318e-06,0.006785346088849608,3.373420896152992
1.282709766162312e-06,0.007119340522528024,3.406907170453553
1.292709766162314e-06,0.006451351655170888,3.336213924707892
1.302709766162316e-06,0.007119340522528024,3.41434856474257
1.312709766162317e-06,0.006451351655171648,3.347376016141431
1.322709766162312e-06,0.008121323823562968,3.377141593297472
1.332709766162314e-06,0.007453334956206592,3.392024381875518
1.342709766162315e-06,0.005449368354135184,3.351096713285926
1.352709766162317e-06,0.007119340522527113,3.410627867598046
1.362709766162312e-06,0.005115373920457527,3.3771415932975
1.372709766162313e-06,0.00778732938988516,3.38830368473101
1.382709766162315e-06,0.005449368354135184,3.410627867598061
1.392709766162316e-06,0.006451351655170888,3.369700199008468
1.402709766162311e-06,0.007453334956206137,3.429231353320576
1.412709766162313e-06,0.006451351655170888,3.351096713285926
1.422709766162314e-06,0.00611735722149232,3.395745079020027
1.432709766162316e-06,0.006785346088849456,3.425510656176095
1.442709766162318e-06,0.006451351655171495,3.343655318996943
1.452709766162312e-06,0.00778732938988516,3.418069261887078
1.462709766162314e-06,0.007453334956206592,3.380862290441993
1.472709766162316e-06,0.009791295991956567,3.377141593297485
1.482709766162317e-06,0.006785346088849304,3.395745079020009
1.492709766162312e-06,0.00645135165517104,3.354817410430453
1.502709766162314e-06,0.007453334956206592,3.429231353320603
1.512709766162315e-06,0.007453334956206592,3.369700199008468
1.522709766162317e-06,0.00812132382356312,3.388303684731012
1.532709766162312e-06,0.006785346088850064,3.392024381875517
1.542709766162313e-06,0.005783362787813752,3.343655318996909
1.552709766162315e-06,0.006785346088849456,3.410627867598061
1.562709766162316e-06,0.00611735722149232,3.354817410430434
1.572709766162311e-06,0.006785346088849152,3.395745079020009
1.582709766162313e-06,0.006451351655170888,3.41434856474257
1.592709766162314e-06,0.006451351655170888,3.369700199008468
1.602709766162316e-06,0.006785346088849456,3.410627867598061
1.612709766162318e-06,0.005449368354135944,3.380862290441993
1.622709766162312e-06,0.007119340522528024,3.380862290441993
1.632709766162314e-06,0.00611735722149232,3.418069261887078
1.642709766162316e-06,0.00611735722149232,3.362258804719451
1.652709766162317e-06,0.007453334956206288,3.414348564742553
1.662709766162312e-06,0.006785346088849456,3.377141593297485
1.672709766162314e-06,0.006785346088849456,3.380862290441993
1.682709766162315e-06,0.006785346088849456,3.403186473309044
1.692709766162317e-06,0.007787329389885463,3.365979501863987
1.702709766162312e-06,0.008455318257241991,3.425510656176068
1.712709766162313e-06,0.00611735722149232,3.384582987586502
1.722709766162315e-06,0.00778732938988516,3.403186473309044
1.732709766162317e-06,0.008121323823563727,3.395745079020027
1.742709766162311e-06,0.006451351655171647,3.339934621852426
1.752709766162313e-06,0.006785346088849456,3.399465776164535
1.762709766162315e-06,0.007119340522528024,3.377141593297485
1.772709766162316e-06,0.006785346088849456,3.380862290441993
1.782709766162311e-06,0.006117357221492624,3.406907170453541
1.792709766162313e-06,0.006451351655170888,3.358538107574943
1.802709766162314e-06,0.005449368354135184,3.41434856474257
1.812709766162316e-06,0.006451351655170888,3.358538107574943
1.822709766162317e-06,0.006117357221492169,3.388303684731022
1.832709766162312e-06,0.005783362787813752,3.41434856474257
1.842709766162314e-06,0.006785346088849456,3.373420896152977
1.852709766162315e-06,0.006785346088849456,3.41434856474257
1.862709766162317e-06,0.005783362787814815,3.358538107574949
1.872709766162312e-06,0.008121323823562664,3.37342089615297
1.882709766162313e-06,0.005783362787813752,3.395745079020027
1.892709766162315e-06,0.007119340522528024,3.354817410430434
1.902709766162317e-06,0.00611735722149232,3.41434856474257
1.912709766162311e-06,0.006451351655170736,3.358538107574968
1.922709766162313e-06,0.005783362787813752,3.369700199008468
1.932709766162315e-06,0.006451351655170888,3.38830368473101
1.942709766162316e-06,0.005783362787813752,3.362258804719451
1.952709766162311e-06,0.006451351655170585,3.414348564742546
1.962709766162313e-06,0.006451351655170888,3.36597950186396
1.972709766162314e-06,0.008121323823563727,3.384582987586502
1.982709766162316e-06,0.008121323823563727,3.392024381875518
1.992709766162317e-06,0.007453334956206896,3.339934621852432
2.002709766162312e-06,0.008121323823563727,3.410627867598061
2.012709766162314e-06,0.00778732938988516,3.351096713285926
2.022709766162315e-06,0.008121323823563727,3.38830368473101
2.032709766162317e-06,0.009457301558277696,3.403186473309017
2.042709766162312e-06,0.008789312690921166,3.343655318996936
2.052709766162313e-06,0.008789312690920863,3.399465776164535
2.062709766162315e-06,0.008121323823563727,3.354817410430434
2.072709766162317e-06,0.008789312690919952,3.369700199008483
2.082709766162311e-06,0.006785346088850367,3.403186473309029
2.092709766162313e-06,0.00778732938988516,3.354817410430434
2.102709766162315e-06,0.008789312690920863,3.418069261887078
2.112709766162316e-06,0.006785346088849456,3.369700199008468
2.122709766162311e-06,0.007119340522527873,3.365979501863961
2.132709766162313e-06,0.005783362787813752,3.380862290441993
2.142709766162314e-06,0.007453334956206592,3.354817410430434
2.152709766162316e-06,0.006785346088849456,3.41434856474257
2.162709766162317e-06,0.007453334956205985,3.347376016141432
2.172709766162312e-06,0.00611735722149232,3.380862290441993
2.182709766162314e-06,0.007119340522528024,3.380862290441993
2.192709766162315e-06,0.00611735722149232,3.347376016141417
